word	score	*[+continuant,+voice,-anterior]	*[+sonorant,+dorsal]	*[-word_boundary][+continuant]	*[-word_boundary][+voice]	*[-continuant][-approximant]	*[+voice][-approximant]	*[-strident][+consonantal]	*[+sonorant][-word_boundary]	*[-word_boundary][+strident]	*[+labial][-approximant]	*[+labial][+labial]	*[-anterior][+consonantal]	*[-anterior][+labial]	*[+voice,+coronal][+consonantal]	*[+continuant,+voice][-word_boundary]	*[+voice,+strident][-word_boundary]	*[+labial][+high]	*[-anterior][+high]	*[-continuant,-anterior][-word_boundary]	*[+anterior,+strident][-anterior]	annotation
word	score	default	default	default	default	default	default	default	default	default	default	default	default	default	default	default	default	default	default	default	default	annotation
word	score	4.789	5.494	7.002	6.744	6.859	1.312	6.62	8.261	4.474	6.104	1.551	6.222	1.432	0.654	5.916	1.587	5.766	4.63	4.611	4.453	annotation
G R 	0	0	0	0	0	0	0	0	0	0	0	0	0	0	0	0	0	0	0	0	0	
K R 	0	0	0	0	0	0	0	0	0	0	0	0	0	0	0	0	0	0	0	0	0	
S T 	0	0	0	0	0	0	0	0	0	0	0	0	0	0	0	0	0	0	0	0	0	
S M 	0	0	0	0	0	0	0	0	0	0	0	0	0	0	0	0	0	0	0	0	0	
P R 	0	0	0	0	0	0	0	0	0	0	0	0	0	0	0	0	0	0	0	0	0	
S L 	0	0	0	0	0	0	0	0	0	0	0	0	0	0	0	0	0	0	0	0	0	
F L 	0	0	0	0	0	0	0	0	0	0	0	0	0	0	0	0	0	0	0	0	0	
B L 	0	0	0	0	0	0	0	0	0	0	0	0	0	0	0	0	0	0	0	0	0	
D R 	0	0	0	0	0	0	0	0	0	0	0	0	0	0	0	0	0	0	0	0	0	
T R 	0	0	0	0	0	0	0	0	0	0	0	0	0	0	0	0	0	0	0	0	0	
F R 	0	0	0	0	0	0	0	0	0	0	0	0	0	0	0	0	0	0	0	0	0	
S P 	0	0	0	0	0	0	0	0	0	0	0	0	0	0	0	0	0	0	0	0	0	
S N 	0	0	0	0	0	0	0	0	0	0	0	0	0	0	0	0	0	0	0	0	0	
S P 	0	0	0	0	0	0	0	0	0	0	0	0	0	0	0	0	0	0	0	0	0	
SH R 	0	0	0	0	0	0	0	0	0	0	0	0	0	0	0	0	0	0	0	0	0	
G L 	0	0	0	0	0	0	0	0	0	0	0	0	0	0	0	0	0	0	0	0	0	
M R 	8.261	0	0	0	0	0	0	0	1	0	0	0	0	0	0	0	0	0	0	0	0	
SH L 	6.222	0	0	0	0	0	0	0	0	0	0	0	1	0	0	0	0	0	0	0	0	
S K 	0	0	0	0	0	0	0	0	0	0	0	0	0	0	0	0	0	0	0	0	0	
V R 	5.916	0	0	0	0	0	0	0	0	0	0	0	0	0	0	1	0	0	0	0	0	
S R 	4.453	0	0	0	0	0	0	0	0	0	0	0	0	0	0	0	0	0	0	0	1	
V L 	5.916	0	0	0	0	0	0	0	0	0	0	0	0	0	0	1	0	0	0	0	0	
M L 	8.261	0	0	0	0	0	0	0	1	0	0	0	0	0	0	0	0	0	0	0	0	
SH T 	6.222	0	0	0	0	0	0	0	0	0	0	0	1	0	0	0	0	0	0	0	0	
F P 	7.654	0	0	0	0	0	0	0	0	0	1	1	0	0	0	0	0	0	0	0	0	
ZH R 	12.292	1	0	0	0	0	0	0	0	0	0	0	0	0	0	1	1	0	0	0	0	
F SH 	17.58	0	0	1	0	0	0	0	0	1	1	0	0	0	0	0	0	0	0	0	0	
SH N 	6.222	0	0	0	0	0	0	0	0	0	0	0	1	0	0	0	0	0	0	0	0	
F T 	6.104	0	0	0	0	0	0	0	0	0	1	0	0	0	0	0	0	0	0	0	0	
Z R 	11.955	0	0	0	0	0	0	0	0	0	0	0	0	0	0	1	1	0	0	0	1	
N R 	8.261	0	0	0	0	0	0	0	1	0	0	0	0	0	0	0	0	0	0	0	0	
SH M 	7.654	0	0	0	0	0	0	0	0	0	0	0	1	1	0	0	0	0	0	0	0	
S F 	7.002	0	0	1	0	0	0	0	0	0	0	0	0	0	0	0	0	0	0	0	0	
Z L 	8.156	0	0	0	0	0	0	0	0	0	0	0	0	0	1	1	1	0	0	0	0	
Z T 	9.468	0	0	0	0	0	1	0	0	0	0	0	0	0	1	1	1	0	0	0	0	
F S 	17.58	0	0	1	0	0	0	0	0	1	1	0	0	0	0	0	0	0	0	0	0	
V Z 	31.551	0	0	1	1	0	1	0	0	1	1	0	0	0	0	1	0	0	0	0	0	
V Z 	31.551	0	0	1	1	0	1	0	0	1	1	0	0	0	0	1	0	0	0	0	0	
ZH L 	19.167	1	0	0	0	0	0	0	0	0	0	0	1	0	1	1	1	0	0	0	0	
SH F 	14.656	0	0	1	0	0	0	0	0	0	0	0	1	1	0	0	0	0	0	0	0	
Z N 	9.468	0	0	0	0	0	1	0	0	0	0	0	0	0	1	1	1	0	0	0	0	
F N 	6.104	0	0	0	0	0	0	0	0	0	1	0	0	0	0	0	0	0	0	0	0	
F K 	6.104	0	0	0	0	0	0	0	0	0	1	0	0	0	0	0	0	0	0	0	0	
V T 	13.331	0	0	0	0	0	1	0	0	0	1	0	0	0	0	1	0	0	0	0	0	
Z V 	23.214	0	0	1	1	0	1	0	0	0	0	0	0	0	1	1	1	0	0	0	0	
Z M 	9.468	0	0	0	0	0	1	0	0	0	0	0	0	0	1	1	1	0	0	0	0	
ZH M 	21.911	1	0	0	0	0	1	0	0	0	0	0	1	1	1	1	1	0	0	0	0	
F M 	7.654	0	0	0	0	0	0	0	0	0	1	1	0	0	0	0	0	0	0	0	0	
SH P 	7.654	0	0	0	0	0	0	0	0	0	0	0	1	1	0	0	0	0	0	0	0	
V M 	14.882	0	0	0	0	0	1	0	0	0	1	1	0	0	0	1	0	0	0	0	0	
V N 	13.331	0	0	0	0	0	1	0	0	0	1	0	0	0	0	1	0	0	0	0	0	
SH K 	6.222	0	0	0	0	0	0	0	0	0	0	0	1	0	0	0	0	0	0	0	0	
Z P 	9.468	0	0	0	0	0	1	0	0	0	0	0	0	0	1	1	1	0	0	0	0	
ZH P 	21.911	1	0	0	0	0	1	0	0	0	0	0	1	1	1	1	1	0	0	0	0	
ZH T 	20.479	1	0	0	0	0	1	0	0	0	0	0	1	0	1	1	1	0	0	0	0	
ZH K 	20.479	1	0	0	0	0	1	0	0	0	0	0	1	0	1	1	1	0	0	0	0	
ZH N 	20.479	1	0	0	0	0	1	0	0	0	0	0	1	0	1	1	1	0	0	0	0	
Z K 	9.468	0	0	0	0	0	1	0	0	0	0	0	0	0	1	1	1	0	0	0	0	
V P 	14.882	0	0	0	0	0	1	0	0	0	1	1	0	0	0	1	0	0	0	0	0	
V K 	13.331	0	0	0	0	0	1	0	0	0	1	0	0	0	0	1	0	0	0	0	0	
ZH V 	35.657	1	0	1	1	0	1	0	0	0	0	0	1	1	1	1	1	0	0	0	0	
