word	score	*[+sonorant]	*[-anterior]	*[+dorsal]	*[+continuant,-strident]	*[+spread]	*[+continuant][-continuant]	*[-voice][+voice]	*[+voice][-voice]	*[-continuant][+continuant]	*[+labial][-voice,+strident]	*[-voice,+strident][+labial]	annotation
word	score	default	default	default	default	default	default	default	default	default	default	default	annotation
word	score	5.21	3.802	3.438	3.44	2.921	3.339	3.339	3.339	3.339	1.937	1.937	annotation
b d 	0	0	0	0	0	0	0	0	0	0	0	0	OldTestStimuli
f s 	1.937	0	0	0	0	0	0	0	0	0	1	0	NewConsTestStimuli
v s 	5.276	0	0	0	0	0	0	0	1	0	1	0	StopControls
s t 	3.339	0	0	0	0	0	1	0	0	0	0	0	VoicingControls
v d 	3.339	0	0	0	0	0	1	0	0	0	0	0	VoicingControls
v z 	0	0	0	0	0	0	0	0	0	0	0	0	OldTestStimuli
p z 	6.678	0	0	0	0	0	0	1	0	1	0	0	NoPatternControls
v d 	3.339	0	0	0	0	0	1	0	0	0	0	0	VoicingControls
d b 	0	0	0	0	0	0	0	0	0	0	0	0	OldTestStimuli
s b 	8.615	0	0	0	0	0	1	1	0	0	0	1	NoPatternControls
b v 	3.339	0	0	0	0	0	0	0	0	1	0	0	VoicingControls
s v 	5.276	0	0	0	0	0	0	1	0	0	0	1	StopControls
f s 	1.937	0	0	0	0	0	0	0	0	0	1	0	NewConsTestStimuli
z z 	0	0	0	0	0	0	0	0	0	0	0	0	NewWordTestStimuli
z z 	0	0	0	0	0	0	0	0	0	0	0	0	NewWordTestStimuli
b d 	0	0	0	0	0	0	0	0	0	0	0	0	OldTestStimuli
f t 	3.339	0	0	0	0	0	1	0	0	0	0	0	VoicingControls
p f 	3.339	0	0	0	0	0	0	0	0	1	0	0	VoicingControls
b p 	3.339	0	0	0	0	0	0	0	1	0	0	0	StopControls
p t 	0	0	0	0	0	0	0	0	0	0	0	0	OldTestStimuli
f f 	0	0	0	0	0	0	0	0	0	0	0	0	OldTestStimuli
s f 	1.937	0	0	0	0	0	0	0	0	0	0	1	NewConsTestStimuli
v f 	3.339	0	0	0	0	0	0	0	1	0	0	0	StopControls
p z 	6.678	0	0	0	0	0	0	1	0	1	0	0	NoPatternControls
v t 	6.678	0	0	0	0	0	1	0	1	0	0	0	NoPatternControls
v z 	0	0	0	0	0	0	0	0	0	0	0	0	NewWordTestStimuli
s f 	1.937	0	0	0	0	0	0	0	0	0	0	1	NewConsTestStimuli
s f 	1.937	0	0	0	0	0	0	0	0	0	0	1	NewConsTestStimuli
s f 	1.937	0	0	0	0	0	0	0	0	0	0	1	NewConsTestStimuli
z v 	0	0	0	0	0	0	0	0	0	0	0	0	OldTestStimuli
z v 	0	0	0	0	0	0	0	0	0	0	0	0	NewWordTestStimuli
v v 	0	0	0	0	0	0	0	0	0	0	0	0	NewWordTestStimuli
s p 	5.276	0	0	0	0	0	1	0	0	0	0	1	VoicingControls
p s 	5.276	0	0	0	0	0	0	0	0	1	1	0	VoicingControls
f v 	3.339	0	0	0	0	0	0	1	0	0	0	0	StopControls
p t 	0	0	0	0	0	0	0	0	0	0	0	0	OldTestStimuli
z s 	3.339	0	0	0	0	0	0	0	1	0	0	0	StopControls
s f 	1.937	0	0	0	0	0	0	0	0	0	0	1	NewConsTestStimuli
f f 	0	0	0	0	0	0	0	0	0	0	0	0	NewWordTestStimuli
z t 	6.678	0	0	0	0	0	1	0	1	0	0	0	NoPatternControls
s d 	6.678	0	0	0	0	0	1	1	0	0	0	0	NoPatternControls
s f 	1.937	0	0	0	0	0	0	0	0	0	0	1	NewConsTestStimuli
b b 	0	0	0	0	0	0	0	0	0	0	0	0	OldTestStimuli
b s 	8.615	0	0	0	0	0	0	0	1	1	1	0	NoPatternControls
s v 	5.276	0	0	0	0	0	0	1	0	0	0	1	StopControls
f b 	6.678	0	0	0	0	0	1	1	0	0	0	0	NoPatternControls
d d 	0	0	0	0	0	0	0	0	0	0	0	0	NewWordTestStimuli
b b 	0	0	0	0	0	0	0	0	0	0	0	0	NewWordTestStimuli
v s 	5.276	0	0	0	0	0	0	0	1	0	1	0	StopControls
t p 	0	0	0	0	0	0	0	0	0	0	0	0	NewWordTestStimuli
z d 	3.339	0	0	0	0	0	1	0	0	0	0	0	VoicingControls
v t 	6.678	0	0	0	0	0	1	0	1	0	0	0	NoPatternControls
f s 	1.937	0	0	0	0	0	0	0	0	0	1	0	NewConsTestStimuli
p d 	3.339	0	0	0	0	0	0	1	0	0	0	0	StopControls
v b 	3.339	0	0	0	0	0	1	0	0	0	0	0	VoicingControls
p t 	0	0	0	0	0	0	0	0	0	0	0	0	NewWordTestStimuli
v v 	0	0	0	0	0	0	0	0	0	0	0	0	OldTestStimuli
p b 	3.339	0	0	0	0	0	0	1	0	0	0	0	StopControls
v t 	6.678	0	0	0	0	0	1	0	1	0	0	0	NoPatternControls
f s 	1.937	0	0	0	0	0	0	0	0	0	1	0	NewConsTestStimuli
