word	score	*[+continuant,+voice,-anterior]	*[+sonorant,+dorsal]	*[-word_boundary][+continuant]	*[-word_boundary][+voice]	*[-continuant][-approximant]	*[+voice][-approximant]	*[-strident][+consonantal]	*[+sonorant][-word_boundary]	*[-word_boundary][+strident]	*[+labial][-approximant]	*[+labial][+labial]	*[-anterior][+consonantal]	*[-anterior][+labial]	*[+continuant,+voice][-word_boundary]	*[+voice,+strident][-word_boundary]	*[+labial][+high]	*[-anterior][+high]	*[-word_boundary][-back]	*[-continuant,-anterior][-word_boundary]	*[+spread][+consonantal]	annotation
word	score	default	default	default	default	default	default	default	default	default	default	default	default	default	default	default	default	default	default	default	default	annotation
word	score	5.351	5.506	5.29	5.324	5.924	1.39	5.94	6.872	4.045	5.255	2.818	5.429	2.392	5.315	1.649	2.789	2.247	5.713	4.159	5.72	annotation
G R 	0	0	0	0	0	0	0	0	0	0	0	0	0	0	0	0	0	0	0	0	0	
K R 	0	0	0	0	0	0	0	0	0	0	0	0	0	0	0	0	0	0	0	0	0	
S T 	0	0	0	0	0	0	0	0	0	0	0	0	0	0	0	0	0	0	0	0	0	
S M 	0	0	0	0	0	0	0	0	0	0	0	0	0	0	0	0	0	0	0	0	0	
P R 	0	0	0	0	0	0	0	0	0	0	0	0	0	0	0	0	0	0	0	0	0	
S L 	0	0	0	0	0	0	0	0	0	0	0	0	0	0	0	0	0	0	0	0	0	
F L 	0	0	0	0	0	0	0	0	0	0	0	0	0	0	0	0	0	0	0	0	0	
B L 	0	0	0	0	0	0	0	0	0	0	0	0	0	0	0	0	0	0	0	0	0	
D R 	0	0	0	0	0	0	0	0	0	0	0	0	0	0	0	0	0	0	0	0	0	
T R 	0	0	0	0	0	0	0	0	0	0	0	0	0	0	0	0	0	0	0	0	0	
F R 	0	0	0	0	0	0	0	0	0	0	0	0	0	0	0	0	0	0	0	0	0	
S P 	0	0	0	0	0	0	0	0	0	0	0	0	0	0	0	0	0	0	0	0	0	
S N 	0	0	0	0	0	0	0	0	0	0	0	0	0	0	0	0	0	0	0	0	0	
S P 	0	0	0	0	0	0	0	0	0	0	0	0	0	0	0	0	0	0	0	0	0	
SH R 	0	0	0	0	0	0	0	0	0	0	0	0	0	0	0	0	0	0	0	0	0	
G L 	0	0	0	0	0	0	0	0	0	0	0	0	0	0	0	0	0	0	0	0	0	
M R 	6.872	0	0	0	0	0	0	0	1	0	0	0	0	0	0	0	0	0	0	0	0	
SH L 	5.429	0	0	0	0	0	0	0	0	0	0	0	1	0	0	0	0	0	0	0	0	
S K 	0	0	0	0	0	0	0	0	0	0	0	0	0	0	0	0	0	0	0	0	0	
V R 	5.315	0	0	0	0	0	0	0	0	0	0	0	0	0	1	0	0	0	0	0	0	
S R 	0	0	0	0	0	0	0	0	0	0	0	0	0	0	0	0	0	0	0	0	0	
V L 	5.315	0	0	0	0	0	0	0	0	0	0	0	0	0	1	0	0	0	0	0	0	
M L 	6.872	0	0	0	0	0	0	0	1	0	0	0	0	0	0	0	0	0	0	0	0	
SH T 	5.429	0	0	0	0	0	0	0	0	0	0	0	1	0	0	0	0	0	0	0	0	
F P 	8.073	0	0	0	0	0	0	0	0	0	1	1	0	0	0	0	0	0	0	0	0	
ZH R 	12.316	1	0	0	0	0	0	0	0	0	0	0	0	0	1	1	0	0	0	0	0	
F SH 	14.59	0	0	1	0	0	0	0	0	1	1	0	0	0	0	0	0	0	0	0	0	
SH N 	5.429	0	0	0	0	0	0	0	0	0	0	0	1	0	0	0	0	0	0	0	0	
F T 	5.255	0	0	0	0	0	0	0	0	0	1	0	0	0	0	0	0	0	0	0	0	
Z R 	6.965	0	0	0	0	0	0	0	0	0	0	0	0	0	1	1	0	0	0	0	0	
N R 	6.872	0	0	0	0	0	0	0	1	0	0	0	0	0	0	0	0	0	0	0	0	
SH M 	7.822	0	0	0	0	0	0	0	0	0	0	0	1	1	0	0	0	0	0	0	0	
S F 	5.29	0	0	1	0	0	0	0	0	0	0	0	0	0	0	0	0	0	0	0	0	
Z L 	6.965	0	0	0	0	0	0	0	0	0	0	0	0	0	1	1	0	0	0	0	0	
Z T 	8.355	0	0	0	0	0	1	0	0	0	0	0	0	0	1	1	0	0	0	0	0	
F S 	14.59	0	0	1	0	0	0	0	0	1	1	0	0	0	0	0	0	0	0	0	0	
V Z 	26.619	0	0	1	1	0	1	0	0	1	1	0	0	0	1	0	0	0	0	0	0	
V Z 	26.619	0	0	1	1	0	1	0	0	1	1	0	0	0	1	0	0	0	0	0	0	
ZH L 	17.745	1	0	0	0	0	0	0	0	0	0	0	1	0	1	1	0	0	0	0	0	
SH F 	13.112	0	0	1	0	0	0	0	0	0	0	0	1	1	0	0	0	0	0	0	0	
Z N 	8.355	0	0	0	0	0	1	0	0	0	0	0	0	0	1	1	0	0	0	0	0	
F N 	5.255	0	0	0	0	0	0	0	0	0	1	0	0	0	0	0	0	0	0	0	0	
F K 	5.255	0	0	0	0	0	0	0	0	0	1	0	0	0	0	0	0	0	0	0	0	
V T 	11.96	0	0	0	0	0	1	0	0	0	1	0	0	0	1	0	0	0	0	0	0	
Z V 	18.969	0	0	1	1	0	1	0	0	0	0	0	0	0	1	1	0	0	0	0	0	
Z M 	8.355	0	0	0	0	0	1	0	0	0	0	0	0	0	1	1	0	0	0	0	0	
ZH M 	21.528	1	0	0	0	0	1	0	0	0	0	0	1	1	1	1	0	0	0	0	0	
F M 	8.073	0	0	0	0	0	0	0	0	0	1	1	0	0	0	0	0	0	0	0	0	
SH P 	7.822	0	0	0	0	0	0	0	0	0	0	0	1	1	0	0	0	0	0	0	0	
V M 	14.779	0	0	0	0	0	1	0	0	0	1	1	0	0	1	0	0	0	0	0	0	
V N 	11.96	0	0	0	0	0	1	0	0	0	1	0	0	0	1	0	0	0	0	0	0	
SH K 	5.429	0	0	0	0	0	0	0	0	0	0	0	1	0	0	0	0	0	0	0	0	
Z P 	8.355	0	0	0	0	0	1	0	0	0	0	0	0	0	1	1	0	0	0	0	0	
ZH P 	21.528	1	0	0	0	0	1	0	0	0	0	0	1	1	1	1	0	0	0	0	0	
ZH T 	19.136	1	0	0	0	0	1	0	0	0	0	0	1	0	1	1	0	0	0	0	0	
ZH K 	19.136	1	0	0	0	0	1	0	0	0	0	0	1	0	1	1	0	0	0	0	0	
ZH N 	19.136	1	0	0	0	0	1	0	0	0	0	0	1	0	1	1	0	0	0	0	0	
Z K 	8.355	0	0	0	0	0	1	0	0	0	0	0	0	0	1	1	0	0	0	0	0	
V P 	14.779	0	0	0	0	0	1	0	0	0	1	1	0	0	1	0	0	0	0	0	0	
V K 	11.96	0	0	0	0	0	1	0	0	0	1	0	0	0	1	0	0	0	0	0	0	
ZH V 	32.143	1	0	1	1	0	1	0	0	0	0	0	1	1	1	1	0	0	0	0	0	
