*[+wb][+Realsyl]
*[-Realsyl][+wb]
*[][-Realsyl]
*[-Realsyl][+Strong]
*[+Strong][+Strong]
*[-Strong][-Strong]
*[+Rise][+wb]
*[+Fall][+wb]
*[+Rise][-Accent]
*[+Accent,-Fall][-Accent]
*[-Accent,-Rise][+Accent]
*[+Accent,-J2][+Accent]
