consent_space1.keys,consent_space1.rt,consent_space2.keys,consent_space2.rt,consent_space3.keys,consent_space3.rt,consent_space4.keys,consent_space4.rt,ConsentResponse.keys,ConsentResponse.rt,key_resp.keys,key_resp.rt,materials_key_resp.keys,materials_key_resp.rt,key_resp_2.keys,key_resp_2.rt,intro_key_resp_2.keys,intro_key_resp_2.rt,practice_key_resp.keys,practice_key_resp.rt,practice_loop.thisRepN,practice_loop.thisTrialN,practice_loop.thisN,practice_loop.thisIndex,practice_loop.ran,words,participant,age,gender,native language,country of residence,other languages,date,expName,psychopyVersion,OS,frameRate,key_resp_5.keys,key_resp_5.rt,trial_resp.keys,trial_resp.rt,pre_break_loop.thisRepN,pre_break_loop.thisTrialN,pre_break_loop.thisN,pre_break_loop.thisIndex,pre_break_loop.ran,stimuli,file_loc,gross_status,ND,scholes_rating,cluster_type,item_type,break_key_resp.keys,break_key_resp.rt,post_break_loop.thisRepN,post_break_loop.thisTrialN,post_break_loop.thisN,post_break_loop.thisIndex,post_break_loop.ran
space,98.214025,space,4.17257,space,1.58659,space,3.31761,y,2.98989,space,3.767335,space,10.741605,space,5.832585,space,3.675265,0,5.86994,0,0,0,2,1,practice_audio/BZIYN.practice.wav,rachel wright,21,female,english,United States,"korean, japanese",2021-03-28_20h56.34.864,UG_Thesis_exp_1,2021.1.2,Win32,60.00960154,,,,,,,,,,,,,,,,,,,,,,,
,,,,,,,,,,,,,,,,,,1,4.053655,0,1,1,10,1,practice_audio/PREHSP.practice.wav,rachel wright,21,female,english,United States,"korean, japanese",2021-03-28_20h56.34.864,UG_Thesis_exp_1,2021.1.2,Win32,60.00960154,,,,,,,,,,,,,,,,,,,,,,,
,,,,,,,,,,,,,,,,,,1,1.832875,0,2,2,8,1,practice_audio/ZOYNKS.practice.wav,rachel wright,21,female,english,United States,"korean, japanese",2021-03-28_20h56.34.864,UG_Thesis_exp_1,2021.1.2,Win32,60.00960154,,,,,,,,,,,,,,,,,,,,,,,
,,,,,,,,,,,,,,,,,,1,1.001325,0,3,3,0,1,practice_audio/BIHBL.practice.wav,rachel wright,21,female,english,United States,"korean, japanese",2021-03-28_20h56.34.864,UG_Thesis_exp_1,2021.1.2,Win32,60.00960154,,,,,,,,,,,,,,,,,,,,,,,
,,,,,,,,,,,,,,,,,,1,1.88553,0,4,4,1,1,practice_audio/BWAAD.practice.wav,rachel wright,21,female,english,United States,"korean, japanese",2021-03-28_20h56.34.864,UG_Thesis_exp_1,2021.1.2,Win32,60.00960154,,,,,,,,,,,,,,,,,,,,,,,
,,,,,,,,,,,,,,,,,,1,1.024815,0,5,5,6,1,practice_audio/LAHM.practice.wav,rachel wright,21,female,english,United States,"korean, japanese",2021-03-28_20h56.34.864,UG_Thesis_exp_1,2021.1.2,Win32,60.00960154,,,,,,,,,,,,,,,,,,,,,,,
,,,,,,,,,,,,,,,,,,0,1.45012,0,6,6,4,1,practice_audio/KLIHG.practice.wav,rachel wright,21,female,english,United States,"korean, japanese",2021-03-28_20h56.34.864,UG_Thesis_exp_1,2021.1.2,Win32,60.00960154,,,,,,,,,,,,,,,,,,,,,,,
,,,,,,,,,,,,,,,,,,1,1.11766,0,7,7,7,1,practice_audio/SLEYM.practice.wav,rachel wright,21,female,english,United States,"korean, japanese",2021-03-28_20h56.34.864,UG_Thesis_exp_1,2021.1.2,Win32,60.00960154,,,,,,,,,,,,,,,,,,,,,,,
,,,,,,,,,,,,,,,,,,0,1.290235,0,8,8,3,1,practice_audio/GLIYD.practice.wav,rachel wright,21,female,english,United States,"korean, japanese",2021-03-28_20h56.34.864,UG_Thesis_exp_1,2021.1.2,Win32,60.00960154,,,,,,,,,,,,,,,,,,,,,,,
,,,,,,,,,,,,,,,,,,0,1.06729,0,9,9,9,1,practice_audio/PLUWT.practice.wav,rachel wright,21,female,english,United States,"korean, japanese",2021-03-28_20h56.34.864,UG_Thesis_exp_1,2021.1.2,Win32,60.00960154,,,,,,,,,,,,,,,,,,,,,,,
,,,,,,,,,,,,,,,,,,1,1.300115,0,10,10,5,1,practice_audio/KREHNTH.practice.wav,rachel wright,21,female,english,United States,"korean, japanese",2021-03-28_20h56.34.864,UG_Thesis_exp_1,2021.1.2,Win32,60.00960154,,,,,,,,,,,,,,,,,,,,,,,
,,,,,,,,,,,,,,,,,,,,,,,,,,rachel wright,21,female,english,United States,"korean, japanese",2021-03-28_20h56.34.864,UG_Thesis_exp_1,2021.1.2,Win32,60.00960154,space,2.501955,1,1.44821,0,0,0,48,1,jrun,stimuli/jrun.wav,invalid,4,11,,stimuli,,,,,,,
,,,,,,,,,,,,,,,,,,,,,,,,,,rachel wright,21,female,english,United States,"korean, japanese",2021-03-28_20h56.34.864,UG_Thesis_exp_1,2021.1.2,Win32,60.00960154,,,1,1.025115,0,1,1,82,1,pab,fillers/pab.wav,,29,,,filler,,,,,,,
,,,,,,,,,,,,,,,,,,,,,,,,,,rachel wright,21,female,english,United States,"korean, japanese",2021-03-28_20h56.34.864,UG_Thesis_exp_1,2021.1.2,Win32,60.00960154,,,0,1.24111,0,2,2,31,1,fnet,stimuli/fnet.wav,invalid,2,3,,stimuli,,,,,,,
,,,,,,,,,,,,,,,,,,,,,,,,,,rachel wright,21,female,english,United States,"korean, japanese",2021-03-28_20h56.34.864,UG_Thesis_exp_1,2021.1.2,Win32,60.00960154,,,1,1.190485,0,3,3,67,1,thith,fillers/thith.wav,,4,,,filler,,,,,,,
,,,,,,,,,,,,,,,,,,,,,,,,,,rachel wright,21,female,english,United States,"korean, japanese",2021-03-28_20h56.34.864,UG_Thesis_exp_1,2021.1.2,Win32,60.00960154,,,0,1.467615,0,4,4,49,1,jveel,stimuli/jveel.wav,invalid,1,0,,stimuli,,,,,,,
,,,,,,,,,,,,,,,,,,,,,,,,,,rachel wright,21,female,english,United States,"korean, japanese",2021-03-28_20h56.34.864,UG_Thesis_exp_1,2021.1.2,Win32,60.00960154,,,1,1.186245,0,5,5,10,1,mrung,stimuli/mrung.wav,invalid,1,27,,stimuli,,,,,,,
,,,,,,,,,,,,,,,,,,,,,,,,,,rachel wright,21,female,english,United States,"korean, japanese",2021-03-28_20h56.34.864,UG_Thesis_exp_1,2021.1.2,Win32,60.00960154,,,1,1.909405,0,6,6,36,1,shpeyl,stimuli/shpeyl.wav,invalid,2,2,,stimuli,,,,,,,
,,,,,,,,,,,,,,,,,,,,,,,,,,rachel wright,21,female,english,United States,"korean, japanese",2021-03-28_20h56.34.864,UG_Thesis_exp_1,2021.1.2,Win32,60.00960154,,,0,1.11748,0,7,7,34,1,zveel,stimuli/zveel.wav,invalid,2,3,,stimuli,,,,,,,
,,,,,,,,,,,,,,,,,,,,,,,,,,rachel wright,21,female,english,United States,"korean, japanese",2021-03-28_20h56.34.864,UG_Thesis_exp_1,2021.1.2,Win32,60.00960154,,,1,1.28422,0,8,8,78,1,jaith,fillers/jaith.wav,,7,,,filler,,,,,,,
,,,,,,,,,,,,,,,,,,,,,,,,,,rachel wright,21,female,english,United States,"korean, japanese",2021-03-28_20h56.34.864,UG_Thesis_exp_1,2021.1.2,Win32,60.00960154,,,1,3.891915,0,9,9,29,1,shfeed,stimuli/shfeed.wav,invalid,1,5,,stimuli,,,,,,,
,,,,,,,,,,,,,,,,,,,,,,,,,,rachel wright,21,female,english,United States,"korean, japanese",2021-03-28_20h56.34.864,UG_Thesis_exp_1,2021.1.2,Win32,60.00960154,,,0,1.417475,0,10,10,14,1,vlerk,stimuli/vlerk.wav,invalid,2,14,,stimuli,,,,,,,
,,,,,,,,,,,,,,,,,,,,,,,,,,rachel wright,21,female,english,United States,"korean, japanese",2021-03-28_20h56.34.864,UG_Thesis_exp_1,2021.1.2,Win32,60.00960154,,,1,2.0741,0,11,11,97,1,jalp,fillers/jalp.wav,,1,,,filler,,,,,,,
,,,,,,,,,,,,,,,,,,,,,,,,,,rachel wright,21,female,english,United States,"korean, japanese",2021-03-28_20h56.34.864,UG_Thesis_exp_1,2021.1.2,Win32,60.00960154,,,1,1.41795,0,12,12,70,1,shirj,fillers/shirj.wav,,12,,,filler,,,,,,,
,,,,,,,,,,,,,,,,,,,,,,,,,,rachel wright,21,female,english,United States,"korean, japanese",2021-03-28_20h56.34.864,UG_Thesis_exp_1,2021.1.2,Win32,60.00960154,,,1,1.75149,0,13,13,79,1,chaith,fillers/chaith.wav,,5,,,filler,,,,,,,
,,,,,,,,,,,,,,,,,,,,,,,,,,rachel wright,21,female,english,United States,"korean, japanese",2021-03-28_20h56.34.864,UG_Thesis_exp_1,2021.1.2,Win32,60.00960154,,,1,2.49981,0,14,14,35,1,fmaet,stimuli/fmaet.wav,invalid,4,2,,stimuli,,,,,,,
,,,,,,,,,,,,,,,,,,,,,,,,,,rachel wright,21,female,english,United States,"korean, japanese",2021-03-28_20h56.34.864,UG_Thesis_exp_1,2021.1.2,Win32,60.00960154,,,1,4.101615,0,15,15,13,1,srun,stimuli/srun.wav,invalid,9,14,,stimuli,,,,,,,
,,,,,,,,,,,,,,,,,,,,,,,,,,rachel wright,21,female,english,United States,"korean, japanese",2021-03-28_20h56.34.864,UG_Thesis_exp_1,2021.1.2,Win32,60.00960154,,,0,2.83585,0,16,16,46,1,jpeyl,stimuli/jpeyl.wav,invalid,1,1,,stimuli,,,,,,,
,,,,,,,,,,,,,,,,,,,,,,,,,,rachel wright,21,female,english,United States,"korean, japanese",2021-03-28_20h56.34.864,UG_Thesis_exp_1,2021.1.2,Win32,60.00960154,,,1,1.03687,0,17,17,66,1,hais,fillers/hais.wav,,11,,,filler,,,,,,,
,,,,,,,,,,,,,,,,,,,,,,,,,,rachel wright,21,female,english,United States,"korean, japanese",2021-03-28_20h56.34.864,UG_Thesis_exp_1,2021.1.2,Win32,60.00960154,,,0,1.917345,0,18,18,85,1,lus,fillers/lus.wav,,49,,,filler,,,,,,,
,,,,,,,,,,,,,,,,,,,,,,,,,,rachel wright,21,female,english,United States,"korean, japanese",2021-03-28_20h56.34.864,UG_Thesis_exp_1,2021.1.2,Win32,60.00960154,,,0,1.058095,0,19,19,68,1,gurg,fillers/gurg.wav,,9,,,filler,,,,,,,
,,,,,,,,,,,,,,,,,,,,,,,,,,rachel wright,21,female,english,United States,"korean, japanese",2021-03-28_20h56.34.864,UG_Thesis_exp_1,2021.1.2,Win32,60.00960154,,,0,1.91932,0,20,20,76,1,thuv,fillers/thuv.wav,,9,,,filler,,,,,,,
,,,,,,,,,,,,,,,,,,,,,,,,,,rachel wright,21,female,english,United States,"korean, japanese",2021-03-28_20h56.34.864,UG_Thesis_exp_1,2021.1.2,Win32,60.00960154,,,1,1.366435,0,21,21,22,1,nrun,stimuli/nrun.wav,invalid,5,8,,stimuli,,,,,,,
,,,,,,,,,,,,,,,,,,,,,,,,,,rachel wright,21,female,english,United States,"korean, japanese",2021-03-28_20h56.34.864,UG_Thesis_exp_1,2021.1.2,Win32,60.00960154,,,0,1.750605,0,22,22,50,1,hus,fillers/hus.wav,,46,,,filler,,,,,,,
,,,,,,,,,,,,,,,,,,,,,,,,,,rachel wright,21,female,english,United States,"korean, japanese",2021-03-28_20h56.34.864,UG_Thesis_exp_1,2021.1.2,Win32,60.00960154,,,0,1.01859,0,23,23,26,1,ztin,stimuli/ztin.wav,invalid,1,6,,stimuli,,,,,,,
,,,,,,,,,,,,,,,,,,,,,,,,,,rachel wright,21,female,english,United States,"korean, japanese",2021-03-28_20h56.34.864,UG_Thesis_exp_1,2021.1.2,Win32,60.00960154,,,1,1.501135,0,24,24,90,1,tupt,fillers/tupt.wav,,11,,,filler,,,,,,,
,,,,,,,,,,,,,,,,,,,,,,,,,,rachel wright,21,female,english,United States,"korean, japanese",2021-03-28_20h56.34.864,UG_Thesis_exp_1,2021.1.2,Win32,60.00960154,,,0,1.323305,0,25,25,55,1,suv,fillers/suv.wav,,25,,,filler,,,,,,,
,,,,,,,,,,,,,,,,,,,,,,,,,,rachel wright,21,female,english,United States,"korean, japanese",2021-03-28_20h56.34.864,UG_Thesis_exp_1,2021.1.2,Win32,60.00960154,,,1,1.50154,0,26,26,7,1,frun,stimuli/frun.wav,valid,12,29,,stimuli,,,,,,,
,,,,,,,,,,,,,,,,,,,,,,,,,,rachel wright,21,female,english,United States,"korean, japanese",2021-03-28_20h56.34.864,UG_Thesis_exp_1,2021.1.2,Win32,60.00960154,,,1,1.084425,0,27,27,80,1,gaith,fillers/gaith.wav,,9,,,filler,,,,,,,
,,,,,,,,,,,,,,,,,,,,,,,,,,rachel wright,21,female,english,United States,"korean, japanese",2021-03-28_20h56.34.864,UG_Thesis_exp_1,2021.1.2,Win32,60.00960154,,,0,2.574455,0,28,28,88,1,sudge,fillers/sudge.wav,,24,,,filler,,,,,,,
,,,,,,,,,,,,,,,,,,,,,,,,,,rachel wright,21,female,english,United States,"korean, japanese",2021-03-28_20h56.34.864,UG_Thesis_exp_1,2021.1.2,Win32,60.00960154,,,0,1.66669,0,29,29,4,1,flerk,stimuli/flerk.wav,valid,11,31,,stimuli,,,,,,,
,,,,,,,,,,,,,,,,,,,,,,,,,,rachel wright,21,female,english,United States,"korean, japanese",2021-03-28_20h56.34.864,UG_Thesis_exp_1,2021.1.2,Win32,60.00960154,,,0,1.605755,0,30,30,19,1,shnet,stimuli/shnet.wav,valid,2,10,,stimuli,,,,,,,
,,,,,,,,,,,,,,,,,,,,,,,,,,rachel wright,21,female,english,United States,"korean, japanese",2021-03-28_20h56.34.864,UG_Thesis_exp_1,2021.1.2,Win32,60.00960154,,,0,1.88417,0,31,31,62,1,pev,fillers/pev.wav,,15,,,filler,,,,,,,
,,,,,,,,,,,,,,,,,,,,,,,,,,rachel wright,21,female,english,United States,"korean, japanese",2021-03-28_20h56.34.864,UG_Thesis_exp_1,2021.1.2,Win32,60.00960154,,,1,1.389135,0,32,32,98,1,fawnk,fillers/fawnk.wav,,4,,,filler,,,,,,,
,,,,,,,,,,,,,,,,,,,,,,,,,,rachel wright,21,female,english,United States,"korean, japanese",2021-03-28_20h56.34.864,UG_Thesis_exp_1,2021.1.2,Win32,60.00960154,,,1,1.190385,0,33,33,95,1,bimp,fillers/bimp.wav,,7,,,filler,,,,,,,
,,,,,,,,,,,,,,,,,,,,,,,,,,rachel wright,21,female,english,United States,"korean, japanese",2021-03-28_20h56.34.864,UG_Thesis_exp_1,2021.1.2,Win32,60.00960154,,,0,1.05916,0,34,34,2,1,prun,stimuli/prun.wav,valid,11,32,,stimuli,,,,,,,
,,,,,,,,,,,,,,,,,,,,,,,,,,rachel wright,21,female,english,United States,"korean, japanese",2021-03-28_20h56.34.864,UG_Thesis_exp_1,2021.1.2,Win32,60.00960154,,,1,1.100565,0,35,35,1,1,smaet,stimuli/smaet.wav,valid,13,32,,stimuli,,,,,,,
,,,,,,,,,,,,,,,,,,,,,,,,,,rachel wright,21,female,english,United States,"korean, japanese",2021-03-28_20h56.34.864,UG_Thesis_exp_1,2021.1.2,Win32,60.00960154,,,1,1.1667,0,36,36,74,1,wudge,fillers/wudge.wav,,13,,,filler,,,,,,,
,,,,,,,,,,,,,,,,,,,,,,,,,,rachel wright,21,female,english,United States,"korean, japanese",2021-03-28_20h56.34.864,UG_Thesis_exp_1,2021.1.2,Win32,60.00960154,,,0,1.22198,0,37,37,30,1,znaet,stimuli/znaet.wav,invalid,1,4,,stimuli,,,,,,,
,,,,,,,,,,,,,,,,,,,,,,,,,,rachel wright,21,female,english,United States,"korean, japanese",2021-03-28_20h56.34.864,UG_Thesis_exp_1,2021.1.2,Win32,60.00960154,,,0,1.90366,0,38,38,6,1,trun,stimuli/trun.wav,valid,12,31,,stimuli,,,,,,,
,,,,,,,,,,,,,,,,,,,,,,,,,,rachel wright,21,female,english,United States,"korean, japanese",2021-03-28_20h56.34.864,UG_Thesis_exp_1,2021.1.2,Win32,60.00960154,,,0,2.27147,0,39,39,43,1,skeep,stimuli/skeep.wav,valid,2,20,,stimuli,,,,,,,
,,,,,,,,,,,,,,,,,,,,,,,,,,rachel wright,21,female,english,United States,"korean, japanese",2021-03-28_20h56.34.864,UG_Thesis_exp_1,2021.1.2,Win32,60.00960154,,,0,1.13352,0,40,40,33,1,vtin,stimuli/vtin.wav,invalid,2,3,,stimuli,,,,,,,
,,,,,,,,,,,,,,,,,,,,,,,,,,rachel wright,21,female,english,United States,"korean, japanese",2021-03-28_20h56.34.864,UG_Thesis_exp_1,2021.1.2,Win32,60.00960154,,,1,1.43346,0,41,41,92,1,purgd,fillers/purgd.wav,,3,,,filler,,,,,,,
,,,,,,,,,,,,,,,,,,,,,,,,,,rachel wright,21,female,english,United States,"korean, japanese",2021-03-28_20h56.34.864,UG_Thesis_exp_1,2021.1.2,Win32,60.00960154,,,1,1.369065,0,42,42,87,1,tul,fillers/tul.wav,,42,,,filler,,,,,,,
,,,,,,,,,,,,,,,,,,,,,,,,,,rachel wright,21,female,english,United States,"korean, japanese",2021-03-28_20h56.34.864,UG_Thesis_exp_1,2021.1.2,Win32,60.00960154,,,0,1.06739,0,43,43,44,1,vnet,stimuli/vnet.wav,invalid,2,1,,stimuli,,,,,,,
,,,,,,,,,,,,,,,,,,,,,,,,,,rachel wright,21,female,english,United States,"korean, japanese",2021-03-28_20h56.34.864,UG_Thesis_exp_1,2021.1.2,Win32,60.00960154,,,0,1.536765,0,44,44,23,1,shmat,stimuli/shmat.wav,valid,1,7,,stimuli,,,,,,,
,,,,,,,,,,,,,,,,,,,,,,,,,,rachel wright,21,female,english,United States,"korean, japanese",2021-03-28_20h56.34.864,UG_Thesis_exp_1,2021.1.2,Win32,60.00960154,,,0,1.116835,0,45,45,15,1,mlung,stimuli/mlung.wav,invalid,4,13,,stimuli,,,,,,,
,,,,,,,,,,,,,,,,,,,,,,,,,,rachel wright,21,female,english,United States,"korean, japanese",2021-03-28_20h56.34.864,UG_Thesis_exp_1,2021.1.2,Win32,60.00960154,,,1,1.12397,0,46,46,65,1,keb,fillers/keb.wav,,16,,,filler,,,,,,,
,,,,,,,,,,,,,,,,,,,,,,,,,,rachel wright,21,female,english,United States,"korean, japanese",2021-03-28_20h56.34.864,UG_Thesis_exp_1,2021.1.2,Win32,60.00960154,,,1,1.884185,0,47,47,51,1,jun,fillers/jun.wav,,49,,,filler,,,,,,,
,,,,,,,,,,,,,,,,,,,,,,,,,,rachel wright,21,female,english,United States,"korean, japanese",2021-03-28_20h56.34.864,UG_Thesis_exp_1,2021.1.2,Win32,60.00960154,,,0,1.333995,0,48,48,94,1,malb,fillers/malb.wav,,2,,,filler,,,,,,,
,,,,,,,,,,,,,,,,,,,,,,,,,,rachel wright,21,female,english,United States,"korean, japanese",2021-03-28_20h56.34.864,UG_Thesis_exp_1,2021.1.2,Win32,60.00960154,,,0,1.034275,0,49,49,39,1,dwil,stimuli/dwil.wav,invalid,7,,,stimuli,,,,,,,
,,,,,,,,,,,,,,,,,,,,,,,,,,rachel wright,21,female,english,United States,"korean, japanese",2021-03-28_20h56.34.864,UG_Thesis_exp_1,2021.1.2,Win32,60.00960154,,,1,1.118185,0,50,50,3,1,grun,stimuli/grun.wav,valid,18,33,,stimuli,,,,,,,
,,,,,,,,,,,,,,,,,,,,,,,,,,rachel wright,21,female,english,United States,"korean, japanese",2021-03-28_20h56.34.864,UG_Thesis_exp_1,2021.1.2,Win32,60.00960154,,,1,1.883665,0,51,51,12,1,vrun,stimuli/vrun.wav,invalid,4,19,,stimuli,,,,,,,
,,,,,,,,,,,,,,,,,,,,,,,,,,rachel wright,21,female,english,United States,"korean, japanese",2021-03-28_20h56.34.864,UG_Thesis_exp_1,2021.1.2,Win32,60.00960154,,,0,1.21784,0,52,52,53,1,suz,fillers/suz.wav,,37,,,filler,,,,,,,
,,,,,,,,,,,,,,,,,,,,,,,,,,rachel wright,21,female,english,United States,"korean, japanese",2021-03-28_20h56.34.864,UG_Thesis_exp_1,2021.1.2,Win32,60.00960154,,,0,1.61784,0,53,53,42,1,thwaet,stimuli/thwaet.wav,invalid,1,,,stimuli,,,,,,,
,,,,,,,,,,,,,,,,,,,,,,,,,,rachel wright,21,female,english,United States,"korean, japanese",2021-03-28_20h56.34.864,UG_Thesis_exp_1,2021.1.2,Win32,60.00960154,,,0,1.200365,0,54,54,71,1,thudge,fillers/thudge.wav,,7,,,filler,,,,,,,
,,,,,,,,,,,,,,,,,,,,,,,,,,rachel wright,21,female,english,United States,"korean, japanese",2021-03-28_20h56.34.864,UG_Thesis_exp_1,2021.1.2,Win32,60.00960154,,,0,1.272265,0,55,55,18,1,fship,stimuli/fship.wav,invalid,2,11,,stimuli,,,,,,,
,,,,,,,,,,,,,,,,,,,,,,,,,,rachel wright,21,female,english,United States,"korean, japanese",2021-03-28_20h56.34.864,UG_Thesis_exp_1,2021.1.2,Win32,60.00960154,,,1,0.99091,0,56,56,59,1,pum,fillers/pum.wav,,40,,,filler,,,,,,,
,,,,,,,,,,,,,,,,,,,,,,,,,,rachel wright,21,female,english,United States,"korean, japanese",2021-03-28_20h56.34.864,UG_Thesis_exp_1,2021.1.2,Win32,60.00960154,,,1,1.11885,0,57,57,69,1,jerp,fillers/jerp.wav,,7,,,filler,,,,,,,
,,,,,,,,,,,,,,,,,,,,,,,,,,rachel wright,21,female,english,United States,"korean, japanese",2021-03-28_20h56.34.864,UG_Thesis_exp_1,2021.1.2,Win32,60.00960154,,,0,0.83327,0,58,58,25,1,zlerk,stimuli/zlerk.wav,invalid,2,6,,stimuli,,,,,,,
,,,,,,,,,,,,,,,,,,,,,,,,,,rachel wright,21,female,english,United States,"korean, japanese",2021-03-28_20h56.34.864,UG_Thesis_exp_1,2021.1.2,Win32,60.00960154,,,1,1.167655,0,59,59,77,1,gej,fillers/gej.wav,,7,,,filler,,,,,,,
,,,,,,,,,,,,,,,,,,,,,,,,,,rachel wright,21,female,english,United States,"korean, japanese",2021-03-28_20h56.34.864,UG_Thesis_exp_1,2021.1.2,Win32,60.00960154,,,1,1.33422,0,60,60,64,1,sherj,fillers/sherj.wav,,12,,,filler,,,,,,,
,,,,,,,,,,,,,,,,,,,,,,,,,,rachel wright,21,female,english,United States,"korean, japanese",2021-03-28_20h56.34.864,UG_Thesis_exp_1,2021.1.2,Win32,60.00960154,,,1,2.11732,0,61,61,52,1,dus,fillers/dus.wav,,58,,,filler,,,,,,,
,,,,,,,,,,,,,,,,,,,,,,,,,,rachel wright,21,female,english,United States,"korean, japanese",2021-03-28_20h56.34.864,UG_Thesis_exp_1,2021.1.2,Win32,60.00960154,,,0,1.416785,0,62,62,5,1,drung,stimuli/drung.wav,valid,7,31,,stimuli,,,,,,,
,,,,,,,,,,,,,,,,,,,,,,,,,,rachel wright,21,female,english,United States,"korean, japanese",2021-03-28_20h56.34.864,UG_Thesis_exp_1,2021.1.2,Win32,60.00960154,,,1,4.15097,0,63,63,28,1,vzut,stimuli/vzut.wav,invalid,1,6,,stimuli,,,,,,,
,,,,,,,,,,,,,,,,,,,,,,,,,,rachel wright,21,female,english,United States,"korean, japanese",2021-03-28_20h56.34.864,UG_Thesis_exp_1,2021.1.2,Win32,60.00960154,,,0,1.31837,0,64,64,57,1,sud,fillers/sud.wav,,40,,,filler,,,,,,,
,,,,,,,,,,,,,,,,,,,,,,,,,,rachel wright,21,female,english,United States,"korean, japanese",2021-03-28_20h56.34.864,UG_Thesis_exp_1,2021.1.2,Win32,60.00960154,,,1,1.32479,0,65,65,81,1,mub,fillers/mub.wav,,26,,,filler,,,,,,,
,,,,,,,,,,,,,,,,,,,,,,,,,,rachel wright,21,female,english,United States,"korean, japanese",2021-03-28_20h56.34.864,UG_Thesis_exp_1,2021.1.2,Win32,60.00960154,,,0,1.02532,0,66,66,9,1,spung,stimuli/spung.wav,valid,11,28,,stimuli,,,,,,,
,,,,,,,,,,,,,,,,,,,,,,,,,,rachel wright,21,female,english,United States,"korean, japanese",2021-03-28_20h56.34.864,UG_Thesis_exp_1,2021.1.2,Win32,60.00960154,,,0,1.103715,0,67,67,21,1,zrun,stimuli/zrun.wav,invalid,5,8,,stimuli,,,,,,,
,,,,,,,,,,,,,,,,,,,,,,,,,,rachel wright,21,female,english,United States,"korean, japanese",2021-03-28_20h56.34.864,UG_Thesis_exp_1,2021.1.2,Win32,60.00960154,,,1,1.12463,0,68,68,73,1,chudge,fillers/chudge.wav,,10,,,filler,,,,,,,
,,,,,,,,,,,,,,,,,,,,,,,,,,rachel wright,21,female,english,United States,"korean, japanese",2021-03-28_20h56.34.864,UG_Thesis_exp_1,2021.1.2,Win32,60.00960154,,,1,1.25034,0,69,69,83,1,bip,fillers/bip.wav,,37,,,filler,,,,,,,
,,,,,,,,,,,,,,,,,,,,,,,,,,rachel wright,21,female,english,United States,"korean, japanese",2021-03-28_20h56.34.864,UG_Thesis_exp_1,2021.1.2,Win32,60.00960154,,,0,1.234385,0,70,70,45,1,shkeep,stimuli/shkeep.wav,invalid,15,1,,stimuli,,,,,,,
,,,,,,,,,,,,,,,,,,,,,,,,,,rachel wright,21,female,english,United States,"korean, japanese",2021-03-28_20h56.34.864,UG_Thesis_exp_1,2021.1.2,Win32,60.00960154,,,0,1.6848,0,71,71,17,1,fpeyl,stimuli/fpeyl.wav,invalid,4,13,,stimuli,,,,,,,
,,,,,,,,,,,,,,,,,,,,,,,,,,rachel wright,21,female,english,United States,"korean, japanese",2021-03-28_20h56.34.864,UG_Thesis_exp_1,2021.1.2,Win32,60.00960154,,,0,1.65109,0,72,72,24,1,sfeed,stimuli/sfeed.wav,valid,7,7,,stimuli,,,,,,,
,,,,,,,,,,,,,,,,,,,,,,,,,,rachel wright,21,female,english,United States,"korean, japanese",2021-03-28_20h56.34.864,UG_Thesis_exp_1,2021.1.2,Win32,60.00960154,,,0,1.22228,0,73,73,54,1,sug,fillers/sug.wav,,29,,,filler,,,,,,,
,,,,,,,,,,,,,,,,,,,,,,,,,,rachel wright,21,female,english,United States,"korean, japanese",2021-03-28_20h56.34.864,UG_Thesis_exp_1,2021.1.2,Win32,60.00960154,,,0,1.13414,0,74,74,16,1,shtin,stimuli/shtin.wav,invalid,3,13,,stimuli,,,,,,,
,,,,,,,,,,,,,,,,,,,,,,,,,,rachel wright,21,female,english,United States,"korean, japanese",2021-03-28_20h56.34.864,UG_Thesis_exp_1,2021.1.2,Win32,60.00960154,,,1,1.37496,0,75,75,75,1,chutch,fillers/chutch.wav,,12,,,filler,,,,,,,
,,,,,,,,,,,,,,,,,,,,,,,,,,rachel wright,21,female,english,United States,"korean, japanese",2021-03-28_20h56.34.864,UG_Thesis_exp_1,2021.1.2,Win32,60.00960154,,,1,1.266995,0,76,76,58,1,lun,fillers/lun.wav,,70,,,filler,,,,,,,
,,,,,,,,,,,,,,,,,,,,,,,,,,rachel wright,21,female,english,United States,"korean, japanese",2021-03-28_20h56.34.864,UG_Thesis_exp_1,2021.1.2,Win32,60.00960154,,,0,0.93414,0,77,77,41,1,tweep,stimuli/tweep.wav,valid,0,,,stimuli,,,,,,,
,,,,,,,,,,,,,,,,,,,,,,,,,,rachel wright,21,female,english,United States,"korean, japanese",2021-03-28_20h56.34.864,UG_Thesis_exp_1,2021.1.2,Win32,60.00960154,,,1,2.15099,0,78,78,93,1,gomt,fillers/gomt.wav,,0,,,filler,,,,,,,
,,,,,,,,,,,,,,,,,,,,,,,,,,rachel wright,21,female,english,United States,"korean, japanese",2021-03-28_20h56.34.864,UG_Thesis_exp_1,2021.1.2,Win32,60.00960154,,,0,1.28529,0,79,79,27,1,fset,stimuli/fset.wav,invalid,4,6,,stimuli,,,,,,,
,,,,,,,,,,,,,,,,,,,,,,,,,,rachel wright,21,female,english,United States,"korean, japanese",2021-03-28_20h56.34.864,UG_Thesis_exp_1,2021.1.2,Win32,60.00960154,,,1,1.09124,0,80,80,84,1,ras,fillers/ras.wav,,52,,,filler,,,,,,,
,,,,,,,,,,,,,,,,,,,,,,,,,,rachel wright,21,female,english,United States,"korean, japanese",2021-03-28_20h56.34.864,UG_Thesis_exp_1,2021.1.2,Win32,60.00960154,,,1,2.75886,0,81,81,72,1,jutch,fillers/jutch.wav,,10,,,filler,,,,,,,
,,,,,,,,,,,,,,,,,,,,,,,,,,rachel wright,21,female,english,United States,"korean, japanese",2021-03-28_20h56.34.864,UG_Thesis_exp_1,2021.1.2,Win32,60.00960154,,,0,1.621785,0,82,82,0,1,stin,stimuli/stin.wav,valid,18,33,,stimuli,,,,,,,
,,,,,,,,,,,,,,,,,,,,,,,,,,rachel wright,21,female,english,United States,"korean, japanese",2021-03-28_20h56.34.864,UG_Thesis_exp_1,2021.1.2,Win32,60.00960154,,,1,3.01661,0,83,83,86,1,suf,fillers/suf.wav,,33,,,filler,,,,,,,
,,,,,,,,,,,,,,,,,,,,,,,,,,rachel wright,21,female,english,United States,"korean, japanese",2021-03-28_20h56.34.864,UG_Thesis_exp_1,2021.1.2,Win32,60.00960154,,,0,1.11914,0,84,84,20,1,ftin,stimuli/ftin.wav,invalid,2,10,,stimuli,,,,,,,
,,,,,,,,,,,,,,,,,,,,,,,,,,rachel wright,21,female,english,United States,"korean, japanese",2021-03-28_20h56.34.864,UG_Thesis_exp_1,2021.1.2,Win32,60.00960154,,,1,1.95051,0,85,85,89,1,sulft,fillers/suft.wav,,15,,,filler,,,,,,,
,,,,,,,,,,,,,,,,,,,,,,,,,,rachel wright,21,female,english,United States,"korean, japanese",2021-03-28_20h56.34.864,UG_Thesis_exp_1,2021.1.2,Win32,60.00960154,,,0,0.95095,0,86,86,40,1,thwup,stimuli/thwup.wav,invalid,0,,,stimuli,,,,,,,
,,,,,,,,,,,,,,,,,,,,,,,,,,rachel wright,21,female,english,United States,"korean, japanese",2021-03-28_20h56.34.864,UG_Thesis_exp_1,2021.1.2,Win32,60.00960154,,,1,1.11713,0,87,87,63,1,peb,fillers/peb.wav,,14,,,filler,,,,,,,
,,,,,,,,,,,,,,,,,,,,,,,,,,rachel wright,21,female,english,United States,"korean, japanese",2021-03-28_20h56.34.864,UG_Thesis_exp_1,2021.1.2,Win32,60.00960154,,,0,1.184895,0,88,88,47,1,glung,stimuli/glung.wav,valid,9,27,,stimuli,,,,,,,
,,,,,,,,,,,,,,,,,,,,,,,,,,rachel wright,21,female,english,United States,"korean, japanese",2021-03-28_20h56.34.864,UG_Thesis_exp_1,2021.1.2,Win32,60.00960154,,,1,1.618325,0,89,89,8,1,snet,stimuli/snet.wav,valid,7,28,,stimuli,,,,,,,
,,,,,,,,,,,,,,,,,,,,,,,,,,rachel wright,21,female,english,United States,"korean, japanese",2021-03-28_20h56.34.864,UG_Thesis_exp_1,2021.1.2,Win32,60.00960154,,,1,1.49979,0,90,90,61,1,wutch,fillers/wutch.wav,,17,,,filler,,,,,,,
,,,,,,,,,,,,,,,,,,,,,,,,,,rachel wright,21,female,english,United States,"korean, japanese",2021-03-28_20h56.34.864,UG_Thesis_exp_1,2021.1.2,Win32,60.00960154,,,0,1.209455,0,91,91,56,1,rul,fillers/rul.wav,,42,,,filler,,,,,,,
,,,,,,,,,,,,,,,,,,,,,,,,,,rachel wright,21,female,english,United States,"korean, japanese",2021-03-28_20h56.34.864,UG_Thesis_exp_1,2021.1.2,Win32,60.00960154,,,0,2.783525,0,92,92,37,1,zkeep,stimuli/zkeep.wav,invalid,1,0,,stimuli,,,,,,,
,,,,,,,,,,,,,,,,,,,,,,,,,,rachel wright,21,female,english,United States,"korean, japanese",2021-03-28_20h56.34.864,UG_Thesis_exp_1,2021.1.2,Win32,60.00960154,,,1,1.424885,0,93,93,60,1,juf,fillers/juf.wav,,19,,,filler,,,,,,,
,,,,,,,,,,,,,,,,,,,,,,,,,,rachel wright,21,female,english,United States,"korean, japanese",2021-03-28_20h56.34.864,UG_Thesis_exp_1,2021.1.2,Win32,60.00960154,,,0,1.373875,0,94,94,91,1,bupt,fillers/bupt.wav,,10,,,filler,,,,,,,
,,,,,,,,,,,,,,,,,,,,,,,,,,rachel wright,21,female,english,United States,"korean, japanese",2021-03-28_20h56.34.864,UG_Thesis_exp_1,2021.1.2,Win32,60.00960154,,,0,1.116755,0,95,95,96,1,chulp,fillers/chulp.wav,,4,,,filler,,,,,,,
,,,,,,,,,,,,,,,,,,,,,,,,,,rachel wright,21,female,english,United States,"korean, japanese",2021-03-28_20h56.34.864,UG_Thesis_exp_1,2021.1.2,Win32,60.00960154,,,0,1.225735,0,96,96,11,1,shlerk,stimuli/shlerk.wav,invalid,4,22,,stimuli,,,,,,,
,,,,,,,,,,,,,,,,,,,,,,,,,,rachel wright,21,female,english,United States,"korean, japanese",2021-03-28_20h56.34.864,UG_Thesis_exp_1,2021.1.2,Win32,60.00960154,,,1,1.250165,0,97,97,99,1,shemp,fillers/shemp.wav,,3,,,filler,,,,,,,
,,,,,,,,,,,,,,,,,,,,,,,,,,rachel wright,21,female,english,United States,"korean, japanese",2021-03-28_20h56.34.864,UG_Thesis_exp_1,2021.1.2,Win32,60.00960154,,,0,0.950755,0,98,98,38,1,vpeyl,stimuli/vpeyl.wav,invalid,2,0,,stimuli,,,,,,,
,,,,,,,,,,,,,,,,,,,,,,,,,,rachel wright,21,female,english,United States,"korean, japanese",2021-03-28_20h56.34.864,UG_Thesis_exp_1,2021.1.2,Win32,60.00960154,,,0,1.05381,0,99,99,32,1,fkeep,stimuli/fkeep.wav,invalid,1,3,,stimuli,,,,,,,
,,,,,,,,,,,,,,,,,,,,,,,,,,rachel wright,21,female,english,United States,"korean, japanese",2021-03-28_20h56.34.864,UG_Thesis_exp_1,2021.1.2,Win32,60.00960154,,,1,0.95884,1,0,100,61,1,wutch,fillers/wutch.wav,,17,,,filler,,,,,,,
,,,,,,,,,,,,,,,,,,,,,,,,,,rachel wright,21,female,english,United States,"korean, japanese",2021-03-28_20h56.34.864,UG_Thesis_exp_1,2021.1.2,Win32,60.00960154,,,1,1.223195,1,1,101,58,1,lun,fillers/lun.wav,,70,,,filler,,,,,,,
,,,,,,,,,,,,,,,,,,,,,,,,,,rachel wright,21,female,english,United States,"korean, japanese",2021-03-28_20h56.34.864,UG_Thesis_exp_1,2021.1.2,Win32,60.00960154,,,1,1.7176,1,2,102,34,1,zveel,stimuli/zveel.wav,invalid,2,3,,stimuli,,,,,,,
,,,,,,,,,,,,,,,,,,,,,,,,,,rachel wright,21,female,english,United States,"korean, japanese",2021-03-28_20h56.34.864,UG_Thesis_exp_1,2021.1.2,Win32,60.00960154,,,1,1.30594,1,3,103,99,1,shemp,fillers/shemp.wav,,3,,,filler,,,,,,,
,,,,,,,,,,,,,,,,,,,,,,,,,,rachel wright,21,female,english,United States,"korean, japanese",2021-03-28_20h56.34.864,UG_Thesis_exp_1,2021.1.2,Win32,60.00960154,,,0,1.087505,1,4,104,44,1,vnet,stimuli/vnet.wav,invalid,2,1,,stimuli,,,,,,,
,,,,,,,,,,,,,,,,,,,,,,,,,,rachel wright,21,female,english,United States,"korean, japanese",2021-03-28_20h56.34.864,UG_Thesis_exp_1,2021.1.2,Win32,60.00960154,,,0,1.050735,1,5,105,27,1,fset,stimuli/fset.wav,invalid,4,6,,stimuli,,,,,,,
,,,,,,,,,,,,,,,,,,,,,,,,,,rachel wright,21,female,english,United States,"korean, japanese",2021-03-28_20h56.34.864,UG_Thesis_exp_1,2021.1.2,Win32,60.00960154,,,1,1.016685,1,6,106,98,1,fawnk,fillers/fawnk.wav,,4,,,filler,,,,,,,
,,,,,,,,,,,,,,,,,,,,,,,,,,rachel wright,21,female,english,United States,"korean, japanese",2021-03-28_20h56.34.864,UG_Thesis_exp_1,2021.1.2,Win32,60.00960154,,,1,1.19173,1,7,107,67,1,thith,fillers/thith.wav,,4,,,filler,,,,,,,
,,,,,,,,,,,,,,,,,,,,,,,,,,rachel wright,21,female,english,United States,"korean, japanese",2021-03-28_20h56.34.864,UG_Thesis_exp_1,2021.1.2,Win32,60.00960154,,,1,1.20511,1,8,108,65,1,keb,fillers/keb.wav,,16,,,filler,,,,,,,
,,,,,,,,,,,,,,,,,,,,,,,,,,rachel wright,21,female,english,United States,"korean, japanese",2021-03-28_20h56.34.864,UG_Thesis_exp_1,2021.1.2,Win32,60.00960154,,,0,1.18415,1,9,109,46,1,jpeyl,stimuli/jpeyl.wav,invalid,1,1,,stimuli,,,,,,,
,,,,,,,,,,,,,,,,,,,,,,,,,,rachel wright,21,female,english,United States,"korean, japanese",2021-03-28_20h56.34.864,UG_Thesis_exp_1,2021.1.2,Win32,60.00960154,,,1,1.13307,1,10,110,62,1,pev,fillers/pev.wav,,15,,,filler,,,,,,,
,,,,,,,,,,,,,,,,,,,,,,,,,,rachel wright,21,female,english,United States,"korean, japanese",2021-03-28_20h56.34.864,UG_Thesis_exp_1,2021.1.2,Win32,60.00960154,,,1,2.542595,1,11,111,70,1,shirj,fillers/shirj.wav,,12,,,filler,,,,,,,
,,,,,,,,,,,,,,,,,,,,,,,,,,rachel wright,21,female,english,United States,"korean, japanese",2021-03-28_20h56.34.864,UG_Thesis_exp_1,2021.1.2,Win32,60.00960154,,,0,1.63769,1,12,112,31,1,fnet,stimuli/fnet.wav,invalid,2,3,,stimuli,,,,,,,
,,,,,,,,,,,,,,,,,,,,,,,,,,rachel wright,21,female,english,United States,"korean, japanese",2021-03-28_20h56.34.864,UG_Thesis_exp_1,2021.1.2,Win32,60.00960154,,,0,1.033665,1,13,113,32,1,fkeep,stimuli/fkeep.wav,invalid,1,3,,stimuli,,,,,,,
,,,,,,,,,,,,,,,,,,,,,,,,,,rachel wright,21,female,english,United States,"korean, japanese",2021-03-28_20h56.34.864,UG_Thesis_exp_1,2021.1.2,Win32,60.00960154,,,1,1.06793,1,14,114,91,1,bupt,fillers/bupt.wav,,10,,,filler,,,,,,,
,,,,,,,,,,,,,,,,,,,,,,,,,,rachel wright,21,female,english,United States,"korean, japanese",2021-03-28_20h56.34.864,UG_Thesis_exp_1,2021.1.2,Win32,60.00960154,,,1,1.950955,1,15,115,96,1,chulp,fillers/chulp.wav,,4,,,filler,,,,,,,
,,,,,,,,,,,,,,,,,,,,,,,,,,rachel wright,21,female,english,United States,"korean, japanese",2021-03-28_20h56.34.864,UG_Thesis_exp_1,2021.1.2,Win32,60.00960154,,,1,1.367495,1,16,116,64,1,sherj,fillers/sherj.wav,,12,,,filler,,,,,,,
,,,,,,,,,,,,,,,,,,,,,,,,,,rachel wright,21,female,english,United States,"korean, japanese",2021-03-28_20h56.34.864,UG_Thesis_exp_1,2021.1.2,Win32,60.00960154,,,0,1.017485,1,17,117,11,1,shlerk,stimuli/shlerk.wav,invalid,4,22,,stimuli,,,,,,,
,,,,,,,,,,,,,,,,,,,,,,,,,,rachel wright,21,female,english,United States,"korean, japanese",2021-03-28_20h56.34.864,UG_Thesis_exp_1,2021.1.2,Win32,60.00960154,,,0,1.07429,1,18,118,45,1,shkeep,stimuli/shkeep.wav,invalid,15,1,,stimuli,,,,,,,
,,,,,,,,,,,,,,,,,,,,,,,,,,rachel wright,21,female,english,United States,"korean, japanese",2021-03-28_20h56.34.864,UG_Thesis_exp_1,2021.1.2,Win32,60.00960154,,,0,0.900935,1,19,119,39,1,dwil,stimuli/dwil.wav,invalid,7,,,stimuli,,,,,,,
,,,,,,,,,,,,,,,,,,,,,,,,,,rachel wright,21,female,english,United States,"korean, japanese",2021-03-28_20h56.34.864,UG_Thesis_exp_1,2021.1.2,Win32,60.00960154,,,1,1.20575,1,20,120,75,1,chutch,fillers/chutch.wav,,12,,,filler,,,,,,,
,,,,,,,,,,,,,,,,,,,,,,,,,,rachel wright,21,female,english,United States,"korean, japanese",2021-03-28_20h56.34.864,UG_Thesis_exp_1,2021.1.2,Win32,60.00960154,,,1,2.316925,1,21,121,10,1,mrung,stimuli/mrung.wav,invalid,1,27,,stimuli,,,,,,,
,,,,,,,,,,,,,,,,,,,,,,,,,,rachel wright,21,female,english,United States,"korean, japanese",2021-03-28_20h56.34.864,UG_Thesis_exp_1,2021.1.2,Win32,60.00960154,,,0,1.017005,1,22,122,2,1,prun,stimuli/prun.wav,valid,11,32,,stimuli,,,,,,,
,,,,,,,,,,,,,,,,,,,,,,,,,,rachel wright,21,female,english,United States,"korean, japanese",2021-03-28_20h56.34.864,UG_Thesis_exp_1,2021.1.2,Win32,60.00960154,,,1,0.957,1,23,123,77,1,gej,fillers/gej.wav,,7,,,filler,,,,,,,
,,,,,,,,,,,,,,,,,,,,,,,,,,rachel wright,21,female,english,United States,"korean, japanese",2021-03-28_20h56.34.864,UG_Thesis_exp_1,2021.1.2,Win32,60.00960154,,,1,1.75037,1,24,124,69,1,jerp,fillers/jerp.wav,,7,,,filler,,,,,,,
,,,,,,,,,,,,,,,,,,,,,,,,,,rachel wright,21,female,english,United States,"korean, japanese",2021-03-28_20h56.34.864,UG_Thesis_exp_1,2021.1.2,Win32,60.00960154,,,0,1.03435,1,25,125,36,1,shpeyl,stimuli/shpeyl.wav,invalid,2,2,,stimuli,,,,,,,
,,,,,,,,,,,,,,,,,,,,,,,,,,rachel wright,21,female,english,United States,"korean, japanese",2021-03-28_20h56.34.864,UG_Thesis_exp_1,2021.1.2,Win32,60.00960154,,,1,1.26722,1,26,126,56,1,rul,fillers/rul.wav,,42,,,filler,,,,,,,
,,,,,,,,,,,,,,,,,,,,,,,,,,rachel wright,21,female,english,United States,"korean, japanese",2021-03-28_20h56.34.864,UG_Thesis_exp_1,2021.1.2,Win32,60.00960154,,,0,0.951295,1,27,127,35,1,fmaet,stimuli/fmaet.wav,invalid,4,2,,stimuli,,,,,,,
,,,,,,,,,,,,,,,,,,,,,,,,,,rachel wright,21,female,english,United States,"korean, japanese",2021-03-28_20h56.34.864,UG_Thesis_exp_1,2021.1.2,Win32,60.00960154,,,0,1.290525,1,28,128,14,1,vlerk,stimuli/vlerk.wav,invalid,2,14,,stimuli,,,,,,,
,,,,,,,,,,,,,,,,,,,,,,,,,,rachel wright,21,female,english,United States,"korean, japanese",2021-03-28_20h56.34.864,UG_Thesis_exp_1,2021.1.2,Win32,60.00960154,,,1,1.534375,1,29,129,92,1,purgd,fillers/purgd.wav,,3,,,filler,,,,,,,
,,,,,,,,,,,,,,,,,,,,,,,,,,rachel wright,21,female,english,United States,"korean, japanese",2021-03-28_20h56.34.864,UG_Thesis_exp_1,2021.1.2,Win32,60.00960154,,,1,2.18275,1,30,130,29,1,shfeed,stimuli/shfeed.wav,invalid,1,5,,stimuli,,,,,,,
,,,,,,,,,,,,,,,,,,,,,,,,,,rachel wright,21,female,english,United States,"korean, japanese",2021-03-28_20h56.34.864,UG_Thesis_exp_1,2021.1.2,Win32,60.00960154,,,1,1.216785,1,31,131,50,1,hus,fillers/hus.wav,,46,,,filler,,,,,,,
,,,,,,,,,,,,,,,,,,,,,,,,,,rachel wright,21,female,english,United States,"korean, japanese",2021-03-28_20h56.34.864,UG_Thesis_exp_1,2021.1.2,Win32,60.00960154,,,1,1.500465,1,32,132,59,1,pum,fillers/pum.wav,,40,,,filler,,,,,,,
,,,,,,,,,,,,,,,,,,,,,,,,,,rachel wright,21,female,english,United States,"korean, japanese",2021-03-28_20h56.34.864,UG_Thesis_exp_1,2021.1.2,Win32,60.00960154,,,0,0.90538,1,33,133,23,1,shmat,stimuli/shmat.wav,valid,1,7,,stimuli,,,,,,,
,,,,,,,,,,,,,,,,,,,,,,,,,,rachel wright,21,female,english,United States,"korean, japanese",2021-03-28_20h56.34.864,UG_Thesis_exp_1,2021.1.2,Win32,60.00960154,,,1,3.618275,1,34,134,72,1,jutch,fillers/jutch.wav,,10,,,filler,,,,,,,
,,,,,,,,,,,,,,,,,,,,,,,,,,rachel wright,21,female,english,United States,"korean, japanese",2021-03-28_20h56.34.864,UG_Thesis_exp_1,2021.1.2,Win32,60.00960154,,,0,2.283335,1,35,135,7,1,frun,stimuli/frun.wav,valid,12,29,,stimuli,,,,,,,
,,,,,,,,,,,,,,,,,,,,,,,,,,rachel wright,21,female,english,United States,"korean, japanese",2021-03-28_20h56.34.864,UG_Thesis_exp_1,2021.1.2,Win32,60.00960154,,,0,1.35078,1,36,136,26,1,ztin,stimuli/ztin.wav,invalid,1,6,,stimuli,,,,,,,
,,,,,,,,,,,,,,,,,,,,,,,,,,rachel wright,21,female,english,United States,"korean, japanese",2021-03-28_20h56.34.864,UG_Thesis_exp_1,2021.1.2,Win32,60.00960154,,,0,0.950585,1,37,137,33,1,vtin,stimuli/vtin.wav,invalid,2,3,,stimuli,,,,,,,
,,,,,,,,,,,,,,,,,,,,,,,,,,rachel wright,21,female,english,United States,"korean, japanese",2021-03-28_20h56.34.864,UG_Thesis_exp_1,2021.1.2,Win32,60.00960154,,,0,1.0505,1,38,138,5,1,drung,stimuli/drung.wav,valid,7,31,,stimuli,,,,,,,
,,,,,,,,,,,,,,,,,,,,,,,,,,rachel wright,21,female,english,United States,"korean, japanese",2021-03-28_20h56.34.864,UG_Thesis_exp_1,2021.1.2,Win32,60.00960154,,,1,0.98402,1,39,139,74,1,wudge,fillers/wudge.wav,,13,,,filler,,,,,,,
,,,,,,,,,,,,,,,,,,,,,,,,,,rachel wright,21,female,english,United States,"korean, japanese",2021-03-28_20h56.34.864,UG_Thesis_exp_1,2021.1.2,Win32,60.00960154,,,0,1.099995,1,40,140,16,1,shtin,stimuli/shtin.wav,invalid,3,13,,stimuli,,,,,,,
,,,,,,,,,,,,,,,,,,,,,,,,,,rachel wright,21,female,english,United States,"korean, japanese",2021-03-28_20h56.34.864,UG_Thesis_exp_1,2021.1.2,Win32,60.00960154,,,1,3.040595,1,41,141,0,1,stin,stimuli/stin.wav,valid,18,33,,stimuli,,,,,,,
,,,,,,,,,,,,,,,,,,,,,,,,,,rachel wright,21,female,english,United States,"korean, japanese",2021-03-28_20h56.34.864,UG_Thesis_exp_1,2021.1.2,Win32,60.00960154,,,1,1.134285,1,42,142,90,1,tupt,fillers/tupt.wav,,11,,,filler,,,,,,,
,,,,,,,,,,,,,,,,,,,,,,,,,,rachel wright,21,female,english,United States,"korean, japanese",2021-03-28_20h56.34.864,UG_Thesis_exp_1,2021.1.2,Win32,60.00960154,,,1,3.57473,1,43,143,78,1,jaith,fillers/jaith.wav,,7,,,filler,,,,,,,
,,,,,,,,,,,,,,,,,,,,,,,,,,rachel wright,21,female,english,United States,"korean, japanese",2021-03-28_20h56.34.864,UG_Thesis_exp_1,2021.1.2,Win32,60.00960154,,,1,1.2355,1,44,144,47,1,glung,stimuli/glung.wav,valid,9,27,,stimuli,,,,,,,
,,,,,,,,,,,,,,,,,,,,,,,,,,rachel wright,21,female,english,United States,"korean, japanese",2021-03-28_20h56.34.864,UG_Thesis_exp_1,2021.1.2,Win32,60.00960154,,,1,1.70653,1,45,145,8,1,snet,stimuli/snet.wav,valid,7,28,,stimuli,,,,,,,
,,,,,,,,,,,,,,,,,,,,,,,,,,rachel wright,21,female,english,United States,"korean, japanese",2021-03-28_20h56.34.864,UG_Thesis_exp_1,2021.1.2,Win32,60.00960154,,,0,0.921955,1,46,146,25,1,zlerk,stimuli/zlerk.wav,invalid,2,6,,stimuli,,,,,,,
,,,,,,,,,,,,,,,,,,,,,,,,,,rachel wright,21,female,english,United States,"korean, japanese",2021-03-28_20h56.34.864,UG_Thesis_exp_1,2021.1.2,Win32,60.00960154,,,1,3.30041,1,47,147,76,1,thuv,fillers/thuv.wav,,9,,,filler,,,,,,,
,,,,,,,,,,,,,,,,,,,,,,,,,,rachel wright,21,female,english,United States,"korean, japanese",2021-03-28_20h56.34.864,UG_Thesis_exp_1,2021.1.2,Win32,60.00960154,,,1,1.600855,1,48,148,71,1,thudge,fillers/thudge.wav,,7,,,filler,,,,,,,
,,,,,,,,,,,,,,,,,,,,,,,,,,rachel wright,21,female,english,United States,"korean, japanese",2021-03-28_20h56.34.864,UG_Thesis_exp_1,2021.1.2,Win32,60.00960154,,,0,1.205455,1,49,149,3,1,grun,stimuli/grun.wav,valid,18,33,,stimuli,,,,,,,
,,,,,,,,,,,,,,,,,,,,,,,,,,rachel wright,21,female,english,United States,"korean, japanese",2021-03-28_20h56.34.864,UG_Thesis_exp_1,2021.1.2,Win32,60.00960154,,,1,2.45276,1,50,150,53,1,suz,fillers/suz.wav,,37,,,filler,,,,,,,
,,,,,,,,,,,,,,,,,,,,,,,,,,rachel wright,21,female,english,United States,"korean, japanese",2021-03-28_20h56.34.864,UG_Thesis_exp_1,2021.1.2,Win32,60.00960154,,,0,1.13328,1,51,151,28,1,vzut,stimuli/vzut.wav,invalid,1,6,,stimuli,,,,,,,
,,,,,,,,,,,,,,,,,,,,,,,,,,rachel wright,21,female,english,United States,"korean, japanese",2021-03-28_20h56.34.864,UG_Thesis_exp_1,2021.1.2,Win32,60.00960154,,,1,1.040135,1,52,152,22,1,nrun,stimuli/nrun.wav,invalid,5,8,,stimuli,,,,,,,
,,,,,,,,,,,,,,,,,,,,,,,,,,rachel wright,21,female,english,United States,"korean, japanese",2021-03-28_20h56.34.864,UG_Thesis_exp_1,2021.1.2,Win32,60.00960154,,,1,0.8836,1,53,153,80,1,gaith,fillers/gaith.wav,,9,,,filler,,,,,,,
,,,,,,,,,,,,,,,,,,,,,,,,,,rachel wright,21,female,english,United States,"korean, japanese",2021-03-28_20h56.34.864,UG_Thesis_exp_1,2021.1.2,Win32,60.00960154,,,1,1.250345,1,54,154,89,1,sulft,fillers/suft.wav,,15,,,filler,,,,,,,
,,,,,,,,,,,,,,,,,,,,,,,,,,rachel wright,21,female,english,United States,"korean, japanese",2021-03-28_20h56.34.864,UG_Thesis_exp_1,2021.1.2,Win32,60.00960154,,,0,1.007675,1,55,155,6,1,trun,stimuli/trun.wav,valid,12,31,,stimuli,,,,,,,
,,,,,,,,,,,,,,,,,,,,,,,,,,rachel wright,21,female,english,United States,"korean, japanese",2021-03-28_20h56.34.864,UG_Thesis_exp_1,2021.1.2,Win32,60.00960154,,,0,1.017225,1,56,156,30,1,znaet,stimuli/znaet.wav,invalid,1,4,,stimuli,,,,,,,
,,,,,,,,,,,,,,,,,,,,,,,,,,rachel wright,21,female,english,United States,"korean, japanese",2021-03-28_20h56.34.864,UG_Thesis_exp_1,2021.1.2,Win32,60.00960154,,,0,1.150635,1,57,157,20,1,ftin,stimuli/ftin.wav,invalid,2,10,,stimuli,,,,,,,
,,,,,,,,,,,,,,,,,,,,,,,,,,rachel wright,21,female,english,United States,"korean, japanese",2021-03-28_20h56.34.864,UG_Thesis_exp_1,2021.1.2,Win32,60.00960154,,,0,0.899745,1,58,158,42,1,thwaet,stimuli/thwaet.wav,invalid,1,,,stimuli,,,,,,,
,,,,,,,,,,,,,,,,,,,,,,,,,,rachel wright,21,female,english,United States,"korean, japanese",2021-03-28_20h56.34.864,UG_Thesis_exp_1,2021.1.2,Win32,60.00960154,,,1,1.249835,1,59,159,51,1,jun,fillers/jun.wav,,49,,,filler,,,,,,,
,,,,,,,,,,,,,,,,,,,,,,,,,,rachel wright,21,female,english,United States,"korean, japanese",2021-03-28_20h56.34.864,UG_Thesis_exp_1,2021.1.2,Win32,60.00960154,,,1,1.772075,1,60,160,19,1,shnet,stimuli/shnet.wav,valid,2,10,,stimuli,,,,,,,
,,,,,,,,,,,,,,,,,,,,,,,,,,rachel wright,21,female,english,United States,"korean, japanese",2021-03-28_20h56.34.864,UG_Thesis_exp_1,2021.1.2,Win32,60.00960154,,,1,1.191695,1,61,161,63,1,peb,fillers/peb.wav,,14,,,filler,,,,,,,
,,,,,,,,,,,,,,,,,,,,,,,,,,rachel wright,21,female,english,United States,"korean, japanese",2021-03-28_20h56.34.864,UG_Thesis_exp_1,2021.1.2,Win32,60.00960154,,,1,1.207,1,62,162,84,1,ras,fillers/ras.wav,,52,,,filler,,,,,,,
,,,,,,,,,,,,,,,,,,,,,,,,,,rachel wright,21,female,english,United States,"korean, japanese",2021-03-28_20h56.34.864,UG_Thesis_exp_1,2021.1.2,Win32,60.00960154,,,0,1.00684,1,63,163,21,1,zrun,stimuli/zrun.wav,invalid,5,8,,stimuli,,,,,,,
,,,,,,,,,,,,,,,,,,,,,,,,,,rachel wright,21,female,english,United States,"korean, japanese",2021-03-28_20h56.34.864,UG_Thesis_exp_1,2021.1.2,Win32,60.00960154,,,1,1.999825,1,64,164,82,1,pab,fillers/pab.wav,,29,,,filler,,,,,,,
,,,,,,,,,,,,,,,,,,,,,,,,,,rachel wright,21,female,english,United States,"korean, japanese",2021-03-28_20h56.34.864,UG_Thesis_exp_1,2021.1.2,Win32,60.00960154,,,0,0.825835,1,65,165,48,1,jrun,stimuli/jrun.wav,invalid,4,11,,stimuli,,,,,,,
,,,,,,,,,,,,,,,,,,,,,,,,,,rachel wright,21,female,english,United States,"korean, japanese",2021-03-28_20h56.34.864,UG_Thesis_exp_1,2021.1.2,Win32,60.00960154,,,1,1.708535,1,66,166,66,1,hais,fillers/hais.wav,,11,,,filler,,,,,,,
,,,,,,,,,,,,,,,,,,,,,,,,,,rachel wright,21,female,english,United States,"korean, japanese",2021-03-28_20h56.34.864,UG_Thesis_exp_1,2021.1.2,Win32,60.00960154,,,0,1.0177,1,67,167,24,1,sfeed,stimuli/sfeed.wav,valid,7,7,,stimuli,,,,,,,
,,,,,,,,,,,,,,,,,,,,,,,,,,rachel wright,21,female,english,United States,"korean, japanese",2021-03-28_20h56.34.864,UG_Thesis_exp_1,2021.1.2,Win32,60.00960154,,,0,1.158645,1,68,168,38,1,vpeyl,stimuli/vpeyl.wav,invalid,2,0,,stimuli,,,,,,,
,,,,,,,,,,,,,,,,,,,,,,,,,,rachel wright,21,female,english,United States,"korean, japanese",2021-03-28_20h56.34.864,UG_Thesis_exp_1,2021.1.2,Win32,60.00960154,,,1,1.322135,1,69,169,86,1,suf,fillers/suf.wav,,33,,,filler,,,,,,,
,,,,,,,,,,,,,,,,,,,,,,,,,,rachel wright,21,female,english,United States,"korean, japanese",2021-03-28_20h56.34.864,UG_Thesis_exp_1,2021.1.2,Win32,60.00960154,,,1,0.891985,1,70,170,52,1,dus,fillers/dus.wav,,58,,,filler,,,,,,,
,,,,,,,,,,,,,,,,,,,,,,,,,,rachel wright,21,female,english,United States,"korean, japanese",2021-03-28_20h56.34.864,UG_Thesis_exp_1,2021.1.2,Win32,60.00960154,,,1,1.10072,1,71,171,55,1,suv,fillers/suv.wav,,25,,,filler,,,,,,,
,,,,,,,,,,,,,,,,,,,,,,,,,,rachel wright,21,female,english,United States,"korean, japanese",2021-03-28_20h56.34.864,UG_Thesis_exp_1,2021.1.2,Win32,60.00960154,,,1,0.9349,1,72,172,94,1,malb,fillers/malb.wav,,2,,,filler,,,,,,,
,,,,,,,,,,,,,,,,,,,,,,,,,,rachel wright,21,female,english,United States,"korean, japanese",2021-03-28_20h56.34.864,UG_Thesis_exp_1,2021.1.2,Win32,60.00960154,,,0,0.77005,1,73,173,18,1,fship,stimuli/fship.wav,invalid,2,11,,stimuli,,,,,,,
,,,,,,,,,,,,,,,,,,,,,,,,,,rachel wright,21,female,english,United States,"korean, japanese",2021-03-28_20h56.34.864,UG_Thesis_exp_1,2021.1.2,Win32,60.00960154,,,1,3.58991,1,74,174,1,1,smaet,stimuli/smaet.wav,valid,13,32,,stimuli,,,,,,,
,,,,,,,,,,,,,,,,,,,,,,,,,,rachel wright,21,female,english,United States,"korean, japanese",2021-03-28_20h56.34.864,UG_Thesis_exp_1,2021.1.2,Win32,60.00960154,,,1,1.12657,1,75,175,85,1,lus,fillers/lus.wav,,49,,,filler,,,,,,,
,,,,,,,,,,,,,,,,,,,,,,,,,,rachel wright,21,female,english,United States,"korean, japanese",2021-03-28_20h56.34.864,UG_Thesis_exp_1,2021.1.2,Win32,60.00960154,,,1,2.6997,1,76,176,40,1,thwup,stimuli/thwup.wav,invalid,0,,,stimuli,,,,,,,
,,,,,,,,,,,,,,,,,,,,,,,,,,rachel wright,21,female,english,United States,"korean, japanese",2021-03-28_20h56.34.864,UG_Thesis_exp_1,2021.1.2,Win32,60.00960154,,,0,0.901235,1,77,177,41,1,tweep,stimuli/tweep.wav,valid,0,,,stimuli,,,,,,,
,,,,,,,,,,,,,,,,,,,,,,,,,,rachel wright,21,female,english,United States,"korean, japanese",2021-03-28_20h56.34.864,UG_Thesis_exp_1,2021.1.2,Win32,60.00960154,,,1,1.136565,1,78,178,54,1,sug,fillers/sug.wav,,29,,,filler,,,,,,,
,,,,,,,,,,,,,,,,,,,,,,,,,,rachel wright,21,female,english,United States,"korean, japanese",2021-03-28_20h56.34.864,UG_Thesis_exp_1,2021.1.2,Win32,60.00960154,,,1,1.168125,1,79,179,15,1,mlung,stimuli/mlung.wav,invalid,4,13,,stimuli,,,,,,,
,,,,,,,,,,,,,,,,,,,,,,,,,,rachel wright,21,female,english,United States,"korean, japanese",2021-03-28_20h56.34.864,UG_Thesis_exp_1,2021.1.2,Win32,60.00960154,,,1,0.934165,1,80,180,87,1,tul,fillers/tul.wav,,42,,,filler,,,,,,,
,,,,,,,,,,,,,,,,,,,,,,,,,,rachel wright,21,female,english,United States,"korean, japanese",2021-03-28_20h56.34.864,UG_Thesis_exp_1,2021.1.2,Win32,60.00960154,,,1,1.200135,1,81,181,83,1,bip,fillers/bip.wav,,37,,,filler,,,,,,,
,,,,,,,,,,,,,,,,,,,,,,,,,,rachel wright,21,female,english,United States,"korean, japanese",2021-03-28_20h56.34.864,UG_Thesis_exp_1,2021.1.2,Win32,60.00960154,,,1,2.376075,1,82,182,60,1,juf,fillers/juf.wav,,19,,,filler,,,,,,,
,,,,,,,,,,,,,,,,,,,,,,,,,,rachel wright,21,female,english,United States,"korean, japanese",2021-03-28_20h56.34.864,UG_Thesis_exp_1,2021.1.2,Win32,60.00960154,,,1,1.15792,1,83,183,81,1,mub,fillers/mub.wav,,26,,,filler,,,,,,,
,,,,,,,,,,,,,,,,,,,,,,,,,,rachel wright,21,female,english,United States,"korean, japanese",2021-03-28_20h56.34.864,UG_Thesis_exp_1,2021.1.2,Win32,60.00960154,,,0,1.524525,1,84,184,68,1,gurg,fillers/gurg.wav,,9,,,filler,,,,,,,
,,,,,,,,,,,,,,,,,,,,,,,,,,rachel wright,21,female,english,United States,"korean, japanese",2021-03-28_20h56.34.864,UG_Thesis_exp_1,2021.1.2,Win32,60.00960154,,,0,0.901875,1,85,185,37,1,zkeep,stimuli/zkeep.wav,invalid,1,0,,stimuli,,,,,,,
,,,,,,,,,,,,,,,,,,,,,,,,,,rachel wright,21,female,english,United States,"korean, japanese",2021-03-28_20h56.34.864,UG_Thesis_exp_1,2021.1.2,Win32,60.00960154,,,0,0.95146,1,86,186,12,1,vrun,stimuli/vrun.wav,invalid,4,19,,stimuli,,,,,,,
,,,,,,,,,,,,,,,,,,,,,,,,,,rachel wright,21,female,english,United States,"korean, japanese",2021-03-28_20h56.34.864,UG_Thesis_exp_1,2021.1.2,Win32,60.00960154,,,0,1.10103,1,87,187,9,1,spung,stimuli/spung.wav,valid,11,28,,stimuli,,,,,,,
,,,,,,,,,,,,,,,,,,,,,,,,,,rachel wright,21,female,english,United States,"korean, japanese",2021-03-28_20h56.34.864,UG_Thesis_exp_1,2021.1.2,Win32,60.00960154,,,0,1.150255,1,88,188,4,1,flerk,stimuli/flerk.wav,valid,11,31,,stimuli,,,,,,,
,,,,,,,,,,,,,,,,,,,,,,,,,,rachel wright,21,female,english,United States,"korean, japanese",2021-03-28_20h56.34.864,UG_Thesis_exp_1,2021.1.2,Win32,60.00960154,,,0,0.804405,1,89,189,49,1,jveel,stimuli/jveel.wav,invalid,1,0,,stimuli,,,,,,,
,,,,,,,,,,,,,,,,,,,,,,,,,,rachel wright,21,female,english,United States,"korean, japanese",2021-03-28_20h56.34.864,UG_Thesis_exp_1,2021.1.2,Win32,60.00960154,,,1,1.00104,1,90,190,73,1,chudge,fillers/chudge.wav,,10,,,filler,,,,,,,
,,,,,,,,,,,,,,,,,,,,,,,,,,rachel wright,21,female,english,United States,"korean, japanese",2021-03-28_20h56.34.864,UG_Thesis_exp_1,2021.1.2,Win32,60.00960154,,,1,0.83461,1,91,191,95,1,bimp,fillers/bimp.wav,,7,,,filler,,,,,,,
,,,,,,,,,,,,,,,,,,,,,,,,,,rachel wright,21,female,english,United States,"korean, japanese",2021-03-28_20h56.34.864,UG_Thesis_exp_1,2021.1.2,Win32,60.00960154,,,1,1.14982,1,92,192,88,1,sudge,fillers/sudge.wav,,24,,,filler,,,,,,,
,,,,,,,,,,,,,,,,,,,,,,,,,,rachel wright,21,female,english,United States,"korean, japanese",2021-03-28_20h56.34.864,UG_Thesis_exp_1,2021.1.2,Win32,60.00960154,,,0,0.983815,1,93,193,13,1,srun,stimuli/srun.wav,invalid,9,14,,stimuli,,,,,,,
,,,,,,,,,,,,,,,,,,,,,,,,,,rachel wright,21,female,english,United States,"korean, japanese",2021-03-28_20h56.34.864,UG_Thesis_exp_1,2021.1.2,Win32,60.00960154,,,1,1.267695,1,94,194,57,1,sud,fillers/sud.wav,,40,,,filler,,,,,,,
,,,,,,,,,,,,,,,,,,,,,,,,,,rachel wright,21,female,english,United States,"korean, japanese",2021-03-28_20h56.34.864,UG_Thesis_exp_1,2021.1.2,Win32,60.00960154,,,1,1.121715,1,95,195,97,1,jalp,fillers/jalp.wav,,1,,,filler,,,,,,,
,,,,,,,,,,,,,,,,,,,,,,,,,,rachel wright,21,female,english,United States,"korean, japanese",2021-03-28_20h56.34.864,UG_Thesis_exp_1,2021.1.2,Win32,60.00960154,,,1,0.98353,1,96,196,79,1,chaith,fillers/chaith.wav,,5,,,filler,,,,,,,
,,,,,,,,,,,,,,,,,,,,,,,,,,rachel wright,21,female,english,United States,"korean, japanese",2021-03-28_20h56.34.864,UG_Thesis_exp_1,2021.1.2,Win32,60.00960154,,,0,3.050125,1,97,197,43,1,skeep,stimuli/skeep.wav,valid,2,20,,stimuli,,,,,,,
,,,,,,,,,,,,,,,,,,,,,,,,,,rachel wright,21,female,english,United States,"korean, japanese",2021-03-28_20h56.34.864,UG_Thesis_exp_1,2021.1.2,Win32,60.00960154,,,0,0.97463,1,98,198,17,1,fpeyl,stimuli/fpeyl.wav,invalid,4,13,,stimuli,,,,,,,
,,,,,,,,,,,,,,,,,,,,,,,,,,rachel wright,21,female,english,United States,"korean, japanese",2021-03-28_20h56.34.864,UG_Thesis_exp_1,2021.1.2,Win32,60.00960154,,,0,1.68304,1,99,199,93,1,gomt,fillers/gomt.wav,,0,,,filler,,,,,,,
,,,,,,,,,,,,,,,,,,,,,,,,,,rachel wright,21,female,english,United States,"korean, japanese",2021-03-28_20h56.34.864,UG_Thesis_exp_1,2021.1.2,Win32,60.00960154,,,0,2.05163,,,,,,mlung,stimuli/mlung.wav,invalid,4,13,,stimuli,space,47.2298,0,0,0,15,1
,,,,,,,,,,,,,,,,,,,,,,,,,,rachel wright,21,female,english,United States,"korean, japanese",2021-03-28_20h56.34.864,UG_Thesis_exp_1,2021.1.2,Win32,60.00960154,,,0,0.86346,,,,,,shtin,stimuli/shtin.wav,invalid,3,13,,stimuli,,,0,1,1,16,1
,,,,,,,,,,,,,,,,,,,,,,,,,,rachel wright,21,female,english,United States,"korean, japanese",2021-03-28_20h56.34.864,UG_Thesis_exp_1,2021.1.2,Win32,60.00960154,,,0,1.222225,,,,,,vpeyl,stimuli/vpeyl.wav,invalid,2,0,,stimuli,,,0,2,2,38,1
,,,,,,,,,,,,,,,,,,,,,,,,,,rachel wright,21,female,english,United States,"korean, japanese",2021-03-28_20h56.34.864,UG_Thesis_exp_1,2021.1.2,Win32,60.00960154,,,0,1.349845,,,,,,fnet,stimuli/fnet.wav,invalid,2,3,,stimuli,,,0,3,3,31,1
,,,,,,,,,,,,,,,,,,,,,,,,,,rachel wright,21,female,english,United States,"korean, japanese",2021-03-28_20h56.34.864,UG_Thesis_exp_1,2021.1.2,Win32,60.00960154,,,0,1.001645,,,,,,fship,stimuli/fship.wav,invalid,2,11,,stimuli,,,0,4,4,18,1
,,,,,,,,,,,,,,,,,,,,,,,,,,rachel wright,21,female,english,United States,"korean, japanese",2021-03-28_20h56.34.864,UG_Thesis_exp_1,2021.1.2,Win32,60.00960154,,,1,1.0134,,,,,,fawnk,fillers/fawnk.wav,,4,,,filler,,,0,5,5,98,1
,,,,,,,,,,,,,,,,,,,,,,,,,,rachel wright,21,female,english,United States,"korean, japanese",2021-03-28_20h56.34.864,UG_Thesis_exp_1,2021.1.2,Win32,60.00960154,,,0,1.72394,,,,,,snet,stimuli/snet.wav,valid,7,28,,stimuli,,,0,6,6,8,1
,,,,,,,,,,,,,,,,,,,,,,,,,,rachel wright,21,female,english,United States,"korean, japanese",2021-03-28_20h56.34.864,UG_Thesis_exp_1,2021.1.2,Win32,60.00960154,,,1,1.95097,,,,,,keb,fillers/keb.wav,,16,,,filler,,,0,7,7,65,1
,,,,,,,,,,,,,,,,,,,,,,,,,,rachel wright,21,female,english,United States,"korean, japanese",2021-03-28_20h56.34.864,UG_Thesis_exp_1,2021.1.2,Win32,60.00960154,,,1,1.61383,,,,,,shemp,fillers/shemp.wav,,3,,,filler,,,0,8,8,99,1
,,,,,,,,,,,,,,,,,,,,,,,,,,rachel wright,21,female,english,United States,"korean, japanese",2021-03-28_20h56.34.864,UG_Thesis_exp_1,2021.1.2,Win32,60.00960154,,,1,0.92469,,,,,,chulp,fillers/chulp.wav,,4,,,filler,,,0,9,9,96,1
,,,,,,,,,,,,,,,,,,,,,,,,,,rachel wright,21,female,english,United States,"korean, japanese",2021-03-28_20h56.34.864,UG_Thesis_exp_1,2021.1.2,Win32,60.00960154,,,1,1.81451,,,,,,chutch,fillers/chutch.wav,,12,,,filler,,,0,10,10,75,1
,,,,,,,,,,,,,,,,,,,,,,,,,,rachel wright,21,female,english,United States,"korean, japanese",2021-03-28_20h56.34.864,UG_Thesis_exp_1,2021.1.2,Win32,60.00960154,,,1,1.21426,,,,,,thuv,fillers/thuv.wav,,9,,,filler,,,0,11,11,76,1
,,,,,,,,,,,,,,,,,,,,,,,,,,rachel wright,21,female,english,United States,"korean, japanese",2021-03-28_20h56.34.864,UG_Thesis_exp_1,2021.1.2,Win32,60.00960154,,,1,3.0705,,,,,,thudge,fillers/thudge.wav,,7,,,filler,,,0,12,12,71,1
,,,,,,,,,,,,,,,,,,,,,,,,,,rachel wright,21,female,english,United States,"korean, japanese",2021-03-28_20h56.34.864,UG_Thesis_exp_1,2021.1.2,Win32,60.00960154,,,1,0.997075,,,,,,juf,fillers/juf.wav,,19,,,filler,,,0,13,13,60,1
,,,,,,,,,,,,,,,,,,,,,,,,,,rachel wright,21,female,english,United States,"korean, japanese",2021-03-28_20h56.34.864,UG_Thesis_exp_1,2021.1.2,Win32,60.00960154,,,0,2.33049,,,,,,shnet,stimuli/shnet.wav,valid,2,10,,stimuli,,,0,14,14,19,1
,,,,,,,,,,,,,,,,,,,,,,,,,,rachel wright,21,female,english,United States,"korean, japanese",2021-03-28_20h56.34.864,UG_Thesis_exp_1,2021.1.2,Win32,60.00960154,,,1,3.512275,,,,,,jrun,stimuli/jrun.wav,invalid,4,11,,stimuli,,,0,15,15,48,1
,,,,,,,,,,,,,,,,,,,,,,,,,,rachel wright,21,female,english,United States,"korean, japanese",2021-03-28_20h56.34.864,UG_Thesis_exp_1,2021.1.2,Win32,60.00960154,,,0,1.606655,,,,,,zlerk,stimuli/zlerk.wav,invalid,2,6,,stimuli,,,0,16,16,25,1
,,,,,,,,,,,,,,,,,,,,,,,,,,rachel wright,21,female,english,United States,"korean, japanese",2021-03-28_20h56.34.864,UG_Thesis_exp_1,2021.1.2,Win32,60.00960154,,,1,9.550655,,,,,,sulft,fillers/suft.wav,,15,,,filler,,,0,17,17,89,1
,,,,,,,,,,,,,,,,,,,,,,,,,,rachel wright,21,female,english,United States,"korean, japanese",2021-03-28_20h56.34.864,UG_Thesis_exp_1,2021.1.2,Win32,60.00960154,,,0,1.05459,,,,,,zrun,stimuli/zrun.wav,invalid,5,8,,stimuli,,,0,18,18,21,1
,,,,,,,,,,,,,,,,,,,,,,,,,,rachel wright,21,female,english,United States,"korean, japanese",2021-03-28_20h56.34.864,UG_Thesis_exp_1,2021.1.2,Win32,60.00960154,,,0,1.04937,,,,,,ftin,stimuli/ftin.wav,invalid,2,10,,stimuli,,,0,19,19,20,1
,,,,,,,,,,,,,,,,,,,,,,,,,,rachel wright,21,female,english,United States,"korean, japanese",2021-03-28_20h56.34.864,UG_Thesis_exp_1,2021.1.2,Win32,60.00960154,,,1,1.59675,,,,,,suv,fillers/suv.wav,,25,,,filler,,,0,20,20,55,1
,,,,,,,,,,,,,,,,,,,,,,,,,,rachel wright,21,female,english,United States,"korean, japanese",2021-03-28_20h56.34.864,UG_Thesis_exp_1,2021.1.2,Win32,60.00960154,,,0,2.4639,,,,,,prun,stimuli/prun.wav,valid,11,32,,stimuli,,,0,21,21,2,1
,,,,,,,,,,,,,,,,,,,,,,,,,,rachel wright,21,female,english,United States,"korean, japanese",2021-03-28_20h56.34.864,UG_Thesis_exp_1,2021.1.2,Win32,60.00960154,,,1,5.975615,,,,,,shpeyl,stimuli/shpeyl.wav,invalid,2,2,,stimuli,,,0,22,22,36,1
,,,,,,,,,,,,,,,,,,,,,,,,,,rachel wright,21,female,english,United States,"korean, japanese",2021-03-28_20h56.34.864,UG_Thesis_exp_1,2021.1.2,Win32,60.00960154,,,1,1.04732,,,,,,ras,fillers/ras.wav,,52,,,filler,,,0,23,23,84,1
,,,,,,,,,,,,,,,,,,,,,,,,,,rachel wright,21,female,english,United States,"korean, japanese",2021-03-28_20h56.34.864,UG_Thesis_exp_1,2021.1.2,Win32,60.00960154,,,0,1.686405,,,,,,jerp,fillers/jerp.wav,,7,,,filler,,,0,24,24,69,1
,,,,,,,,,,,,,,,,,,,,,,,,,,rachel wright,21,female,english,United States,"korean, japanese",2021-03-28_20h56.34.864,UG_Thesis_exp_1,2021.1.2,Win32,60.00960154,,,0,1.35717,,,,,,pum,fillers/pum.wav,,40,,,filler,,,0,25,25,59,1
,,,,,,,,,,,,,,,,,,,,,,,,,,rachel wright,21,female,english,United States,"korean, japanese",2021-03-28_20h56.34.864,UG_Thesis_exp_1,2021.1.2,Win32,60.00960154,,,0,0.979275,,,,,,nrun,stimuli/nrun.wav,invalid,5,8,,stimuli,,,0,26,26,22,1
,,,,,,,,,,,,,,,,,,,,,,,,,,rachel wright,21,female,english,United States,"korean, japanese",2021-03-28_20h56.34.864,UG_Thesis_exp_1,2021.1.2,Win32,60.00960154,,,0,1.472775,,,,,,jpeyl,stimuli/jpeyl.wav,invalid,1,1,,stimuli,,,0,27,27,46,1
,,,,,,,,,,,,,,,,,,,,,,,,,,rachel wright,21,female,english,United States,"korean, japanese",2021-03-28_20h56.34.864,UG_Thesis_exp_1,2021.1.2,Win32,60.00960154,,,1,1.129615,,,,,,pab,fillers/pab.wav,,29,,,filler,,,0,28,28,82,1
,,,,,,,,,,,,,,,,,,,,,,,,,,rachel wright,21,female,english,United States,"korean, japanese",2021-03-28_20h56.34.864,UG_Thesis_exp_1,2021.1.2,Win32,60.00960154,,,0,1.101195,,,,,,fpeyl,stimuli/fpeyl.wav,invalid,4,13,,stimuli,,,0,29,29,17,1
,,,,,,,,,,,,,,,,,,,,,,,,,,rachel wright,21,female,english,United States,"korean, japanese",2021-03-28_20h56.34.864,UG_Thesis_exp_1,2021.1.2,Win32,60.00960154,,,1,1.152305,,,,,,suf,fillers/suf.wav,,33,,,filler,,,0,30,30,86,1
,,,,,,,,,,,,,,,,,,,,,,,,,,rachel wright,21,female,english,United States,"korean, japanese",2021-03-28_20h56.34.864,UG_Thesis_exp_1,2021.1.2,Win32,60.00960154,,,0,1.32252,,,,,,stin,stimuli/stin.wav,valid,18,33,,stimuli,,,0,31,31,0,1
,,,,,,,,,,,,,,,,,,,,,,,,,,rachel wright,21,female,english,United States,"korean, japanese",2021-03-28_20h56.34.864,UG_Thesis_exp_1,2021.1.2,Win32,60.00960154,,,0,1.63235,,,,,,sug,fillers/sug.wav,,29,,,filler,,,0,32,32,54,1
,,,,,,,,,,,,,,,,,,,,,,,,,,rachel wright,21,female,english,United States,"korean, japanese",2021-03-28_20h56.34.864,UG_Thesis_exp_1,2021.1.2,Win32,60.00960154,,,1,1.26324,,,,,,pev,fillers/pev.wav,,15,,,filler,,,0,33,33,62,1
,,,,,,,,,,,,,,,,,,,,,,,,,,rachel wright,21,female,english,United States,"korean, japanese",2021-03-28_20h56.34.864,UG_Thesis_exp_1,2021.1.2,Win32,60.00960154,,,1,1.148665,,,,,,chudge,fillers/chudge.wav,,10,,,filler,,,0,34,34,73,1
,,,,,,,,,,,,,,,,,,,,,,,,,,rachel wright,21,female,english,United States,"korean, japanese",2021-03-28_20h56.34.864,UG_Thesis_exp_1,2021.1.2,Win32,60.00960154,,,0,2.4872,,,,,,fset,stimuli/fset.wav,invalid,4,6,,stimuli,,,0,35,35,27,1
,,,,,,,,,,,,,,,,,,,,,,,,,,rachel wright,21,female,english,United States,"korean, japanese",2021-03-28_20h56.34.864,UG_Thesis_exp_1,2021.1.2,Win32,60.00960154,,,0,0.803905,,,,,,zveel,stimuli/zveel.wav,invalid,2,3,,stimuli,,,0,36,36,34,1
,,,,,,,,,,,,,,,,,,,,,,,,,,rachel wright,21,female,english,United States,"korean, japanese",2021-03-28_20h56.34.864,UG_Thesis_exp_1,2021.1.2,Win32,60.00960154,,,0,0.753765,,,,,,znaet,stimuli/znaet.wav,invalid,1,4,,stimuli,,,0,37,37,30,1
,,,,,,,,,,,,,,,,,,,,,,,,,,rachel wright,21,female,english,United States,"korean, japanese",2021-03-28_20h56.34.864,UG_Thesis_exp_1,2021.1.2,Win32,60.00960154,,,0,1.529775,,,,,,gomt,fillers/gomt.wav,,0,,,filler,,,0,38,38,93,1
,,,,,,,,,,,,,,,,,,,,,,,,,,rachel wright,21,female,english,United States,"korean, japanese",2021-03-28_20h56.34.864,UG_Thesis_exp_1,2021.1.2,Win32,60.00960154,,,0,0.864205,,,,,,thwup,stimuli/thwup.wav,invalid,0,,,stimuli,,,0,39,39,40,1
,,,,,,,,,,,,,,,,,,,,,,,,,,rachel wright,21,female,english,United States,"korean, japanese",2021-03-28_20h56.34.864,UG_Thesis_exp_1,2021.1.2,Win32,60.00960154,,,0,0.74686,,,,,,bupt,fillers/bupt.wav,,10,,,filler,,,0,40,40,91,1
,,,,,,,,,,,,,,,,,,,,,,,,,,rachel wright,21,female,english,United States,"korean, japanese",2021-03-28_20h56.34.864,UG_Thesis_exp_1,2021.1.2,Win32,60.00960154,,,1,1.46557,,,,,,sherj,fillers/sherj.wav,,12,,,filler,,,0,41,41,64,1
,,,,,,,,,,,,,,,,,,,,,,,,,,rachel wright,21,female,english,United States,"korean, japanese",2021-03-28_20h56.34.864,UG_Thesis_exp_1,2021.1.2,Win32,60.00960154,,,0,0.816655,,,,,,fkeep,stimuli/fkeep.wav,invalid,1,3,,stimuli,,,0,42,42,32,1
,,,,,,,,,,,,,,,,,,,,,,,,,,rachel wright,21,female,english,United States,"korean, japanese",2021-03-28_20h56.34.864,UG_Thesis_exp_1,2021.1.2,Win32,60.00960154,,,1,1.146565,,,,,,hais,fillers/hais.wav,,11,,,filler,,,0,43,43,66,1
,,,,,,,,,,,,,,,,,,,,,,,,,,rachel wright,21,female,english,United States,"korean, japanese",2021-03-28_20h56.34.864,UG_Thesis_exp_1,2021.1.2,Win32,60.00960154,,,1,1.13892,,,,,,jalp,fillers/jalp.wav,,1,,,filler,,,0,44,44,97,1
,,,,,,,,,,,,,,,,,,,,,,,,,,rachel wright,21,female,english,United States,"korean, japanese",2021-03-28_20h56.34.864,UG_Thesis_exp_1,2021.1.2,Win32,60.00960154,,,1,1.96537,,,,,,peb,fillers/peb.wav,,14,,,filler,,,0,45,45,63,1
,,,,,,,,,,,,,,,,,,,,,,,,,,rachel wright,21,female,english,United States,"korean, japanese",2021-03-28_20h56.34.864,UG_Thesis_exp_1,2021.1.2,Win32,60.00960154,,,0,0.90515,,,,,,mrung,stimuli/mrung.wav,invalid,1,27,,stimuli,,,0,46,46,10,1
,,,,,,,,,,,,,,,,,,,,,,,,,,rachel wright,21,female,english,United States,"korean, japanese",2021-03-28_20h56.34.864,UG_Thesis_exp_1,2021.1.2,Win32,60.00960154,,,1,1.01318,,,,,,gaith,fillers/gaith.wav,,9,,,filler,,,0,47,47,80,1
,,,,,,,,,,,,,,,,,,,,,,,,,,rachel wright,21,female,english,United States,"korean, japanese",2021-03-28_20h56.34.864,UG_Thesis_exp_1,2021.1.2,Win32,60.00960154,,,1,0.95475,,,,,,chaith,fillers/chaith.wav,,5,,,filler,,,0,48,48,79,1
,,,,,,,,,,,,,,,,,,,,,,,,,,rachel wright,21,female,english,United States,"korean, japanese",2021-03-28_20h56.34.864,UG_Thesis_exp_1,2021.1.2,Win32,60.00960154,,,0,1.297555,,,,,,mub,fillers/mub.wav,,26,,,filler,,,0,49,49,81,1
,,,,,,,,,,,,,,,,,,,,,,,,,,rachel wright,21,female,english,United States,"korean, japanese",2021-03-28_20h56.34.864,UG_Thesis_exp_1,2021.1.2,Win32,60.00960154,,,0,0.952675,,,,,,vtin,stimuli/vtin.wav,invalid,2,3,,stimuli,,,0,50,50,33,1
,,,,,,,,,,,,,,,,,,,,,,,,,,rachel wright,21,female,english,United States,"korean, japanese",2021-03-28_20h56.34.864,UG_Thesis_exp_1,2021.1.2,Win32,60.00960154,,,0,1.097815,,,,,,vrun,stimuli/vrun.wav,invalid,4,19,,stimuli,,,0,51,51,12,1
,,,,,,,,,,,,,,,,,,,,,,,,,,rachel wright,21,female,english,United States,"korean, japanese",2021-03-28_20h56.34.864,UG_Thesis_exp_1,2021.1.2,Win32,60.00960154,,,1,1.6142,,,,,,grun,stimuli/grun.wav,valid,18,33,,stimuli,,,0,52,52,3,1
,,,,,,,,,,,,,,,,,,,,,,,,,,rachel wright,21,female,english,United States,"korean, japanese",2021-03-28_20h56.34.864,UG_Thesis_exp_1,2021.1.2,Win32,60.00960154,,,0,0.8975,,,,,,shfeed,stimuli/shfeed.wav,invalid,1,5,,stimuli,,,0,53,53,29,1
,,,,,,,,,,,,,,,,,,,,,,,,,,rachel wright,21,female,english,United States,"korean, japanese",2021-03-28_20h56.34.864,UG_Thesis_exp_1,2021.1.2,Win32,60.00960154,,,0,2.25497,,,,,,vlerk,stimuli/vlerk.wav,invalid,2,14,,stimuli,,,0,54,54,14,1
,,,,,,,,,,,,,,,,,,,,,,,,,,rachel wright,21,female,english,United States,"korean, japanese",2021-03-28_20h56.34.864,UG_Thesis_exp_1,2021.1.2,Win32,60.00960154,,,0,0.81362,,,,,,drung,stimuli/drung.wav,valid,7,31,,stimuli,,,0,55,55,5,1
,,,,,,,,,,,,,,,,,,,,,,,,,,rachel wright,21,female,english,United States,"korean, japanese",2021-03-28_20h56.34.864,UG_Thesis_exp_1,2021.1.2,Win32,60.00960154,,,0,0.88507,,,,,,thwaet,stimuli/thwaet.wav,invalid,1,,,stimuli,,,0,56,56,42,1
,,,,,,,,,,,,,,,,,,,,,,,,,,rachel wright,21,female,english,United States,"korean, japanese",2021-03-28_20h56.34.864,UG_Thesis_exp_1,2021.1.2,Win32,60.00960154,,,0,0.914215,,,,,,srun,stimuli/srun.wav,invalid,9,14,,stimuli,,,0,57,57,13,1
,,,,,,,,,,,,,,,,,,,,,,,,,,rachel wright,21,female,english,United States,"korean, japanese",2021-03-28_20h56.34.864,UG_Thesis_exp_1,2021.1.2,Win32,60.00960154,,,0,0.88118,,,,,,vzut,stimuli/vzut.wav,invalid,1,6,,stimuli,,,0,58,58,28,1
,,,,,,,,,,,,,,,,,,,,,,,,,,rachel wright,21,female,english,United States,"korean, japanese",2021-03-28_20h56.34.864,UG_Thesis_exp_1,2021.1.2,Win32,60.00960154,,,0,1.364055,,,,,,malb,fillers/malb.wav,,2,,,filler,,,0,59,59,94,1
,,,,,,,,,,,,,,,,,,,,,,,,,,rachel wright,21,female,english,United States,"korean, japanese",2021-03-28_20h56.34.864,UG_Thesis_exp_1,2021.1.2,Win32,60.00960154,,,1,1.324015,,,,,,lun,fillers/lun.wav,,70,,,filler,,,0,60,60,58,1
,,,,,,,,,,,,,,,,,,,,,,,,,,rachel wright,21,female,english,United States,"korean, japanese",2021-03-28_20h56.34.864,UG_Thesis_exp_1,2021.1.2,Win32,60.00960154,,,0,0.914865,,,,,,frun,stimuli/frun.wav,valid,12,29,,stimuli,,,0,61,61,7,1
,,,,,,,,,,,,,,,,,,,,,,,,,,rachel wright,21,female,english,United States,"korean, japanese",2021-03-28_20h56.34.864,UG_Thesis_exp_1,2021.1.2,Win32,60.00960154,,,1,1.24791,,,,,,smaet,stimuli/smaet.wav,valid,13,32,,stimuli,,,0,62,62,1,1
,,,,,,,,,,,,,,,,,,,,,,,,,,rachel wright,21,female,english,United States,"korean, japanese",2021-03-28_20h56.34.864,UG_Thesis_exp_1,2021.1.2,Win32,60.00960154,,,1,1.363965,,,,,,jun,fillers/jun.wav,,49,,,filler,,,0,63,63,51,1
,,,,,,,,,,,,,,,,,,,,,,,,,,rachel wright,21,female,english,United States,"korean, japanese",2021-03-28_20h56.34.864,UG_Thesis_exp_1,2021.1.2,Win32,60.00960154,,,0,0.935495,,,,,,glung,stimuli/glung.wav,valid,9,27,,stimuli,,,0,64,64,47,1
,,,,,,,,,,,,,,,,,,,,,,,,,,rachel wright,21,female,english,United States,"korean, japanese",2021-03-28_20h56.34.864,UG_Thesis_exp_1,2021.1.2,Win32,60.00960154,,,1,1.07977,,,,,,dus,fillers/dus.wav,,58,,,filler,,,0,65,65,52,1
,,,,,,,,,,,,,,,,,,,,,,,,,,rachel wright,21,female,english,United States,"korean, japanese",2021-03-28_20h56.34.864,UG_Thesis_exp_1,2021.1.2,Win32,60.00960154,,,0,1.64862,,,,,,tupt,fillers/tupt.wav,,11,,,filler,,,0,66,66,90,1
,,,,,,,,,,,,,,,,,,,,,,,,,,rachel wright,21,female,english,United States,"korean, japanese",2021-03-28_20h56.34.864,UG_Thesis_exp_1,2021.1.2,Win32,60.00960154,,,0,0.91374,,,,,,shlerk,stimuli/shlerk.wav,invalid,4,22,,stimuli,,,0,67,67,11,1
,,,,,,,,,,,,,,,,,,,,,,,,,,rachel wright,21,female,english,United States,"korean, japanese",2021-03-28_20h56.34.864,UG_Thesis_exp_1,2021.1.2,Win32,60.00960154,,,1,1.263825,,,,,,shirj,fillers/shirj.wav,,12,,,filler,,,0,68,68,70,1
,,,,,,,,,,,,,,,,,,,,,,,,,,rachel wright,21,female,english,United States,"korean, japanese",2021-03-28_20h56.34.864,UG_Thesis_exp_1,2021.1.2,Win32,60.00960154,,,0,1.40415,,,,,,sfeed,stimuli/sfeed.wav,valid,7,7,,stimuli,,,0,69,69,24,1
,,,,,,,,,,,,,,,,,,,,,,,,,,rachel wright,21,female,english,United States,"korean, japanese",2021-03-28_20h56.34.864,UG_Thesis_exp_1,2021.1.2,Win32,60.00960154,,,0,1.347275,,,,,,gurg,fillers/gurg.wav,,9,,,filler,,,0,70,70,68,1
,,,,,,,,,,,,,,,,,,,,,,,,,,rachel wright,21,female,english,United States,"korean, japanese",2021-03-28_20h56.34.864,UG_Thesis_exp_1,2021.1.2,Win32,60.00960154,,,0,0.915285,,,,,,spung,stimuli/spung.wav,valid,11,28,,stimuli,,,0,71,71,9,1
,,,,,,,,,,,,,,,,,,,,,,,,,,rachel wright,21,female,english,United States,"korean, japanese",2021-03-28_20h56.34.864,UG_Thesis_exp_1,2021.1.2,Win32,60.00960154,,,0,1.430985,,,,,,tweep,stimuli/tweep.wav,valid,0,,,stimuli,,,0,72,72,41,1
,,,,,,,,,,,,,,,,,,,,,,,,,,rachel wright,21,female,english,United States,"korean, japanese",2021-03-28_20h56.34.864,UG_Thesis_exp_1,2021.1.2,Win32,60.00960154,,,0,0.922305,,,,,,tul,fillers/tul.wav,,42,,,filler,,,0,73,73,87,1
,,,,,,,,,,,,,,,,,,,,,,,,,,rachel wright,21,female,english,United States,"korean, japanese",2021-03-28_20h56.34.864,UG_Thesis_exp_1,2021.1.2,Win32,60.00960154,,,1,1.14003,,,,,,thith,fillers/thith.wav,,4,,,filler,,,0,74,74,67,1
,,,,,,,,,,,,,,,,,,,,,,,,,,rachel wright,21,female,english,United States,"korean, japanese",2021-03-28_20h56.34.864,UG_Thesis_exp_1,2021.1.2,Win32,60.00960154,,,0,1.04674,,,,,,trun,stimuli/trun.wav,valid,12,31,,stimuli,,,0,75,75,6,1
,,,,,,,,,,,,,,,,,,,,,,,,,,rachel wright,21,female,english,United States,"korean, japanese",2021-03-28_20h56.34.864,UG_Thesis_exp_1,2021.1.2,Win32,60.00960154,,,1,0.97064,,,,,,gej,fillers/gej.wav,,7,,,filler,,,0,76,76,77,1
,,,,,,,,,,,,,,,,,,,,,,,,,,rachel wright,21,female,english,United States,"korean, japanese",2021-03-28_20h56.34.864,UG_Thesis_exp_1,2021.1.2,Win32,60.00960154,,,0,0.881195,,,,,,zkeep,stimuli/zkeep.wav,invalid,1,0,,stimuli,,,0,77,77,37,1
,,,,,,,,,,,,,,,,,,,,,,,,,,rachel wright,21,female,english,United States,"korean, japanese",2021-03-28_20h56.34.864,UG_Thesis_exp_1,2021.1.2,Win32,60.00960154,,,1,1.062295,,,,,,purgd,fillers/purgd.wav,,3,,,filler,,,0,78,78,92,1
,,,,,,,,,,,,,,,,,,,,,,,,,,rachel wright,21,female,english,United States,"korean, japanese",2021-03-28_20h56.34.864,UG_Thesis_exp_1,2021.1.2,Win32,60.00960154,,,0,0.985165,,,,,,shmat,stimuli/shmat.wav,valid,1,7,,stimuli,,,0,79,79,23,1
,,,,,,,,,,,,,,,,,,,,,,,,,,rachel wright,21,female,english,United States,"korean, japanese",2021-03-28_20h56.34.864,UG_Thesis_exp_1,2021.1.2,Win32,60.00960154,,,0,3.56341,,,,,,flerk,stimuli/flerk.wav,valid,11,31,,stimuli,,,0,80,80,4,1
,,,,,,,,,,,,,,,,,,,,,,,,,,rachel wright,21,female,english,United States,"korean, japanese",2021-03-28_20h56.34.864,UG_Thesis_exp_1,2021.1.2,Win32,60.00960154,,,1,1.12896,,,,,,sudge,fillers/sudge.wav,,24,,,filler,,,0,81,81,88,1
,,,,,,,,,,,,,,,,,,,,,,,,,,rachel wright,21,female,english,United States,"korean, japanese",2021-03-28_20h56.34.864,UG_Thesis_exp_1,2021.1.2,Win32,60.00960154,,,0,0.96682,,,,,,ztin,stimuli/ztin.wav,invalid,1,6,,stimuli,,,0,82,82,26,1
,,,,,,,,,,,,,,,,,,,,,,,,,,rachel wright,21,female,english,United States,"korean, japanese",2021-03-28_20h56.34.864,UG_Thesis_exp_1,2021.1.2,Win32,60.00960154,,,1,1.88187,,,,,,wudge,fillers/wudge.wav,,13,,,filler,,,0,83,83,74,1
,,,,,,,,,,,,,,,,,,,,,,,,,,rachel wright,21,female,english,United States,"korean, japanese",2021-03-28_20h56.34.864,UG_Thesis_exp_1,2021.1.2,Win32,60.00960154,,,1,1.121115,,,,,,lus,fillers/lus.wav,,49,,,filler,,,0,84,84,85,1
,,,,,,,,,,,,,,,,,,,,,,,,,,rachel wright,21,female,english,United States,"korean, japanese",2021-03-28_20h56.34.864,UG_Thesis_exp_1,2021.1.2,Win32,60.00960154,,,0,1.10175,,,,,,dwil,stimuli/dwil.wav,invalid,7,,,stimuli,,,0,85,85,39,1
,,,,,,,,,,,,,,,,,,,,,,,,,,rachel wright,21,female,english,United States,"korean, japanese",2021-03-28_20h56.34.864,UG_Thesis_exp_1,2021.1.2,Win32,60.00960154,,,1,1.514755,,,,,,bip,fillers/bip.wav,,37,,,filler,,,0,86,86,83,1
,,,,,,,,,,,,,,,,,,,,,,,,,,rachel wright,21,female,english,United States,"korean, japanese",2021-03-28_20h56.34.864,UG_Thesis_exp_1,2021.1.2,Win32,60.00960154,,,1,1.167695,,,,,,rul,fillers/rul.wav,,42,,,filler,,,0,87,87,56,1
,,,,,,,,,,,,,,,,,,,,,,,,,,rachel wright,21,female,english,United States,"korean, japanese",2021-03-28_20h56.34.864,UG_Thesis_exp_1,2021.1.2,Win32,60.00960154,,,0,1.382795,,,,,,suz,fillers/suz.wav,,37,,,filler,,,0,88,88,53,1
,,,,,,,,,,,,,,,,,,,,,,,,,,rachel wright,21,female,english,United States,"korean, japanese",2021-03-28_20h56.34.864,UG_Thesis_exp_1,2021.1.2,Win32,60.00960154,,,1,1.15822,,,,,,bimp,fillers/bimp.wav,,7,,,filler,,,0,89,89,95,1
,,,,,,,,,,,,,,,,,,,,,,,,,,rachel wright,21,female,english,United States,"korean, japanese",2021-03-28_20h56.34.864,UG_Thesis_exp_1,2021.1.2,Win32,60.00960154,,,1,1.418885,,,,,,sud,fillers/sud.wav,,40,,,filler,,,0,90,90,57,1
,,,,,,,,,,,,,,,,,,,,,,,,,,rachel wright,21,female,english,United States,"korean, japanese",2021-03-28_20h56.34.864,UG_Thesis_exp_1,2021.1.2,Win32,60.00960154,,,1,2.38219,,,,,,jutch,fillers/jutch.wav,,10,,,filler,,,0,91,91,72,1
,,,,,,,,,,,,,,,,,,,,,,,,,,rachel wright,21,female,english,United States,"korean, japanese",2021-03-28_20h56.34.864,UG_Thesis_exp_1,2021.1.2,Win32,60.00960154,,,1,1.196005,,,,,,wutch,fillers/wutch.wav,,17,,,filler,,,0,92,92,61,1
,,,,,,,,,,,,,,,,,,,,,,,,,,rachel wright,21,female,english,United States,"korean, japanese",2021-03-28_20h56.34.864,UG_Thesis_exp_1,2021.1.2,Win32,60.00960154,,,0,2.035205,,,,,,vnet,stimuli/vnet.wav,invalid,2,1,,stimuli,,,0,93,93,44,1
,,,,,,,,,,,,,,,,,,,,,,,,,,rachel wright,21,female,english,United States,"korean, japanese",2021-03-28_20h56.34.864,UG_Thesis_exp_1,2021.1.2,Win32,60.00960154,,,0,1.13624,,,,,,jveel,stimuli/jveel.wav,invalid,1,0,,stimuli,,,0,94,94,49,1
,,,,,,,,,,,,,,,,,,,,,,,,,,rachel wright,21,female,english,United States,"korean, japanese",2021-03-28_20h56.34.864,UG_Thesis_exp_1,2021.1.2,Win32,60.00960154,,,0,1.097395,,,,,,jaith,fillers/jaith.wav,,7,,,filler,,,0,95,95,78,1
,,,,,,,,,,,,,,,,,,,,,,,,,,rachel wright,21,female,english,United States,"korean, japanese",2021-03-28_20h56.34.864,UG_Thesis_exp_1,2021.1.2,Win32,60.00960154,,,1,0.957385,,,,,,hus,fillers/hus.wav,,46,,,filler,,,0,96,96,50,1
,,,,,,,,,,,,,,,,,,,,,,,,,,rachel wright,21,female,english,United States,"korean, japanese",2021-03-28_20h56.34.864,UG_Thesis_exp_1,2021.1.2,Win32,60.00960154,,,0,2.45024,,,,,,shkeep,stimuli/shkeep.wav,invalid,15,1,,stimuli,,,0,97,97,45,1
,,,,,,,,,,,,,,,,,,,,,,,,,,rachel wright,21,female,english,United States,"korean, japanese",2021-03-28_20h56.34.864,UG_Thesis_exp_1,2021.1.2,Win32,60.00960154,,,0,2.8844,,,,,,skeep,stimuli/skeep.wav,valid,2,20,,stimuli,,,0,98,98,43,1
,,,,,,,,,,,,,,,,,,,,,,,,,,rachel wright,21,female,english,United States,"korean, japanese",2021-03-28_20h56.34.864,UG_Thesis_exp_1,2021.1.2,Win32,60.00960154,,,0,1.130015,,,,,,fmaet,stimuli/fmaet.wav,invalid,4,2,,stimuli,,,0,99,99,35,1
,,,,,,,,,,,,,,,,,,,,,,,,,,rachel wright,21,female,english,United States,"korean, japanese",2021-03-28_20h56.34.864,UG_Thesis_exp_1,2021.1.2,Win32,60.00960154,,,1,1.03934,,,,,,pev,fillers/pev.wav,,15,,,filler,,,1,0,100,62,1
,,,,,,,,,,,,,,,,,,,,,,,,,,rachel wright,21,female,english,United States,"korean, japanese",2021-03-28_20h56.34.864,UG_Thesis_exp_1,2021.1.2,Win32,60.00960154,,,0,0.932555,,,,,,zlerk,stimuli/zlerk.wav,invalid,2,6,,stimuli,,,1,1,101,25,1
,,,,,,,,,,,,,,,,,,,,,,,,,,rachel wright,21,female,english,United States,"korean, japanese",2021-03-28_20h56.34.864,UG_Thesis_exp_1,2021.1.2,Win32,60.00960154,,,0,1.016645,,,,,,vlerk,stimuli/vlerk.wav,invalid,2,14,,stimuli,,,1,2,102,14,1
,,,,,,,,,,,,,,,,,,,,,,,,,,rachel wright,21,female,english,United States,"korean, japanese",2021-03-28_20h56.34.864,UG_Thesis_exp_1,2021.1.2,Win32,60.00960154,,,0,2.06965,,,,,,fship,stimuli/fship.wav,invalid,2,11,,stimuli,,,1,3,103,18,1
,,,,,,,,,,,,,,,,,,,,,,,,,,rachel wright,21,female,english,United States,"korean, japanese",2021-03-28_20h56.34.864,UG_Thesis_exp_1,2021.1.2,Win32,60.00960154,,,1,0.879205,,,,,,bimp,fillers/bimp.wav,,7,,,filler,,,1,4,104,95,1
,,,,,,,,,,,,,,,,,,,,,,,,,,rachel wright,21,female,english,United States,"korean, japanese",2021-03-28_20h56.34.864,UG_Thesis_exp_1,2021.1.2,Win32,60.00960154,,,0,1.48059,,,,,,mub,fillers/mub.wav,,26,,,filler,,,1,5,105,81,1
,,,,,,,,,,,,,,,,,,,,,,,,,,rachel wright,21,female,english,United States,"korean, japanese",2021-03-28_20h56.34.864,UG_Thesis_exp_1,2021.1.2,Win32,60.00960154,,,0,2.5367,,,,,,sug,fillers/sug.wav,,29,,,filler,,,1,6,106,54,1
,,,,,,,,,,,,,,,,,,,,,,,,,,rachel wright,21,female,english,United States,"korean, japanese",2021-03-28_20h56.34.864,UG_Thesis_exp_1,2021.1.2,Win32,60.00960154,,,1,1.74857,,,,,,lun,fillers/lun.wav,,70,,,filler,,,1,7,107,58,1
,,,,,,,,,,,,,,,,,,,,,,,,,,rachel wright,21,female,english,United States,"korean, japanese",2021-03-28_20h56.34.864,UG_Thesis_exp_1,2021.1.2,Win32,60.00960154,,,0,6.49555,,,,,,shnet,stimuli/shnet.wav,valid,2,10,,stimuli,,,1,8,108,19,1
,,,,,,,,,,,,,,,,,,,,,,,,,,rachel wright,21,female,english,United States,"korean, japanese",2021-03-28_20h56.34.864,UG_Thesis_exp_1,2021.1.2,Win32,60.00960154,,,0,1.003465,,,,,,vrun,stimuli/vrun.wav,invalid,4,19,,stimuli,,,1,9,109,12,1
,,,,,,,,,,,,,,,,,,,,,,,,,,rachel wright,21,female,english,United States,"korean, japanese",2021-03-28_20h56.34.864,UG_Thesis_exp_1,2021.1.2,Win32,60.00960154,,,0,3.517725,,,,,,smaet,stimuli/smaet.wav,valid,13,32,,stimuli,,,1,10,110,1,1
,,,,,,,,,,,,,,,,,,,,,,,,,,rachel wright,21,female,english,United States,"korean, japanese",2021-03-28_20h56.34.864,UG_Thesis_exp_1,2021.1.2,Win32,60.00960154,,,1,0.97344,,,,,,jalp,fillers/jalp.wav,,1,,,filler,,,1,11,111,97,1
,,,,,,,,,,,,,,,,,,,,,,,,,,rachel wright,21,female,english,United States,"korean, japanese",2021-03-28_20h56.34.864,UG_Thesis_exp_1,2021.1.2,Win32,60.00960154,,,0,1.49663,,,,,,shkeep,stimuli/shkeep.wav,invalid,15,1,,stimuli,,,1,12,112,45,1
,,,,,,,,,,,,,,,,,,,,,,,,,,rachel wright,21,female,english,United States,"korean, japanese",2021-03-28_20h56.34.864,UG_Thesis_exp_1,2021.1.2,Win32,60.00960154,,,0,1.201695,,,,,,glung,stimuli/glung.wav,valid,9,27,,stimuli,,,1,13,113,47,1
,,,,,,,,,,,,,,,,,,,,,,,,,,rachel wright,21,female,english,United States,"korean, japanese",2021-03-28_20h56.34.864,UG_Thesis_exp_1,2021.1.2,Win32,60.00960154,,,0,6.68459,,,,,,jpeyl,stimuli/jpeyl.wav,invalid,1,1,,stimuli,,,1,14,114,46,1
,,,,,,,,,,,,,,,,,,,,,,,,,,rachel wright,21,female,english,United States,"korean, japanese",2021-03-28_20h56.34.864,UG_Thesis_exp_1,2021.1.2,Win32,60.00960154,,,1,1.567815,,,,,,juf,fillers/juf.wav,,19,,,filler,,,1,15,115,60,1
,,,,,,,,,,,,,,,,,,,,,,,,,,rachel wright,21,female,english,United States,"korean, japanese",2021-03-28_20h56.34.864,UG_Thesis_exp_1,2021.1.2,Win32,60.00960154,,,0,2.353685,,,,,,thwup,stimuli/thwup.wav,invalid,0,,,stimuli,,,1,16,116,40,1
,,,,,,,,,,,,,,,,,,,,,,,,,,rachel wright,21,female,english,United States,"korean, japanese",2021-03-28_20h56.34.864,UG_Thesis_exp_1,2021.1.2,Win32,60.00960154,,,0,0.762955,,,,,,jrun,stimuli/jrun.wav,invalid,4,11,,stimuli,,,1,17,117,48,1
,,,,,,,,,,,,,,,,,,,,,,,,,,rachel wright,21,female,english,United States,"korean, japanese",2021-03-28_20h56.34.864,UG_Thesis_exp_1,2021.1.2,Win32,60.00960154,,,0,1.266665,,,,,,pab,fillers/pab.wav,,29,,,filler,,,1,18,118,82,1
,,,,,,,,,,,,,,,,,,,,,,,,,,rachel wright,21,female,english,United States,"korean, japanese",2021-03-28_20h56.34.864,UG_Thesis_exp_1,2021.1.2,Win32,60.00960154,,,1,0.953655,,,,,,chudge,fillers/chudge.wav,,10,,,filler,,,1,19,119,73,1
,,,,,,,,,,,,,,,,,,,,,,,,,,rachel wright,21,female,english,United States,"korean, japanese",2021-03-28_20h56.34.864,UG_Thesis_exp_1,2021.1.2,Win32,60.00960154,,,1,1.086705,,,,,,purgd,fillers/purgd.wav,,3,,,filler,,,1,20,120,92,1
,,,,,,,,,,,,,,,,,,,,,,,,,,rachel wright,21,female,english,United States,"korean, japanese",2021-03-28_20h56.34.864,UG_Thesis_exp_1,2021.1.2,Win32,60.00960154,,,0,0.885915,,,,,,znaet,stimuli/znaet.wav,invalid,1,4,,stimuli,,,1,21,121,30,1
,,,,,,,,,,,,,,,,,,,,,,,,,,rachel wright,21,female,english,United States,"korean, japanese",2021-03-28_20h56.34.864,UG_Thesis_exp_1,2021.1.2,Win32,60.00960154,,,0,0.800005,,,,,,vpeyl,stimuli/vpeyl.wav,invalid,2,0,,stimuli,,,1,22,122,38,1
,,,,,,,,,,,,,,,,,,,,,,,,,,rachel wright,21,female,english,United States,"korean, japanese",2021-03-28_20h56.34.864,UG_Thesis_exp_1,2021.1.2,Win32,60.00960154,,,0,2.55736,,,,,,gomt,fillers/gomt.wav,,0,,,filler,,,1,23,123,93,1
,,,,,,,,,,,,,,,,,,,,,,,,,,rachel wright,21,female,english,United States,"korean, japanese",2021-03-28_20h56.34.864,UG_Thesis_exp_1,2021.1.2,Win32,60.00960154,,,1,0.92127,,,,,,pum,fillers/pum.wav,,40,,,filler,,,1,24,124,59,1
,,,,,,,,,,,,,,,,,,,,,,,,,,rachel wright,21,female,english,United States,"korean, japanese",2021-03-28_20h56.34.864,UG_Thesis_exp_1,2021.1.2,Win32,60.00960154,,,0,0.964875,,,,,,grun,stimuli/grun.wav,valid,18,33,,stimuli,,,1,25,125,3,1
,,,,,,,,,,,,,,,,,,,,,,,,,,rachel wright,21,female,english,United States,"korean, japanese",2021-03-28_20h56.34.864,UG_Thesis_exp_1,2021.1.2,Win32,60.00960154,,,1,1.02272,,,,,,sherj,fillers/sherj.wav,,12,,,filler,,,1,26,126,64,1
,,,,,,,,,,,,,,,,,,,,,,,,,,rachel wright,21,female,english,United States,"korean, japanese",2021-03-28_20h56.34.864,UG_Thesis_exp_1,2021.1.2,Win32,60.00960154,,,1,1.485835,,,,,,fawnk,fillers/fawnk.wav,,4,,,filler,,,1,27,127,98,1
,,,,,,,,,,,,,,,,,,,,,,,,,,rachel wright,21,female,english,United States,"korean, japanese",2021-03-28_20h56.34.864,UG_Thesis_exp_1,2021.1.2,Win32,60.00960154,,,0,1.0473,,,,,,shfeed,stimuli/shfeed.wav,invalid,1,5,,stimuli,,,1,28,128,29,1
,,,,,,,,,,,,,,,,,,,,,,,,,,rachel wright,21,female,english,United States,"korean, japanese",2021-03-28_20h56.34.864,UG_Thesis_exp_1,2021.1.2,Win32,60.00960154,,,0,0.995855,,,,,,dwil,stimuli/dwil.wav,invalid,7,,,stimuli,,,1,29,129,39,1
,,,,,,,,,,,,,,,,,,,,,,,,,,rachel wright,21,female,english,United States,"korean, japanese",2021-03-28_20h56.34.864,UG_Thesis_exp_1,2021.1.2,Win32,60.00960154,,,1,2.13022,,,,,,chulp,fillers/chulp.wav,,4,,,filler,,,1,30,130,96,1
,,,,,,,,,,,,,,,,,,,,,,,,,,rachel wright,21,female,english,United States,"korean, japanese",2021-03-28_20h56.34.864,UG_Thesis_exp_1,2021.1.2,Win32,60.00960154,,,1,1.230895,,,,,,gaith,fillers/gaith.wav,,9,,,filler,,,1,31,131,80,1
,,,,,,,,,,,,,,,,,,,,,,,,,,rachel wright,21,female,english,United States,"korean, japanese",2021-03-28_20h56.34.864,UG_Thesis_exp_1,2021.1.2,Win32,60.00960154,,,1,1.269105,,,,,,chutch,fillers/chutch.wav,,12,,,filler,,,1,32,132,75,1
,,,,,,,,,,,,,,,,,,,,,,,,,,rachel wright,21,female,english,United States,"korean, japanese",2021-03-28_20h56.34.864,UG_Thesis_exp_1,2021.1.2,Win32,60.00960154,,,1,2.14031,,,,,,drung,stimuli/drung.wav,valid,7,31,,stimuli,,,1,33,133,5,1
,,,,,,,,,,,,,,,,,,,,,,,,,,rachel wright,21,female,english,United States,"korean, japanese",2021-03-28_20h56.34.864,UG_Thesis_exp_1,2021.1.2,Win32,60.00960154,,,0,1.354475,,,,,,suz,fillers/suz.wav,,37,,,filler,,,1,34,134,53,1
,,,,,,,,,,,,,,,,,,,,,,,,,,rachel wright,21,female,english,United States,"korean, japanese",2021-03-28_20h56.34.864,UG_Thesis_exp_1,2021.1.2,Win32,60.00960154,,,1,1.119695,,,,,,tul,fillers/tul.wav,,42,,,filler,,,1,35,135,87,1
,,,,,,,,,,,,,,,,,,,,,,,,,,rachel wright,21,female,english,United States,"korean, japanese",2021-03-28_20h56.34.864,UG_Thesis_exp_1,2021.1.2,Win32,60.00960154,,,1,1.24843,,,,,,sulft,fillers/suft.wav,,15,,,filler,,,1,36,136,89,1
,,,,,,,,,,,,,,,,,,,,,,,,,,rachel wright,21,female,english,United States,"korean, japanese",2021-03-28_20h56.34.864,UG_Thesis_exp_1,2021.1.2,Win32,60.00960154,,,1,0.88011,,,,,,dus,fillers/dus.wav,,58,,,filler,,,1,37,137,52,1
,,,,,,,,,,,,,,,,,,,,,,,,,,rachel wright,21,female,english,United States,"korean, japanese",2021-03-28_20h56.34.864,UG_Thesis_exp_1,2021.1.2,Win32,60.00960154,,,0,1.18058,,,,,,jveel,stimuli/jveel.wav,invalid,1,0,,stimuli,,,1,38,138,49,1
,,,,,,,,,,,,,,,,,,,,,,,,,,rachel wright,21,female,english,United States,"korean, japanese",2021-03-28_20h56.34.864,UG_Thesis_exp_1,2021.1.2,Win32,60.00960154,,,1,2.436605,,,,,,thuv,fillers/thuv.wav,,9,,,filler,,,1,39,139,76,1
,,,,,,,,,,,,,,,,,,,,,,,,,,rachel wright,21,female,english,United States,"korean, japanese",2021-03-28_20h56.34.864,UG_Thesis_exp_1,2021.1.2,Win32,60.00960154,,,1,1.10097,,,,,,jun,fillers/jun.wav,,49,,,filler,,,1,40,140,51,1
,,,,,,,,,,,,,,,,,,,,,,,,,,rachel wright,21,female,english,United States,"korean, japanese",2021-03-28_20h56.34.864,UG_Thesis_exp_1,2021.1.2,Win32,60.00960154,,,0,1.100135,,,,,,thwaet,stimuli/thwaet.wav,invalid,1,,,stimuli,,,1,41,141,42,1
,,,,,,,,,,,,,,,,,,,,,,,,,,rachel wright,21,female,english,United States,"korean, japanese",2021-03-28_20h56.34.864,UG_Thesis_exp_1,2021.1.2,Win32,60.00960154,,,1,0.913315,,,,,,gej,fillers/gej.wav,,7,,,filler,,,1,42,142,77,1
,,,,,,,,,,,,,,,,,,,,,,,,,,rachel wright,21,female,english,United States,"korean, japanese",2021-03-28_20h56.34.864,UG_Thesis_exp_1,2021.1.2,Win32,60.00960154,,,1,1.300995,,,,,,jutch,fillers/jutch.wav,,10,,,filler,,,1,43,143,72,1
,,,,,,,,,,,,,,,,,,,,,,,,,,rachel wright,21,female,english,United States,"korean, japanese",2021-03-28_20h56.34.864,UG_Thesis_exp_1,2021.1.2,Win32,60.00960154,,,1,1.34673,,,,,,thudge,fillers/thudge.wav,,7,,,filler,,,1,44,144,71,1
,,,,,,,,,,,,,,,,,,,,,,,,,,rachel wright,21,female,english,United States,"korean, japanese",2021-03-28_20h56.34.864,UG_Thesis_exp_1,2021.1.2,Win32,60.00960154,,,0,7.864195,,,,,,shtin,stimuli/shtin.wav,invalid,3,13,,stimuli,,,1,45,145,16,1
,,,,,,,,,,,,,,,,,,,,,,,,,,rachel wright,21,female,english,United States,"korean, japanese",2021-03-28_20h56.34.864,UG_Thesis_exp_1,2021.1.2,Win32,60.00960154,,,0,1.222235,,,,,,srun,stimuli/srun.wav,invalid,9,14,,stimuli,,,1,46,146,13,1
,,,,,,,,,,,,,,,,,,,,,,,,,,rachel wright,21,female,english,United States,"korean, japanese",2021-03-28_20h56.34.864,UG_Thesis_exp_1,2021.1.2,Win32,60.00960154,,,0,0.9643,,,,,,fset,stimuli/fset.wav,invalid,4,6,,stimuli,,,1,47,147,27,1
,,,,,,,,,,,,,,,,,,,,,,,,,,rachel wright,21,female,english,United States,"korean, japanese",2021-03-28_20h56.34.864,UG_Thesis_exp_1,2021.1.2,Win32,60.00960154,,,0,0.89982,,,,,,sfeed,stimuli/sfeed.wav,valid,7,7,,stimuli,,,1,48,148,24,1
,,,,,,,,,,,,,,,,,,,,,,,,,,rachel wright,21,female,english,United States,"korean, japanese",2021-03-28_20h56.34.864,UG_Thesis_exp_1,2021.1.2,Win32,60.00960154,,,0,3.055025,,,,,,tweep,stimuli/tweep.wav,valid,0,,,stimuli,,,1,49,149,41,1
,,,,,,,,,,,,,,,,,,,,,,,,,,rachel wright,21,female,english,United States,"korean, japanese",2021-03-28_20h56.34.864,UG_Thesis_exp_1,2021.1.2,Win32,60.00960154,,,1,3.040855,,,,,,bip,fillers/bip.wav,,37,,,filler,,,1,50,150,83,1
,,,,,,,,,,,,,,,,,,,,,,,,,,rachel wright,21,female,english,United States,"korean, japanese",2021-03-28_20h56.34.864,UG_Thesis_exp_1,2021.1.2,Win32,60.00960154,,,0,1.147415,,,,,,vzut,stimuli/vzut.wav,invalid,1,6,,stimuli,,,1,51,151,28,1
,,,,,,,,,,,,,,,,,,,,,,,,,,rachel wright,21,female,english,United States,"korean, japanese",2021-03-28_20h56.34.864,UG_Thesis_exp_1,2021.1.2,Win32,60.00960154,,,1,1.062835,,,,,,tupt,fillers/tupt.wav,,11,,,filler,,,1,52,152,90,1
,,,,,,,,,,,,,,,,,,,,,,,,,,rachel wright,21,female,english,United States,"korean, japanese",2021-03-28_20h56.34.864,UG_Thesis_exp_1,2021.1.2,Win32,60.00960154,,,1,1.807075,,,,,,jaith,fillers/jaith.wav,,7,,,filler,,,1,53,153,78,1
,,,,,,,,,,,,,,,,,,,,,,,,,,rachel wright,21,female,english,United States,"korean, japanese",2021-03-28_20h56.34.864,UG_Thesis_exp_1,2021.1.2,Win32,60.00960154,,,0,2.14706,,,,,,nrun,stimuli/nrun.wav,invalid,5,8,,stimuli,,,1,54,154,22,1
,,,,,,,,,,,,,,,,,,,,,,,,,,rachel wright,21,female,english,United States,"korean, japanese",2021-03-28_20h56.34.864,UG_Thesis_exp_1,2021.1.2,Win32,60.00960154,,,0,1.516425,,,,,,malb,fillers/malb.wav,,2,,,filler,,,1,55,155,94,1
,,,,,,,,,,,,,,,,,,,,,,,,,,rachel wright,21,female,english,United States,"korean, japanese",2021-03-28_20h56.34.864,UG_Thesis_exp_1,2021.1.2,Win32,60.00960154,,,1,1.26422,,,,,,sud,fillers/sud.wav,,40,,,filler,,,1,56,156,57,1
,,,,,,,,,,,,,,,,,,,,,,,,,,rachel wright,21,female,english,United States,"korean, japanese",2021-03-28_20h56.34.864,UG_Thesis_exp_1,2021.1.2,Win32,60.00960154,,,1,1.33218,,,,,,mrung,stimuli/mrung.wav,invalid,1,27,,stimuli,,,1,57,157,10,1
,,,,,,,,,,,,,,,,,,,,,,,,,,rachel wright,21,female,english,United States,"korean, japanese",2021-03-28_20h56.34.864,UG_Thesis_exp_1,2021.1.2,Win32,60.00960154,,,0,1.26515,,,,,,fkeep,stimuli/fkeep.wav,invalid,1,3,,stimuli,,,1,58,158,32,1
,,,,,,,,,,,,,,,,,,,,,,,,,,rachel wright,21,female,english,United States,"korean, japanese",2021-03-28_20h56.34.864,UG_Thesis_exp_1,2021.1.2,Win32,60.00960154,,,1,1.09816,,,,,,sudge,fillers/sudge.wav,,24,,,filler,,,1,59,159,88,1
,,,,,,,,,,,,,,,,,,,,,,,,,,rachel wright,21,female,english,United States,"korean, japanese",2021-03-28_20h56.34.864,UG_Thesis_exp_1,2021.1.2,Win32,60.00960154,,,0,1.680695,,,,,,gurg,fillers/gurg.wav,,9,,,filler,,,1,60,160,68,1
,,,,,,,,,,,,,,,,,,,,,,,,,,rachel wright,21,female,english,United States,"korean, japanese",2021-03-28_20h56.34.864,UG_Thesis_exp_1,2021.1.2,Win32,60.00960154,,,0,1.33912,,,,,,ztin,stimuli/ztin.wav,invalid,1,6,,stimuli,,,1,61,161,26,1
,,,,,,,,,,,,,,,,,,,,,,,,,,rachel wright,21,female,english,United States,"korean, japanese",2021-03-28_20h56.34.864,UG_Thesis_exp_1,2021.1.2,Win32,60.00960154,,,1,2.10434,,,,,,chaith,fillers/chaith.wav,,5,,,filler,,,1,62,162,79,1
,,,,,,,,,,,,,,,,,,,,,,,,,,rachel wright,21,female,english,United States,"korean, japanese",2021-03-28_20h56.34.864,UG_Thesis_exp_1,2021.1.2,Win32,60.00960154,,,0,4.246025,,,,,,keb,fillers/keb.wav,,16,,,filler,,,1,63,163,65,1
,,,,,,,,,,,,,,,,,,,,,,,,,,rachel wright,21,female,english,United States,"korean, japanese",2021-03-28_20h56.34.864,UG_Thesis_exp_1,2021.1.2,Win32,60.00960154,,,1,1.022965,,,,,,hus,fillers/hus.wav,,46,,,filler,,,1,64,164,50,1
,,,,,,,,,,,,,,,,,,,,,,,,,,rachel wright,21,female,english,United States,"korean, japanese",2021-03-28_20h56.34.864,UG_Thesis_exp_1,2021.1.2,Win32,60.00960154,,,0,1.679185,,,,,,zkeep,stimuli/zkeep.wav,invalid,1,0,,stimuli,,,1,65,165,37,1
,,,,,,,,,,,,,,,,,,,,,,,,,,rachel wright,21,female,english,United States,"korean, japanese",2021-03-28_20h56.34.864,UG_Thesis_exp_1,2021.1.2,Win32,60.00960154,,,1,1.17325,,,,,,peb,fillers/peb.wav,,14,,,filler,,,1,66,166,63,1
,,,,,,,,,,,,,,,,,,,,,,,,,,rachel wright,21,female,english,United States,"korean, japanese",2021-03-28_20h56.34.864,UG_Thesis_exp_1,2021.1.2,Win32,60.00960154,,,0,6.432075,,,,,,ras,fillers/ras.wav,,52,,,filler,,,1,67,167,84,1
,,,,,,,,,,,,,,,,,,,,,,,,,,rachel wright,21,female,english,United States,"korean, japanese",2021-03-28_20h56.34.864,UG_Thesis_exp_1,2021.1.2,Win32,60.00960154,,,1,6.74761,,,,,,shirj,fillers/shirj.wav,,12,,,filler,,,1,68,168,70,1
,,,,,,,,,,,,,,,,,,,,,,,,,,rachel wright,21,female,english,United States,"korean, japanese",2021-03-28_20h56.34.864,UG_Thesis_exp_1,2021.1.2,Win32,60.00960154,,,0,2.34065,,,,,,shmat,stimuli/shmat.wav,valid,1,7,,stimuli,,,1,69,169,23,1
,,,,,,,,,,,,,,,,,,,,,,,,,,rachel wright,21,female,english,United States,"korean, japanese",2021-03-28_20h56.34.864,UG_Thesis_exp_1,2021.1.2,Win32,60.00960154,,,1,2.1293,,,,,,lus,fillers/lus.wav,,49,,,filler,,,1,70,170,85,1
,,,,,,,,,,,,,,,,,,,,,,,,,,rachel wright,21,female,english,United States,"korean, japanese",2021-03-28_20h56.34.864,UG_Thesis_exp_1,2021.1.2,Win32,60.00960154,,,1,1.10245,,,,,,hais,fillers/hais.wav,,11,,,filler,,,1,71,171,66,1
,,,,,,,,,,,,,,,,,,,,,,,,,,rachel wright,21,female,english,United States,"korean, japanese",2021-03-28_20h56.34.864,UG_Thesis_exp_1,2021.1.2,Win32,60.00960154,,,0,2.696135,,,,,,fmaet,stimuli/fmaet.wav,invalid,4,2,,stimuli,,,1,72,172,35,1
,,,,,,,,,,,,,,,,,,,,,,,,,,rachel wright,21,female,english,United States,"korean, japanese",2021-03-28_20h56.34.864,UG_Thesis_exp_1,2021.1.2,Win32,60.00960154,,,0,6.8405,,,,,,fnet,stimuli/fnet.wav,invalid,2,3,,stimuli,,,1,73,173,31,1
,,,,,,,,,,,,,,,,,,,,,,,,,,rachel wright,21,female,english,United States,"korean, japanese",2021-03-28_20h56.34.864,UG_Thesis_exp_1,2021.1.2,Win32,60.00960154,,,0,1.487945,,,,,,mlung,stimuli/mlung.wav,invalid,4,13,,stimuli,,,1,74,174,15,1
,,,,,,,,,,,,,,,,,,,,,,,,,,rachel wright,21,female,english,United States,"korean, japanese",2021-03-28_20h56.34.864,UG_Thesis_exp_1,2021.1.2,Win32,60.00960154,,,0,1.44673,,,,,,rul,fillers/rul.wav,,42,,,filler,,,1,75,175,56,1
,,,,,,,,,,,,,,,,,,,,,,,,,,rachel wright,21,female,english,United States,"korean, japanese",2021-03-28_20h56.34.864,UG_Thesis_exp_1,2021.1.2,Win32,60.00960154,,,0,1.33803,,,,,,frun,stimuli/frun.wav,valid,12,29,,stimuli,,,1,76,176,7,1
,,,,,,,,,,,,,,,,,,,,,,,,,,rachel wright,21,female,english,United States,"korean, japanese",2021-03-28_20h56.34.864,UG_Thesis_exp_1,2021.1.2,Win32,60.00960154,,,0,1.08135,,,,,,shpeyl,stimuli/shpeyl.wav,invalid,2,2,,stimuli,,,1,77,177,36,1
,,,,,,,,,,,,,,,,,,,,,,,,,,rachel wright,21,female,english,United States,"korean, japanese",2021-03-28_20h56.34.864,UG_Thesis_exp_1,2021.1.2,Win32,60.00960154,,,0,1.1866,,,,,,bupt,fillers/bupt.wav,,10,,,filler,,,1,78,178,91,1
,,,,,,,,,,,,,,,,,,,,,,,,,,rachel wright,21,female,english,United States,"korean, japanese",2021-03-28_20h56.34.864,UG_Thesis_exp_1,2021.1.2,Win32,60.00960154,,,1,1.801605,,,,,,shemp,fillers/shemp.wav,,3,,,filler,,,1,79,179,99,1
,,,,,,,,,,,,,,,,,,,,,,,,,,rachel wright,21,female,english,United States,"korean, japanese",2021-03-28_20h56.34.864,UG_Thesis_exp_1,2021.1.2,Win32,60.00960154,,,0,1.131175,,,,,,zrun,stimuli/zrun.wav,invalid,5,8,,stimuli,,,1,80,180,21,1
,,,,,,,,,,,,,,,,,,,,,,,,,,rachel wright,21,female,english,United States,"korean, japanese",2021-03-28_20h56.34.864,UG_Thesis_exp_1,2021.1.2,Win32,60.00960154,,,0,0.94757,,,,,,vnet,stimuli/vnet.wav,invalid,2,1,,stimuli,,,1,81,181,44,1
,,,,,,,,,,,,,,,,,,,,,,,,,,rachel wright,21,female,english,United States,"korean, japanese",2021-03-28_20h56.34.864,UG_Thesis_exp_1,2021.1.2,Win32,60.00960154,,,1,1.146065,,,,,,wudge,fillers/wudge.wav,,13,,,filler,,,1,82,182,74,1
,,,,,,,,,,,,,,,,,,,,,,,,,,rachel wright,21,female,english,United States,"korean, japanese",2021-03-28_20h56.34.864,UG_Thesis_exp_1,2021.1.2,Win32,60.00960154,,,0,1.555435,,,,,,spung,stimuli/spung.wav,valid,11,28,,stimuli,,,1,83,183,9,1
,,,,,,,,,,,,,,,,,,,,,,,,,,rachel wright,21,female,english,United States,"korean, japanese",2021-03-28_20h56.34.864,UG_Thesis_exp_1,2021.1.2,Win32,60.00960154,,,0,0.971295,,,,,,ftin,stimuli/ftin.wav,invalid,2,10,,stimuli,,,1,84,184,20,1
,,,,,,,,,,,,,,,,,,,,,,,,,,rachel wright,21,female,english,United States,"korean, japanese",2021-03-28_20h56.34.864,UG_Thesis_exp_1,2021.1.2,Win32,60.00960154,,,1,1.080245,,,,,,wutch,fillers/wutch.wav,,17,,,filler,,,1,85,185,61,1
,,,,,,,,,,,,,,,,,,,,,,,,,,rachel wright,21,female,english,United States,"korean, japanese",2021-03-28_20h56.34.864,UG_Thesis_exp_1,2021.1.2,Win32,60.00960154,,,0,1.090225,,,,,,trun,stimuli/trun.wav,valid,12,31,,stimuli,,,1,86,186,6,1
,,,,,,,,,,,,,,,,,,,,,,,,,,rachel wright,21,female,english,United States,"korean, japanese",2021-03-28_20h56.34.864,UG_Thesis_exp_1,2021.1.2,Win32,60.00960154,,,1,1.30534,,,,,,suv,fillers/suv.wav,,25,,,filler,,,1,87,187,55,1
,,,,,,,,,,,,,,,,,,,,,,,,,,rachel wright,21,female,english,United States,"korean, japanese",2021-03-28_20h56.34.864,UG_Thesis_exp_1,2021.1.2,Win32,60.00960154,,,0,1.12899,,,,,,shlerk,stimuli/shlerk.wav,invalid,4,22,,stimuli,,,1,88,188,11,1
,,,,,,,,,,,,,,,,,,,,,,,,,,rachel wright,21,female,english,United States,"korean, japanese",2021-03-28_20h56.34.864,UG_Thesis_exp_1,2021.1.2,Win32,60.00960154,,,0,0.849825,,,,,,vtin,stimuli/vtin.wav,invalid,2,3,,stimuli,,,1,89,189,33,1
,,,,,,,,,,,,,,,,,,,,,,,,,,rachel wright,21,female,english,United States,"korean, japanese",2021-03-28_20h56.34.864,UG_Thesis_exp_1,2021.1.2,Win32,60.00960154,,,0,0.94548,,,,,,zveel,stimuli/zveel.wav,invalid,2,3,,stimuli,,,1,90,190,34,1
,,,,,,,,,,,,,,,,,,,,,,,,,,rachel wright,21,female,english,United States,"korean, japanese",2021-03-28_20h56.34.864,UG_Thesis_exp_1,2021.1.2,Win32,60.00960154,,,0,1.83935,,,,,,flerk,stimuli/flerk.wav,valid,11,31,,stimuli,,,1,91,191,4,1
,,,,,,,,,,,,,,,,,,,,,,,,,,rachel wright,21,female,english,United States,"korean, japanese",2021-03-28_20h56.34.864,UG_Thesis_exp_1,2021.1.2,Win32,60.00960154,,,0,1.030685,,,,,,fpeyl,stimuli/fpeyl.wav,invalid,4,13,,stimuli,,,1,92,192,17,1
,,,,,,,,,,,,,,,,,,,,,,,,,,rachel wright,21,female,english,United States,"korean, japanese",2021-03-28_20h56.34.864,UG_Thesis_exp_1,2021.1.2,Win32,60.00960154,,,1,1.584355,,,,,,thith,fillers/thith.wav,,4,,,filler,,,1,93,193,67,1
,,,,,,,,,,,,,,,,,,,,,,,,,,rachel wright,21,female,english,United States,"korean, japanese",2021-03-28_20h56.34.864,UG_Thesis_exp_1,2021.1.2,Win32,60.00960154,,,0,1.084985,,,,,,snet,stimuli/snet.wav,valid,7,28,,stimuli,,,1,94,194,8,1
,,,,,,,,,,,,,,,,,,,,,,,,,,rachel wright,21,female,english,United States,"korean, japanese",2021-03-28_20h56.34.864,UG_Thesis_exp_1,2021.1.2,Win32,60.00960154,,,0,1.18039,,,,,,stin,stimuli/stin.wav,valid,18,33,,stimuli,,,1,95,195,0,1
,,,,,,,,,,,,,,,,,,,,,,,,,,rachel wright,21,female,english,United States,"korean, japanese",2021-03-28_20h56.34.864,UG_Thesis_exp_1,2021.1.2,Win32,60.00960154,,,1,0.91398,,,,,,suf,fillers/suf.wav,,33,,,filler,,,1,96,196,86,1
,,,,,,,,,,,,,,,,,,,,,,,,,,rachel wright,21,female,english,United States,"korean, japanese",2021-03-28_20h56.34.864,UG_Thesis_exp_1,2021.1.2,Win32,60.00960154,,,0,1.09764,,,,,,prun,stimuli/prun.wav,valid,11,32,,stimuli,,,1,97,197,2,1
,,,,,,,,,,,,,,,,,,,,,,,,,,rachel wright,21,female,english,United States,"korean, japanese",2021-03-28_20h56.34.864,UG_Thesis_exp_1,2021.1.2,Win32,60.00960154,,,0,1.913775,,,,,,jerp,fillers/jerp.wav,,7,,,filler,,,1,98,198,69,1
,,,,,,,,,,,,,,,,,,,,,,,,,,rachel wright,21,female,english,United States,"korean, japanese",2021-03-28_20h56.34.864,UG_Thesis_exp_1,2021.1.2,Win32,60.00960154,,,0,0.99724,,,,,,skeep,stimuli/skeep.wav,valid,2,20,,stimuli,,,1,99,199,43,1
