consent_space1.keys,consent_space1.rt,consent_space2.keys,consent_space2.rt,consent_space3.keys,consent_space3.rt,consent_space4.keys,consent_space4.rt,ConsentResponse.keys,ConsentResponse.rt,key_resp.keys,key_resp.rt,materials_key_resp.keys,materials_key_resp.rt,key_resp_2.keys,key_resp_2.rt,intro_key_resp_2.keys,intro_key_resp_2.rt,practice_key_resp.keys,practice_key_resp.rt,practice_loop.thisRepN,practice_loop.thisTrialN,practice_loop.thisN,practice_loop.thisIndex,practice_loop.ran,words,participant,age,gender,native language,country of residence,other languages,date,expName,psychopyVersion,OS,frameRate,key_resp_5.keys,key_resp_5.rt,trial_resp.keys,trial_resp.rt,pre_break_loop.thisRepN,pre_break_loop.thisTrialN,pre_break_loop.thisN,pre_break_loop.thisIndex,pre_break_loop.ran,stimuli,file_loc,gross_status,ND,scholes_rating,cluster_type,item_type,break_key_resp.keys,break_key_resp.rt,post_break_loop.thisRepN,post_break_loop.thisTrialN,post_break_loop.thisN,post_break_loop.thisIndex,post_break_loop.ran
space,2.1045,space,3.387915,space,2.320045,space,3.505615,y,4.50122,space,9.122245,space,44.352245,space,1.78062,space,1.56915,0,16.15506,0,0,0,8,1,practice_audio/ZOYNKS.practice.wav,srs,23,f,English,USA,German,2021-03-28_18h11.27.366,UG_Thesis_exp_1,2021.1.2,MacIntel,59.97361161,,,,,,,,,,,,,,,,,,,,,,,
,,,,,,,,,,,,,,,,,,0,3.85268,0,1,1,6,1,practice_audio/LAHM.practice.wav,srs,23,f,English,USA,German,2021-03-28_18h11.27.366,UG_Thesis_exp_1,2021.1.2,MacIntel,59.97361161,,,,,,,,,,,,,,,,,,,,,,,
,,,,,,,,,,,,,,,,,,1,2.450855,0,2,2,2,1,practice_audio/BZIYN.practice.wav,srs,23,f,English,USA,German,2021-03-28_18h11.27.366,UG_Thesis_exp_1,2021.1.2,MacIntel,59.97361161,,,,,,,,,,,,,,,,,,,,,,,
,,,,,,,,,,,,,,,,,,0,1.51899,0,3,3,9,1,practice_audio/PLUWT.practice.wav,srs,23,f,English,USA,German,2021-03-28_18h11.27.366,UG_Thesis_exp_1,2021.1.2,MacIntel,59.97361161,,,,,,,,,,,,,,,,,,,,,,,
,,,,,,,,,,,,,,,,,,0,1.41904,0,4,4,4,1,practice_audio/KLIHG.practice.wav,srs,23,f,English,USA,German,2021-03-28_18h11.27.366,UG_Thesis_exp_1,2021.1.2,MacIntel,59.97361161,,,,,,,,,,,,,,,,,,,,,,,
,,,,,,,,,,,,,,,,,,1,2.470165,0,5,5,10,1,practice_audio/PREHSP.practice.wav,srs,23,f,English,USA,German,2021-03-28_18h11.27.366,UG_Thesis_exp_1,2021.1.2,MacIntel,59.97361161,,,,,,,,,,,,,,,,,,,,,,,
,,,,,,,,,,,,,,,,,,0,1.6656,0,6,6,7,1,practice_audio/SLEYM.practice.wav,srs,23,f,English,USA,German,2021-03-28_18h11.27.366,UG_Thesis_exp_1,2021.1.2,MacIntel,59.97361161,,,,,,,,,,,,,,,,,,,,,,,
,,,,,,,,,,,,,,,,,,0,1.4688,0,7,7,1,1,practice_audio/BWAAD.practice.wav,srs,23,f,English,USA,German,2021-03-28_18h11.27.366,UG_Thesis_exp_1,2021.1.2,MacIntel,59.97361161,,,,,,,,,,,,,,,,,,,,,,,
,,,,,,,,,,,,,,,,,,0,2.48409,0,8,8,3,1,practice_audio/GLIYD.practice.wav,srs,23,f,English,USA,German,2021-03-28_18h11.27.366,UG_Thesis_exp_1,2021.1.2,MacIntel,59.97361161,,,,,,,,,,,,,,,,,,,,,,,
,,,,,,,,,,,,,,,,,,0,3.56984,0,9,9,5,1,practice_audio/KREHNTH.practice.wav,srs,23,f,English,USA,German,2021-03-28_18h11.27.366,UG_Thesis_exp_1,2021.1.2,MacIntel,59.97361161,,,,,,,,,,,,,,,,,,,,,,,
,,,,,,,,,,,,,,,,,,1,2.06983,0,10,10,0,1,practice_audio/BIHBL.practice.wav,srs,23,f,English,USA,German,2021-03-28_18h11.27.366,UG_Thesis_exp_1,2021.1.2,MacIntel,59.97361161,,,,,,,,,,,,,,,,,,,,,,,
,,,,,,,,,,,,,,,,,,,,,,,,,,srs,23,f,English,USA,German,2021-03-28_18h11.27.366,UG_Thesis_exp_1,2021.1.2,MacIntel,59.97361161,space,10.985545,1,1.960565,0,0,0,63,1,peb,fillers/peb.wav,,14,,,filler,,,,,,,
,,,,,,,,,,,,,,,,,,,,,,,,,,srs,23,f,English,USA,German,2021-03-28_18h11.27.366,UG_Thesis_exp_1,2021.1.2,MacIntel,59.97361161,,,0,2.684645,0,1,1,43,1,skeep,stimuli/skeep.wav,valid,2,20,,stimuli,,,,,,,
,,,,,,,,,,,,,,,,,,,,,,,,,,srs,23,f,English,USA,German,2021-03-28_18h11.27.366,UG_Thesis_exp_1,2021.1.2,MacIntel,59.97361161,,,0,2.00252,0,2,2,0,1,stin,stimuli/stin.wav,valid,18,33,,stimuli,,,,,,,
,,,,,,,,,,,,,,,,,,,,,,,,,,srs,23,f,English,USA,German,2021-03-28_18h11.27.366,UG_Thesis_exp_1,2021.1.2,MacIntel,59.97361161,,,0,1.851775,0,3,3,40,1,thwup,stimuli/thwup.wav,invalid,0,,,stimuli,,,,,,,
,,,,,,,,,,,,,,,,,,,,,,,,,,srs,23,f,English,USA,German,2021-03-28_18h11.27.366,UG_Thesis_exp_1,2021.1.2,MacIntel,59.97361161,,,1,1.81954,0,4,4,54,1,sug,fillers/sug.wav,,29,,,filler,,,,,,,
,,,,,,,,,,,,,,,,,,,,,,,,,,srs,23,f,English,USA,German,2021-03-28_18h11.27.366,UG_Thesis_exp_1,2021.1.2,MacIntel,59.97361161,,,1,1.634655,0,5,5,66,1,hais,fillers/hais.wav,,11,,,filler,,,,,,,
,,,,,,,,,,,,,,,,,,,,,,,,,,srs,23,f,English,USA,German,2021-03-28_18h11.27.366,UG_Thesis_exp_1,2021.1.2,MacIntel,59.97361161,,,0,2.28832,0,6,6,29,1,shfeed,stimuli/shfeed.wav,invalid,1,5,,stimuli,,,,,,,
,,,,,,,,,,,,,,,,,,,,,,,,,,srs,23,f,English,USA,German,2021-03-28_18h11.27.366,UG_Thesis_exp_1,2021.1.2,MacIntel,59.97361161,,,1,2.43472,0,7,7,96,1,chulp,fillers/chulp.wav,,4,,,filler,,,,,,,
,,,,,,,,,,,,,,,,,,,,,,,,,,srs,23,f,English,USA,German,2021-03-28_18h11.27.366,UG_Thesis_exp_1,2021.1.2,MacIntel,59.97361161,,,0,1.205105,0,8,8,35,1,fmaet,stimuli/fmaet.wav,invalid,4,2,,stimuli,,,,,,,
,,,,,,,,,,,,,,,,,,,,,,,,,,srs,23,f,English,USA,German,2021-03-28_18h11.27.366,UG_Thesis_exp_1,2021.1.2,MacIntel,59.97361161,,,0,2.452735,0,9,9,7,1,frun,stimuli/frun.wav,valid,12,29,,stimuli,,,,,,,
,,,,,,,,,,,,,,,,,,,,,,,,,,srs,23,f,English,USA,German,2021-03-28_18h11.27.366,UG_Thesis_exp_1,2021.1.2,MacIntel,59.97361161,,,0,1.152165,0,10,10,45,1,shkeep,stimuli/shkeep.wav,invalid,15,1,,stimuli,,,,,,,
,,,,,,,,,,,,,,,,,,,,,,,,,,srs,23,f,English,USA,German,2021-03-28_18h11.27.366,UG_Thesis_exp_1,2021.1.2,MacIntel,59.97361161,,,1,1.285535,0,11,11,67,1,thith,fillers/thith.wav,,4,,,filler,,,,,,,
,,,,,,,,,,,,,,,,,,,,,,,,,,srs,23,f,English,USA,German,2021-03-28_18h11.27.366,UG_Thesis_exp_1,2021.1.2,MacIntel,59.97361161,,,1,1.26679,0,12,12,51,1,jun,fillers/jun.wav,,49,,,filler,,,,,,,
,,,,,,,,,,,,,,,,,,,,,,,,,,srs,23,f,English,USA,German,2021-03-28_18h11.27.366,UG_Thesis_exp_1,2021.1.2,MacIntel,59.97361161,,,0,1.501555,0,13,13,64,1,sherj,fillers/sherj.wav,,12,,,filler,,,,,,,
,,,,,,,,,,,,,,,,,,,,,,,,,,srs,23,f,English,USA,German,2021-03-28_18h11.27.366,UG_Thesis_exp_1,2021.1.2,MacIntel,59.97361161,,,1,1.352295,0,14,14,89,1,sulft,fillers/suft.wav,,15,,,filler,,,,,,,
,,,,,,,,,,,,,,,,,,,,,,,,,,srs,23,f,English,USA,German,2021-03-28_18h11.27.366,UG_Thesis_exp_1,2021.1.2,MacIntel,59.97361161,,,1,1.51932,0,15,15,59,1,pum,fillers/pum.wav,,40,,,filler,,,,,,,
,,,,,,,,,,,,,,,,,,,,,,,,,,srs,23,f,English,USA,German,2021-03-28_18h11.27.366,UG_Thesis_exp_1,2021.1.2,MacIntel,59.97361161,,,0,1.195245,0,16,16,18,1,fship,stimuli/fship.wav,invalid,2,11,,stimuli,,,,,,,
,,,,,,,,,,,,,,,,,,,,,,,,,,srs,23,f,English,USA,German,2021-03-28_18h11.27.366,UG_Thesis_exp_1,2021.1.2,MacIntel,59.97361161,,,1,1.65188,0,17,17,86,1,suf,fillers/suf.wav,,33,,,filler,,,,,,,
,,,,,,,,,,,,,,,,,,,,,,,,,,srs,23,f,English,USA,German,2021-03-28_18h11.27.366,UG_Thesis_exp_1,2021.1.2,MacIntel,59.97361161,,,0,1.369155,0,18,18,48,1,jrun,stimuli/jrun.wav,invalid,4,11,,stimuli,,,,,,,
,,,,,,,,,,,,,,,,,,,,,,,,,,srs,23,f,English,USA,German,2021-03-28_18h11.27.366,UG_Thesis_exp_1,2021.1.2,MacIntel,59.97361161,,,0,1.58741,0,19,19,23,1,shmat,stimuli/shmat.wav,valid,1,7,,stimuli,,,,,,,
,,,,,,,,,,,,,,,,,,,,,,,,,,srs,23,f,English,USA,German,2021-03-28_18h11.27.366,UG_Thesis_exp_1,2021.1.2,MacIntel,59.97361161,,,1,3.0527,0,20,20,32,1,fkeep,stimuli/fkeep.wav,invalid,1,3,,stimuli,,,,,,,
,,,,,,,,,,,,,,,,,,,,,,,,,,srs,23,f,English,USA,German,2021-03-28_18h11.27.366,UG_Thesis_exp_1,2021.1.2,MacIntel,59.97361161,,,0,1.20212,0,21,21,16,1,shtin,stimuli/shtin.wav,invalid,3,13,,stimuli,,,,,,,
,,,,,,,,,,,,,,,,,,,,,,,,,,srs,23,f,English,USA,German,2021-03-28_18h11.27.366,UG_Thesis_exp_1,2021.1.2,MacIntel,59.97361161,,,1,1.483325,0,22,22,81,1,mub,fillers/mub.wav,,26,,,filler,,,,,,,
,,,,,,,,,,,,,,,,,,,,,,,,,,srs,23,f,English,USA,German,2021-03-28_18h11.27.366,UG_Thesis_exp_1,2021.1.2,MacIntel,59.97361161,,,0,1.604305,0,23,23,70,1,shirj,fillers/shirj.wav,,12,,,filler,,,,,,,
,,,,,,,,,,,,,,,,,,,,,,,,,,srs,23,f,English,USA,German,2021-03-28_18h11.27.366,UG_Thesis_exp_1,2021.1.2,MacIntel,59.97361161,,,0,1.467275,0,24,24,27,1,fset,stimuli/fset.wav,invalid,4,6,,stimuli,,,,,,,
,,,,,,,,,,,,,,,,,,,,,,,,,,srs,23,f,English,USA,German,2021-03-28_18h11.27.366,UG_Thesis_exp_1,2021.1.2,MacIntel,59.97361161,,,1,1.2667,0,25,25,12,1,vrun,stimuli/vrun.wav,invalid,4,19,,stimuli,,,,,,,
,,,,,,,,,,,,,,,,,,,,,,,,,,srs,23,f,English,USA,German,2021-03-28_18h11.27.366,UG_Thesis_exp_1,2021.1.2,MacIntel,59.97361161,,,0,1.25179,0,26,26,74,1,wudge,fillers/wudge.wav,,13,,,filler,,,,,,,
,,,,,,,,,,,,,,,,,,,,,,,,,,srs,23,f,English,USA,German,2021-03-28_18h11.27.366,UG_Thesis_exp_1,2021.1.2,MacIntel,59.97361161,,,0,1.132735,0,27,27,26,1,ztin,stimuli/ztin.wav,invalid,1,6,,stimuli,,,,,,,
,,,,,,,,,,,,,,,,,,,,,,,,,,srs,23,f,English,USA,German,2021-03-28_18h11.27.366,UG_Thesis_exp_1,2021.1.2,MacIntel,59.97361161,,,1,1.7845,0,28,28,68,1,gurg,fillers/gurg.wav,,9,,,filler,,,,,,,
,,,,,,,,,,,,,,,,,,,,,,,,,,srs,23,f,English,USA,German,2021-03-28_18h11.27.366,UG_Thesis_exp_1,2021.1.2,MacIntel,59.97361161,,,0,1.45291,0,29,29,37,1,zkeep,stimuli/zkeep.wav,invalid,1,0,,stimuli,,,,,,,
,,,,,,,,,,,,,,,,,,,,,,,,,,srs,23,f,English,USA,German,2021-03-28_18h11.27.366,UG_Thesis_exp_1,2021.1.2,MacIntel,59.97361161,,,1,1.751845,0,30,30,87,1,tul,fillers/tul.wav,,42,,,filler,,,,,,,
,,,,,,,,,,,,,,,,,,,,,,,,,,srs,23,f,English,USA,German,2021-03-28_18h11.27.366,UG_Thesis_exp_1,2021.1.2,MacIntel,59.97361161,,,0,1.30183,0,31,31,36,1,shpeyl,stimuli/shpeyl.wav,invalid,2,2,,stimuli,,,,,,,
,,,,,,,,,,,,,,,,,,,,,,,,,,srs,23,f,English,USA,German,2021-03-28_18h11.27.366,UG_Thesis_exp_1,2021.1.2,MacIntel,59.97361161,,,1,2.40167,0,32,32,57,1,sud,fillers/sud.wav,,40,,,filler,,,,,,,
,,,,,,,,,,,,,,,,,,,,,,,,,,srs,23,f,English,USA,German,2021-03-28_18h11.27.366,UG_Thesis_exp_1,2021.1.2,MacIntel,59.97361161,,,0,1.28555,0,33,33,2,1,prun,stimuli/prun.wav,valid,11,32,,stimuli,,,,,,,
,,,,,,,,,,,,,,,,,,,,,,,,,,srs,23,f,English,USA,German,2021-03-28_18h11.27.366,UG_Thesis_exp_1,2021.1.2,MacIntel,59.97361161,,,1,1.43771,0,34,34,62,1,pev,fillers/pev.wav,,15,,,filler,,,,,,,
,,,,,,,,,,,,,,,,,,,,,,,,,,srs,23,f,English,USA,German,2021-03-28_18h11.27.366,UG_Thesis_exp_1,2021.1.2,MacIntel,59.97361161,,,1,1.41994,0,35,35,93,1,gomt,fillers/gomt.wav,,0,,,filler,,,,,,,
,,,,,,,,,,,,,,,,,,,,,,,,,,srs,23,f,English,USA,German,2021-03-28_18h11.27.366,UG_Thesis_exp_1,2021.1.2,MacIntel,59.97361161,,,1,1.3336,0,36,36,55,1,suv,fillers/suv.wav,,25,,,filler,,,,,,,
,,,,,,,,,,,,,,,,,,,,,,,,,,srs,23,f,English,USA,German,2021-03-28_18h11.27.366,UG_Thesis_exp_1,2021.1.2,MacIntel,59.97361161,,,1,1.349335,0,37,37,69,1,jerp,fillers/jerp.wav,,7,,,filler,,,,,,,
,,,,,,,,,,,,,,,,,,,,,,,,,,srs,23,f,English,USA,German,2021-03-28_18h11.27.366,UG_Thesis_exp_1,2021.1.2,MacIntel,59.97361161,,,1,1.698515,0,38,38,58,1,lun,fillers/lun.wav,,70,,,filler,,,,,,,
,,,,,,,,,,,,,,,,,,,,,,,,,,srs,23,f,English,USA,German,2021-03-28_18h11.27.366,UG_Thesis_exp_1,2021.1.2,MacIntel,59.97361161,,,1,1.620495,0,39,39,78,1,jaith,fillers/jaith.wav,,7,,,filler,,,,,,,
,,,,,,,,,,,,,,,,,,,,,,,,,,srs,23,f,English,USA,German,2021-03-28_18h11.27.366,UG_Thesis_exp_1,2021.1.2,MacIntel,59.97361161,,,1,1.953015,0,40,40,65,1,keb,fillers/keb.wav,,16,,,filler,,,,,,,
,,,,,,,,,,,,,,,,,,,,,,,,,,srs,23,f,English,USA,German,2021-03-28_18h11.27.366,UG_Thesis_exp_1,2021.1.2,MacIntel,59.97361161,,,0,1.21861,0,41,41,13,1,srun,stimuli/srun.wav,invalid,9,14,,stimuli,,,,,,,
,,,,,,,,,,,,,,,,,,,,,,,,,,srs,23,f,English,USA,German,2021-03-28_18h11.27.366,UG_Thesis_exp_1,2021.1.2,MacIntel,59.97361161,,,1,1.551465,0,42,42,77,1,gej,fillers/gej.wav,,7,,,filler,,,,,,,
,,,,,,,,,,,,,,,,,,,,,,,,,,srs,23,f,English,USA,German,2021-03-28_18h11.27.366,UG_Thesis_exp_1,2021.1.2,MacIntel,59.97361161,,,1,1.086695,0,43,43,53,1,suz,fillers/suz.wav,,37,,,filler,,,,,,,
,,,,,,,,,,,,,,,,,,,,,,,,,,srs,23,f,English,USA,German,2021-03-28_18h11.27.366,UG_Thesis_exp_1,2021.1.2,MacIntel,59.97361161,,,0,1.018255,0,44,44,15,1,mlung,stimuli/mlung.wav,invalid,4,13,,stimuli,,,,,,,
,,,,,,,,,,,,,,,,,,,,,,,,,,srs,23,f,English,USA,German,2021-03-28_18h11.27.366,UG_Thesis_exp_1,2021.1.2,MacIntel,59.97361161,,,0,1.335255,0,45,45,25,1,zlerk,stimuli/zlerk.wav,invalid,2,6,,stimuli,,,,,,,
,,,,,,,,,,,,,,,,,,,,,,,,,,srs,23,f,English,USA,German,2021-03-28_18h11.27.366,UG_Thesis_exp_1,2021.1.2,MacIntel,59.97361161,,,0,1.30023,0,46,46,10,1,mrung,stimuli/mrung.wav,invalid,1,27,,stimuli,,,,,,,
,,,,,,,,,,,,,,,,,,,,,,,,,,srs,23,f,English,USA,German,2021-03-28_18h11.27.366,UG_Thesis_exp_1,2021.1.2,MacIntel,59.97361161,,,0,1.167255,0,47,47,3,1,grun,stimuli/grun.wav,valid,18,33,,stimuli,,,,,,,
,,,,,,,,,,,,,,,,,,,,,,,,,,srs,23,f,English,USA,German,2021-03-28_18h11.27.366,UG_Thesis_exp_1,2021.1.2,MacIntel,59.97361161,,,1,1.06763,0,48,48,50,1,hus,fillers/hus.wav,,46,,,filler,,,,,,,
,,,,,,,,,,,,,,,,,,,,,,,,,,srs,23,f,English,USA,German,2021-03-28_18h11.27.366,UG_Thesis_exp_1,2021.1.2,MacIntel,59.97361161,,,0,1.136535,0,49,49,76,1,thuv,fillers/thuv.wav,,9,,,filler,,,,,,,
,,,,,,,,,,,,,,,,,,,,,,,,,,srs,23,f,English,USA,German,2021-03-28_18h11.27.366,UG_Thesis_exp_1,2021.1.2,MacIntel,59.97361161,,,0,1.1512,0,50,50,46,1,jpeyl,stimuli/jpeyl.wav,invalid,1,1,,stimuli,,,,,,,
,,,,,,,,,,,,,,,,,,,,,,,,,,srs,23,f,English,USA,German,2021-03-28_18h11.27.366,UG_Thesis_exp_1,2021.1.2,MacIntel,59.97361161,,,1,1.21765,0,51,51,61,1,wutch,fillers/wutch.wav,,17,,,filler,,,,,,,
,,,,,,,,,,,,,,,,,,,,,,,,,,srs,23,f,English,USA,German,2021-03-28_18h11.27.366,UG_Thesis_exp_1,2021.1.2,MacIntel,59.97361161,,,0,1.020225,0,52,52,21,1,zrun,stimuli/zrun.wav,invalid,5,8,,stimuli,,,,,,,
,,,,,,,,,,,,,,,,,,,,,,,,,,srs,23,f,English,USA,German,2021-03-28_18h11.27.366,UG_Thesis_exp_1,2021.1.2,MacIntel,59.97361161,,,0,1.351285,0,53,53,56,1,rul,fillers/rul.wav,,42,,,filler,,,,,,,
,,,,,,,,,,,,,,,,,,,,,,,,,,srs,23,f,English,USA,German,2021-03-28_18h11.27.366,UG_Thesis_exp_1,2021.1.2,MacIntel,59.97361161,,,0,1.686835,0,54,54,19,1,shnet,stimuli/shnet.wav,valid,2,10,,stimuli,,,,,,,
,,,,,,,,,,,,,,,,,,,,,,,,,,srs,23,f,English,USA,German,2021-03-28_18h11.27.366,UG_Thesis_exp_1,2021.1.2,MacIntel,59.97361161,,,0,1.552035,0,55,55,72,1,jutch,fillers/jutch.wav,,10,,,filler,,,,,,,
,,,,,,,,,,,,,,,,,,,,,,,,,,srs,23,f,English,USA,German,2021-03-28_18h11.27.366,UG_Thesis_exp_1,2021.1.2,MacIntel,59.97361161,,,1,1.45353,0,56,56,88,1,sudge,fillers/sudge.wav,,24,,,filler,,,,,,,
,,,,,,,,,,,,,,,,,,,,,,,,,,srs,23,f,English,USA,German,2021-03-28_18h11.27.366,UG_Thesis_exp_1,2021.1.2,MacIntel,59.97361161,,,0,1.33311,0,57,57,24,1,sfeed,stimuli/sfeed.wav,valid,7,7,,stimuli,,,,,,,
,,,,,,,,,,,,,,,,,,,,,,,,,,srs,23,f,English,USA,German,2021-03-28_18h11.27.366,UG_Thesis_exp_1,2021.1.2,MacIntel,59.97361161,,,1,1.43407,0,58,58,90,1,tupt,fillers/tupt.wav,,11,,,filler,,,,,,,
,,,,,,,,,,,,,,,,,,,,,,,,,,srs,23,f,English,USA,German,2021-03-28_18h11.27.366,UG_Thesis_exp_1,2021.1.2,MacIntel,59.97361161,,,0,1.536875,0,59,59,28,1,vzut,stimuli/vzut.wav,invalid,1,6,,stimuli,,,,,,,
,,,,,,,,,,,,,,,,,,,,,,,,,,srs,23,f,English,USA,German,2021-03-28_18h11.27.366,UG_Thesis_exp_1,2021.1.2,MacIntel,59.97361161,,,1,1.55184,0,60,60,34,1,zveel,stimuli/zveel.wav,invalid,2,3,,stimuli,,,,,,,
,,,,,,,,,,,,,,,,,,,,,,,,,,srs,23,f,English,USA,German,2021-03-28_18h11.27.366,UG_Thesis_exp_1,2021.1.2,MacIntel,59.97361161,,,0,2.36807,0,61,61,4,1,flerk,stimuli/flerk.wav,valid,11,31,,stimuli,,,,,,,
,,,,,,,,,,,,,,,,,,,,,,,,,,srs,23,f,English,USA,German,2021-03-28_18h11.27.366,UG_Thesis_exp_1,2021.1.2,MacIntel,59.97361161,,,0,2.08394,0,62,62,47,1,glung,stimuli/glung.wav,valid,9,27,,stimuli,,,,,,,
,,,,,,,,,,,,,,,,,,,,,,,,,,srs,23,f,English,USA,German,2021-03-28_18h11.27.366,UG_Thesis_exp_1,2021.1.2,MacIntel,59.97361161,,,0,1.10316,0,63,63,9,1,spung,stimuli/spung.wav,valid,11,28,,stimuli,,,,,,,
,,,,,,,,,,,,,,,,,,,,,,,,,,srs,23,f,English,USA,German,2021-03-28_18h11.27.366,UG_Thesis_exp_1,2021.1.2,MacIntel,59.97361161,,,0,1.31787,0,64,64,8,1,snet,stimuli/snet.wav,valid,7,28,,stimuli,,,,,,,
,,,,,,,,,,,,,,,,,,,,,,,,,,srs,23,f,English,USA,German,2021-03-28_18h11.27.366,UG_Thesis_exp_1,2021.1.2,MacIntel,59.97361161,,,0,1.169665,0,65,65,22,1,nrun,stimuli/nrun.wav,invalid,5,8,,stimuli,,,,,,,
,,,,,,,,,,,,,,,,,,,,,,,,,,srs,23,f,English,USA,German,2021-03-28_18h11.27.366,UG_Thesis_exp_1,2021.1.2,MacIntel,59.97361161,,,0,1.16713,0,66,66,5,1,drung,stimuli/drung.wav,valid,7,31,,stimuli,,,,,,,
,,,,,,,,,,,,,,,,,,,,,,,,,,srs,23,f,English,USA,German,2021-03-28_18h11.27.366,UG_Thesis_exp_1,2021.1.2,MacIntel,59.97361161,,,0,1.20049,0,67,67,42,1,thwaet,stimuli/thwaet.wav,invalid,1,,,stimuli,,,,,,,
,,,,,,,,,,,,,,,,,,,,,,,,,,srs,23,f,English,USA,German,2021-03-28_18h11.27.366,UG_Thesis_exp_1,2021.1.2,MacIntel,59.97361161,,,0,1.20024,0,68,68,82,1,pab,fillers/pab.wav,,29,,,filler,,,,,,,
,,,,,,,,,,,,,,,,,,,,,,,,,,srs,23,f,English,USA,German,2021-03-28_18h11.27.366,UG_Thesis_exp_1,2021.1.2,MacIntel,59.97361161,,,0,1.03642,0,69,69,52,1,dus,fillers/dus.wav,,58,,,filler,,,,,,,
,,,,,,,,,,,,,,,,,,,,,,,,,,srs,23,f,English,USA,German,2021-03-28_18h11.27.366,UG_Thesis_exp_1,2021.1.2,MacIntel,59.97361161,,,1,1.24914,0,70,70,84,1,ras,fillers/ras.wav,,52,,,filler,,,,,,,
,,,,,,,,,,,,,,,,,,,,,,,,,,srs,23,f,English,USA,German,2021-03-28_18h11.27.366,UG_Thesis_exp_1,2021.1.2,MacIntel,59.97361161,,,0,1.25164,0,71,71,17,1,fpeyl,stimuli/fpeyl.wav,invalid,4,13,,stimuli,,,,,,,
,,,,,,,,,,,,,,,,,,,,,,,,,,srs,23,f,English,USA,German,2021-03-28_18h11.27.366,UG_Thesis_exp_1,2021.1.2,MacIntel,59.97361161,,,0,1.2345,0,72,72,33,1,vtin,stimuli/vtin.wav,invalid,2,3,,stimuli,,,,,,,
,,,,,,,,,,,,,,,,,,,,,,,,,,srs,23,f,English,USA,German,2021-03-28_18h11.27.366,UG_Thesis_exp_1,2021.1.2,MacIntel,59.97361161,,,1,1.06696,0,73,73,83,1,bip,fillers/bip.wav,,37,,,filler,,,,,,,
,,,,,,,,,,,,,,,,,,,,,,,,,,srs,23,f,English,USA,German,2021-03-28_18h11.27.366,UG_Thesis_exp_1,2021.1.2,MacIntel,59.97361161,,,1,1.16731,0,74,74,95,1,bimp,fillers/bimp.wav,,7,,,filler,,,,,,,
,,,,,,,,,,,,,,,,,,,,,,,,,,srs,23,f,English,USA,German,2021-03-28_18h11.27.366,UG_Thesis_exp_1,2021.1.2,MacIntel,59.97361161,,,0,1.152005,0,75,75,6,1,trun,stimuli/trun.wav,valid,12,31,,stimuli,,,,,,,
,,,,,,,,,,,,,,,,,,,,,,,,,,srs,23,f,English,USA,German,2021-03-28_18h11.27.366,UG_Thesis_exp_1,2021.1.2,MacIntel,59.97361161,,,1,1.28481,0,76,76,14,1,vlerk,stimuli/vlerk.wav,invalid,2,14,,stimuli,,,,,,,
,,,,,,,,,,,,,,,,,,,,,,,,,,srs,23,f,English,USA,German,2021-03-28_18h11.27.366,UG_Thesis_exp_1,2021.1.2,MacIntel,59.97361161,,,1,1.30172,0,77,77,75,1,chutch,fillers/chutch.wav,,12,,,filler,,,,,,,
,,,,,,,,,,,,,,,,,,,,,,,,,,srs,23,f,English,USA,German,2021-03-28_18h11.27.366,UG_Thesis_exp_1,2021.1.2,MacIntel,59.97361161,,,0,1.267505,0,78,78,31,1,fnet,stimuli/fnet.wav,invalid,2,3,,stimuli,,,,,,,
,,,,,,,,,,,,,,,,,,,,,,,,,,srs,23,f,English,USA,German,2021-03-28_18h11.27.366,UG_Thesis_exp_1,2021.1.2,MacIntel,59.97361161,,,1,1.454915,0,79,79,73,1,chudge,fillers/chudge.wav,,10,,,filler,,,,,,,
,,,,,,,,,,,,,,,,,,,,,,,,,,srs,23,f,English,USA,German,2021-03-28_18h11.27.366,UG_Thesis_exp_1,2021.1.2,MacIntel,59.97361161,,,1,1.918115,0,80,80,71,1,thudge,fillers/thudge.wav,,7,,,filler,,,,,,,
,,,,,,,,,,,,,,,,,,,,,,,,,,srs,23,f,English,USA,German,2021-03-28_18h11.27.366,UG_Thesis_exp_1,2021.1.2,MacIntel,59.97361161,,,0,0.93445,0,81,81,97,1,jalp,fillers/jalp.wav,,1,,,filler,,,,,,,
,,,,,,,,,,,,,,,,,,,,,,,,,,srs,23,f,English,USA,German,2021-03-28_18h11.27.366,UG_Thesis_exp_1,2021.1.2,MacIntel,59.97361161,,,0,1.53589,0,82,82,38,1,vpeyl,stimuli/vpeyl.wav,invalid,2,0,,stimuli,,,,,,,
,,,,,,,,,,,,,,,,,,,,,,,,,,srs,23,f,English,USA,German,2021-03-28_18h11.27.366,UG_Thesis_exp_1,2021.1.2,MacIntel,59.97361161,,,0,1.120315,0,83,83,39,1,dwil,stimuli/dwil.wav,invalid,7,,,stimuli,,,,,,,
,,,,,,,,,,,,,,,,,,,,,,,,,,srs,23,f,English,USA,German,2021-03-28_18h11.27.366,UG_Thesis_exp_1,2021.1.2,MacIntel,59.97361161,,,0,1.920665,0,84,84,30,1,znaet,stimuli/znaet.wav,invalid,1,4,,stimuli,,,,,,,
,,,,,,,,,,,,,,,,,,,,,,,,,,srs,23,f,English,USA,German,2021-03-28_18h11.27.366,UG_Thesis_exp_1,2021.1.2,MacIntel,59.97361161,,,0,1.200145,0,85,85,85,1,lus,fillers/lus.wav,,49,,,filler,,,,,,,
,,,,,,,,,,,,,,,,,,,,,,,,,,srs,23,f,English,USA,German,2021-03-28_18h11.27.366,UG_Thesis_exp_1,2021.1.2,MacIntel,59.97361161,,,0,1.2688,0,86,86,20,1,ftin,stimuli/ftin.wav,invalid,2,10,,stimuli,,,,,,,
,,,,,,,,,,,,,,,,,,,,,,,,,,srs,23,f,English,USA,German,2021-03-28_18h11.27.366,UG_Thesis_exp_1,2021.1.2,MacIntel,59.97361161,,,1,1.202625,0,87,87,98,1,fawnk,fillers/fawnk.wav,,4,,,filler,,,,,,,
,,,,,,,,,,,,,,,,,,,,,,,,,,srs,23,f,English,USA,German,2021-03-28_18h11.27.366,UG_Thesis_exp_1,2021.1.2,MacIntel,59.97361161,,,0,1.51975,0,88,88,92,1,purgd,fillers/purgd.wav,,3,,,filler,,,,,,,
,,,,,,,,,,,,,,,,,,,,,,,,,,srs,23,f,English,USA,German,2021-03-28_18h11.27.366,UG_Thesis_exp_1,2021.1.2,MacIntel,59.97361161,,,0,1.43367,0,89,89,79,1,chaith,fillers/chaith.wav,,5,,,filler,,,,,,,
,,,,,,,,,,,,,,,,,,,,,,,,,,srs,23,f,English,USA,German,2021-03-28_18h11.27.366,UG_Thesis_exp_1,2021.1.2,MacIntel,59.97361161,,,0,1.10075,0,90,90,44,1,vnet,stimuli/vnet.wav,invalid,2,1,,stimuli,,,,,,,
,,,,,,,,,,,,,,,,,,,,,,,,,,srs,23,f,English,USA,German,2021-03-28_18h11.27.366,UG_Thesis_exp_1,2021.1.2,MacIntel,59.97361161,,,0,1.10137,0,91,91,49,1,jveel,stimuli/jveel.wav,invalid,1,0,,stimuli,,,,,,,
,,,,,,,,,,,,,,,,,,,,,,,,,,srs,23,f,English,USA,German,2021-03-28_18h11.27.366,UG_Thesis_exp_1,2021.1.2,MacIntel,59.97361161,,,0,1.301495,0,92,92,94,1,malb,fillers/malb.wav,,2,,,filler,,,,,,,
,,,,,,,,,,,,,,,,,,,,,,,,,,srs,23,f,English,USA,German,2021-03-28_18h11.27.366,UG_Thesis_exp_1,2021.1.2,MacIntel,59.97361161,,,1,1.55141,0,93,93,91,1,bupt,fillers/bupt.wav,,10,,,filler,,,,,,,
,,,,,,,,,,,,,,,,,,,,,,,,,,srs,23,f,English,USA,German,2021-03-28_18h11.27.366,UG_Thesis_exp_1,2021.1.2,MacIntel,59.97361161,,,1,1.23668,0,94,94,60,1,juf,fillers/juf.wav,,19,,,filler,,,,,,,
,,,,,,,,,,,,,,,,,,,,,,,,,,srs,23,f,English,USA,German,2021-03-28_18h11.27.366,UG_Thesis_exp_1,2021.1.2,MacIntel,59.97361161,,,1,1.185045,0,95,95,99,1,shemp,fillers/shemp.wav,,3,,,filler,,,,,,,
,,,,,,,,,,,,,,,,,,,,,,,,,,srs,23,f,English,USA,German,2021-03-28_18h11.27.366,UG_Thesis_exp_1,2021.1.2,MacIntel,59.97361161,,,1,1.267575,0,96,96,11,1,shlerk,stimuli/shlerk.wav,invalid,4,22,,stimuli,,,,,,,
,,,,,,,,,,,,,,,,,,,,,,,,,,srs,23,f,English,USA,German,2021-03-28_18h11.27.366,UG_Thesis_exp_1,2021.1.2,MacIntel,59.97361161,,,0,0.920325,0,97,97,41,1,tweep,stimuli/tweep.wav,valid,0,,,stimuli,,,,,,,
,,,,,,,,,,,,,,,,,,,,,,,,,,srs,23,f,English,USA,German,2021-03-28_18h11.27.366,UG_Thesis_exp_1,2021.1.2,MacIntel,59.97361161,,,1,1.25364,0,98,98,80,1,gaith,fillers/gaith.wav,,9,,,filler,,,,,,,
,,,,,,,,,,,,,,,,,,,,,,,,,,srs,23,f,English,USA,German,2021-03-28_18h11.27.366,UG_Thesis_exp_1,2021.1.2,MacIntel,59.97361161,,,1,1.985575,0,99,99,1,1,smaet,stimuli/smaet.wav,valid,13,32,,stimuli,,,,,,,
,,,,,,,,,,,,,,,,,,,,,,,,,,srs,23,f,English,USA,German,2021-03-28_18h11.27.366,UG_Thesis_exp_1,2021.1.2,MacIntel,59.97361161,,,0,1.618545,1,0,100,40,1,thwup,stimuli/thwup.wav,invalid,0,,,stimuli,,,,,,,
,,,,,,,,,,,,,,,,,,,,,,,,,,srs,23,f,English,USA,German,2021-03-28_18h11.27.366,UG_Thesis_exp_1,2021.1.2,MacIntel,59.97361161,,,0,1.851535,1,1,101,99,1,shemp,fillers/shemp.wav,,3,,,filler,,,,,,,
,,,,,,,,,,,,,,,,,,,,,,,,,,srs,23,f,English,USA,German,2021-03-28_18h11.27.366,UG_Thesis_exp_1,2021.1.2,MacIntel,59.97361161,,,1,1.31654,1,2,102,58,1,lun,fillers/lun.wav,,70,,,filler,,,,,,,
,,,,,,,,,,,,,,,,,,,,,,,,,,srs,23,f,English,USA,German,2021-03-28_18h11.27.366,UG_Thesis_exp_1,2021.1.2,MacIntel,59.97361161,,,0,1.183525,1,3,103,6,1,trun,stimuli/trun.wav,valid,12,31,,stimuli,,,,,,,
,,,,,,,,,,,,,,,,,,,,,,,,,,srs,23,f,English,USA,German,2021-03-28_18h11.27.366,UG_Thesis_exp_1,2021.1.2,MacIntel,59.97361161,,,0,1.167415,1,4,104,48,1,jrun,stimuli/jrun.wav,invalid,4,11,,stimuli,,,,,,,
,,,,,,,,,,,,,,,,,,,,,,,,,,srs,23,f,English,USA,German,2021-03-28_18h11.27.366,UG_Thesis_exp_1,2021.1.2,MacIntel,59.97361161,,,0,1.370675,1,5,105,22,1,nrun,stimuli/nrun.wav,invalid,5,8,,stimuli,,,,,,,
,,,,,,,,,,,,,,,,,,,,,,,,,,srs,23,f,English,USA,German,2021-03-28_18h11.27.366,UG_Thesis_exp_1,2021.1.2,MacIntel,59.97361161,,,0,1.237215,1,6,106,19,1,shnet,stimuli/shnet.wav,valid,2,10,,stimuli,,,,,,,
,,,,,,,,,,,,,,,,,,,,,,,,,,srs,23,f,English,USA,German,2021-03-28_18h11.27.366,UG_Thesis_exp_1,2021.1.2,MacIntel,59.97361161,,,0,1.13423,1,7,107,18,1,fship,stimuli/fship.wav,invalid,2,11,,stimuli,,,,,,,
,,,,,,,,,,,,,,,,,,,,,,,,,,srs,23,f,English,USA,German,2021-03-28_18h11.27.366,UG_Thesis_exp_1,2021.1.2,MacIntel,59.97361161,,,0,1.283825,1,8,108,0,1,stin,stimuli/stin.wav,valid,18,33,,stimuli,,,,,,,
,,,,,,,,,,,,,,,,,,,,,,,,,,srs,23,f,English,USA,German,2021-03-28_18h11.27.366,UG_Thesis_exp_1,2021.1.2,MacIntel,59.97361161,,,1,1.16806,1,9,109,80,1,gaith,fillers/gaith.wav,,9,,,filler,,,,,,,
,,,,,,,,,,,,,,,,,,,,,,,,,,srs,23,f,English,USA,German,2021-03-28_18h11.27.366,UG_Thesis_exp_1,2021.1.2,MacIntel,59.97361161,,,1,1.085065,1,10,110,63,1,peb,fillers/peb.wav,,14,,,filler,,,,,,,
,,,,,,,,,,,,,,,,,,,,,,,,,,srs,23,f,English,USA,German,2021-03-28_18h11.27.366,UG_Thesis_exp_1,2021.1.2,MacIntel,59.97361161,,,1,0.93443,1,11,111,71,1,thudge,fillers/thudge.wav,,7,,,filler,,,,,,,
,,,,,,,,,,,,,,,,,,,,,,,,,,srs,23,f,English,USA,German,2021-03-28_18h11.27.366,UG_Thesis_exp_1,2021.1.2,MacIntel,59.97361161,,,0,1.26759,1,12,112,24,1,sfeed,stimuli/sfeed.wav,valid,7,7,,stimuli,,,,,,,
,,,,,,,,,,,,,,,,,,,,,,,,,,srs,23,f,English,USA,German,2021-03-28_18h11.27.366,UG_Thesis_exp_1,2021.1.2,MacIntel,59.97361161,,,0,1.268325,1,13,113,87,1,tul,fillers/tul.wav,,42,,,filler,,,,,,,
,,,,,,,,,,,,,,,,,,,,,,,,,,srs,23,f,English,USA,German,2021-03-28_18h11.27.366,UG_Thesis_exp_1,2021.1.2,MacIntel,59.97361161,,,0,1.467475,1,14,114,30,1,znaet,stimuli/znaet.wav,invalid,1,4,,stimuli,,,,,,,
,,,,,,,,,,,,,,,,,,,,,,,,,,srs,23,f,English,USA,German,2021-03-28_18h11.27.366,UG_Thesis_exp_1,2021.1.2,MacIntel,59.97361161,,,1,1.218245,1,15,115,74,1,wudge,fillers/wudge.wav,,13,,,filler,,,,,,,
,,,,,,,,,,,,,,,,,,,,,,,,,,srs,23,f,English,USA,German,2021-03-28_18h11.27.366,UG_Thesis_exp_1,2021.1.2,MacIntel,59.97361161,,,1,0.984475,1,16,116,83,1,bip,fillers/bip.wav,,37,,,filler,,,,,,,
,,,,,,,,,,,,,,,,,,,,,,,,,,srs,23,f,English,USA,German,2021-03-28_18h11.27.366,UG_Thesis_exp_1,2021.1.2,MacIntel,59.97361161,,,0,1.49999,1,17,117,93,1,gomt,fillers/gomt.wav,,0,,,filler,,,,,,,
,,,,,,,,,,,,,,,,,,,,,,,,,,srs,23,f,English,USA,German,2021-03-28_18h11.27.366,UG_Thesis_exp_1,2021.1.2,MacIntel,59.97361161,,,0,1.469455,1,18,118,79,1,chaith,fillers/chaith.wav,,5,,,filler,,,,,,,
,,,,,,,,,,,,,,,,,,,,,,,,,,srs,23,f,English,USA,German,2021-03-28_18h11.27.366,UG_Thesis_exp_1,2021.1.2,MacIntel,59.97361161,,,0,1.07732,1,19,119,44,1,vnet,stimuli/vnet.wav,invalid,2,1,,stimuli,,,,,,,
,,,,,,,,,,,,,,,,,,,,,,,,,,srs,23,f,English,USA,German,2021-03-28_18h11.27.366,UG_Thesis_exp_1,2021.1.2,MacIntel,59.97361161,,,0,1.13194,1,20,120,28,1,vzut,stimuli/vzut.wav,invalid,1,6,,stimuli,,,,,,,
,,,,,,,,,,,,,,,,,,,,,,,,,,srs,23,f,English,USA,German,2021-03-28_18h11.27.366,UG_Thesis_exp_1,2021.1.2,MacIntel,59.97361161,,,0,1.39872,1,21,121,32,1,fkeep,stimuli/fkeep.wav,invalid,1,3,,stimuli,,,,,,,
,,,,,,,,,,,,,,,,,,,,,,,,,,srs,23,f,English,USA,German,2021-03-28_18h11.27.366,UG_Thesis_exp_1,2021.1.2,MacIntel,59.97361161,,,0,1.438505,1,22,122,77,1,gej,fillers/gej.wav,,7,,,filler,,,,,,,
,,,,,,,,,,,,,,,,,,,,,,,,,,srs,23,f,English,USA,German,2021-03-28_18h11.27.366,UG_Thesis_exp_1,2021.1.2,MacIntel,59.97361161,,,1,1.202395,1,23,123,68,1,gurg,fillers/gurg.wav,,9,,,filler,,,,,,,
,,,,,,,,,,,,,,,,,,,,,,,,,,srs,23,f,English,USA,German,2021-03-28_18h11.27.366,UG_Thesis_exp_1,2021.1.2,MacIntel,59.97361161,,,1,1.252585,1,24,124,69,1,jerp,fillers/jerp.wav,,7,,,filler,,,,,,,
,,,,,,,,,,,,,,,,,,,,,,,,,,srs,23,f,English,USA,German,2021-03-28_18h11.27.366,UG_Thesis_exp_1,2021.1.2,MacIntel,59.97361161,,,1,1.03286,1,25,125,50,1,hus,fillers/hus.wav,,46,,,filler,,,,,,,
,,,,,,,,,,,,,,,,,,,,,,,,,,srs,23,f,English,USA,German,2021-03-28_18h11.27.366,UG_Thesis_exp_1,2021.1.2,MacIntel,59.97361161,,,0,1.07112,1,26,126,46,1,jpeyl,stimuli/jpeyl.wav,invalid,1,1,,stimuli,,,,,,,
,,,,,,,,,,,,,,,,,,,,,,,,,,srs,23,f,English,USA,German,2021-03-28_18h11.27.366,UG_Thesis_exp_1,2021.1.2,MacIntel,59.97361161,,,1,1.301505,1,27,127,95,1,bimp,fillers/bimp.wav,,7,,,filler,,,,,,,
,,,,,,,,,,,,,,,,,,,,,,,,,,srs,23,f,English,USA,German,2021-03-28_18h11.27.366,UG_Thesis_exp_1,2021.1.2,MacIntel,59.97361161,,,0,1.451385,1,28,128,31,1,fnet,stimuli/fnet.wav,invalid,2,3,,stimuli,,,,,,,
,,,,,,,,,,,,,,,,,,,,,,,,,,srs,23,f,English,USA,German,2021-03-28_18h11.27.366,UG_Thesis_exp_1,2021.1.2,MacIntel,59.97361161,,,0,1.10171,1,29,129,66,1,hais,fillers/hais.wav,,11,,,filler,,,,,,,
,,,,,,,,,,,,,,,,,,,,,,,,,,srs,23,f,English,USA,German,2021-03-28_18h11.27.366,UG_Thesis_exp_1,2021.1.2,MacIntel,59.97361161,,,0,1.168185,1,30,130,51,1,jun,fillers/jun.wav,,49,,,filler,,,,,,,
,,,,,,,,,,,,,,,,,,,,,,,,,,srs,23,f,English,USA,German,2021-03-28_18h11.27.366,UG_Thesis_exp_1,2021.1.2,MacIntel,59.97361161,,,0,1.118135,1,31,131,47,1,glung,stimuli/glung.wav,valid,9,27,,stimuli,,,,,,,
,,,,,,,,,,,,,,,,,,,,,,,,,,srs,23,f,English,USA,German,2021-03-28_18h11.27.366,UG_Thesis_exp_1,2021.1.2,MacIntel,59.97361161,,,1,1.48276,1,32,132,55,1,suv,fillers/suv.wav,,25,,,filler,,,,,,,
,,,,,,,,,,,,,,,,,,,,,,,,,,srs,23,f,English,USA,German,2021-03-28_18h11.27.366,UG_Thesis_exp_1,2021.1.2,MacIntel,59.97361161,,,0,1.11788,1,33,133,3,1,grun,stimuli/grun.wav,valid,18,33,,stimuli,,,,,,,
,,,,,,,,,,,,,,,,,,,,,,,,,,srs,23,f,English,USA,German,2021-03-28_18h11.27.366,UG_Thesis_exp_1,2021.1.2,MacIntel,59.97361161,,,0,1.51766,1,34,134,38,1,vpeyl,stimuli/vpeyl.wav,invalid,2,0,,stimuli,,,,,,,
,,,,,,,,,,,,,,,,,,,,,,,,,,srs,23,f,English,USA,German,2021-03-28_18h11.27.366,UG_Thesis_exp_1,2021.1.2,MacIntel,59.97361161,,,0,1.35196,1,35,135,5,1,drung,stimuli/drung.wav,valid,7,31,,stimuli,,,,,,,
,,,,,,,,,,,,,,,,,,,,,,,,,,srs,23,f,English,USA,German,2021-03-28_18h11.27.366,UG_Thesis_exp_1,2021.1.2,MacIntel,59.97361161,,,1,1.315745,1,36,136,91,1,bupt,fillers/bupt.wav,,10,,,filler,,,,,,,
,,,,,,,,,,,,,,,,,,,,,,,,,,srs,23,f,English,USA,German,2021-03-28_18h11.27.366,UG_Thesis_exp_1,2021.1.2,MacIntel,59.97361161,,,0,1.853335,1,37,137,76,1,thuv,fillers/thuv.wav,,9,,,filler,,,,,,,
,,,,,,,,,,,,,,,,,,,,,,,,,,srs,23,f,English,USA,German,2021-03-28_18h11.27.366,UG_Thesis_exp_1,2021.1.2,MacIntel,59.97361161,,,0,1.6017,1,38,138,86,1,suf,fillers/suf.wav,,33,,,filler,,,,,,,
,,,,,,,,,,,,,,,,,,,,,,,,,,srs,23,f,English,USA,German,2021-03-28_18h11.27.366,UG_Thesis_exp_1,2021.1.2,MacIntel,59.97361161,,,1,1.60409,1,39,139,89,1,sulft,fillers/suft.wav,,15,,,filler,,,,,,,
,,,,,,,,,,,,,,,,,,,,,,,,,,srs,23,f,English,USA,German,2021-03-28_18h11.27.366,UG_Thesis_exp_1,2021.1.2,MacIntel,59.97361161,,,0,1.11714,1,40,140,35,1,fmaet,stimuli/fmaet.wav,invalid,4,2,,stimuli,,,,,,,
,,,,,,,,,,,,,,,,,,,,,,,,,,srs,23,f,English,USA,German,2021-03-28_18h11.27.366,UG_Thesis_exp_1,2021.1.2,MacIntel,59.97361161,,,0,1.26781,1,41,141,60,1,juf,fillers/juf.wav,,19,,,filler,,,,,,,
,,,,,,,,,,,,,,,,,,,,,,,,,,srs,23,f,English,USA,German,2021-03-28_18h11.27.366,UG_Thesis_exp_1,2021.1.2,MacIntel,59.97361161,,,0,1.21921,1,42,142,57,1,sud,fillers/sud.wav,,40,,,filler,,,,,,,
,,,,,,,,,,,,,,,,,,,,,,,,,,srs,23,f,English,USA,German,2021-03-28_18h11.27.366,UG_Thesis_exp_1,2021.1.2,MacIntel,59.97361161,,,0,1.75426,1,43,143,29,1,shfeed,stimuli/shfeed.wav,invalid,1,5,,stimuli,,,,,,,
,,,,,,,,,,,,,,,,,,,,,,,,,,srs,23,f,English,USA,German,2021-03-28_18h11.27.366,UG_Thesis_exp_1,2021.1.2,MacIntel,59.97361161,,,0,2.18519,1,44,144,26,1,ztin,stimuli/ztin.wav,invalid,1,6,,stimuli,,,,,,,
,,,,,,,,,,,,,,,,,,,,,,,,,,srs,23,f,English,USA,German,2021-03-28_18h11.27.366,UG_Thesis_exp_1,2021.1.2,MacIntel,59.97361161,,,0,1.318315,1,45,145,7,1,frun,stimuli/frun.wav,valid,12,29,,stimuli,,,,,,,
,,,,,,,,,,,,,,,,,,,,,,,,,,srs,23,f,English,USA,German,2021-03-28_18h11.27.366,UG_Thesis_exp_1,2021.1.2,MacIntel,59.97361161,,,0,1.316985,1,46,146,23,1,shmat,stimuli/shmat.wav,valid,1,7,,stimuli,,,,,,,
,,,,,,,,,,,,,,,,,,,,,,,,,,srs,23,f,English,USA,German,2021-03-28_18h11.27.366,UG_Thesis_exp_1,2021.1.2,MacIntel,59.97361161,,,0,1.25042,1,47,147,64,1,sherj,fillers/sherj.wav,,12,,,filler,,,,,,,
,,,,,,,,,,,,,,,,,,,,,,,,,,srs,23,f,English,USA,German,2021-03-28_18h11.27.366,UG_Thesis_exp_1,2021.1.2,MacIntel,59.97361161,,,0,1.18465,1,48,148,10,1,mrung,stimuli/mrung.wav,invalid,1,27,,stimuli,,,,,,,
,,,,,,,,,,,,,,,,,,,,,,,,,,srs,23,f,English,USA,German,2021-03-28_18h11.27.366,UG_Thesis_exp_1,2021.1.2,MacIntel,59.97361161,,,0,1.03341,1,49,149,12,1,vrun,stimuli/vrun.wav,invalid,4,19,,stimuli,,,,,,,
,,,,,,,,,,,,,,,,,,,,,,,,,,srs,23,f,English,USA,German,2021-03-28_18h11.27.366,UG_Thesis_exp_1,2021.1.2,MacIntel,59.97361161,,,0,1.220205,1,50,150,17,1,fpeyl,stimuli/fpeyl.wav,invalid,4,13,,stimuli,,,,,,,
,,,,,,,,,,,,,,,,,,,,,,,,,,srs,23,f,English,USA,German,2021-03-28_18h11.27.366,UG_Thesis_exp_1,2021.1.2,MacIntel,59.97361161,,,0,0.984105,1,51,151,49,1,jveel,stimuli/jveel.wav,invalid,1,0,,stimuli,,,,,,,
,,,,,,,,,,,,,,,,,,,,,,,,,,srs,23,f,English,USA,German,2021-03-28_18h11.27.366,UG_Thesis_exp_1,2021.1.2,MacIntel,59.97361161,,,0,1.21801,1,52,152,45,1,shkeep,stimuli/shkeep.wav,invalid,15,1,,stimuli,,,,,,,
,,,,,,,,,,,,,,,,,,,,,,,,,,srs,23,f,English,USA,German,2021-03-28_18h11.27.366,UG_Thesis_exp_1,2021.1.2,MacIntel,59.97361161,,,0,1.216895,1,53,153,67,1,thith,fillers/thith.wav,,4,,,filler,,,,,,,
,,,,,,,,,,,,,,,,,,,,,,,,,,srs,23,f,English,USA,German,2021-03-28_18h11.27.366,UG_Thesis_exp_1,2021.1.2,MacIntel,59.97361161,,,0,0.969115,1,54,154,11,1,shlerk,stimuli/shlerk.wav,invalid,4,22,,stimuli,,,,,,,
,,,,,,,,,,,,,,,,,,,,,,,,,,srs,23,f,English,USA,German,2021-03-28_18h11.27.366,UG_Thesis_exp_1,2021.1.2,MacIntel,59.97361161,,,0,1.203955,1,55,155,25,1,zlerk,stimuli/zlerk.wav,invalid,2,6,,stimuli,,,,,,,
,,,,,,,,,,,,,,,,,,,,,,,,,,srs,23,f,English,USA,German,2021-03-28_18h11.27.366,UG_Thesis_exp_1,2021.1.2,MacIntel,59.97361161,,,1,1.10377,1,56,156,96,1,chulp,fillers/chulp.wav,,4,,,filler,,,,,,,
,,,,,,,,,,,,,,,,,,,,,,,,,,srs,23,f,English,USA,German,2021-03-28_18h11.27.366,UG_Thesis_exp_1,2021.1.2,MacIntel,59.97361161,,,1,1.51662,1,57,157,84,1,ras,fillers/ras.wav,,52,,,filler,,,,,,,
,,,,,,,,,,,,,,,,,,,,,,,,,,srs,23,f,English,USA,German,2021-03-28_18h11.27.366,UG_Thesis_exp_1,2021.1.2,MacIntel,59.97361161,,,0,1.049545,1,58,158,27,1,fset,stimuli/fset.wav,invalid,4,6,,stimuli,,,,,,,
,,,,,,,,,,,,,,,,,,,,,,,,,,srs,23,f,English,USA,German,2021-03-28_18h11.27.366,UG_Thesis_exp_1,2021.1.2,MacIntel,59.97361161,,,0,1.353045,1,59,159,39,1,dwil,stimuli/dwil.wav,invalid,7,,,stimuli,,,,,,,
,,,,,,,,,,,,,,,,,,,,,,,,,,srs,23,f,English,USA,German,2021-03-28_18h11.27.366,UG_Thesis_exp_1,2021.1.2,MacIntel,59.97361161,,,0,1.10127,1,60,160,16,1,shtin,stimuli/shtin.wav,invalid,3,13,,stimuli,,,,,,,
,,,,,,,,,,,,,,,,,,,,,,,,,,srs,23,f,English,USA,German,2021-03-28_18h11.27.366,UG_Thesis_exp_1,2021.1.2,MacIntel,59.97361161,,,0,1.117495,1,61,161,56,1,rul,fillers/rul.wav,,42,,,filler,,,,,,,
,,,,,,,,,,,,,,,,,,,,,,,,,,srs,23,f,English,USA,German,2021-03-28_18h11.27.366,UG_Thesis_exp_1,2021.1.2,MacIntel,59.97361161,,,1,1.03556,1,62,162,90,1,tupt,fillers/tupt.wav,,11,,,filler,,,,,,,
,,,,,,,,,,,,,,,,,,,,,,,,,,srs,23,f,English,USA,German,2021-03-28_18h11.27.366,UG_Thesis_exp_1,2021.1.2,MacIntel,59.97361161,,,1,1.56746,1,63,163,42,1,thwaet,stimuli/thwaet.wav,invalid,1,,,stimuli,,,,,,,
,,,,,,,,,,,,,,,,,,,,,,,,,,srs,23,f,English,USA,German,2021-03-28_18h11.27.366,UG_Thesis_exp_1,2021.1.2,MacIntel,59.97361161,,,1,1.08596,1,64,164,82,1,pab,fillers/pab.wav,,29,,,filler,,,,,,,
,,,,,,,,,,,,,,,,,,,,,,,,,,srs,23,f,English,USA,German,2021-03-28_18h11.27.366,UG_Thesis_exp_1,2021.1.2,MacIntel,59.97361161,,,0,1.26717,1,65,165,9,1,spung,stimuli/spung.wav,valid,11,28,,stimuli,,,,,,,
,,,,,,,,,,,,,,,,,,,,,,,,,,srs,23,f,English,USA,German,2021-03-28_18h11.27.366,UG_Thesis_exp_1,2021.1.2,MacIntel,59.97361161,,,0,1.26678,1,66,166,61,1,wutch,fillers/wutch.wav,,17,,,filler,,,,,,,
,,,,,,,,,,,,,,,,,,,,,,,,,,srs,23,f,English,USA,German,2021-03-28_18h11.27.366,UG_Thesis_exp_1,2021.1.2,MacIntel,59.97361161,,,0,1.26784,1,67,167,37,1,zkeep,stimuli/zkeep.wav,invalid,1,0,,stimuli,,,,,,,
,,,,,,,,,,,,,,,,,,,,,,,,,,srs,23,f,English,USA,German,2021-03-28_18h11.27.366,UG_Thesis_exp_1,2021.1.2,MacIntel,59.97361161,,,0,1.218565,1,68,168,65,1,keb,fillers/keb.wav,,16,,,filler,,,,,,,
,,,,,,,,,,,,,,,,,,,,,,,,,,srs,23,f,English,USA,German,2021-03-28_18h11.27.366,UG_Thesis_exp_1,2021.1.2,MacIntel,59.97361161,,,0,1.10124,1,69,169,13,1,srun,stimuli/srun.wav,invalid,9,14,,stimuli,,,,,,,
,,,,,,,,,,,,,,,,,,,,,,,,,,srs,23,f,English,USA,German,2021-03-28_18h11.27.366,UG_Thesis_exp_1,2021.1.2,MacIntel,59.97361161,,,1,1.283445,1,70,170,53,1,suz,fillers/suz.wav,,37,,,filler,,,,,,,
,,,,,,,,,,,,,,,,,,,,,,,,,,srs,23,f,English,USA,German,2021-03-28_18h11.27.366,UG_Thesis_exp_1,2021.1.2,MacIntel,59.97361161,,,0,1.33331,1,71,171,73,1,chudge,fillers/chudge.wav,,10,,,filler,,,,,,,
,,,,,,,,,,,,,,,,,,,,,,,,,,srs,23,f,English,USA,German,2021-03-28_18h11.27.366,UG_Thesis_exp_1,2021.1.2,MacIntel,59.97361161,,,0,1.26709,1,72,172,94,1,malb,fillers/malb.wav,,2,,,filler,,,,,,,
,,,,,,,,,,,,,,,,,,,,,,,,,,srs,23,f,English,USA,German,2021-03-28_18h11.27.366,UG_Thesis_exp_1,2021.1.2,MacIntel,59.97361161,,,0,1.051515,1,73,173,97,1,jalp,fillers/jalp.wav,,1,,,filler,,,,,,,
,,,,,,,,,,,,,,,,,,,,,,,,,,srs,23,f,English,USA,German,2021-03-28_18h11.27.366,UG_Thesis_exp_1,2021.1.2,MacIntel,59.97361161,,,0,1.052725,1,74,174,15,1,mlung,stimuli/mlung.wav,invalid,4,13,,stimuli,,,,,,,
,,,,,,,,,,,,,,,,,,,,,,,,,,srs,23,f,English,USA,German,2021-03-28_18h11.27.366,UG_Thesis_exp_1,2021.1.2,MacIntel,59.97361161,,,0,1.416645,1,75,175,70,1,shirj,fillers/shirj.wav,,12,,,filler,,,,,,,
,,,,,,,,,,,,,,,,,,,,,,,,,,srs,23,f,English,USA,German,2021-03-28_18h11.27.366,UG_Thesis_exp_1,2021.1.2,MacIntel,59.97361161,,,0,1.18701,1,76,176,36,1,shpeyl,stimuli/shpeyl.wav,invalid,2,2,,stimuli,,,,,,,
,,,,,,,,,,,,,,,,,,,,,,,,,,srs,23,f,English,USA,German,2021-03-28_18h11.27.366,UG_Thesis_exp_1,2021.1.2,MacIntel,59.97361161,,,0,1.06757,1,77,177,78,1,jaith,fillers/jaith.wav,,7,,,filler,,,,,,,
,,,,,,,,,,,,,,,,,,,,,,,,,,srs,23,f,English,USA,German,2021-03-28_18h11.27.366,UG_Thesis_exp_1,2021.1.2,MacIntel,59.97361161,,,0,1.118605,1,78,178,41,1,tweep,stimuli/tweep.wav,valid,0,,,stimuli,,,,,,,
,,,,,,,,,,,,,,,,,,,,,,,,,,srs,23,f,English,USA,German,2021-03-28_18h11.27.366,UG_Thesis_exp_1,2021.1.2,MacIntel,59.97361161,,,0,1.33562,1,79,179,34,1,zveel,stimuli/zveel.wav,invalid,2,3,,stimuli,,,,,,,
,,,,,,,,,,,,,,,,,,,,,,,,,,srs,23,f,English,USA,German,2021-03-28_18h11.27.366,UG_Thesis_exp_1,2021.1.2,MacIntel,59.97361161,,,0,1.084625,1,80,180,14,1,vlerk,stimuli/vlerk.wav,invalid,2,14,,stimuli,,,,,,,
,,,,,,,,,,,,,,,,,,,,,,,,,,srs,23,f,English,USA,German,2021-03-28_18h11.27.366,UG_Thesis_exp_1,2021.1.2,MacIntel,59.97361161,,,1,1.218065,1,81,181,98,1,fawnk,fillers/fawnk.wav,,4,,,filler,,,,,,,
,,,,,,,,,,,,,,,,,,,,,,,,,,srs,23,f,English,USA,German,2021-03-28_18h11.27.366,UG_Thesis_exp_1,2021.1.2,MacIntel,59.97361161,,,0,1.26805,1,82,182,92,1,purgd,fillers/purgd.wav,,3,,,filler,,,,,,,
,,,,,,,,,,,,,,,,,,,,,,,,,,srs,23,f,English,USA,German,2021-03-28_18h11.27.366,UG_Thesis_exp_1,2021.1.2,MacIntel,59.97361161,,,0,1.085975,1,83,183,21,1,zrun,stimuli/zrun.wav,invalid,5,8,,stimuli,,,,,,,
,,,,,,,,,,,,,,,,,,,,,,,,,,srs,23,f,English,USA,German,2021-03-28_18h11.27.366,UG_Thesis_exp_1,2021.1.2,MacIntel,59.97361161,,,1,1.20093,1,84,184,52,1,dus,fillers/dus.wav,,58,,,filler,,,,,,,
,,,,,,,,,,,,,,,,,,,,,,,,,,srs,23,f,English,USA,German,2021-03-28_18h11.27.366,UG_Thesis_exp_1,2021.1.2,MacIntel,59.97361161,,,0,1.1027,1,85,185,33,1,vtin,stimuli/vtin.wav,invalid,2,3,,stimuli,,,,,,,
,,,,,,,,,,,,,,,,,,,,,,,,,,srs,23,f,English,USA,German,2021-03-28_18h11.27.366,UG_Thesis_exp_1,2021.1.2,MacIntel,59.97361161,,,0,1.11724,1,86,186,1,1,smaet,stimuli/smaet.wav,valid,13,32,,stimuli,,,,,,,
,,,,,,,,,,,,,,,,,,,,,,,,,,srs,23,f,English,USA,German,2021-03-28_18h11.27.366,UG_Thesis_exp_1,2021.1.2,MacIntel,59.97361161,,,1,1.383885,1,87,187,20,1,ftin,stimuli/ftin.wav,invalid,2,10,,stimuli,,,,,,,
,,,,,,,,,,,,,,,,,,,,,,,,,,srs,23,f,English,USA,German,2021-03-28_18h11.27.366,UG_Thesis_exp_1,2021.1.2,MacIntel,59.97361161,,,0,1.355575,1,88,188,81,1,mub,fillers/mub.wav,,26,,,filler,,,,,,,
,,,,,,,,,,,,,,,,,,,,,,,,,,srs,23,f,English,USA,German,2021-03-28_18h11.27.366,UG_Thesis_exp_1,2021.1.2,MacIntel,59.97361161,,,0,1.25147,1,89,189,72,1,jutch,fillers/jutch.wav,,10,,,filler,,,,,,,
,,,,,,,,,,,,,,,,,,,,,,,,,,srs,23,f,English,USA,German,2021-03-28_18h11.27.366,UG_Thesis_exp_1,2021.1.2,MacIntel,59.97361161,,,0,1.438105,1,90,190,75,1,chutch,fillers/chutch.wav,,12,,,filler,,,,,,,
,,,,,,,,,,,,,,,,,,,,,,,,,,srs,23,f,English,USA,German,2021-03-28_18h11.27.366,UG_Thesis_exp_1,2021.1.2,MacIntel,59.97361161,,,0,1.373165,1,91,191,43,1,skeep,stimuli/skeep.wav,valid,2,20,,stimuli,,,,,,,
,,,,,,,,,,,,,,,,,,,,,,,,,,srs,23,f,English,USA,German,2021-03-28_18h11.27.366,UG_Thesis_exp_1,2021.1.2,MacIntel,59.97361161,,,1,1.01679,1,92,192,62,1,pev,fillers/pev.wav,,15,,,filler,,,,,,,
,,,,,,,,,,,,,,,,,,,,,,,,,,srs,23,f,English,USA,German,2021-03-28_18h11.27.366,UG_Thesis_exp_1,2021.1.2,MacIntel,59.97361161,,,0,1.40303,1,93,193,8,1,snet,stimuli/snet.wav,valid,7,28,,stimuli,,,,,,,
,,,,,,,,,,,,,,,,,,,,,,,,,,srs,23,f,English,USA,German,2021-03-28_18h11.27.366,UG_Thesis_exp_1,2021.1.2,MacIntel,59.97361161,,,1,1.068015,1,94,194,59,1,pum,fillers/pum.wav,,40,,,filler,,,,,,,
,,,,,,,,,,,,,,,,,,,,,,,,,,srs,23,f,English,USA,German,2021-03-28_18h11.27.366,UG_Thesis_exp_1,2021.1.2,MacIntel,59.97361161,,,1,1.23561,1,95,195,54,1,sug,fillers/sug.wav,,29,,,filler,,,,,,,
,,,,,,,,,,,,,,,,,,,,,,,,,,srs,23,f,English,USA,German,2021-03-28_18h11.27.366,UG_Thesis_exp_1,2021.1.2,MacIntel,59.97361161,,,0,1.433625,1,96,196,4,1,flerk,stimuli/flerk.wav,valid,11,31,,stimuli,,,,,,,
,,,,,,,,,,,,,,,,,,,,,,,,,,srs,23,f,English,USA,German,2021-03-28_18h11.27.366,UG_Thesis_exp_1,2021.1.2,MacIntel,59.97361161,,,0,1.368565,1,97,197,88,1,sudge,fillers/sudge.wav,,24,,,filler,,,,,,,
,,,,,,,,,,,,,,,,,,,,,,,,,,srs,23,f,English,USA,German,2021-03-28_18h11.27.366,UG_Thesis_exp_1,2021.1.2,MacIntel,59.97361161,,,1,1.01732,1,98,198,85,1,lus,fillers/lus.wav,,49,,,filler,,,,,,,
,,,,,,,,,,,,,,,,,,,,,,,,,,srs,23,f,English,USA,German,2021-03-28_18h11.27.366,UG_Thesis_exp_1,2021.1.2,MacIntel,59.97361161,,,0,0.96797,1,99,199,2,1,prun,stimuli/prun.wav,valid,11,32,,stimuli,,,,,,,
,,,,,,,,,,,,,,,,,,,,,,,,,,srs,23,f,English,USA,German,2021-03-28_18h11.27.366,UG_Thesis_exp_1,2021.1.2,MacIntel,59.97361161,,,0,1.41745,,,,,,shemp,fillers/shemp.wav,,3,,,filler,space,94.876605,0,0,0,99,1
,,,,,,,,,,,,,,,,,,,,,,,,,,srs,23,f,English,USA,German,2021-03-28_18h11.27.366,UG_Thesis_exp_1,2021.1.2,MacIntel,59.97361161,,,0,1.13734,,,,,,grun,stimuli/grun.wav,valid,18,33,,stimuli,,,0,1,1,3,1
,,,,,,,,,,,,,,,,,,,,,,,,,,srs,23,f,English,USA,German,2021-03-28_18h11.27.366,UG_Thesis_exp_1,2021.1.2,MacIntel,59.97361161,,,1,1.21702,,,,,,bip,fillers/bip.wav,,37,,,filler,,,0,2,2,83,1
,,,,,,,,,,,,,,,,,,,,,,,,,,srs,23,f,English,USA,German,2021-03-28_18h11.27.366,UG_Thesis_exp_1,2021.1.2,MacIntel,59.97361161,,,0,1.56971,,,,,,glung,stimuli/glung.wav,valid,9,27,,stimuli,,,0,3,3,47,1
,,,,,,,,,,,,,,,,,,,,,,,,,,srs,23,f,English,USA,German,2021-03-28_18h11.27.366,UG_Thesis_exp_1,2021.1.2,MacIntel,59.97361161,,,0,1.18529,,,,,,tupt,fillers/tupt.wav,,11,,,filler,,,0,4,4,90,1
,,,,,,,,,,,,,,,,,,,,,,,,,,srs,23,f,English,USA,German,2021-03-28_18h11.27.366,UG_Thesis_exp_1,2021.1.2,MacIntel,59.97361161,,,0,1.237075,,,,,,suz,fillers/suz.wav,,37,,,filler,,,0,5,5,53,1
,,,,,,,,,,,,,,,,,,,,,,,,,,srs,23,f,English,USA,German,2021-03-28_18h11.27.366,UG_Thesis_exp_1,2021.1.2,MacIntel,59.97361161,,,1,1.284475,,,,,,sudge,fillers/sudge.wav,,24,,,filler,,,0,6,6,88,1
,,,,,,,,,,,,,,,,,,,,,,,,,,srs,23,f,English,USA,German,2021-03-28_18h11.27.366,UG_Thesis_exp_1,2021.1.2,MacIntel,59.97361161,,,0,1.302155,,,,,,sud,fillers/sud.wav,,40,,,filler,,,0,7,7,57,1
,,,,,,,,,,,,,,,,,,,,,,,,,,srs,23,f,English,USA,German,2021-03-28_18h11.27.366,UG_Thesis_exp_1,2021.1.2,MacIntel,59.97361161,,,1,1.36869,,,,,,chudge,fillers/chudge.wav,,10,,,filler,,,0,8,8,73,1
,,,,,,,,,,,,,,,,,,,,,,,,,,srs,23,f,English,USA,German,2021-03-28_18h11.27.366,UG_Thesis_exp_1,2021.1.2,MacIntel,59.97361161,,,1,2.13687,,,,,,suv,fillers/suv.wav,,25,,,filler,,,0,9,9,55,1
,,,,,,,,,,,,,,,,,,,,,,,,,,srs,23,f,English,USA,German,2021-03-28_18h11.27.366,UG_Thesis_exp_1,2021.1.2,MacIntel,59.97361161,,,1,1.220415,,,,,,keb,fillers/keb.wav,,16,,,filler,,,0,10,10,65,1
,,,,,,,,,,,,,,,,,,,,,,,,,,srs,23,f,English,USA,German,2021-03-28_18h11.27.366,UG_Thesis_exp_1,2021.1.2,MacIntel,59.97361161,,,1,1.2347,,,,,,lun,fillers/lun.wav,,70,,,filler,,,0,11,11,58,1
,,,,,,,,,,,,,,,,,,,,,,,,,,srs,23,f,English,USA,German,2021-03-28_18h11.27.366,UG_Thesis_exp_1,2021.1.2,MacIntel,59.97361161,,,0,1.517165,,,,,,vzut,stimuli/vzut.wav,invalid,1,6,,stimuli,,,0,12,12,28,1
,,,,,,,,,,,,,,,,,,,,,,,,,,srs,23,f,English,USA,German,2021-03-28_18h11.27.366,UG_Thesis_exp_1,2021.1.2,MacIntel,59.97361161,,,0,1.352575,,,,,,nrun,stimuli/nrun.wav,invalid,5,8,,stimuli,,,0,13,13,22,1
,,,,,,,,,,,,,,,,,,,,,,,,,,srs,23,f,English,USA,German,2021-03-28_18h11.27.366,UG_Thesis_exp_1,2021.1.2,MacIntel,59.97361161,,,1,1.11731,,,,,,lus,fillers/lus.wav,,49,,,filler,,,0,14,14,85,1
,,,,,,,,,,,,,,,,,,,,,,,,,,srs,23,f,English,USA,German,2021-03-28_18h11.27.366,UG_Thesis_exp_1,2021.1.2,MacIntel,59.97361161,,,0,1.30042,,,,,,sulft,fillers/suft.wav,,15,,,filler,,,0,15,15,89,1
,,,,,,,,,,,,,,,,,,,,,,,,,,srs,23,f,English,USA,German,2021-03-28_18h11.27.366,UG_Thesis_exp_1,2021.1.2,MacIntel,59.97361161,,,0,1.064845,,,,,,shtin,stimuli/shtin.wav,invalid,3,13,,stimuli,,,0,16,16,16,1
,,,,,,,,,,,,,,,,,,,,,,,,,,srs,23,f,English,USA,German,2021-03-28_18h11.27.366,UG_Thesis_exp_1,2021.1.2,MacIntel,59.97361161,,,0,1.301065,,,,,,sherj,fillers/sherj.wav,,12,,,filler,,,0,17,17,64,1
,,,,,,,,,,,,,,,,,,,,,,,,,,srs,23,f,English,USA,German,2021-03-28_18h11.27.366,UG_Thesis_exp_1,2021.1.2,MacIntel,59.97361161,,,0,1.468875,,,,,,fkeep,stimuli/fkeep.wav,invalid,1,3,,stimuli,,,0,18,18,32,1
,,,,,,,,,,,,,,,,,,,,,,,,,,srs,23,f,English,USA,German,2021-03-28_18h11.27.366,UG_Thesis_exp_1,2021.1.2,MacIntel,59.97361161,,,0,1.434425,,,,,,frun,stimuli/frun.wav,valid,12,29,,stimuli,,,0,19,19,7,1
,,,,,,,,,,,,,,,,,,,,,,,,,,srs,23,f,English,USA,German,2021-03-28_18h11.27.366,UG_Thesis_exp_1,2021.1.2,MacIntel,59.97361161,,,0,1.017855,,,,,,dus,fillers/dus.wav,,58,,,filler,,,0,20,20,52,1
,,,,,,,,,,,,,,,,,,,,,,,,,,srs,23,f,English,USA,German,2021-03-28_18h11.27.366,UG_Thesis_exp_1,2021.1.2,MacIntel,59.97361161,,,0,1.21835,,,,,,gurg,fillers/gurg.wav,,9,,,filler,,,0,21,21,68,1
,,,,,,,,,,,,,,,,,,,,,,,,,,srs,23,f,English,USA,German,2021-03-28_18h11.27.366,UG_Thesis_exp_1,2021.1.2,MacIntel,59.97361161,,,0,1.551095,,,,,,srun,stimuli/srun.wav,invalid,9,14,,stimuli,,,0,22,22,13,1
,,,,,,,,,,,,,,,,,,,,,,,,,,srs,23,f,English,USA,German,2021-03-28_18h11.27.366,UG_Thesis_exp_1,2021.1.2,MacIntel,59.97361161,,,0,1.0559,,,,,,zkeep,stimuli/zkeep.wav,invalid,1,0,,stimuli,,,0,23,23,37,1
,,,,,,,,,,,,,,,,,,,,,,,,,,srs,23,f,English,USA,German,2021-03-28_18h11.27.366,UG_Thesis_exp_1,2021.1.2,MacIntel,59.97361161,,,0,1.05039,,,,,,jutch,fillers/jutch.wav,,10,,,filler,,,0,24,24,72,1
,,,,,,,,,,,,,,,,,,,,,,,,,,srs,23,f,English,USA,German,2021-03-28_18h11.27.366,UG_Thesis_exp_1,2021.1.2,MacIntel,59.97361161,,,0,1.33407,,,,,,ras,fillers/ras.wav,,52,,,filler,,,0,25,25,84,1
,,,,,,,,,,,,,,,,,,,,,,,,,,srs,23,f,English,USA,German,2021-03-28_18h11.27.366,UG_Thesis_exp_1,2021.1.2,MacIntel,59.97361161,,,1,1.166805,,,,,,jalp,fillers/jalp.wav,,1,,,filler,,,0,26,26,97,1
,,,,,,,,,,,,,,,,,,,,,,,,,,srs,23,f,English,USA,German,2021-03-28_18h11.27.366,UG_Thesis_exp_1,2021.1.2,MacIntel,59.97361161,,,0,1.88505,,,,,,fmaet,stimuli/fmaet.wav,invalid,4,2,,stimuli,,,0,27,27,35,1
,,,,,,,,,,,,,,,,,,,,,,,,,,srs,23,f,English,USA,German,2021-03-28_18h11.27.366,UG_Thesis_exp_1,2021.1.2,MacIntel,59.97361161,,,0,1.201585,,,,,,sfeed,stimuli/sfeed.wav,valid,7,7,,stimuli,,,0,28,28,24,1
,,,,,,,,,,,,,,,,,,,,,,,,,,srs,23,f,English,USA,German,2021-03-28_18h11.27.366,UG_Thesis_exp_1,2021.1.2,MacIntel,59.97361161,,,0,2.25072,,,,,,spung,stimuli/spung.wav,valid,11,28,,stimuli,,,0,29,29,9,1
,,,,,,,,,,,,,,,,,,,,,,,,,,srs,23,f,English,USA,German,2021-03-28_18h11.27.366,UG_Thesis_exp_1,2021.1.2,MacIntel,59.97361161,,,0,1.004555,,,,,,jveel,stimuli/jveel.wav,invalid,1,0,,stimuli,,,0,30,30,49,1
,,,,,,,,,,,,,,,,,,,,,,,,,,srs,23,f,English,USA,German,2021-03-28_18h11.27.366,UG_Thesis_exp_1,2021.1.2,MacIntel,59.97361161,,,0,1.1677,,,,,,zrun,stimuli/zrun.wav,invalid,5,8,,stimuli,,,0,31,31,21,1
,,,,,,,,,,,,,,,,,,,,,,,,,,srs,23,f,English,USA,German,2021-03-28_18h11.27.366,UG_Thesis_exp_1,2021.1.2,MacIntel,59.97361161,,,0,0.95084,,,,,,vpeyl,stimuli/vpeyl.wav,invalid,2,0,,stimuli,,,0,32,32,38,1
,,,,,,,,,,,,,,,,,,,,,,,,,,srs,23,f,English,USA,German,2021-03-28_18h11.27.366,UG_Thesis_exp_1,2021.1.2,MacIntel,59.97361161,,,0,1.289715,,,,,,skeep,stimuli/skeep.wav,valid,2,20,,stimuli,,,0,33,33,43,1
,,,,,,,,,,,,,,,,,,,,,,,,,,srs,23,f,English,USA,German,2021-03-28_18h11.27.366,UG_Thesis_exp_1,2021.1.2,MacIntel,59.97361161,,,0,1.401315,,,,,,jaith,fillers/jaith.wav,,7,,,filler,,,0,34,34,78,1
,,,,,,,,,,,,,,,,,,,,,,,,,,srs,23,f,English,USA,German,2021-03-28_18h11.27.366,UG_Thesis_exp_1,2021.1.2,MacIntel,59.97361161,,,0,1.00176,,,,,,shnet,stimuli/shnet.wav,valid,2,10,,stimuli,,,0,35,35,19,1
,,,,,,,,,,,,,,,,,,,,,,,,,,srs,23,f,English,USA,German,2021-03-28_18h11.27.366,UG_Thesis_exp_1,2021.1.2,MacIntel,59.97361161,,,0,1.485,,,,,,gomt,fillers/gomt.wav,,0,,,filler,,,0,36,36,93,1
,,,,,,,,,,,,,,,,,,,,,,,,,,srs,23,f,English,USA,German,2021-03-28_18h11.27.366,UG_Thesis_exp_1,2021.1.2,MacIntel,59.97361161,,,0,0.984085,,,,,,fpeyl,stimuli/fpeyl.wav,invalid,4,13,,stimuli,,,0,37,37,17,1
,,,,,,,,,,,,,,,,,,,,,,,,,,srs,23,f,English,USA,German,2021-03-28_18h11.27.366,UG_Thesis_exp_1,2021.1.2,MacIntel,59.97361161,,,0,1.48639,,,,,,thudge,fillers/thudge.wav,,7,,,filler,,,0,38,38,71,1
,,,,,,,,,,,,,,,,,,,,,,,,,,srs,23,f,English,USA,German,2021-03-28_18h11.27.366,UG_Thesis_exp_1,2021.1.2,MacIntel,59.97361161,,,0,1.5015,,,,,,jun,fillers/jun.wav,,49,,,filler,,,0,39,39,51,1
,,,,,,,,,,,,,,,,,,,,,,,,,,srs,23,f,English,USA,German,2021-03-28_18h11.27.366,UG_Thesis_exp_1,2021.1.2,MacIntel,59.97361161,,,0,1.204195,,,,,,flerk,stimuli/flerk.wav,valid,11,31,,stimuli,,,0,40,40,4,1
,,,,,,,,,,,,,,,,,,,,,,,,,,srs,23,f,English,USA,German,2021-03-28_18h11.27.366,UG_Thesis_exp_1,2021.1.2,MacIntel,59.97361161,,,0,1.184725,,,,,,thuv,fillers/thuv.wav,,9,,,filler,,,0,41,41,76,1
,,,,,,,,,,,,,,,,,,,,,,,,,,srs,23,f,English,USA,German,2021-03-28_18h11.27.366,UG_Thesis_exp_1,2021.1.2,MacIntel,59.97361161,,,0,1.13423,,,,,,zveel,stimuli/zveel.wav,invalid,2,3,,stimuli,,,0,42,42,34,1
,,,,,,,,,,,,,,,,,,,,,,,,,,srs,23,f,English,USA,German,2021-03-28_18h11.27.366,UG_Thesis_exp_1,2021.1.2,MacIntel,59.97361161,,,0,1.034695,,,,,,zlerk,stimuli/zlerk.wav,invalid,2,6,,stimuli,,,0,43,43,25,1
,,,,,,,,,,,,,,,,,,,,,,,,,,srs,23,f,English,USA,German,2021-03-28_18h11.27.366,UG_Thesis_exp_1,2021.1.2,MacIntel,59.97361161,,,0,1.134255,,,,,,rul,fillers/rul.wav,,42,,,filler,,,0,44,44,56,1
,,,,,,,,,,,,,,,,,,,,,,,,,,srs,23,f,English,USA,German,2021-03-28_18h11.27.366,UG_Thesis_exp_1,2021.1.2,MacIntel,59.97361161,,,0,0.969205,,,,,,fship,stimuli/fship.wav,invalid,2,11,,stimuli,,,0,45,45,18,1
,,,,,,,,,,,,,,,,,,,,,,,,,,srs,23,f,English,USA,German,2021-03-28_18h11.27.366,UG_Thesis_exp_1,2021.1.2,MacIntel,59.97361161,,,0,1.18448,,,,,,vlerk,stimuli/vlerk.wav,invalid,2,14,,stimuli,,,0,46,46,14,1
,,,,,,,,,,,,,,,,,,,,,,,,,,srs,23,f,English,USA,German,2021-03-28_18h11.27.366,UG_Thesis_exp_1,2021.1.2,MacIntel,59.97361161,,,1,1.084535,,,,,,thith,fillers/thith.wav,,4,,,filler,,,0,47,47,67,1
,,,,,,,,,,,,,,,,,,,,,,,,,,srs,23,f,English,USA,German,2021-03-28_18h11.27.366,UG_Thesis_exp_1,2021.1.2,MacIntel,59.97361161,,,0,1.31655,,,,,,ztin,stimuli/ztin.wav,invalid,1,6,,stimuli,,,0,48,48,26,1
,,,,,,,,,,,,,,,,,,,,,,,,,,srs,23,f,English,USA,German,2021-03-28_18h11.27.366,UG_Thesis_exp_1,2021.1.2,MacIntel,59.97361161,,,1,1.16639,,,,,,peb,fillers/peb.wav,,14,,,filler,,,0,49,49,63,1
,,,,,,,,,,,,,,,,,,,,,,,,,,srs,23,f,English,USA,German,2021-03-28_18h11.27.366,UG_Thesis_exp_1,2021.1.2,MacIntel,59.97361161,,,0,1.05065,,,,,,prun,stimuli/prun.wav,valid,11,32,,stimuli,,,0,50,50,2,1
,,,,,,,,,,,,,,,,,,,,,,,,,,srs,23,f,English,USA,German,2021-03-28_18h11.27.366,UG_Thesis_exp_1,2021.1.2,MacIntel,59.97361161,,,1,1.317515,,,,,,malb,fillers/malb.wav,,2,,,filler,,,0,51,51,94,1
,,,,,,,,,,,,,,,,,,,,,,,,,,srs,23,f,English,USA,German,2021-03-28_18h11.27.366,UG_Thesis_exp_1,2021.1.2,MacIntel,59.97361161,,,0,1.26788,,,,,,shirj,fillers/shirj.wav,,12,,,filler,,,0,52,52,70,1
,,,,,,,,,,,,,,,,,,,,,,,,,,srs,23,f,English,USA,German,2021-03-28_18h11.27.366,UG_Thesis_exp_1,2021.1.2,MacIntel,59.97361161,,,0,1.234885,,,,,,snet,stimuli/snet.wav,valid,7,28,,stimuli,,,0,53,53,8,1
,,,,,,,,,,,,,,,,,,,,,,,,,,srs,23,f,English,USA,German,2021-03-28_18h11.27.366,UG_Thesis_exp_1,2021.1.2,MacIntel,59.97361161,,,0,1.5011,,,,,,stin,stimuli/stin.wav,valid,18,33,,stimuli,,,0,54,54,0,1
,,,,,,,,,,,,,,,,,,,,,,,,,,srs,23,f,English,USA,German,2021-03-28_18h11.27.366,UG_Thesis_exp_1,2021.1.2,MacIntel,59.97361161,,,0,1.351535,,,,,,wudge,fillers/wudge.wav,,13,,,filler,,,0,55,55,74,1
,,,,,,,,,,,,,,,,,,,,,,,,,,srs,23,f,English,USA,German,2021-03-28_18h11.27.366,UG_Thesis_exp_1,2021.1.2,MacIntel,59.97361161,,,0,1.050595,,,,,,trun,stimuli/trun.wav,valid,12,31,,stimuli,,,0,56,56,6,1
,,,,,,,,,,,,,,,,,,,,,,,,,,srs,23,f,English,USA,German,2021-03-28_18h11.27.366,UG_Thesis_exp_1,2021.1.2,MacIntel,59.97361161,,,0,0.99905,,,,,,znaet,stimuli/znaet.wav,invalid,1,4,,stimuli,,,0,57,57,30,1
,,,,,,,,,,,,,,,,,,,,,,,,,,srs,23,f,English,USA,German,2021-03-28_18h11.27.366,UG_Thesis_exp_1,2021.1.2,MacIntel,59.97361161,,,0,1.018935,,,,,,smaet,stimuli/smaet.wav,valid,13,32,,stimuli,,,0,58,58,1,1
,,,,,,,,,,,,,,,,,,,,,,,,,,srs,23,f,English,USA,German,2021-03-28_18h11.27.366,UG_Thesis_exp_1,2021.1.2,MacIntel,59.97361161,,,0,1.120295,,,,,,chaith,fillers/chaith.wav,,5,,,filler,,,0,59,59,79,1
,,,,,,,,,,,,,,,,,,,,,,,,,,srs,23,f,English,USA,German,2021-03-28_18h11.27.366,UG_Thesis_exp_1,2021.1.2,MacIntel,59.97361161,,,0,0.917385,,,,,,jpeyl,stimuli/jpeyl.wav,invalid,1,1,,stimuli,,,0,60,60,46,1
,,,,,,,,,,,,,,,,,,,,,,,,,,srs,23,f,English,USA,German,2021-03-28_18h11.27.366,UG_Thesis_exp_1,2021.1.2,MacIntel,59.97361161,,,0,1.049515,,,,,,fawnk,fillers/fawnk.wav,,4,,,filler,,,0,61,61,98,1
,,,,,,,,,,,,,,,,,,,,,,,,,,srs,23,f,English,USA,German,2021-03-28_18h11.27.366,UG_Thesis_exp_1,2021.1.2,MacIntel,59.97361161,,,0,1.081055,,,,,,jrun,stimuli/jrun.wav,invalid,4,11,,stimuli,,,0,62,62,48,1
,,,,,,,,,,,,,,,,,,,,,,,,,,srs,23,f,English,USA,German,2021-03-28_18h11.27.366,UG_Thesis_exp_1,2021.1.2,MacIntel,59.97361161,,,0,0.954845,,,,,,bupt,fillers/bupt.wav,,10,,,filler,,,0,63,63,91,1
,,,,,,,,,,,,,,,,,,,,,,,,,,srs,23,f,English,USA,German,2021-03-28_18h11.27.366,UG_Thesis_exp_1,2021.1.2,MacIntel,59.97361161,,,1,1.467725,,,,,,mub,fillers/mub.wav,,26,,,filler,,,0,64,64,81,1
,,,,,,,,,,,,,,,,,,,,,,,,,,srs,23,f,English,USA,German,2021-03-28_18h11.27.366,UG_Thesis_exp_1,2021.1.2,MacIntel,59.97361161,,,0,1.35062,,,,,,shfeed,stimuli/shfeed.wav,invalid,1,5,,stimuli,,,0,65,65,29,1
,,,,,,,,,,,,,,,,,,,,,,,,,,srs,23,f,English,USA,German,2021-03-28_18h11.27.366,UG_Thesis_exp_1,2021.1.2,MacIntel,59.97361161,,,0,1.118635,,,,,,ftin,stimuli/ftin.wav,invalid,2,10,,stimuli,,,0,66,66,20,1
,,,,,,,,,,,,,,,,,,,,,,,,,,srs,23,f,English,USA,German,2021-03-28_18h11.27.366,UG_Thesis_exp_1,2021.1.2,MacIntel,59.97361161,,,0,1.214815,,,,,,gej,fillers/gej.wav,,7,,,filler,,,0,67,67,77,1
,,,,,,,,,,,,,,,,,,,,,,,,,,srs,23,f,English,USA,German,2021-03-28_18h11.27.366,UG_Thesis_exp_1,2021.1.2,MacIntel,59.97361161,,,1,1.08453,,,,,,hus,fillers/hus.wav,,46,,,filler,,,0,68,68,50,1
,,,,,,,,,,,,,,,,,,,,,,,,,,srs,23,f,English,USA,German,2021-03-28_18h11.27.366,UG_Thesis_exp_1,2021.1.2,MacIntel,59.97361161,,,0,0.96718,,,,,,drung,stimuli/drung.wav,valid,7,31,,stimuli,,,0,69,69,5,1
,,,,,,,,,,,,,,,,,,,,,,,,,,srs,23,f,English,USA,German,2021-03-28_18h11.27.366,UG_Thesis_exp_1,2021.1.2,MacIntel,59.97361161,,,0,0.952595,,,,,,fset,stimuli/fset.wav,invalid,4,6,,stimuli,,,0,70,70,27,1
,,,,,,,,,,,,,,,,,,,,,,,,,,srs,23,f,English,USA,German,2021-03-28_18h11.27.366,UG_Thesis_exp_1,2021.1.2,MacIntel,59.97361161,,,0,1.10122,,,,,,chutch,fillers/chutch.wav,,12,,,filler,,,0,71,71,75,1
,,,,,,,,,,,,,,,,,,,,,,,,,,srs,23,f,English,USA,German,2021-03-28_18h11.27.366,UG_Thesis_exp_1,2021.1.2,MacIntel,59.97361161,,,1,1.051935,,,,,,gaith,fillers/gaith.wav,,9,,,filler,,,0,72,72,80,1
,,,,,,,,,,,,,,,,,,,,,,,,,,srs,23,f,English,USA,German,2021-03-28_18h11.27.366,UG_Thesis_exp_1,2021.1.2,MacIntel,59.97361161,,,0,1.31412,,,,,,tul,fillers/tul.wav,,42,,,filler,,,0,73,73,87,1
,,,,,,,,,,,,,,,,,,,,,,,,,,srs,23,f,English,USA,German,2021-03-28_18h11.27.366,UG_Thesis_exp_1,2021.1.2,MacIntel,59.97361161,,,0,1.03809,,,,,,chulp,fillers/chulp.wav,,4,,,filler,,,0,74,74,96,1
,,,,,,,,,,,,,,,,,,,,,,,,,,srs,23,f,English,USA,German,2021-03-28_18h11.27.366,UG_Thesis_exp_1,2021.1.2,MacIntel,59.97361161,,,0,1.402005,,,,,,dwil,stimuli/dwil.wav,invalid,7,,,stimuli,,,0,75,75,39,1
,,,,,,,,,,,,,,,,,,,,,,,,,,srs,23,f,English,USA,German,2021-03-28_18h11.27.366,UG_Thesis_exp_1,2021.1.2,MacIntel,59.97361161,,,0,0.967395,,,,,,juf,fillers/juf.wav,,19,,,filler,,,0,76,76,60,1
,,,,,,,,,,,,,,,,,,,,,,,,,,srs,23,f,English,USA,German,2021-03-28_18h11.27.366,UG_Thesis_exp_1,2021.1.2,MacIntel,59.97361161,,,1,1.117665,,,,,,pum,fillers/pum.wav,,40,,,filler,,,0,77,77,59,1
,,,,,,,,,,,,,,,,,,,,,,,,,,srs,23,f,English,USA,German,2021-03-28_18h11.27.366,UG_Thesis_exp_1,2021.1.2,MacIntel,59.97361161,,,0,0.989305,,,,,,tweep,stimuli/tweep.wav,valid,0,,,stimuli,,,0,78,78,41,1
,,,,,,,,,,,,,,,,,,,,,,,,,,srs,23,f,English,USA,German,2021-03-28_18h11.27.366,UG_Thesis_exp_1,2021.1.2,MacIntel,59.97361161,,,0,1.32133,,,,,,hais,fillers/hais.wav,,11,,,filler,,,0,79,79,66,1
,,,,,,,,,,,,,,,,,,,,,,,,,,srs,23,f,English,USA,German,2021-03-28_18h11.27.366,UG_Thesis_exp_1,2021.1.2,MacIntel,59.97361161,,,1,1.102355,,,,,,pab,fillers/pab.wav,,29,,,filler,,,0,80,80,82,1
,,,,,,,,,,,,,,,,,,,,,,,,,,srs,23,f,English,USA,German,2021-03-28_18h11.27.366,UG_Thesis_exp_1,2021.1.2,MacIntel,59.97361161,,,1,1.117975,,,,,,suf,fillers/suf.wav,,33,,,filler,,,0,81,81,86,1
,,,,,,,,,,,,,,,,,,,,,,,,,,srs,23,f,English,USA,German,2021-03-28_18h11.27.366,UG_Thesis_exp_1,2021.1.2,MacIntel,59.97361161,,,0,1.15013,,,,,,shpeyl,stimuli/shpeyl.wav,invalid,2,2,,stimuli,,,0,82,82,36,1
,,,,,,,,,,,,,,,,,,,,,,,,,,srs,23,f,English,USA,German,2021-03-28_18h11.27.366,UG_Thesis_exp_1,2021.1.2,MacIntel,59.97361161,,,0,1.01706,,,,,,thwup,stimuli/thwup.wav,invalid,0,,,stimuli,,,0,83,83,40,1
,,,,,,,,,,,,,,,,,,,,,,,,,,srs,23,f,English,USA,German,2021-03-28_18h11.27.366,UG_Thesis_exp_1,2021.1.2,MacIntel,59.97361161,,,0,1.204305,,,,,,vtin,stimuli/vtin.wav,invalid,2,3,,stimuli,,,0,84,84,33,1
,,,,,,,,,,,,,,,,,,,,,,,,,,srs,23,f,English,USA,German,2021-03-28_18h11.27.366,UG_Thesis_exp_1,2021.1.2,MacIntel,59.97361161,,,0,1.217925,,,,,,shkeep,stimuli/shkeep.wav,invalid,15,1,,stimuli,,,0,85,85,45,1
,,,,,,,,,,,,,,,,,,,,,,,,,,srs,23,f,English,USA,German,2021-03-28_18h11.27.366,UG_Thesis_exp_1,2021.1.2,MacIntel,59.97361161,,,0,1.10126,,,,,,mlung,stimuli/mlung.wav,invalid,4,13,,stimuli,,,0,86,86,15,1
,,,,,,,,,,,,,,,,,,,,,,,,,,srs,23,f,English,USA,German,2021-03-28_18h11.27.366,UG_Thesis_exp_1,2021.1.2,MacIntel,59.97361161,,,0,1.07087,,,,,,pev,fillers/pev.wav,,15,,,filler,,,0,87,87,62,1
,,,,,,,,,,,,,,,,,,,,,,,,,,srs,23,f,English,USA,German,2021-03-28_18h11.27.366,UG_Thesis_exp_1,2021.1.2,MacIntel,59.97361161,,,0,1.70295,,,,,,shmat,stimuli/shmat.wav,valid,1,7,,stimuli,,,0,88,88,23,1
,,,,,,,,,,,,,,,,,,,,,,,,,,srs,23,f,English,USA,German,2021-03-28_18h11.27.366,UG_Thesis_exp_1,2021.1.2,MacIntel,59.97361161,,,0,1.334215,,,,,,mrung,stimuli/mrung.wav,invalid,1,27,,stimuli,,,0,89,89,10,1
,,,,,,,,,,,,,,,,,,,,,,,,,,srs,23,f,English,USA,German,2021-03-28_18h11.27.366,UG_Thesis_exp_1,2021.1.2,MacIntel,59.97361161,,,0,1.15248,,,,,,vnet,stimuli/vnet.wav,invalid,2,1,,stimuli,,,0,90,90,44,1
,,,,,,,,,,,,,,,,,,,,,,,,,,srs,23,f,English,USA,German,2021-03-28_18h11.27.366,UG_Thesis_exp_1,2021.1.2,MacIntel,59.97361161,,,0,1.03461,,,,,,shlerk,stimuli/shlerk.wav,invalid,4,22,,stimuli,,,0,91,91,11,1
,,,,,,,,,,,,,,,,,,,,,,,,,,srs,23,f,English,USA,German,2021-03-28_18h11.27.366,UG_Thesis_exp_1,2021.1.2,MacIntel,59.97361161,,,1,1.001935,,,,,,bimp,fillers/bimp.wav,,7,,,filler,,,0,92,92,95,1
,,,,,,,,,,,,,,,,,,,,,,,,,,srs,23,f,English,USA,German,2021-03-28_18h11.27.366,UG_Thesis_exp_1,2021.1.2,MacIntel,59.97361161,,,1,1.151755,,,,,,wutch,fillers/wutch.wav,,17,,,filler,,,0,93,93,61,1
,,,,,,,,,,,,,,,,,,,,,,,,,,srs,23,f,English,USA,German,2021-03-28_18h11.27.366,UG_Thesis_exp_1,2021.1.2,MacIntel,59.97361161,,,0,1.93951,,,,,,vrun,stimuli/vrun.wav,invalid,4,19,,stimuli,,,0,94,94,12,1
,,,,,,,,,,,,,,,,,,,,,,,,,,srs,23,f,English,USA,German,2021-03-28_18h11.27.366,UG_Thesis_exp_1,2021.1.2,MacIntel,59.97361161,,,0,1.018895,,,,,,sug,fillers/sug.wav,,29,,,filler,,,0,95,95,54,1
,,,,,,,,,,,,,,,,,,,,,,,,,,srs,23,f,English,USA,German,2021-03-28_18h11.27.366,UG_Thesis_exp_1,2021.1.2,MacIntel,59.97361161,,,0,1.27212,,,,,,jerp,fillers/jerp.wav,,7,,,filler,,,0,96,96,69,1
,,,,,,,,,,,,,,,,,,,,,,,,,,srs,23,f,English,USA,German,2021-03-28_18h11.27.366,UG_Thesis_exp_1,2021.1.2,MacIntel,59.97361161,,,0,1.51847,,,,,,thwaet,stimuli/thwaet.wav,invalid,1,,,stimuli,,,0,97,97,42,1
,,,,,,,,,,,,,,,,,,,,,,,,,,srs,23,f,English,USA,German,2021-03-28_18h11.27.366,UG_Thesis_exp_1,2021.1.2,MacIntel,59.97361161,,,0,1.270315,,,,,,purgd,fillers/purgd.wav,,3,,,filler,,,0,98,98,92,1
,,,,,,,,,,,,,,,,,,,,,,,,,,srs,23,f,English,USA,German,2021-03-28_18h11.27.366,UG_Thesis_exp_1,2021.1.2,MacIntel,59.97361161,,,0,1.119125,,,,,,fnet,stimuli/fnet.wav,invalid,2,3,,stimuli,,,0,99,99,31,1
,,,,,,,,,,,,,,,,,,,,,,,,,,srs,23,f,English,USA,German,2021-03-28_18h11.27.366,UG_Thesis_exp_1,2021.1.2,MacIntel,59.97361161,,,0,1.183375,,,,,,grun,stimuli/grun.wav,valid,18,33,,stimuli,,,1,0,100,3,1
,,,,,,,,,,,,,,,,,,,,,,,,,,srs,23,f,English,USA,German,2021-03-28_18h11.27.366,UG_Thesis_exp_1,2021.1.2,MacIntel,59.97361161,,,0,0.983005,,,,,,bupt,fillers/bupt.wav,,10,,,filler,,,1,1,101,91,1
,,,,,,,,,,,,,,,,,,,,,,,,,,srs,23,f,English,USA,German,2021-03-28_18h11.27.366,UG_Thesis_exp_1,2021.1.2,MacIntel,59.97361161,,,0,1.10066,,,,,,zrun,stimuli/zrun.wav,invalid,5,8,,stimuli,,,1,2,102,21,1
,,,,,,,,,,,,,,,,,,,,,,,,,,srs,23,f,English,USA,German,2021-03-28_18h11.27.366,UG_Thesis_exp_1,2021.1.2,MacIntel,59.97361161,,,0,1.553635,,,,,,chaith,fillers/chaith.wav,,5,,,filler,,,1,3,103,79,1
,,,,,,,,,,,,,,,,,,,,,,,,,,srs,23,f,English,USA,German,2021-03-28_18h11.27.366,UG_Thesis_exp_1,2021.1.2,MacIntel,59.97361161,,,1,1.18394,,,,,,bimp,fillers/bimp.wav,,7,,,filler,,,1,4,104,95,1
,,,,,,,,,,,,,,,,,,,,,,,,,,srs,23,f,English,USA,German,2021-03-28_18h11.27.366,UG_Thesis_exp_1,2021.1.2,MacIntel,59.97361161,,,1,1.22032,,,,,,malb,fillers/malb.wav,,2,,,filler,,,1,5,105,94,1
,,,,,,,,,,,,,,,,,,,,,,,,,,srs,23,f,English,USA,German,2021-03-28_18h11.27.366,UG_Thesis_exp_1,2021.1.2,MacIntel,59.97361161,,,1,1.07013,,,,,,thith,fillers/thith.wav,,4,,,filler,,,1,6,106,67,1
,,,,,,,,,,,,,,,,,,,,,,,,,,srs,23,f,English,USA,German,2021-03-28_18h11.27.366,UG_Thesis_exp_1,2021.1.2,MacIntel,59.97361161,,,1,1.134155,,,,,,mub,fillers/mub.wav,,26,,,filler,,,1,7,107,81,1
,,,,,,,,,,,,,,,,,,,,,,,,,,srs,23,f,English,USA,German,2021-03-28_18h11.27.366,UG_Thesis_exp_1,2021.1.2,MacIntel,59.97361161,,,1,0.98332,,,,,,peb,fillers/peb.wav,,14,,,filler,,,1,8,108,63,1
,,,,,,,,,,,,,,,,,,,,,,,,,,srs,23,f,English,USA,German,2021-03-28_18h11.27.366,UG_Thesis_exp_1,2021.1.2,MacIntel,59.97361161,,,0,1.021655,,,,,,vrun,stimuli/vrun.wav,invalid,4,19,,stimuli,,,1,9,109,12,1
,,,,,,,,,,,,,,,,,,,,,,,,,,srs,23,f,English,USA,German,2021-03-28_18h11.27.366,UG_Thesis_exp_1,2021.1.2,MacIntel,59.97361161,,,0,1.488305,,,,,,vzut,stimuli/vzut.wav,invalid,1,6,,stimuli,,,1,10,110,28,1
,,,,,,,,,,,,,,,,,,,,,,,,,,srs,23,f,English,USA,German,2021-03-28_18h11.27.366,UG_Thesis_exp_1,2021.1.2,MacIntel,59.97361161,,,0,1.00029,,,,,,dus,fillers/dus.wav,,58,,,filler,,,1,11,111,52,1
,,,,,,,,,,,,,,,,,,,,,,,,,,srs,23,f,English,USA,German,2021-03-28_18h11.27.366,UG_Thesis_exp_1,2021.1.2,MacIntel,59.97361161,,,0,1.368405,,,,,,flerk,stimuli/flerk.wav,valid,11,31,,stimuli,,,1,12,112,4,1
,,,,,,,,,,,,,,,,,,,,,,,,,,srs,23,f,English,USA,German,2021-03-28_18h11.27.366,UG_Thesis_exp_1,2021.1.2,MacIntel,59.97361161,,,1,1.58513,,,,,,shemp,fillers/shemp.wav,,3,,,filler,,,1,13,113,99,1
,,,,,,,,,,,,,,,,,,,,,,,,,,srs,23,f,English,USA,German,2021-03-28_18h11.27.366,UG_Thesis_exp_1,2021.1.2,MacIntel,59.97361161,,,0,1.654665,,,,,,chudge,fillers/chudge.wav,,10,,,filler,,,1,14,114,73,1
,,,,,,,,,,,,,,,,,,,,,,,,,,srs,23,f,English,USA,German,2021-03-28_18h11.27.366,UG_Thesis_exp_1,2021.1.2,MacIntel,59.97361161,,,1,1.73474,,,,,,fawnk,fillers/fawnk.wav,,4,,,filler,,,1,15,115,98,1
,,,,,,,,,,,,,,,,,,,,,,,,,,srs,23,f,English,USA,German,2021-03-28_18h11.27.366,UG_Thesis_exp_1,2021.1.2,MacIntel,59.97361161,,,0,1.56858,,,,,,vtin,stimuli/vtin.wav,invalid,2,3,,stimuli,,,1,16,116,33,1
,,,,,,,,,,,,,,,,,,,,,,,,,,srs,23,f,English,USA,German,2021-03-28_18h11.27.366,UG_Thesis_exp_1,2021.1.2,MacIntel,59.97361161,,,0,1.23527,,,,,,frun,stimuli/frun.wav,valid,12,29,,stimuli,,,1,17,117,7,1
,,,,,,,,,,,,,,,,,,,,,,,,,,srs,23,f,English,USA,German,2021-03-28_18h11.27.366,UG_Thesis_exp_1,2021.1.2,MacIntel,59.97361161,,,0,1.385095,,,,,,shlerk,stimuli/shlerk.wav,invalid,4,22,,stimuli,,,1,18,118,11,1
,,,,,,,,,,,,,,,,,,,,,,,,,,srs,23,f,English,USA,German,2021-03-28_18h11.27.366,UG_Thesis_exp_1,2021.1.2,MacIntel,59.97361161,,,0,1.017915,,,,,,shmat,stimuli/shmat.wav,valid,1,7,,stimuli,,,1,19,119,23,1
,,,,,,,,,,,,,,,,,,,,,,,,,,srs,23,f,English,USA,German,2021-03-28_18h11.27.366,UG_Thesis_exp_1,2021.1.2,MacIntel,59.97361161,,,0,1.41619,,,,,,thuv,fillers/thuv.wav,,9,,,filler,,,1,20,120,76,1
,,,,,,,,,,,,,,,,,,,,,,,,,,srs,23,f,English,USA,German,2021-03-28_18h11.27.366,UG_Thesis_exp_1,2021.1.2,MacIntel,59.97361161,,,0,1.21939,,,,,,stin,stimuli/stin.wav,valid,18,33,,stimuli,,,1,21,121,0,1
,,,,,,,,,,,,,,,,,,,,,,,,,,srs,23,f,English,USA,German,2021-03-28_18h11.27.366,UG_Thesis_exp_1,2021.1.2,MacIntel,59.97361161,,,0,1.01989,,,,,,lus,fillers/lus.wav,,49,,,filler,,,1,22,122,85,1
,,,,,,,,,,,,,,,,,,,,,,,,,,srs,23,f,English,USA,German,2021-03-28_18h11.27.366,UG_Thesis_exp_1,2021.1.2,MacIntel,59.97361161,,,0,0.95215,,,,,,gej,fillers/gej.wav,,7,,,filler,,,1,23,123,77,1
,,,,,,,,,,,,,,,,,,,,,,,,,,srs,23,f,English,USA,German,2021-03-28_18h11.27.366,UG_Thesis_exp_1,2021.1.2,MacIntel,59.97361161,,,0,1.03436,,,,,,vnet,stimuli/vnet.wav,invalid,2,1,,stimuli,,,1,24,124,44,1
,,,,,,,,,,,,,,,,,,,,,,,,,,srs,23,f,English,USA,German,2021-03-28_18h11.27.366,UG_Thesis_exp_1,2021.1.2,MacIntel,59.97361161,,,0,1.12003,,,,,,fset,stimuli/fset.wav,invalid,4,6,,stimuli,,,1,25,125,27,1
,,,,,,,,,,,,,,,,,,,,,,,,,,srs,23,f,English,USA,German,2021-03-28_18h11.27.366,UG_Thesis_exp_1,2021.1.2,MacIntel,59.97361161,,,0,1.13646,,,,,,jun,fillers/jun.wav,,49,,,filler,,,1,26,126,51,1
,,,,,,,,,,,,,,,,,,,,,,,,,,srs,23,f,English,USA,German,2021-03-28_18h11.27.366,UG_Thesis_exp_1,2021.1.2,MacIntel,59.97361161,,,0,0.806525,,,,,,tweep,stimuli/tweep.wav,valid,0,,,stimuli,,,1,27,127,41,1
,,,,,,,,,,,,,,,,,,,,,,,,,,srs,23,f,English,USA,German,2021-03-28_18h11.27.366,UG_Thesis_exp_1,2021.1.2,MacIntel,59.97361161,,,0,0.88458,,,,,,shfeed,stimuli/shfeed.wav,invalid,1,5,,stimuli,,,1,28,128,29,1
,,,,,,,,,,,,,,,,,,,,,,,,,,srs,23,f,English,USA,German,2021-03-28_18h11.27.366,UG_Thesis_exp_1,2021.1.2,MacIntel,59.97361161,,,0,0.984535,,,,,,glung,stimuli/glung.wav,valid,9,27,,stimuli,,,1,29,129,47,1
,,,,,,,,,,,,,,,,,,,,,,,,,,srs,23,f,English,USA,German,2021-03-28_18h11.27.366,UG_Thesis_exp_1,2021.1.2,MacIntel,59.97361161,,,1,0.95408,,,,,,sulft,fillers/suft.wav,,15,,,filler,,,1,30,130,89,1
,,,,,,,,,,,,,,,,,,,,,,,,,,srs,23,f,English,USA,German,2021-03-28_18h11.27.366,UG_Thesis_exp_1,2021.1.2,MacIntel,59.97361161,,,1,1.419415,,,,,,wudge,fillers/wudge.wav,,13,,,filler,,,1,31,131,74,1
,,,,,,,,,,,,,,,,,,,,,,,,,,srs,23,f,English,USA,German,2021-03-28_18h11.27.366,UG_Thesis_exp_1,2021.1.2,MacIntel,59.97361161,,,0,0.953185,,,,,,shkeep,stimuli/shkeep.wav,invalid,15,1,,stimuli,,,1,32,132,45,1
,,,,,,,,,,,,,,,,,,,,,,,,,,srs,23,f,English,USA,German,2021-03-28_18h11.27.366,UG_Thesis_exp_1,2021.1.2,MacIntel,59.97361161,,,0,1.11698,,,,,,mlung,stimuli/mlung.wav,invalid,4,13,,stimuli,,,1,33,133,15,1
,,,,,,,,,,,,,,,,,,,,,,,,,,srs,23,f,English,USA,German,2021-03-28_18h11.27.366,UG_Thesis_exp_1,2021.1.2,MacIntel,59.97361161,,,0,1.30201,,,,,,smaet,stimuli/smaet.wav,valid,13,32,,stimuli,,,1,34,134,1,1
,,,,,,,,,,,,,,,,,,,,,,,,,,srs,23,f,English,USA,German,2021-03-28_18h11.27.366,UG_Thesis_exp_1,2021.1.2,MacIntel,59.97361161,,,0,1.067465,,,,,,chulp,fillers/chulp.wav,,4,,,filler,,,1,35,135,96,1
,,,,,,,,,,,,,,,,,,,,,,,,,,srs,23,f,English,USA,German,2021-03-28_18h11.27.366,UG_Thesis_exp_1,2021.1.2,MacIntel,59.97361161,,,0,1.15153,,,,,,purgd,fillers/purgd.wav,,3,,,filler,,,1,36,136,92,1
,,,,,,,,,,,,,,,,,,,,,,,,,,srs,23,f,English,USA,German,2021-03-28_18h11.27.366,UG_Thesis_exp_1,2021.1.2,MacIntel,59.97361161,,,0,0.968345,,,,,,fship,stimuli/fship.wav,invalid,2,11,,stimuli,,,1,37,137,18,1
,,,,,,,,,,,,,,,,,,,,,,,,,,srs,23,f,English,USA,German,2021-03-28_18h11.27.366,UG_Thesis_exp_1,2021.1.2,MacIntel,59.97361161,,,0,1.15122,,,,,,znaet,stimuli/znaet.wav,invalid,1,4,,stimuli,,,1,38,138,30,1
,,,,,,,,,,,,,,,,,,,,,,,,,,srs,23,f,English,USA,German,2021-03-28_18h11.27.366,UG_Thesis_exp_1,2021.1.2,MacIntel,59.97361161,,,0,0.985485,,,,,,drung,stimuli/drung.wav,valid,7,31,,stimuli,,,1,39,139,5,1
,,,,,,,,,,,,,,,,,,,,,,,,,,srs,23,f,English,USA,German,2021-03-28_18h11.27.366,UG_Thesis_exp_1,2021.1.2,MacIntel,59.97361161,,,0,0.80405,,,,,,dwil,stimuli/dwil.wav,invalid,7,,,stimuli,,,1,40,140,39,1
,,,,,,,,,,,,,,,,,,,,,,,,,,srs,23,f,English,USA,German,2021-03-28_18h11.27.366,UG_Thesis_exp_1,2021.1.2,MacIntel,59.97361161,,,0,0.967905,,,,,,sfeed,stimuli/sfeed.wav,valid,7,7,,stimuli,,,1,41,141,24,1
,,,,,,,,,,,,,,,,,,,,,,,,,,srs,23,f,English,USA,German,2021-03-28_18h11.27.366,UG_Thesis_exp_1,2021.1.2,MacIntel,59.97361161,,,1,1.067675,,,,,,bip,fillers/bip.wav,,37,,,filler,,,1,42,142,83,1
,,,,,,,,,,,,,,,,,,,,,,,,,,srs,23,f,English,USA,German,2021-03-28_18h11.27.366,UG_Thesis_exp_1,2021.1.2,MacIntel,59.97361161,,,0,0.83744,,,,,,jrun,stimuli/jrun.wav,invalid,4,11,,stimuli,,,1,43,143,48,1
,,,,,,,,,,,,,,,,,,,,,,,,,,srs,23,f,English,USA,German,2021-03-28_18h11.27.366,UG_Thesis_exp_1,2021.1.2,MacIntel,59.97361161,,,1,0.984435,,,,,,pev,fillers/pev.wav,,15,,,filler,,,1,44,144,62,1
,,,,,,,,,,,,,,,,,,,,,,,,,,srs,23,f,English,USA,German,2021-03-28_18h11.27.366,UG_Thesis_exp_1,2021.1.2,MacIntel,59.97361161,,,0,1.200275,,,,,,ftin,stimuli/ftin.wav,invalid,2,10,,stimuli,,,1,45,145,20,1
,,,,,,,,,,,,,,,,,,,,,,,,,,srs,23,f,English,USA,German,2021-03-28_18h11.27.366,UG_Thesis_exp_1,2021.1.2,MacIntel,59.97361161,,,0,1.00253,,,,,,gomt,fillers/gomt.wav,,0,,,filler,,,1,46,146,93,1
,,,,,,,,,,,,,,,,,,,,,,,,,,srs,23,f,English,USA,German,2021-03-28_18h11.27.366,UG_Thesis_exp_1,2021.1.2,MacIntel,59.97361161,,,0,1.15079,,,,,,zlerk,stimuli/zlerk.wav,invalid,2,6,,stimuli,,,1,47,147,25,1
,,,,,,,,,,,,,,,,,,,,,,,,,,srs,23,f,English,USA,German,2021-03-28_18h11.27.366,UG_Thesis_exp_1,2021.1.2,MacIntel,59.97361161,,,1,1.10226,,,,,,rul,fillers/rul.wav,,42,,,filler,,,1,48,148,56,1
,,,,,,,,,,,,,,,,,,,,,,,,,,srs,23,f,English,USA,German,2021-03-28_18h11.27.366,UG_Thesis_exp_1,2021.1.2,MacIntel,59.97361161,,,0,1.6015,,,,,,suz,fillers/suz.wav,,37,,,filler,,,1,49,149,53,1
,,,,,,,,,,,,,,,,,,,,,,,,,,srs,23,f,English,USA,German,2021-03-28_18h11.27.366,UG_Thesis_exp_1,2021.1.2,MacIntel,59.97361161,,,1,1.318045,,,,,,pab,fillers/pab.wav,,29,,,filler,,,1,50,150,82,1
,,,,,,,,,,,,,,,,,,,,,,,,,,srs,23,f,English,USA,German,2021-03-28_18h11.27.366,UG_Thesis_exp_1,2021.1.2,MacIntel,59.97361161,,,0,1.037515,,,,,,skeep,stimuli/skeep.wav,valid,2,20,,stimuli,,,1,51,151,43,1
,,,,,,,,,,,,,,,,,,,,,,,,,,srs,23,f,English,USA,German,2021-03-28_18h11.27.366,UG_Thesis_exp_1,2021.1.2,MacIntel,59.97361161,,,0,1.2023,,,,,,sug,fillers/sug.wav,,29,,,filler,,,1,52,152,54,1
,,,,,,,,,,,,,,,,,,,,,,,,,,srs,23,f,English,USA,German,2021-03-28_18h11.27.366,UG_Thesis_exp_1,2021.1.2,MacIntel,59.97361161,,,0,1.05215,,,,,,prun,stimuli/prun.wav,valid,11,32,,stimuli,,,1,53,153,2,1
,,,,,,,,,,,,,,,,,,,,,,,,,,srs,23,f,English,USA,German,2021-03-28_18h11.27.366,UG_Thesis_exp_1,2021.1.2,MacIntel,59.97361161,,,0,1.184455,,,,,,chutch,fillers/chutch.wav,,12,,,filler,,,1,54,154,75,1
,,,,,,,,,,,,,,,,,,,,,,,,,,srs,23,f,English,USA,German,2021-03-28_18h11.27.366,UG_Thesis_exp_1,2021.1.2,MacIntel,59.97361161,,,0,0.918655,,,,,,trun,stimuli/trun.wav,valid,12,31,,stimuli,,,1,55,155,6,1
,,,,,,,,,,,,,,,,,,,,,,,,,,srs,23,f,English,USA,German,2021-03-28_18h11.27.366,UG_Thesis_exp_1,2021.1.2,MacIntel,59.97361161,,,0,1.202205,,,,,,sherj,fillers/sherj.wav,,12,,,filler,,,1,56,156,64,1
,,,,,,,,,,,,,,,,,,,,,,,,,,srs,23,f,English,USA,German,2021-03-28_18h11.27.366,UG_Thesis_exp_1,2021.1.2,MacIntel,59.97361161,,,0,1.15041,,,,,,fkeep,stimuli/fkeep.wav,invalid,1,3,,stimuli,,,1,57,157,32,1
,,,,,,,,,,,,,,,,,,,,,,,,,,srs,23,f,English,USA,German,2021-03-28_18h11.27.366,UG_Thesis_exp_1,2021.1.2,MacIntel,59.97361161,,,0,1.3858,,,,,,shpeyl,stimuli/shpeyl.wav,invalid,2,2,,stimuli,,,1,58,158,36,1
,,,,,,,,,,,,,,,,,,,,,,,,,,srs,23,f,English,USA,German,2021-03-28_18h11.27.366,UG_Thesis_exp_1,2021.1.2,MacIntel,59.97361161,,,1,0.968025,,,,,,hais,fillers/hais.wav,,11,,,filler,,,1,59,159,66,1
,,,,,,,,,,,,,,,,,,,,,,,,,,srs,23,f,English,USA,German,2021-03-28_18h11.27.366,UG_Thesis_exp_1,2021.1.2,MacIntel,59.97361161,,,1,1.153375,,,,,,wutch,fillers/wutch.wav,,17,,,filler,,,1,60,160,61,1
,,,,,,,,,,,,,,,,,,,,,,,,,,srs,23,f,English,USA,German,2021-03-28_18h11.27.366,UG_Thesis_exp_1,2021.1.2,MacIntel,59.97361161,,,1,1.235555,,,,,,thudge,fillers/thudge.wav,,7,,,filler,,,1,61,161,71,1
,,,,,,,,,,,,,,,,,,,,,,,,,,srs,23,f,English,USA,German,2021-03-28_18h11.27.366,UG_Thesis_exp_1,2021.1.2,MacIntel,59.97361161,,,1,1.26824,,,,,,lun,fillers/lun.wav,,70,,,filler,,,1,62,162,58,1
,,,,,,,,,,,,,,,,,,,,,,,,,,srs,23,f,English,USA,German,2021-03-28_18h11.27.366,UG_Thesis_exp_1,2021.1.2,MacIntel,59.97361161,,,1,1.16762,,,,,,suv,fillers/suv.wav,,25,,,filler,,,1,63,163,55,1
,,,,,,,,,,,,,,,,,,,,,,,,,,srs,23,f,English,USA,German,2021-03-28_18h11.27.366,UG_Thesis_exp_1,2021.1.2,MacIntel,59.97361161,,,0,1.063885,,,,,,thwaet,stimuli/thwaet.wav,invalid,1,,,stimuli,,,1,64,164,42,1
,,,,,,,,,,,,,,,,,,,,,,,,,,srs,23,f,English,USA,German,2021-03-28_18h11.27.366,UG_Thesis_exp_1,2021.1.2,MacIntel,59.97361161,,,0,1.234445,,,,,,shirj,fillers/shirj.wav,,12,,,filler,,,1,65,165,70,1
,,,,,,,,,,,,,,,,,,,,,,,,,,srs,23,f,English,USA,German,2021-03-28_18h11.27.366,UG_Thesis_exp_1,2021.1.2,MacIntel,59.97361161,,,0,1.000315,,,,,,fnet,stimuli/fnet.wav,invalid,2,3,,stimuli,,,1,66,166,31,1
,,,,,,,,,,,,,,,,,,,,,,,,,,srs,23,f,English,USA,German,2021-03-28_18h11.27.366,UG_Thesis_exp_1,2021.1.2,MacIntel,59.97361161,,,0,0.984175,,,,,,thwup,stimuli/thwup.wav,invalid,0,,,stimuli,,,1,67,167,40,1
,,,,,,,,,,,,,,,,,,,,,,,,,,srs,23,f,English,USA,German,2021-03-28_18h11.27.366,UG_Thesis_exp_1,2021.1.2,MacIntel,59.97361161,,,1,0.951815,,,,,,hus,fillers/hus.wav,,46,,,filler,,,1,68,168,50,1
,,,,,,,,,,,,,,,,,,,,,,,,,,srs,23,f,English,USA,German,2021-03-28_18h11.27.366,UG_Thesis_exp_1,2021.1.2,MacIntel,59.97361161,,,1,0.95234,,,,,,juf,fillers/juf.wav,,19,,,filler,,,1,69,169,60,1
,,,,,,,,,,,,,,,,,,,,,,,,,,srs,23,f,English,USA,German,2021-03-28_18h11.27.366,UG_Thesis_exp_1,2021.1.2,MacIntel,59.97361161,,,1,1.101635,,,,,,suf,fillers/suf.wav,,33,,,filler,,,1,70,170,86,1
,,,,,,,,,,,,,,,,,,,,,,,,,,srs,23,f,English,USA,German,2021-03-28_18h11.27.366,UG_Thesis_exp_1,2021.1.2,MacIntel,59.97361161,,,0,0.934445,,,,,,zkeep,stimuli/zkeep.wav,invalid,1,0,,stimuli,,,1,71,171,37,1
,,,,,,,,,,,,,,,,,,,,,,,,,,srs,23,f,English,USA,German,2021-03-28_18h11.27.366,UG_Thesis_exp_1,2021.1.2,MacIntel,59.97361161,,,1,1.102195,,,,,,pum,fillers/pum.wav,,40,,,filler,,,1,72,172,59,1
,,,,,,,,,,,,,,,,,,,,,,,,,,srs,23,f,English,USA,German,2021-03-28_18h11.27.366,UG_Thesis_exp_1,2021.1.2,MacIntel,59.97361161,,,0,4.16856,,,,,,mrung,stimuli/mrung.wav,invalid,1,27,,stimuli,,,1,73,173,10,1
,,,,,,,,,,,,,,,,,,,,,,,,,,srs,23,f,English,USA,German,2021-03-28_18h11.27.366,UG_Thesis_exp_1,2021.1.2,MacIntel,59.97361161,,,1,1.686675,,,,,,keb,fillers/keb.wav,,16,,,filler,,,1,74,174,65,1
,,,,,,,,,,,,,,,,,,,,,,,,,,srs,23,f,English,USA,German,2021-03-28_18h11.27.366,UG_Thesis_exp_1,2021.1.2,MacIntel,59.97361161,,,0,1.46833,,,,,,jveel,stimuli/jveel.wav,invalid,1,0,,stimuli,,,1,75,175,49,1
,,,,,,,,,,,,,,,,,,,,,,,,,,srs,23,f,English,USA,German,2021-03-28_18h11.27.366,UG_Thesis_exp_1,2021.1.2,MacIntel,59.97361161,,,0,1.71815,,,,,,nrun,stimuli/nrun.wav,invalid,5,8,,stimuli,,,1,76,176,22,1
,,,,,,,,,,,,,,,,,,,,,,,,,,srs,23,f,English,USA,German,2021-03-28_18h11.27.366,UG_Thesis_exp_1,2021.1.2,MacIntel,59.97361161,,,0,1.21824,,,,,,jpeyl,stimuli/jpeyl.wav,invalid,1,1,,stimuli,,,1,77,177,46,1
,,,,,,,,,,,,,,,,,,,,,,,,,,srs,23,f,English,USA,German,2021-03-28_18h11.27.366,UG_Thesis_exp_1,2021.1.2,MacIntel,59.97361161,,,0,1.38449,,,,,,jerp,fillers/jerp.wav,,7,,,filler,,,1,78,178,69,1
,,,,,,,,,,,,,,,,,,,,,,,,,,srs,23,f,English,USA,German,2021-03-28_18h11.27.366,UG_Thesis_exp_1,2021.1.2,MacIntel,59.97361161,,,0,1.33046,,,,,,ztin,stimuli/ztin.wav,invalid,1,6,,stimuli,,,1,79,179,26,1
,,,,,,,,,,,,,,,,,,,,,,,,,,srs,23,f,English,USA,German,2021-03-28_18h11.27.366,UG_Thesis_exp_1,2021.1.2,MacIntel,59.97361161,,,0,0.9677,,,,,,srun,stimuli/srun.wav,invalid,9,14,,stimuli,,,1,80,180,13,1
,,,,,,,,,,,,,,,,,,,,,,,,,,srs,23,f,English,USA,German,2021-03-28_18h11.27.366,UG_Thesis_exp_1,2021.1.2,MacIntel,59.97361161,,,1,1.08483,,,,,,tul,fillers/tul.wav,,42,,,filler,,,1,81,181,87,1
,,,,,,,,,,,,,,,,,,,,,,,,,,srs,23,f,English,USA,German,2021-03-28_18h11.27.366,UG_Thesis_exp_1,2021.1.2,MacIntel,59.97361161,,,0,1.601565,,,,,,zveel,stimuli/zveel.wav,invalid,2,3,,stimuli,,,1,82,182,34,1
,,,,,,,,,,,,,,,,,,,,,,,,,,srs,23,f,English,USA,German,2021-03-28_18h11.27.366,UG_Thesis_exp_1,2021.1.2,MacIntel,59.97361161,,,0,1.134625,,,,,,ras,fillers/ras.wav,,52,,,filler,,,1,83,183,84,1
,,,,,,,,,,,,,,,,,,,,,,,,,,srs,23,f,English,USA,German,2021-03-28_18h11.27.366,UG_Thesis_exp_1,2021.1.2,MacIntel,59.97361161,,,0,1.134255,,,,,,jaith,fillers/jaith.wav,,7,,,filler,,,1,84,184,78,1
,,,,,,,,,,,,,,,,,,,,,,,,,,srs,23,f,English,USA,German,2021-03-28_18h11.27.366,UG_Thesis_exp_1,2021.1.2,MacIntel,59.97361161,,,0,1.468845,,,,,,sudge,fillers/sudge.wav,,24,,,filler,,,1,85,185,88,1
,,,,,,,,,,,,,,,,,,,,,,,,,,srs,23,f,English,USA,German,2021-03-28_18h11.27.366,UG_Thesis_exp_1,2021.1.2,MacIntel,59.97361161,,,1,1.41935,,,,,,gaith,fillers/gaith.wav,,9,,,filler,,,1,86,186,80,1
,,,,,,,,,,,,,,,,,,,,,,,,,,srs,23,f,English,USA,German,2021-03-28_18h11.27.366,UG_Thesis_exp_1,2021.1.2,MacIntel,59.97361161,,,0,1.35175,,,,,,fmaet,stimuli/fmaet.wav,invalid,4,2,,stimuli,,,1,87,187,35,1
,,,,,,,,,,,,,,,,,,,,,,,,,,srs,23,f,English,USA,German,2021-03-28_18h11.27.366,UG_Thesis_exp_1,2021.1.2,MacIntel,59.97361161,,,0,0.984515,,,,,,shnet,stimuli/shnet.wav,valid,2,10,,stimuli,,,1,88,188,19,1
,,,,,,,,,,,,,,,,,,,,,,,,,,srs,23,f,English,USA,German,2021-03-28_18h11.27.366,UG_Thesis_exp_1,2021.1.2,MacIntel,59.97361161,,,0,0.91703,,,,,,vpeyl,stimuli/vpeyl.wav,invalid,2,0,,stimuli,,,1,89,189,38,1
,,,,,,,,,,,,,,,,,,,,,,,,,,srs,23,f,English,USA,German,2021-03-28_18h11.27.366,UG_Thesis_exp_1,2021.1.2,MacIntel,59.97361161,,,0,0.95047,,,,,,sud,fillers/sud.wav,,40,,,filler,,,1,90,190,57,1
,,,,,,,,,,,,,,,,,,,,,,,,,,srs,23,f,English,USA,German,2021-03-28_18h11.27.366,UG_Thesis_exp_1,2021.1.2,MacIntel,59.97361161,,,0,1.300985,,,,,,vlerk,stimuli/vlerk.wav,invalid,2,14,,stimuli,,,1,91,191,14,1
,,,,,,,,,,,,,,,,,,,,,,,,,,srs,23,f,English,USA,German,2021-03-28_18h11.27.366,UG_Thesis_exp_1,2021.1.2,MacIntel,59.97361161,,,0,1.09996,,,,,,jalp,fillers/jalp.wav,,1,,,filler,,,1,92,192,97,1
,,,,,,,,,,,,,,,,,,,,,,,,,,srs,23,f,English,USA,German,2021-03-28_18h11.27.366,UG_Thesis_exp_1,2021.1.2,MacIntel,59.97361161,,,0,1.9176,,,,,,shtin,stimuli/shtin.wav,invalid,3,13,,stimuli,,,1,93,193,16,1
,,,,,,,,,,,,,,,,,,,,,,,,,,srs,23,f,English,USA,German,2021-03-28_18h11.27.366,UG_Thesis_exp_1,2021.1.2,MacIntel,59.97361161,,,0,1.20087,,,,,,tupt,fillers/tupt.wav,,11,,,filler,,,1,94,194,90,1
,,,,,,,,,,,,,,,,,,,,,,,,,,srs,23,f,English,USA,German,2021-03-28_18h11.27.366,UG_Thesis_exp_1,2021.1.2,MacIntel,59.97361161,,,0,1.032485,,,,,,spung,stimuli/spung.wav,valid,11,28,,stimuli,,,1,95,195,9,1
,,,,,,,,,,,,,,,,,,,,,,,,,,srs,23,f,English,USA,German,2021-03-28_18h11.27.366,UG_Thesis_exp_1,2021.1.2,MacIntel,59.97361161,,,0,1.185175,,,,,,snet,stimuli/snet.wav,valid,7,28,,stimuli,,,1,96,196,8,1
,,,,,,,,,,,,,,,,,,,,,,,,,,srs,23,f,English,USA,German,2021-03-28_18h11.27.366,UG_Thesis_exp_1,2021.1.2,MacIntel,59.97361161,,,0,1.18376,,,,,,fpeyl,stimuli/fpeyl.wav,invalid,4,13,,stimuli,,,1,97,197,17,1
,,,,,,,,,,,,,,,,,,,,,,,,,,srs,23,f,English,USA,German,2021-03-28_18h11.27.366,UG_Thesis_exp_1,2021.1.2,MacIntel,59.97361161,,,0,1.350655,,,,,,jutch,fillers/jutch.wav,,10,,,filler,,,1,98,198,72,1
,,,,,,,,,,,,,,,,,,,,,,,,,,srs,23,f,English,USA,German,2021-03-28_18h11.27.366,UG_Thesis_exp_1,2021.1.2,MacIntel,59.97361161,,,1,1.13549,,,,,,gurg,fillers/gurg.wav,,9,,,filler,,,1,99,199,68,1
