consent_space1.keys,consent_space1.rt,consent_space2.keys,consent_space2.rt,consent_space3.keys,consent_space3.rt,consent_space4.keys,consent_space4.rt,ConsentResponse.keys,ConsentResponse.rt,key_resp.keys,key_resp.rt,materials_key_resp.keys,materials_key_resp.rt,key_resp_2.keys,key_resp_2.rt,intro_key_resp_2.keys,intro_key_resp_2.rt,practice_key_resp.keys,practice_key_resp.rt,practice_loop.thisRepN,practice_loop.thisTrialN,practice_loop.thisN,practice_loop.thisIndex,practice_loop.ran,words,participant,age,gender,native language,country of residence,other languages,date,expName,psychopyVersion,OS,frameRate,key_resp_5.keys,key_resp_5.rt,trial_resp.keys,trial_resp.rt,pre_break_loop.thisRepN,pre_break_loop.thisTrialN,pre_break_loop.thisN,pre_break_loop.thisIndex,pre_break_loop.ran,stimuli,file_loc,gross_status,ND,scholes_rating,cluster_type,item_type,break_key_resp.keys,break_key_resp.rt,post_break_loop.thisRepN,post_break_loop.thisTrialN,post_break_loop.thisN,post_break_loop.thisIndex,post_break_loop.ran
space,3.33647,space,2.26771,space,2.57458,space,3.94506,y,3.516935,space,2.684145,space,30.96961,space,5.62744,space,3.83046,1,5.344965,0,0,0,4,1,practice_audio/KLIHG.practice.wav,Tom B,57,M,English,US,,2021-03-28_20h59.13.314,UG_Thesis_exp_1,2021.1.2,Win32,50.00250013,,,,,,,,,,,,,,,,,,,,,,,
,,,,,,,,,,,,,,,,,,0,3.665855,0,1,1,0,1,practice_audio/BIHBL.practice.wav,Tom B,57,M,English,US,,2021-03-28_20h59.13.314,UG_Thesis_exp_1,2021.1.2,Win32,50.00250013,,,,,,,,,,,,,,,,,,,,,,,
,,,,,,,,,,,,,,,,,,1,62.03948,0,2,2,1,1,practice_audio/BWAAD.practice.wav,Tom B,57,M,English,US,,2021-03-28_20h59.13.314,UG_Thesis_exp_1,2021.1.2,Win32,50.00250013,,,,,,,,,,,,,,,,,,,,,,,
,,,,,,,,,,,,,,,,,,0,12.028925,0,3,3,8,1,practice_audio/ZOYNKS.practice.wav,Tom B,57,M,English,US,,2021-03-28_20h59.13.314,UG_Thesis_exp_1,2021.1.2,Win32,50.00250013,,,,,,,,,,,,,,,,,,,,,,,
,,,,,,,,,,,,,,,,,,0,3.84863,0,4,4,2,1,practice_audio/BZIYN.practice.wav,Tom B,57,M,English,US,,2021-03-28_20h59.13.314,UG_Thesis_exp_1,2021.1.2,Win32,50.00250013,,,,,,,,,,,,,,,,,,,,,,,
,,,,,,,,,,,,,,,,,,1,2.104275,0,5,5,6,1,practice_audio/LAHM.practice.wav,Tom B,57,M,English,US,,2021-03-28_20h59.13.314,UG_Thesis_exp_1,2021.1.2,Win32,50.00250013,,,,,,,,,,,,,,,,,,,,,,,
,,,,,,,,,,,,,,,,,,0,3.069645,0,6,6,7,1,practice_audio/SLEYM.practice.wav,Tom B,57,M,English,US,,2021-03-28_20h59.13.314,UG_Thesis_exp_1,2021.1.2,Win32,50.00250013,,,,,,,,,,,,,,,,,,,,,,,
,,,,,,,,,,,,,,,,,,1,1.049715,0,7,7,9,1,practice_audio/PLUWT.practice.wav,Tom B,57,M,English,US,,2021-03-28_20h59.13.314,UG_Thesis_exp_1,2021.1.2,Win32,50.00250013,,,,,,,,,,,,,,,,,,,,,,,
,,,,,,,,,,,,,,,,,,0,2.20942,0,8,8,5,1,practice_audio/KREHNTH.practice.wav,Tom B,57,M,English,US,,2021-03-28_20h59.13.314,UG_Thesis_exp_1,2021.1.2,Win32,50.00250013,,,,,,,,,,,,,,,,,,,,,,,
,,,,,,,,,,,,,,,,,,1,2.424925,0,9,9,10,1,practice_audio/PREHSP.practice.wav,Tom B,57,M,English,US,,2021-03-28_20h59.13.314,UG_Thesis_exp_1,2021.1.2,Win32,50.00250013,,,,,,,,,,,,,,,,,,,,,,,
,,,,,,,,,,,,,,,,,,0,1.02665,0,10,10,3,1,practice_audio/GLIYD.practice.wav,Tom B,57,M,English,US,,2021-03-28_20h59.13.314,UG_Thesis_exp_1,2021.1.2,Win32,50.00250013,,,,,,,,,,,,,,,,,,,,,,,
,,,,,,,,,,,,,,,,,,,,,,,,,,Tom B,57,M,English,US,,2021-03-28_20h59.13.314,UG_Thesis_exp_1,2021.1.2,Win32,50.00250013,space,4.80989,0,1.858285,0,0,0,49,1,jveel,stimuli/jveel.wav,invalid,1,0,,stimuli,,,,,,,
,,,,,,,,,,,,,,,,,,,,,,,,,,Tom B,57,M,English,US,,2021-03-28_20h59.13.314,UG_Thesis_exp_1,2021.1.2,Win32,50.00250013,,,0,1.450495,0,1,1,21,1,zrun,stimuli/zrun.wav,invalid,5,8,,stimuli,,,,,,,
,,,,,,,,,,,,,,,,,,,,,,,,,,Tom B,57,M,English,US,,2021-03-28_20h59.13.314,UG_Thesis_exp_1,2021.1.2,Win32,50.00250013,,,1,1.445505,0,2,2,50,1,hus,fillers/hus.wav,,46,,,filler,,,,,,,
,,,,,,,,,,,,,,,,,,,,,,,,,,Tom B,57,M,English,US,,2021-03-28_20h59.13.314,UG_Thesis_exp_1,2021.1.2,Win32,50.00250013,,,0,4.172375,0,3,3,36,1,shpeyl,stimuli/shpeyl.wav,invalid,2,2,,stimuli,,,,,,,
,,,,,,,,,,,,,,,,,,,,,,,,,,Tom B,57,M,English,US,,2021-03-28_20h59.13.314,UG_Thesis_exp_1,2021.1.2,Win32,50.00250013,,,1,5.14703,0,4,4,19,1,shnet,stimuli/shnet.wav,valid,2,10,,stimuli,,,,,,,
,,,,,,,,,,,,,,,,,,,,,,,,,,Tom B,57,M,English,US,,2021-03-28_20h59.13.314,UG_Thesis_exp_1,2021.1.2,Win32,50.00250013,,,0,4.16497,0,5,5,51,1,jun,fillers/jun.wav,,49,,,filler,,,,,,,
,,,,,,,,,,,,,,,,,,,,,,,,,,Tom B,57,M,English,US,,2021-03-28_20h59.13.314,UG_Thesis_exp_1,2021.1.2,Win32,50.00250013,,,1,2.275075,0,6,6,88,1,sudge,fillers/sudge.wav,,24,,,filler,,,,,,,
,,,,,,,,,,,,,,,,,,,,,,,,,,Tom B,57,M,English,US,,2021-03-28_20h59.13.314,UG_Thesis_exp_1,2021.1.2,Win32,50.00250013,,,1,1.4322,0,7,7,53,1,suz,fillers/suz.wav,,37,,,filler,,,,,,,
,,,,,,,,,,,,,,,,,,,,,,,,,,Tom B,57,M,English,US,,2021-03-28_20h59.13.314,UG_Thesis_exp_1,2021.1.2,Win32,50.00250013,,,0,1.23494,0,8,8,16,1,shtin,stimuli/shtin.wav,invalid,3,13,,stimuli,,,,,,,
,,,,,,,,,,,,,,,,,,,,,,,,,,Tom B,57,M,English,US,,2021-03-28_20h59.13.314,UG_Thesis_exp_1,2021.1.2,Win32,50.00250013,,,0,1.514675,0,9,9,18,1,fship,stimuli/fship.wav,invalid,2,11,,stimuli,,,,,,,
,,,,,,,,,,,,,,,,,,,,,,,,,,Tom B,57,M,English,US,,2021-03-28_20h59.13.314,UG_Thesis_exp_1,2021.1.2,Win32,50.00250013,,,1,1.672385,0,10,10,71,1,thudge,fillers/thudge.wav,,7,,,filler,,,,,,,
,,,,,,,,,,,,,,,,,,,,,,,,,,Tom B,57,M,English,US,,2021-03-28_20h59.13.314,UG_Thesis_exp_1,2021.1.2,Win32,50.00250013,,,0,1.98465,0,11,11,38,1,vpeyl,stimuli/vpeyl.wav,invalid,2,0,,stimuli,,,,,,,
,,,,,,,,,,,,,,,,,,,,,,,,,,Tom B,57,M,English,US,,2021-03-28_20h59.13.314,UG_Thesis_exp_1,2021.1.2,Win32,50.00250013,,,0,1.931745,0,12,12,68,1,gurg,fillers/gurg.wav,,9,,,filler,,,,,,,
,,,,,,,,,,,,,,,,,,,,,,,,,,Tom B,57,M,English,US,,2021-03-28_20h59.13.314,UG_Thesis_exp_1,2021.1.2,Win32,50.00250013,,,0,6.182285,0,13,13,30,1,znaet,stimuli/znaet.wav,invalid,1,4,,stimuli,,,,,,,
,,,,,,,,,,,,,,,,,,,,,,,,,,Tom B,57,M,English,US,,2021-03-28_20h59.13.314,UG_Thesis_exp_1,2021.1.2,Win32,50.00250013,,,0,1.625835,0,14,14,46,1,jpeyl,stimuli/jpeyl.wav,invalid,1,1,,stimuli,,,,,,,
,,,,,,,,,,,,,,,,,,,,,,,,,,Tom B,57,M,English,US,,2021-03-28_20h59.13.314,UG_Thesis_exp_1,2021.1.2,Win32,50.00250013,,,1,1.52673,0,15,15,84,1,ras,fillers/ras.wav,,52,,,filler,,,,,,,
,,,,,,,,,,,,,,,,,,,,,,,,,,Tom B,57,M,English,US,,2021-03-28_20h59.13.314,UG_Thesis_exp_1,2021.1.2,Win32,50.00250013,,,1,1.23717,0,16,16,91,1,bupt,fillers/bupt.wav,,10,,,filler,,,,,,,
,,,,,,,,,,,,,,,,,,,,,,,,,,Tom B,57,M,English,US,,2021-03-28_20h59.13.314,UG_Thesis_exp_1,2021.1.2,Win32,50.00250013,,,0,1.446515,0,17,17,44,1,vnet,stimuli/vnet.wav,invalid,2,1,,stimuli,,,,,,,
,,,,,,,,,,,,,,,,,,,,,,,,,,Tom B,57,M,English,US,,2021-03-28_20h59.13.314,UG_Thesis_exp_1,2021.1.2,Win32,50.00250013,,,0,1.25334,0,18,18,62,1,pev,fillers/pev.wav,,15,,,filler,,,,,,,
,,,,,,,,,,,,,,,,,,,,,,,,,,Tom B,57,M,English,US,,2021-03-28_20h59.13.314,UG_Thesis_exp_1,2021.1.2,Win32,50.00250013,,,1,1.053755,0,19,19,10,1,mrung,stimuli/mrung.wav,invalid,1,27,,stimuli,,,,,,,
,,,,,,,,,,,,,,,,,,,,,,,,,,Tom B,57,M,English,US,,2021-03-28_20h59.13.314,UG_Thesis_exp_1,2021.1.2,Win32,50.00250013,,,0,1.38996,0,20,20,67,1,thith,fillers/thith.wav,,4,,,filler,,,,,,,
,,,,,,,,,,,,,,,,,,,,,,,,,,Tom B,57,M,English,US,,2021-03-28_20h59.13.314,UG_Thesis_exp_1,2021.1.2,Win32,50.00250013,,,1,1.8332,0,21,21,8,1,snet,stimuli/snet.wav,valid,7,28,,stimuli,,,,,,,
,,,,,,,,,,,,,,,,,,,,,,,,,,Tom B,57,M,English,US,,2021-03-28_20h59.13.314,UG_Thesis_exp_1,2021.1.2,Win32,50.00250013,,,1,1.25351,0,22,22,73,1,chudge,fillers/chudge.wav,,10,,,filler,,,,,,,
,,,,,,,,,,,,,,,,,,,,,,,,,,Tom B,57,M,English,US,,2021-03-28_20h59.13.314,UG_Thesis_exp_1,2021.1.2,Win32,50.00250013,,,1,1.029225,0,23,23,79,1,chaith,fillers/chaith.wav,,5,,,filler,,,,,,,
,,,,,,,,,,,,,,,,,,,,,,,,,,Tom B,57,M,English,US,,2021-03-28_20h59.13.314,UG_Thesis_exp_1,2021.1.2,Win32,50.00250013,,,0,1.079255,0,24,24,29,1,shfeed,stimuli/shfeed.wav,invalid,1,5,,stimuli,,,,,,,
,,,,,,,,,,,,,,,,,,,,,,,,,,Tom B,57,M,English,US,,2021-03-28_20h59.13.314,UG_Thesis_exp_1,2021.1.2,Win32,50.00250013,,,0,1.335465,0,25,25,6,1,trun,stimuli/trun.wav,valid,12,31,,stimuli,,,,,,,
,,,,,,,,,,,,,,,,,,,,,,,,,,Tom B,57,M,English,US,,2021-03-28_20h59.13.314,UG_Thesis_exp_1,2021.1.2,Win32,50.00250013,,,0,1.156495,0,26,26,26,1,ztin,stimuli/ztin.wav,invalid,1,6,,stimuli,,,,,,,
,,,,,,,,,,,,,,,,,,,,,,,,,,Tom B,57,M,English,US,,2021-03-28_20h59.13.314,UG_Thesis_exp_1,2021.1.2,Win32,50.00250013,,,0,1.149435,0,27,27,98,1,fawnk,fillers/fawnk.wav,,4,,,filler,,,,,,,
,,,,,,,,,,,,,,,,,,,,,,,,,,Tom B,57,M,English,US,,2021-03-28_20h59.13.314,UG_Thesis_exp_1,2021.1.2,Win32,50.00250013,,,0,1.16999,0,28,28,65,1,keb,fillers/keb.wav,,16,,,filler,,,,,,,
,,,,,,,,,,,,,,,,,,,,,,,,,,Tom B,57,M,English,US,,2021-03-28_20h59.13.314,UG_Thesis_exp_1,2021.1.2,Win32,50.00250013,,,0,0.87081,0,29,29,94,1,malb,fillers/malb.wav,,2,,,filler,,,,,,,
,,,,,,,,,,,,,,,,,,,,,,,,,,Tom B,57,M,English,US,,2021-03-28_20h59.13.314,UG_Thesis_exp_1,2021.1.2,Win32,50.00250013,,,1,0.916965,0,30,30,87,1,tul,fillers/tul.wav,,42,,,filler,,,,,,,
,,,,,,,,,,,,,,,,,,,,,,,,,,Tom B,57,M,English,US,,2021-03-28_20h59.13.314,UG_Thesis_exp_1,2021.1.2,Win32,50.00250013,,,1,0.91839,0,31,31,92,1,purgd,fillers/purgd.wav,,3,,,filler,,,,,,,
,,,,,,,,,,,,,,,,,,,,,,,,,,Tom B,57,M,English,US,,2021-03-28_20h59.13.314,UG_Thesis_exp_1,2021.1.2,Win32,50.00250013,,,1,1.05553,0,32,32,78,1,jaith,fillers/jaith.wav,,7,,,filler,,,,,,,
,,,,,,,,,,,,,,,,,,,,,,,,,,Tom B,57,M,English,US,,2021-03-28_20h59.13.314,UG_Thesis_exp_1,2021.1.2,Win32,50.00250013,,,1,0.90556,0,33,33,85,1,lus,fillers/lus.wav,,49,,,filler,,,,,,,
,,,,,,,,,,,,,,,,,,,,,,,,,,Tom B,57,M,English,US,,2021-03-28_20h59.13.314,UG_Thesis_exp_1,2021.1.2,Win32,50.00250013,,,1,0.890185,0,34,34,58,1,lun,fillers/lun.wav,,70,,,filler,,,,,,,
,,,,,,,,,,,,,,,,,,,,,,,,,,Tom B,57,M,English,US,,2021-03-28_20h59.13.314,UG_Thesis_exp_1,2021.1.2,Win32,50.00250013,,,0,1.07416,0,35,35,99,1,shemp,fillers/shemp.wav,,3,,,filler,,,,,,,
,,,,,,,,,,,,,,,,,,,,,,,,,,Tom B,57,M,English,US,,2021-03-28_20h59.13.314,UG_Thesis_exp_1,2021.1.2,Win32,50.00250013,,,0,0.830055,0,36,36,32,1,fkeep,stimuli/fkeep.wav,invalid,1,3,,stimuli,,,,,,,
,,,,,,,,,,,,,,,,,,,,,,,,,,Tom B,57,M,English,US,,2021-03-28_20h59.13.314,UG_Thesis_exp_1,2021.1.2,Win32,50.00250013,,,0,0.9906,0,37,37,54,1,sug,fillers/sug.wav,,29,,,filler,,,,,,,
,,,,,,,,,,,,,,,,,,,,,,,,,,Tom B,57,M,English,US,,2021-03-28_20h59.13.314,UG_Thesis_exp_1,2021.1.2,Win32,50.00250013,,,1,1.16571,0,38,38,70,1,shirj,fillers/shirj.wav,,12,,,filler,,,,,,,
,,,,,,,,,,,,,,,,,,,,,,,,,,Tom B,57,M,English,US,,2021-03-28_20h59.13.314,UG_Thesis_exp_1,2021.1.2,Win32,50.00250013,,,1,1.232005,0,39,39,39,1,dwil,stimuli/dwil.wav,invalid,7,,,stimuli,,,,,,,
,,,,,,,,,,,,,,,,,,,,,,,,,,Tom B,57,M,English,US,,2021-03-28_20h59.13.314,UG_Thesis_exp_1,2021.1.2,Win32,50.00250013,,,1,1.550565,0,40,40,81,1,mub,fillers/mub.wav,,26,,,filler,,,,,,,
,,,,,,,,,,,,,,,,,,,,,,,,,,Tom B,57,M,English,US,,2021-03-28_20h59.13.314,UG_Thesis_exp_1,2021.1.2,Win32,50.00250013,,,0,1.28639,0,41,41,35,1,fmaet,stimuli/fmaet.wav,invalid,4,2,,stimuli,,,,,,,
,,,,,,,,,,,,,,,,,,,,,,,,,,Tom B,57,M,English,US,,2021-03-28_20h59.13.314,UG_Thesis_exp_1,2021.1.2,Win32,50.00250013,,,1,0.985915,0,42,42,31,1,fnet,stimuli/fnet.wav,invalid,2,3,,stimuli,,,,,,,
,,,,,,,,,,,,,,,,,,,,,,,,,,Tom B,57,M,English,US,,2021-03-28_20h59.13.314,UG_Thesis_exp_1,2021.1.2,Win32,50.00250013,,,1,1.110525,0,43,43,86,1,suf,fillers/suf.wav,,33,,,filler,,,,,,,
,,,,,,,,,,,,,,,,,,,,,,,,,,Tom B,57,M,English,US,,2021-03-28_20h59.13.314,UG_Thesis_exp_1,2021.1.2,Win32,50.00250013,,,0,1.209345,0,44,44,37,1,zkeep,stimuli/zkeep.wav,invalid,1,0,,stimuli,,,,,,,
,,,,,,,,,,,,,,,,,,,,,,,,,,Tom B,57,M,English,US,,2021-03-28_20h59.13.314,UG_Thesis_exp_1,2021.1.2,Win32,50.00250013,,,0,0.82754,0,45,45,41,1,tweep,stimuli/tweep.wav,valid,0,,,stimuli,,,,,,,
,,,,,,,,,,,,,,,,,,,,,,,,,,Tom B,57,M,English,US,,2021-03-28_20h59.13.314,UG_Thesis_exp_1,2021.1.2,Win32,50.00250013,,,0,0.75052,0,46,46,66,1,hais,fillers/hais.wav,,11,,,filler,,,,,,,
,,,,,,,,,,,,,,,,,,,,,,,,,,Tom B,57,M,English,US,,2021-03-28_20h59.13.314,UG_Thesis_exp_1,2021.1.2,Win32,50.00250013,,,0,0.75957,0,47,47,59,1,pum,fillers/pum.wav,,40,,,filler,,,,,,,
,,,,,,,,,,,,,,,,,,,,,,,,,,Tom B,57,M,English,US,,2021-03-28_20h59.13.314,UG_Thesis_exp_1,2021.1.2,Win32,50.00250013,,,1,0.566305,0,48,48,82,1,pab,fillers/pab.wav,,29,,,filler,,,,,,,
,,,,,,,,,,,,,,,,,,,,,,,,,,Tom B,57,M,English,US,,2021-03-28_20h59.13.314,UG_Thesis_exp_1,2021.1.2,Win32,50.00250013,,,1,0.68689,0,49,49,27,1,fset,stimuli/fset.wav,invalid,4,6,,stimuli,,,,,,,
,,,,,,,,,,,,,,,,,,,,,,,,,,Tom B,57,M,English,US,,2021-03-28_20h59.13.314,UG_Thesis_exp_1,2021.1.2,Win32,50.00250013,,,1,0.48791,0,50,50,28,1,vzut,stimuli/vzut.wav,invalid,1,6,,stimuli,,,,,,,
,,,,,,,,,,,,,,,,,,,,,,,,,,Tom B,57,M,English,US,,2021-03-28_20h59.13.314,UG_Thesis_exp_1,2021.1.2,Win32,50.00250013,,,0,0.73935,0,51,51,12,1,vrun,stimuli/vrun.wav,invalid,4,19,,stimuli,,,,,,,
,,,,,,,,,,,,,,,,,,,,,,,,,,Tom B,57,M,English,US,,2021-03-28_20h59.13.314,UG_Thesis_exp_1,2021.1.2,Win32,50.00250013,,,0,0.82976,0,52,52,76,1,thuv,fillers/thuv.wav,,9,,,filler,,,,,,,
,,,,,,,,,,,,,,,,,,,,,,,,,,Tom B,57,M,English,US,,2021-03-28_20h59.13.314,UG_Thesis_exp_1,2021.1.2,Win32,50.00250013,,,0,0.58649,0,53,53,24,1,sfeed,stimuli/sfeed.wav,valid,7,7,,stimuli,,,,,,,
,,,,,,,,,,,,,,,,,,,,,,,,,,Tom B,57,M,English,US,,2021-03-28_20h59.13.314,UG_Thesis_exp_1,2021.1.2,Win32,50.00250013,,,1,0.8128,0,54,54,20,1,ftin,stimuli/ftin.wav,invalid,2,10,,stimuli,,,,,,,
,,,,,,,,,,,,,,,,,,,,,,,,,,Tom B,57,M,English,US,,2021-03-28_20h59.13.314,UG_Thesis_exp_1,2021.1.2,Win32,50.00250013,,,1,0.435055,0,55,55,25,1,zlerk,stimuli/zlerk.wav,invalid,2,6,,stimuli,,,,,,,
,,,,,,,,,,,,,,,,,,,,,,,,,,Tom B,57,M,English,US,,2021-03-28_20h59.13.314,UG_Thesis_exp_1,2021.1.2,Win32,50.00250013,,,0,0.786625,0,56,56,0,1,stin,stimuli/stin.wav,valid,18,33,,stimuli,,,,,,,
,,,,,,,,,,,,,,,,,,,,,,,,,,Tom B,57,M,English,US,,2021-03-28_20h59.13.314,UG_Thesis_exp_1,2021.1.2,Win32,50.00250013,,,1,0.734525,0,57,57,72,1,jutch,fillers/jutch.wav,,10,,,filler,,,,,,,
,,,,,,,,,,,,,,,,,,,,,,,,,,Tom B,57,M,English,US,,2021-03-28_20h59.13.314,UG_Thesis_exp_1,2021.1.2,Win32,50.00250013,,,0,0.606165,0,58,58,52,1,dus,fillers/dus.wav,,58,,,filler,,,,,,,
,,,,,,,,,,,,,,,,,,,,,,,,,,Tom B,57,M,English,US,,2021-03-28_20h59.13.314,UG_Thesis_exp_1,2021.1.2,Win32,50.00250013,,,0,0.96961,0,59,59,33,1,vtin,stimuli/vtin.wav,invalid,2,3,,stimuli,,,,,,,
,,,,,,,,,,,,,,,,,,,,,,,,,,Tom B,57,M,English,US,,2021-03-28_20h59.13.314,UG_Thesis_exp_1,2021.1.2,Win32,50.00250013,,,0,1.071105,0,60,60,80,1,gaith,fillers/gaith.wav,,9,,,filler,,,,,,,
,,,,,,,,,,,,,,,,,,,,,,,,,,Tom B,57,M,English,US,,2021-03-28_20h59.13.314,UG_Thesis_exp_1,2021.1.2,Win32,50.00250013,,,0,1.009455,0,61,61,5,1,drung,stimuli/drung.wav,valid,7,31,,stimuli,,,,,,,
,,,,,,,,,,,,,,,,,,,,,,,,,,Tom B,57,M,English,US,,2021-03-28_20h59.13.314,UG_Thesis_exp_1,2021.1.2,Win32,50.00250013,,,1,1.060345,0,62,62,4,1,flerk,stimuli/flerk.wav,valid,11,31,,stimuli,,,,,,,
,,,,,,,,,,,,,,,,,,,,,,,,,,Tom B,57,M,English,US,,2021-03-28_20h59.13.314,UG_Thesis_exp_1,2021.1.2,Win32,50.00250013,,,1,0.95921,0,63,63,93,1,gomt,fillers/gomt.wav,,0,,,filler,,,,,,,
,,,,,,,,,,,,,,,,,,,,,,,,,,Tom B,57,M,English,US,,2021-03-28_20h59.13.314,UG_Thesis_exp_1,2021.1.2,Win32,50.00250013,,,0,1.167125,0,64,64,23,1,shmat,stimuli/shmat.wav,valid,1,7,,stimuli,,,,,,,
,,,,,,,,,,,,,,,,,,,,,,,,,,Tom B,57,M,English,US,,2021-03-28_20h59.13.314,UG_Thesis_exp_1,2021.1.2,Win32,50.00250013,,,0,1.265675,0,65,65,17,1,fpeyl,stimuli/fpeyl.wav,invalid,4,13,,stimuli,,,,,,,
,,,,,,,,,,,,,,,,,,,,,,,,,,Tom B,57,M,English,US,,2021-03-28_20h59.13.314,UG_Thesis_exp_1,2021.1.2,Win32,50.00250013,,,1,0.986985,0,66,66,89,1,sulft,fillers/suft.wav,,15,,,filler,,,,,,,
,,,,,,,,,,,,,,,,,,,,,,,,,,Tom B,57,M,English,US,,2021-03-28_20h59.13.314,UG_Thesis_exp_1,2021.1.2,Win32,50.00250013,,,0,0.931845,0,67,67,40,1,thwup,stimuli/thwup.wav,invalid,0,,,stimuli,,,,,,,
,,,,,,,,,,,,,,,,,,,,,,,,,,Tom B,57,M,English,US,,2021-03-28_20h59.13.314,UG_Thesis_exp_1,2021.1.2,Win32,50.00250013,,,1,0.711175,0,68,68,60,1,juf,fillers/juf.wav,,19,,,filler,,,,,,,
,,,,,,,,,,,,,,,,,,,,,,,,,,Tom B,57,M,English,US,,2021-03-28_20h59.13.314,UG_Thesis_exp_1,2021.1.2,Win32,50.00250013,,,0,0.81154,0,69,69,11,1,shlerk,stimuli/shlerk.wav,invalid,4,22,,stimuli,,,,,,,
,,,,,,,,,,,,,,,,,,,,,,,,,,Tom B,57,M,English,US,,2021-03-28_20h59.13.314,UG_Thesis_exp_1,2021.1.2,Win32,50.00250013,,,1,0.546215,0,70,70,47,1,glung,stimuli/glung.wav,valid,9,27,,stimuli,,,,,,,
,,,,,,,,,,,,,,,,,,,,,,,,,,Tom B,57,M,English,US,,2021-03-28_20h59.13.314,UG_Thesis_exp_1,2021.1.2,Win32,50.00250013,,,0,1.20673,0,71,71,55,1,suv,fillers/suv.wav,,25,,,filler,,,,,,,
,,,,,,,,,,,,,,,,,,,,,,,,,,Tom B,57,M,English,US,,2021-03-28_20h59.13.314,UG_Thesis_exp_1,2021.1.2,Win32,50.00250013,,,0,1.18641,0,72,72,14,1,vlerk,stimuli/vlerk.wav,invalid,2,14,,stimuli,,,,,,,
,,,,,,,,,,,,,,,,,,,,,,,,,,Tom B,57,M,English,US,,2021-03-28_20h59.13.314,UG_Thesis_exp_1,2021.1.2,Win32,50.00250013,,,1,0.82796,0,73,73,90,1,tupt,fillers/tupt.wav,,11,,,filler,,,,,,,
,,,,,,,,,,,,,,,,,,,,,,,,,,Tom B,57,M,English,US,,2021-03-28_20h59.13.314,UG_Thesis_exp_1,2021.1.2,Win32,50.00250013,,,1,1.026905,0,74,74,64,1,sherj,fillers/sherj.wav,,12,,,filler,,,,,,,
,,,,,,,,,,,,,,,,,,,,,,,,,,Tom B,57,M,English,US,,2021-03-28_20h59.13.314,UG_Thesis_exp_1,2021.1.2,Win32,50.00250013,,,1,1.11074,0,75,75,45,1,shkeep,stimuli/shkeep.wav,invalid,15,1,,stimuli,,,,,,,
,,,,,,,,,,,,,,,,,,,,,,,,,,Tom B,57,M,English,US,,2021-03-28_20h59.13.314,UG_Thesis_exp_1,2021.1.2,Win32,50.00250013,,,0,0.993505,0,76,76,43,1,skeep,stimuli/skeep.wav,valid,2,20,,stimuli,,,,,,,
,,,,,,,,,,,,,,,,,,,,,,,,,,Tom B,57,M,English,US,,2021-03-28_20h59.13.314,UG_Thesis_exp_1,2021.1.2,Win32,50.00250013,,,1,0.771095,0,77,77,74,1,wudge,fillers/wudge.wav,,13,,,filler,,,,,,,
,,,,,,,,,,,,,,,,,,,,,,,,,,Tom B,57,M,English,US,,2021-03-28_20h59.13.314,UG_Thesis_exp_1,2021.1.2,Win32,50.00250013,,,1,0.797625,0,78,78,22,1,nrun,stimuli/nrun.wav,invalid,5,8,,stimuli,,,,,,,
,,,,,,,,,,,,,,,,,,,,,,,,,,Tom B,57,M,English,US,,2021-03-28_20h59.13.314,UG_Thesis_exp_1,2021.1.2,Win32,50.00250013,,,1,0.416595,0,79,79,97,1,jalp,fillers/jalp.wav,,1,,,filler,,,,,,,
,,,,,,,,,,,,,,,,,,,,,,,,,,Tom B,57,M,English,US,,2021-03-28_20h59.13.314,UG_Thesis_exp_1,2021.1.2,Win32,50.00250013,,,1,0.430195,0,80,80,77,1,gej,fillers/gej.wav,,7,,,filler,,,,,,,
,,,,,,,,,,,,,,,,,,,,,,,,,,Tom B,57,M,English,US,,2021-03-28_20h59.13.314,UG_Thesis_exp_1,2021.1.2,Win32,50.00250013,,,1,0.6862,0,81,81,42,1,thwaet,stimuli/thwaet.wav,invalid,1,,,stimuli,,,,,,,
,,,,,,,,,,,,,,,,,,,,,,,,,,Tom B,57,M,English,US,,2021-03-28_20h59.13.314,UG_Thesis_exp_1,2021.1.2,Win32,50.00250013,,,0,0.932695,0,82,82,57,1,sud,fillers/sud.wav,,40,,,filler,,,,,,,
,,,,,,,,,,,,,,,,,,,,,,,,,,Tom B,57,M,English,US,,2021-03-28_20h59.13.314,UG_Thesis_exp_1,2021.1.2,Win32,50.00250013,,,1,2.393885,0,83,83,34,1,zveel,stimuli/zveel.wav,invalid,2,3,,stimuli,,,,,,,
,,,,,,,,,,,,,,,,,,,,,,,,,,Tom B,57,M,English,US,,2021-03-28_20h59.13.314,UG_Thesis_exp_1,2021.1.2,Win32,50.00250013,,,1,0.97167,0,84,84,95,1,bimp,fillers/bimp.wav,,7,,,filler,,,,,,,
,,,,,,,,,,,,,,,,,,,,,,,,,,Tom B,57,M,English,US,,2021-03-28_20h59.13.314,UG_Thesis_exp_1,2021.1.2,Win32,50.00250013,,,1,0.8726,0,85,85,9,1,spung,stimuli/spung.wav,valid,11,28,,stimuli,,,,,,,
,,,,,,,,,,,,,,,,,,,,,,,,,,Tom B,57,M,English,US,,2021-03-28_20h59.13.314,UG_Thesis_exp_1,2021.1.2,Win32,50.00250013,,,1,0.804615,0,86,86,61,1,wutch,fillers/wutch.wav,,17,,,filler,,,,,,,
,,,,,,,,,,,,,,,,,,,,,,,,,,Tom B,57,M,English,US,,2021-03-28_20h59.13.314,UG_Thesis_exp_1,2021.1.2,Win32,50.00250013,,,1,0.486295,0,87,87,63,1,peb,fillers/peb.wav,,14,,,filler,,,,,,,
,,,,,,,,,,,,,,,,,,,,,,,,,,Tom B,57,M,English,US,,2021-03-28_20h59.13.314,UG_Thesis_exp_1,2021.1.2,Win32,50.00250013,,,1,0.656245,0,88,88,7,1,frun,stimuli/frun.wav,valid,12,29,,stimuli,,,,,,,
,,,,,,,,,,,,,,,,,,,,,,,,,,Tom B,57,M,English,US,,2021-03-28_20h59.13.314,UG_Thesis_exp_1,2021.1.2,Win32,50.00250013,,,1,1.046085,0,89,89,75,1,chutch,fillers/chutch.wav,,12,,,filler,,,,,,,
,,,,,,,,,,,,,,,,,,,,,,,,,,Tom B,57,M,English,US,,2021-03-28_20h59.13.314,UG_Thesis_exp_1,2021.1.2,Win32,50.00250013,,,1,1.106075,0,90,90,3,1,grun,stimuli/grun.wav,valid,18,33,,stimuli,,,,,,,
,,,,,,,,,,,,,,,,,,,,,,,,,,Tom B,57,M,English,US,,2021-03-28_20h59.13.314,UG_Thesis_exp_1,2021.1.2,Win32,50.00250013,,,1,0.816305,0,91,91,1,1,smaet,stimuli/smaet.wav,valid,13,32,,stimuli,,,,,,,
,,,,,,,,,,,,,,,,,,,,,,,,,,Tom B,57,M,English,US,,2021-03-28_20h59.13.314,UG_Thesis_exp_1,2021.1.2,Win32,50.00250013,,,0,2.39006,0,92,92,15,1,mlung,stimuli/mlung.wav,invalid,4,13,,stimuli,,,,,,,
,,,,,,,,,,,,,,,,,,,,,,,,,,Tom B,57,M,English,US,,2021-03-28_20h59.13.314,UG_Thesis_exp_1,2021.1.2,Win32,50.00250013,,,0,2.005385,0,93,93,13,1,srun,stimuli/srun.wav,invalid,9,14,,stimuli,,,,,,,
,,,,,,,,,,,,,,,,,,,,,,,,,,Tom B,57,M,English,US,,2021-03-28_20h59.13.314,UG_Thesis_exp_1,2021.1.2,Win32,50.00250013,,,0,1.85654,0,94,94,48,1,jrun,stimuli/jrun.wav,invalid,4,11,,stimuli,,,,,,,
,,,,,,,,,,,,,,,,,,,,,,,,,,Tom B,57,M,English,US,,2021-03-28_20h59.13.314,UG_Thesis_exp_1,2021.1.2,Win32,50.00250013,,,1,1.25256,0,95,95,69,1,jerp,fillers/jerp.wav,,7,,,filler,,,,,,,
,,,,,,,,,,,,,,,,,,,,,,,,,,Tom B,57,M,English,US,,2021-03-28_20h59.13.314,UG_Thesis_exp_1,2021.1.2,Win32,50.00250013,,,0,1.073695,0,96,96,2,1,prun,stimuli/prun.wav,valid,11,32,,stimuli,,,,,,,
,,,,,,,,,,,,,,,,,,,,,,,,,,Tom B,57,M,English,US,,2021-03-28_20h59.13.314,UG_Thesis_exp_1,2021.1.2,Win32,50.00250013,,,1,1.05234,0,97,97,96,1,chulp,fillers/chulp.wav,,4,,,filler,,,,,,,
,,,,,,,,,,,,,,,,,,,,,,,,,,Tom B,57,M,English,US,,2021-03-28_20h59.13.314,UG_Thesis_exp_1,2021.1.2,Win32,50.00250013,,,0,1.93755,0,98,98,56,1,rul,fillers/rul.wav,,42,,,filler,,,,,,,
,,,,,,,,,,,,,,,,,,,,,,,,,,Tom B,57,M,English,US,,2021-03-28_20h59.13.314,UG_Thesis_exp_1,2021.1.2,Win32,50.00250013,,,1,0.71148,0,99,99,83,1,bip,fillers/bip.wav,,37,,,filler,,,,,,,
,,,,,,,,,,,,,,,,,,,,,,,,,,Tom B,57,M,English,US,,2021-03-28_20h59.13.314,UG_Thesis_exp_1,2021.1.2,Win32,50.00250013,,,1,1.115825,1,0,100,47,1,glung,stimuli/glung.wav,valid,9,27,,stimuli,,,,,,,
,,,,,,,,,,,,,,,,,,,,,,,,,,Tom B,57,M,English,US,,2021-03-28_20h59.13.314,UG_Thesis_exp_1,2021.1.2,Win32,50.00250013,,,1,1.825015,1,1,101,82,1,pab,fillers/pab.wav,,29,,,filler,,,,,,,
,,,,,,,,,,,,,,,,,,,,,,,,,,Tom B,57,M,English,US,,2021-03-28_20h59.13.314,UG_Thesis_exp_1,2021.1.2,Win32,50.00250013,,,0,1.086175,1,2,102,46,1,jpeyl,stimuli/jpeyl.wav,invalid,1,1,,stimuli,,,,,,,
,,,,,,,,,,,,,,,,,,,,,,,,,,Tom B,57,M,English,US,,2021-03-28_20h59.13.314,UG_Thesis_exp_1,2021.1.2,Win32,50.00250013,,,1,1.00701,1,3,103,60,1,juf,fillers/juf.wav,,19,,,filler,,,,,,,
,,,,,,,,,,,,,,,,,,,,,,,,,,Tom B,57,M,English,US,,2021-03-28_20h59.13.314,UG_Thesis_exp_1,2021.1.2,Win32,50.00250013,,,0,1.352265,1,4,104,44,1,vnet,stimuli/vnet.wav,invalid,2,1,,stimuli,,,,,,,
,,,,,,,,,,,,,,,,,,,,,,,,,,Tom B,57,M,English,US,,2021-03-28_20h59.13.314,UG_Thesis_exp_1,2021.1.2,Win32,50.00250013,,,0,1.486175,1,5,105,36,1,shpeyl,stimuli/shpeyl.wav,invalid,2,2,,stimuli,,,,,,,
,,,,,,,,,,,,,,,,,,,,,,,,,,Tom B,57,M,English,US,,2021-03-28_20h59.13.314,UG_Thesis_exp_1,2021.1.2,Win32,50.00250013,,,0,1.11856,1,6,106,49,1,jveel,stimuli/jveel.wav,invalid,1,0,,stimuli,,,,,,,
,,,,,,,,,,,,,,,,,,,,,,,,,,Tom B,57,M,English,US,,2021-03-28_20h59.13.314,UG_Thesis_exp_1,2021.1.2,Win32,50.00250013,,,1,0.88564,1,7,107,55,1,suv,fillers/suv.wav,,25,,,filler,,,,,,,
,,,,,,,,,,,,,,,,,,,,,,,,,,Tom B,57,M,English,US,,2021-03-28_20h59.13.314,UG_Thesis_exp_1,2021.1.2,Win32,50.00250013,,,1,0.657545,1,8,108,66,1,hais,fillers/hais.wav,,11,,,filler,,,,,,,
,,,,,,,,,,,,,,,,,,,,,,,,,,Tom B,57,M,English,US,,2021-03-28_20h59.13.314,UG_Thesis_exp_1,2021.1.2,Win32,50.00250013,,,1,0.726475,1,9,109,12,1,vrun,stimuli/vrun.wav,invalid,4,19,,stimuli,,,,,,,
,,,,,,,,,,,,,,,,,,,,,,,,,,Tom B,57,M,English,US,,2021-03-28_20h59.13.314,UG_Thesis_exp_1,2021.1.2,Win32,50.00250013,,,0,0.9477,1,10,110,25,1,zlerk,stimuli/zlerk.wav,invalid,2,6,,stimuli,,,,,,,
,,,,,,,,,,,,,,,,,,,,,,,,,,Tom B,57,M,English,US,,2021-03-28_20h59.13.314,UG_Thesis_exp_1,2021.1.2,Win32,50.00250013,,,1,0.726335,1,11,111,92,1,purgd,fillers/purgd.wav,,3,,,filler,,,,,,,
,,,,,,,,,,,,,,,,,,,,,,,,,,Tom B,57,M,English,US,,2021-03-28_20h59.13.314,UG_Thesis_exp_1,2021.1.2,Win32,50.00250013,,,1,0.844375,1,12,112,79,1,chaith,fillers/chaith.wav,,5,,,filler,,,,,,,
,,,,,,,,,,,,,,,,,,,,,,,,,,Tom B,57,M,English,US,,2021-03-28_20h59.13.314,UG_Thesis_exp_1,2021.1.2,Win32,50.00250013,,,1,0.87286,1,13,113,61,1,wutch,fillers/wutch.wav,,17,,,filler,,,,,,,
,,,,,,,,,,,,,,,,,,,,,,,,,,Tom B,57,M,English,US,,2021-03-28_20h59.13.314,UG_Thesis_exp_1,2021.1.2,Win32,50.00250013,,,1,0.91022,1,14,114,86,1,suf,fillers/suf.wav,,33,,,filler,,,,,,,
,,,,,,,,,,,,,,,,,,,,,,,,,,Tom B,57,M,English,US,,2021-03-28_20h59.13.314,UG_Thesis_exp_1,2021.1.2,Win32,50.00250013,,,0,0.98834,1,15,115,24,1,sfeed,stimuli/sfeed.wav,valid,7,7,,stimuli,,,,,,,
,,,,,,,,,,,,,,,,,,,,,,,,,,Tom B,57,M,English,US,,2021-03-28_20h59.13.314,UG_Thesis_exp_1,2021.1.2,Win32,50.00250013,,,1,0.965525,1,16,116,81,1,mub,fillers/mub.wav,,26,,,filler,,,,,,,
,,,,,,,,,,,,,,,,,,,,,,,,,,Tom B,57,M,English,US,,2021-03-28_20h59.13.314,UG_Thesis_exp_1,2021.1.2,Win32,50.00250013,,,1,1.013135,1,17,117,69,1,jerp,fillers/jerp.wav,,7,,,filler,,,,,,,
,,,,,,,,,,,,,,,,,,,,,,,,,,Tom B,57,M,English,US,,2021-03-28_20h59.13.314,UG_Thesis_exp_1,2021.1.2,Win32,50.00250013,,,0,1.048985,1,18,118,42,1,thwaet,stimuli/thwaet.wav,invalid,1,,,stimuli,,,,,,,
,,,,,,,,,,,,,,,,,,,,,,,,,,Tom B,57,M,English,US,,2021-03-28_20h59.13.314,UG_Thesis_exp_1,2021.1.2,Win32,50.00250013,,,0,1.031715,1,19,119,16,1,shtin,stimuli/shtin.wav,invalid,3,13,,stimuli,,,,,,,
,,,,,,,,,,,,,,,,,,,,,,,,,,Tom B,57,M,English,US,,2021-03-28_20h59.13.314,UG_Thesis_exp_1,2021.1.2,Win32,50.00250013,,,1,0.990755,1,20,120,27,1,fset,stimuli/fset.wav,invalid,4,6,,stimuli,,,,,,,
,,,,,,,,,,,,,,,,,,,,,,,,,,Tom B,57,M,English,US,,2021-03-28_20h59.13.314,UG_Thesis_exp_1,2021.1.2,Win32,50.00250013,,,1,1.13068,1,21,121,1,1,smaet,stimuli/smaet.wav,valid,13,32,,stimuli,,,,,,,
,,,,,,,,,,,,,,,,,,,,,,,,,,Tom B,57,M,English,US,,2021-03-28_20h59.13.314,UG_Thesis_exp_1,2021.1.2,Win32,50.00250013,,,0,1.05448,1,22,122,45,1,shkeep,stimuli/shkeep.wav,invalid,15,1,,stimuli,,,,,,,
,,,,,,,,,,,,,,,,,,,,,,,,,,Tom B,57,M,English,US,,2021-03-28_20h59.13.314,UG_Thesis_exp_1,2021.1.2,Win32,50.00250013,,,1,1.210125,1,23,123,99,1,shemp,fillers/shemp.wav,,3,,,filler,,,,,,,
,,,,,,,,,,,,,,,,,,,,,,,,,,Tom B,57,M,English,US,,2021-03-28_20h59.13.314,UG_Thesis_exp_1,2021.1.2,Win32,50.00250013,,,0,1.426935,1,24,124,34,1,zveel,stimuli/zveel.wav,invalid,2,3,,stimuli,,,,,,,
,,,,,,,,,,,,,,,,,,,,,,,,,,Tom B,57,M,English,US,,2021-03-28_20h59.13.314,UG_Thesis_exp_1,2021.1.2,Win32,50.00250013,,,1,1.092615,1,25,125,70,1,shirj,fillers/shirj.wav,,12,,,filler,,,,,,,
,,,,,,,,,,,,,,,,,,,,,,,,,,Tom B,57,M,English,US,,2021-03-28_20h59.13.314,UG_Thesis_exp_1,2021.1.2,Win32,50.00250013,,,1,0.826895,1,26,126,64,1,sherj,fillers/sherj.wav,,12,,,filler,,,,,,,
,,,,,,,,,,,,,,,,,,,,,,,,,,Tom B,57,M,English,US,,2021-03-28_20h59.13.314,UG_Thesis_exp_1,2021.1.2,Win32,50.00250013,,,0,1.06018,1,27,127,37,1,zkeep,stimuli/zkeep.wav,invalid,1,0,,stimuli,,,,,,,
,,,,,,,,,,,,,,,,,,,,,,,,,,Tom B,57,M,English,US,,2021-03-28_20h59.13.314,UG_Thesis_exp_1,2021.1.2,Win32,50.00250013,,,1,0.59783,1,28,128,51,1,jun,fillers/jun.wav,,49,,,filler,,,,,,,
,,,,,,,,,,,,,,,,,,,,,,,,,,Tom B,57,M,English,US,,2021-03-28_20h59.13.314,UG_Thesis_exp_1,2021.1.2,Win32,50.00250013,,,1,0.674245,1,29,129,38,1,vpeyl,stimuli/vpeyl.wav,invalid,2,0,,stimuli,,,,,,,
,,,,,,,,,,,,,,,,,,,,,,,,,,Tom B,57,M,English,US,,2021-03-28_20h59.13.314,UG_Thesis_exp_1,2021.1.2,Win32,50.00250013,,,1,0.51437,1,30,130,50,1,hus,fillers/hus.wav,,46,,,filler,,,,,,,
,,,,,,,,,,,,,,,,,,,,,,,,,,Tom B,57,M,English,US,,2021-03-28_20h59.13.314,UG_Thesis_exp_1,2021.1.2,Win32,50.00250013,,,1,0.75576,1,31,131,73,1,chudge,fillers/chudge.wav,,10,,,filler,,,,,,,
,,,,,,,,,,,,,,,,,,,,,,,,,,Tom B,57,M,English,US,,2021-03-28_20h59.13.314,UG_Thesis_exp_1,2021.1.2,Win32,50.00250013,,,1,0.63145,1,32,132,53,1,suz,fillers/suz.wav,,37,,,filler,,,,,,,
,,,,,,,,,,,,,,,,,,,,,,,,,,Tom B,57,M,English,US,,2021-03-28_20h59.13.314,UG_Thesis_exp_1,2021.1.2,Win32,50.00250013,,,1,0.92869,1,33,133,98,1,fawnk,fillers/fawnk.wav,,4,,,filler,,,,,,,
,,,,,,,,,,,,,,,,,,,,,,,,,,Tom B,57,M,English,US,,2021-03-28_20h59.13.314,UG_Thesis_exp_1,2021.1.2,Win32,50.00250013,,,1,1.005905,1,34,134,58,1,lun,fillers/lun.wav,,70,,,filler,,,,,,,
,,,,,,,,,,,,,,,,,,,,,,,,,,Tom B,57,M,English,US,,2021-03-28_20h59.13.314,UG_Thesis_exp_1,2021.1.2,Win32,50.00250013,,,0,1.11015,1,35,135,28,1,vzut,stimuli/vzut.wav,invalid,1,6,,stimuli,,,,,,,
,,,,,,,,,,,,,,,,,,,,,,,,,,Tom B,57,M,English,US,,2021-03-28_20h59.13.314,UG_Thesis_exp_1,2021.1.2,Win32,50.00250013,,,0,1.138195,1,36,136,35,1,fmaet,stimuli/fmaet.wav,invalid,4,2,,stimuli,,,,,,,
,,,,,,,,,,,,,,,,,,,,,,,,,,Tom B,57,M,English,US,,2021-03-28_20h59.13.314,UG_Thesis_exp_1,2021.1.2,Win32,50.00250013,,,0,0.711895,1,37,137,78,1,jaith,fillers/jaith.wav,,7,,,filler,,,,,,,
,,,,,,,,,,,,,,,,,,,,,,,,,,Tom B,57,M,English,US,,2021-03-28_20h59.13.314,UG_Thesis_exp_1,2021.1.2,Win32,50.00250013,,,0,0.39594,1,38,138,91,1,bupt,fillers/bupt.wav,,10,,,filler,,,,,,,
,,,,,,,,,,,,,,,,,,,,,,,,,,Tom B,57,M,English,US,,2021-03-28_20h59.13.314,UG_Thesis_exp_1,2021.1.2,Win32,50.00250013,,,0,0.430555,1,39,139,97,1,jalp,fillers/jalp.wav,,1,,,filler,,,,,,,
,,,,,,,,,,,,,,,,,,,,,,,,,,Tom B,57,M,English,US,,2021-03-28_20h59.13.314,UG_Thesis_exp_1,2021.1.2,Win32,50.00250013,,,1,0.659265,1,40,140,96,1,chulp,fillers/chulp.wav,,4,,,filler,,,,,,,
,,,,,,,,,,,,,,,,,,,,,,,,,,Tom B,57,M,English,US,,2021-03-28_20h59.13.314,UG_Thesis_exp_1,2021.1.2,Win32,50.00250013,,,1,0.33113,1,41,141,77,1,gej,fillers/gej.wav,,7,,,filler,,,,,,,
,,,,,,,,,,,,,,,,,,,,,,,,,,Tom B,57,M,English,US,,2021-03-28_20h59.13.314,UG_Thesis_exp_1,2021.1.2,Win32,50.00250013,,,1,0.356905,1,42,142,94,1,malb,fillers/malb.wav,,2,,,filler,,,,,,,
,,,,,,,,,,,,,,,,,,,,,,,,,,Tom B,57,M,English,US,,2021-03-28_20h59.13.314,UG_Thesis_exp_1,2021.1.2,Win32,50.00250013,,,1,0.720425,1,43,143,6,1,trun,stimuli/trun.wav,valid,12,31,,stimuli,,,,,,,
,,,,,,,,,,,,,,,,,,,,,,,,,,Tom B,57,M,English,US,,2021-03-28_20h59.13.314,UG_Thesis_exp_1,2021.1.2,Win32,50.00250013,,,0,0.38663,1,44,144,68,1,gurg,fillers/gurg.wav,,9,,,filler,,,,,,,
,,,,,,,,,,,,,,,,,,,,,,,,,,Tom B,57,M,English,US,,2021-03-28_20h59.13.314,UG_Thesis_exp_1,2021.1.2,Win32,50.00250013,,,1,0.44771,1,45,145,10,1,mrung,stimuli/mrung.wav,invalid,1,27,,stimuli,,,,,,,
,,,,,,,,,,,,,,,,,,,,,,,,,,Tom B,57,M,English,US,,2021-03-28_20h59.13.314,UG_Thesis_exp_1,2021.1.2,Win32,50.00250013,,,1,0.67422,1,46,146,65,1,keb,fillers/keb.wav,,16,,,filler,,,,,,,
,,,,,,,,,,,,,,,,,,,,,,,,,,Tom B,57,M,English,US,,2021-03-28_20h59.13.314,UG_Thesis_exp_1,2021.1.2,Win32,50.00250013,,,1,0.730695,1,47,147,76,1,thuv,fillers/thuv.wav,,9,,,filler,,,,,,,
,,,,,,,,,,,,,,,,,,,,,,,,,,Tom B,57,M,English,US,,2021-03-28_20h59.13.314,UG_Thesis_exp_1,2021.1.2,Win32,50.00250013,,,0,0.786295,1,48,148,11,1,shlerk,stimuli/shlerk.wav,invalid,4,22,,stimuli,,,,,,,
,,,,,,,,,,,,,,,,,,,,,,,,,,Tom B,57,M,English,US,,2021-03-28_20h59.13.314,UG_Thesis_exp_1,2021.1.2,Win32,50.00250013,,,0,0.81501,1,49,149,29,1,shfeed,stimuli/shfeed.wav,invalid,1,5,,stimuli,,,,,,,
,,,,,,,,,,,,,,,,,,,,,,,,,,Tom B,57,M,English,US,,2021-03-28_20h59.13.314,UG_Thesis_exp_1,2021.1.2,Win32,50.00250013,,,0,1.11546,1,50,150,17,1,fpeyl,stimuli/fpeyl.wav,invalid,4,13,,stimuli,,,,,,,
,,,,,,,,,,,,,,,,,,,,,,,,,,Tom B,57,M,English,US,,2021-03-28_20h59.13.314,UG_Thesis_exp_1,2021.1.2,Win32,50.00250013,,,0,0.9212,1,51,151,75,1,chutch,fillers/chutch.wav,,12,,,filler,,,,,,,
,,,,,,,,,,,,,,,,,,,,,,,,,,Tom B,57,M,English,US,,2021-03-28_20h59.13.314,UG_Thesis_exp_1,2021.1.2,Win32,50.00250013,,,0,0.89116,1,52,152,22,1,nrun,stimuli/nrun.wav,invalid,5,8,,stimuli,,,,,,,
,,,,,,,,,,,,,,,,,,,,,,,,,,Tom B,57,M,English,US,,2021-03-28_20h59.13.314,UG_Thesis_exp_1,2021.1.2,Win32,50.00250013,,,0,0.911175,1,53,153,33,1,vtin,stimuli/vtin.wav,invalid,2,3,,stimuli,,,,,,,
,,,,,,,,,,,,,,,,,,,,,,,,,,Tom B,57,M,English,US,,2021-03-28_20h59.13.314,UG_Thesis_exp_1,2021.1.2,Win32,50.00250013,,,1,0.685815,1,54,154,0,1,stin,stimuli/stin.wav,valid,18,33,,stimuli,,,,,,,
,,,,,,,,,,,,,,,,,,,,,,,,,,Tom B,57,M,English,US,,2021-03-28_20h59.13.314,UG_Thesis_exp_1,2021.1.2,Win32,50.00250013,,,1,0.79251,1,55,155,84,1,ras,fillers/ras.wav,,52,,,filler,,,,,,,
,,,,,,,,,,,,,,,,,,,,,,,,,,Tom B,57,M,English,US,,2021-03-28_20h59.13.314,UG_Thesis_exp_1,2021.1.2,Win32,50.00250013,,,1,1.450355,1,56,156,63,1,peb,fillers/peb.wav,,14,,,filler,,,,,,,
,,,,,,,,,,,,,,,,,,,,,,,,,,Tom B,57,M,English,US,,2021-03-28_20h59.13.314,UG_Thesis_exp_1,2021.1.2,Win32,50.00250013,,,0,0.84577,1,57,157,26,1,ztin,stimuli/ztin.wav,invalid,1,6,,stimuli,,,,,,,
,,,,,,,,,,,,,,,,,,,,,,,,,,Tom B,57,M,English,US,,2021-03-28_20h59.13.314,UG_Thesis_exp_1,2021.1.2,Win32,50.00250013,,,1,0.99568,1,58,158,71,1,thudge,fillers/thudge.wav,,7,,,filler,,,,,,,
,,,,,,,,,,,,,,,,,,,,,,,,,,Tom B,57,M,English,US,,2021-03-28_20h59.13.314,UG_Thesis_exp_1,2021.1.2,Win32,50.00250013,,,1,0.98683,1,59,159,83,1,bip,fillers/bip.wav,,37,,,filler,,,,,,,
,,,,,,,,,,,,,,,,,,,,,,,,,,Tom B,57,M,English,US,,2021-03-28_20h59.13.314,UG_Thesis_exp_1,2021.1.2,Win32,50.00250013,,,1,1.20813,1,60,160,57,1,sud,fillers/sud.wav,,40,,,filler,,,,,,,
,,,,,,,,,,,,,,,,,,,,,,,,,,Tom B,57,M,English,US,,2021-03-28_20h59.13.314,UG_Thesis_exp_1,2021.1.2,Win32,50.00250013,,,1,1.660455,1,61,161,4,1,flerk,stimuli/flerk.wav,valid,11,31,,stimuli,,,,,,,
,,,,,,,,,,,,,,,,,,,,,,,,,,Tom B,57,M,English,US,,2021-03-28_20h59.13.314,UG_Thesis_exp_1,2021.1.2,Win32,50.00250013,,,1,1.09079,1,62,162,85,1,lus,fillers/lus.wav,,49,,,filler,,,,,,,
,,,,,,,,,,,,,,,,,,,,,,,,,,Tom B,57,M,English,US,,2021-03-28_20h59.13.314,UG_Thesis_exp_1,2021.1.2,Win32,50.00250013,,,0,0.90498,1,63,163,18,1,fship,stimuli/fship.wav,invalid,2,11,,stimuli,,,,,,,
,,,,,,,,,,,,,,,,,,,,,,,,,,Tom B,57,M,English,US,,2021-03-28_20h59.13.314,UG_Thesis_exp_1,2021.1.2,Win32,50.00250013,,,1,0.91508,1,64,164,80,1,gaith,fillers/gaith.wav,,9,,,filler,,,,,,,
,,,,,,,,,,,,,,,,,,,,,,,,,,Tom B,57,M,English,US,,2021-03-28_20h59.13.314,UG_Thesis_exp_1,2021.1.2,Win32,50.00250013,,,0,1.375315,1,65,165,40,1,thwup,stimuli/thwup.wav,invalid,0,,,stimuli,,,,,,,
,,,,,,,,,,,,,,,,,,,,,,,,,,Tom B,57,M,English,US,,2021-03-28_20h59.13.314,UG_Thesis_exp_1,2021.1.2,Win32,50.00250013,,,0,0.86604,1,66,166,87,1,tul,fillers/tul.wav,,42,,,filler,,,,,,,
,,,,,,,,,,,,,,,,,,,,,,,,,,Tom B,57,M,English,US,,2021-03-28_20h59.13.314,UG_Thesis_exp_1,2021.1.2,Win32,50.00250013,,,0,0.99946,1,67,167,31,1,fnet,stimuli/fnet.wav,invalid,2,3,,stimuli,,,,,,,
,,,,,,,,,,,,,,,,,,,,,,,,,,Tom B,57,M,English,US,,2021-03-28_20h59.13.314,UG_Thesis_exp_1,2021.1.2,Win32,50.00250013,,,1,1.07085,1,68,168,89,1,sulft,fillers/suft.wav,,15,,,filler,,,,,,,
,,,,,,,,,,,,,,,,,,,,,,,,,,Tom B,57,M,English,US,,2021-03-28_20h59.13.314,UG_Thesis_exp_1,2021.1.2,Win32,50.00250013,,,1,0.813565,1,69,169,52,1,dus,fillers/dus.wav,,58,,,filler,,,,,,,
,,,,,,,,,,,,,,,,,,,,,,,,,,Tom B,57,M,English,US,,2021-03-28_20h59.13.314,UG_Thesis_exp_1,2021.1.2,Win32,50.00250013,,,0,1.025655,1,70,170,14,1,vlerk,stimuli/vlerk.wav,invalid,2,14,,stimuli,,,,,,,
,,,,,,,,,,,,,,,,,,,,,,,,,,Tom B,57,M,English,US,,2021-03-28_20h59.13.314,UG_Thesis_exp_1,2021.1.2,Win32,50.00250013,,,0,1.11517,1,71,171,32,1,fkeep,stimuli/fkeep.wav,invalid,1,3,,stimuli,,,,,,,
,,,,,,,,,,,,,,,,,,,,,,,,,,Tom B,57,M,English,US,,2021-03-28_20h59.13.314,UG_Thesis_exp_1,2021.1.2,Win32,50.00250013,,,1,0.976425,1,72,172,56,1,rul,fillers/rul.wav,,42,,,filler,,,,,,,
,,,,,,,,,,,,,,,,,,,,,,,,,,Tom B,57,M,English,US,,2021-03-28_20h59.13.314,UG_Thesis_exp_1,2021.1.2,Win32,50.00250013,,,0,1.03046,1,73,173,48,1,jrun,stimuli/jrun.wav,invalid,4,11,,stimuli,,,,,,,
,,,,,,,,,,,,,,,,,,,,,,,,,,Tom B,57,M,English,US,,2021-03-28_20h59.13.314,UG_Thesis_exp_1,2021.1.2,Win32,50.00250013,,,1,0.848895,1,74,174,67,1,thith,fillers/thith.wav,,4,,,filler,,,,,,,
,,,,,,,,,,,,,,,,,,,,,,,,,,Tom B,57,M,English,US,,2021-03-28_20h59.13.314,UG_Thesis_exp_1,2021.1.2,Win32,50.00250013,,,0,1.010185,1,75,175,41,1,tweep,stimuli/tweep.wav,valid,0,,,stimuli,,,,,,,
,,,,,,,,,,,,,,,,,,,,,,,,,,Tom B,57,M,English,US,,2021-03-28_20h59.13.314,UG_Thesis_exp_1,2021.1.2,Win32,50.00250013,,,0,1.109685,1,76,176,23,1,shmat,stimuli/shmat.wav,valid,1,7,,stimuli,,,,,,,
,,,,,,,,,,,,,,,,,,,,,,,,,,Tom B,57,M,English,US,,2021-03-28_20h59.13.314,UG_Thesis_exp_1,2021.1.2,Win32,50.00250013,,,1,1.00764,1,77,177,62,1,pev,fillers/pev.wav,,15,,,filler,,,,,,,
,,,,,,,,,,,,,,,,,,,,,,,,,,Tom B,57,M,English,US,,2021-03-28_20h59.13.314,UG_Thesis_exp_1,2021.1.2,Win32,50.00250013,,,0,0.96986,1,78,178,9,1,spung,stimuli/spung.wav,valid,11,28,,stimuli,,,,,,,
,,,,,,,,,,,,,,,,,,,,,,,,,,Tom B,57,M,English,US,,2021-03-28_20h59.13.314,UG_Thesis_exp_1,2021.1.2,Win32,50.00250013,,,0,0.69411,1,79,179,90,1,tupt,fillers/tupt.wav,,11,,,filler,,,,,,,
,,,,,,,,,,,,,,,,,,,,,,,,,,Tom B,57,M,English,US,,2021-03-28_20h59.13.314,UG_Thesis_exp_1,2021.1.2,Win32,50.00250013,,,1,0.81578,1,80,180,7,1,frun,stimuli/frun.wav,valid,12,29,,stimuli,,,,,,,
,,,,,,,,,,,,,,,,,,,,,,,,,,Tom B,57,M,English,US,,2021-03-28_20h59.13.314,UG_Thesis_exp_1,2021.1.2,Win32,50.00250013,,,1,0.510465,1,81,181,3,1,grun,stimuli/grun.wav,valid,18,33,,stimuli,,,,,,,
,,,,,,,,,,,,,,,,,,,,,,,,,,Tom B,57,M,English,US,,2021-03-28_20h59.13.314,UG_Thesis_exp_1,2021.1.2,Win32,50.00250013,,,1,0.39047,1,82,182,72,1,jutch,fillers/jutch.wav,,10,,,filler,,,,,,,
,,,,,,,,,,,,,,,,,,,,,,,,,,Tom B,57,M,English,US,,2021-03-28_20h59.13.314,UG_Thesis_exp_1,2021.1.2,Win32,50.00250013,,,0,0.616005,1,83,183,8,1,snet,stimuli/snet.wav,valid,7,28,,stimuli,,,,,,,
,,,,,,,,,,,,,,,,,,,,,,,,,,Tom B,57,M,English,US,,2021-03-28_20h59.13.314,UG_Thesis_exp_1,2021.1.2,Win32,50.00250013,,,0,0.430355,1,84,184,54,1,sug,fillers/sug.wav,,29,,,filler,,,,,,,
,,,,,,,,,,,,,,,,,,,,,,,,,,Tom B,57,M,English,US,,2021-03-28_20h59.13.314,UG_Thesis_exp_1,2021.1.2,Win32,50.00250013,,,0,0.30972,1,85,185,13,1,srun,stimuli/srun.wav,invalid,9,14,,stimuli,,,,,,,
,,,,,,,,,,,,,,,,,,,,,,,,,,Tom B,57,M,English,US,,2021-03-28_20h59.13.314,UG_Thesis_exp_1,2021.1.2,Win32,50.00250013,,,0,0.55873,1,86,186,59,1,pum,fillers/pum.wav,,40,,,filler,,,,,,,
,,,,,,,,,,,,,,,,,,,,,,,,,,Tom B,57,M,English,US,,2021-03-28_20h59.13.314,UG_Thesis_exp_1,2021.1.2,Win32,50.00250013,,,0,0.489115,1,87,187,2,1,prun,stimuli/prun.wav,valid,11,32,,stimuli,,,,,,,
,,,,,,,,,,,,,,,,,,,,,,,,,,Tom B,57,M,English,US,,2021-03-28_20h59.13.314,UG_Thesis_exp_1,2021.1.2,Win32,50.00250013,,,1,1.09097,1,88,188,88,1,sudge,fillers/sudge.wav,,24,,,filler,,,,,,,
,,,,,,,,,,,,,,,,,,,,,,,,,,Tom B,57,M,English,US,,2021-03-28_20h59.13.314,UG_Thesis_exp_1,2021.1.2,Win32,50.00250013,,,1,0.566395,1,89,189,5,1,drung,stimuli/drung.wav,valid,7,31,,stimuli,,,,,,,
,,,,,,,,,,,,,,,,,,,,,,,,,,Tom B,57,M,English,US,,2021-03-28_20h59.13.314,UG_Thesis_exp_1,2021.1.2,Win32,50.00250013,,,0,0.61969,1,90,190,39,1,dwil,stimuli/dwil.wav,invalid,7,,,stimuli,,,,,,,
,,,,,,,,,,,,,,,,,,,,,,,,,,Tom B,57,M,English,US,,2021-03-28_20h59.13.314,UG_Thesis_exp_1,2021.1.2,Win32,50.00250013,,,0,1.49427,1,91,191,93,1,gomt,fillers/gomt.wav,,0,,,filler,,,,,,,
,,,,,,,,,,,,,,,,,,,,,,,,,,Tom B,57,M,English,US,,2021-03-28_20h59.13.314,UG_Thesis_exp_1,2021.1.2,Win32,50.00250013,,,1,1.126705,1,92,192,74,1,wudge,fillers/wudge.wav,,13,,,filler,,,,,,,
,,,,,,,,,,,,,,,,,,,,,,,,,,Tom B,57,M,English,US,,2021-03-28_20h59.13.314,UG_Thesis_exp_1,2021.1.2,Win32,50.00250013,,,1,0.78436,1,93,193,19,1,shnet,stimuli/shnet.wav,valid,2,10,,stimuli,,,,,,,
,,,,,,,,,,,,,,,,,,,,,,,,,,Tom B,57,M,English,US,,2021-03-28_20h59.13.314,UG_Thesis_exp_1,2021.1.2,Win32,50.00250013,,,0,1.00592,1,94,194,21,1,zrun,stimuli/zrun.wav,invalid,5,8,,stimuli,,,,,,,
,,,,,,,,,,,,,,,,,,,,,,,,,,Tom B,57,M,English,US,,2021-03-28_20h59.13.314,UG_Thesis_exp_1,2021.1.2,Win32,50.00250013,,,1,1.13128,1,95,195,15,1,mlung,stimuli/mlung.wav,invalid,4,13,,stimuli,,,,,,,
,,,,,,,,,,,,,,,,,,,,,,,,,,Tom B,57,M,English,US,,2021-03-28_20h59.13.314,UG_Thesis_exp_1,2021.1.2,Win32,50.00250013,,,1,0.51135,1,96,196,43,1,skeep,stimuli/skeep.wav,valid,2,20,,stimuli,,,,,,,
,,,,,,,,,,,,,,,,,,,,,,,,,,Tom B,57,M,English,US,,2021-03-28_20h59.13.314,UG_Thesis_exp_1,2021.1.2,Win32,50.00250013,,,0,0.53067,1,97,197,30,1,znaet,stimuli/znaet.wav,invalid,1,4,,stimuli,,,,,,,
,,,,,,,,,,,,,,,,,,,,,,,,,,Tom B,57,M,English,US,,2021-03-28_20h59.13.314,UG_Thesis_exp_1,2021.1.2,Win32,50.00250013,,,0,1.097585,1,98,198,20,1,ftin,stimuli/ftin.wav,invalid,2,10,,stimuli,,,,,,,
,,,,,,,,,,,,,,,,,,,,,,,,,,Tom B,57,M,English,US,,2021-03-28_20h59.13.314,UG_Thesis_exp_1,2021.1.2,Win32,50.00250013,,,1,1.06651,1,99,199,95,1,bimp,fillers/bimp.wav,,7,,,filler,,,,,,,
,,,,,,,,,,,,,,,,,,,,,,,,,,Tom B,57,M,English,US,,2021-03-28_20h59.13.314,UG_Thesis_exp_1,2021.1.2,Win32,50.00250013,,,1,1.91014,,,,,,mrung,stimuli/mrung.wav,invalid,1,27,,stimuli,space,4.12389,0,0,0,10,1
,,,,,,,,,,,,,,,,,,,,,,,,,,Tom B,57,M,English,US,,2021-03-28_20h59.13.314,UG_Thesis_exp_1,2021.1.2,Win32,50.00250013,,,1,0.51131,,,,,,znaet,stimuli/znaet.wav,invalid,1,4,,stimuli,,,0,1,1,30,1
,,,,,,,,,,,,,,,,,,,,,,,,,,Tom B,57,M,English,US,,2021-03-28_20h59.13.314,UG_Thesis_exp_1,2021.1.2,Win32,50.00250013,,,1,0.53061,,,,,,jpeyl,stimuli/jpeyl.wav,invalid,1,1,,stimuli,,,0,2,2,46,1
,,,,,,,,,,,,,,,,,,,,,,,,,,Tom B,57,M,English,US,,2021-03-28_20h59.13.314,UG_Thesis_exp_1,2021.1.2,Win32,50.00250013,,,0,0.326195,,,,,,chudge,fillers/chudge.wav,,10,,,filler,,,0,3,3,73,1
,,,,,,,,,,,,,,,,,,,,,,,,,,Tom B,57,M,English,US,,2021-03-28_20h59.13.314,UG_Thesis_exp_1,2021.1.2,Win32,50.00250013,,,0,0.2921,,,,,,malb,fillers/malb.wav,,2,,,filler,,,0,4,4,94,1
,,,,,,,,,,,,,,,,,,,,,,,,,,Tom B,57,M,English,US,,2021-03-28_20h59.13.314,UG_Thesis_exp_1,2021.1.2,Win32,50.00250013,,,0,0.81892,,,,,,thith,fillers/thith.wav,,4,,,filler,,,0,5,5,67,1
,,,,,,,,,,,,,,,,,,,,,,,,,,Tom B,57,M,English,US,,2021-03-28_20h59.13.314,UG_Thesis_exp_1,2021.1.2,Win32,50.00250013,,,0,0.77354,,,,,,jveel,stimuli/jveel.wav,invalid,1,0,,stimuli,,,0,6,6,49,1
,,,,,,,,,,,,,,,,,,,,,,,,,,Tom B,57,M,English,US,,2021-03-28_20h59.13.314,UG_Thesis_exp_1,2021.1.2,Win32,50.00250013,,,0,0.488675,,,,,,sherj,fillers/sherj.wav,,12,,,filler,,,0,7,7,64,1
,,,,,,,,,,,,,,,,,,,,,,,,,,Tom B,57,M,English,US,,2021-03-28_20h59.13.314,UG_Thesis_exp_1,2021.1.2,Win32,50.00250013,,,0,0.37019,,,,,,nrun,stimuli/nrun.wav,invalid,5,8,,stimuli,,,0,8,8,22,1
,,,,,,,,,,,,,,,,,,,,,,,,,,Tom B,57,M,English,US,,2021-03-28_20h59.13.314,UG_Thesis_exp_1,2021.1.2,Win32,50.00250013,,,1,0.950925,,,,,,vpeyl,stimuli/vpeyl.wav,invalid,2,0,,stimuli,,,0,9,9,38,1
,,,,,,,,,,,,,,,,,,,,,,,,,,Tom B,57,M,English,US,,2021-03-28_20h59.13.314,UG_Thesis_exp_1,2021.1.2,Win32,50.00250013,,,0,0.98506,,,,,,skeep,stimuli/skeep.wav,valid,2,20,,stimuli,,,0,10,10,43,1
,,,,,,,,,,,,,,,,,,,,,,,,,,Tom B,57,M,English,US,,2021-03-28_20h59.13.314,UG_Thesis_exp_1,2021.1.2,Win32,50.00250013,,,1,1.050925,,,,,,jun,fillers/jun.wav,,49,,,filler,,,0,11,11,51,1
,,,,,,,,,,,,,,,,,,,,,,,,,,Tom B,57,M,English,US,,2021-03-28_20h59.13.314,UG_Thesis_exp_1,2021.1.2,Win32,50.00250013,,,0,0.99057,,,,,,shtin,stimuli/shtin.wav,invalid,3,13,,stimuli,,,0,12,12,16,1
,,,,,,,,,,,,,,,,,,,,,,,,,,Tom B,57,M,English,US,,2021-03-28_20h59.13.314,UG_Thesis_exp_1,2021.1.2,Win32,50.00250013,,,1,0.477175,,,,,,gej,fillers/gej.wav,,7,,,filler,,,0,13,13,77,1
,,,,,,,,,,,,,,,,,,,,,,,,,,Tom B,57,M,English,US,,2021-03-28_20h59.13.314,UG_Thesis_exp_1,2021.1.2,Win32,50.00250013,,,1,0.519935,,,,,,jerp,fillers/jerp.wav,,7,,,filler,,,0,14,14,69,1
,,,,,,,,,,,,,,,,,,,,,,,,,,Tom B,57,M,English,US,,2021-03-28_20h59.13.314,UG_Thesis_exp_1,2021.1.2,Win32,50.00250013,,,1,0.31119,,,,,,chaith,fillers/chaith.wav,,5,,,filler,,,0,15,15,79,1
,,,,,,,,,,,,,,,,,,,,,,,,,,Tom B,57,M,English,US,,2021-03-28_20h59.13.314,UG_Thesis_exp_1,2021.1.2,Win32,50.00250013,,,0,0.394675,,,,,,thudge,fillers/thudge.wav,,7,,,filler,,,0,16,16,71,1
,,,,,,,,,,,,,,,,,,,,,,,,,,Tom B,57,M,English,US,,2021-03-28_20h59.13.314,UG_Thesis_exp_1,2021.1.2,Win32,50.00250013,,,1,0.313955,,,,,,lus,fillers/lus.wav,,49,,,filler,,,0,17,17,85,1
,,,,,,,,,,,,,,,,,,,,,,,,,,Tom B,57,M,English,US,,2021-03-28_20h59.13.314,UG_Thesis_exp_1,2021.1.2,Win32,50.00250013,,,1,0.385335,,,,,,ztin,stimuli/ztin.wav,invalid,1,6,,stimuli,,,0,18,18,26,1
,,,,,,,,,,,,,,,,,,,,,,,,,,Tom B,57,M,English,US,,2021-03-28_20h59.13.314,UG_Thesis_exp_1,2021.1.2,Win32,50.00250013,,,0,0.186415,,,,,,tupt,fillers/tupt.wav,,11,,,filler,,,0,19,19,90,1
,,,,,,,,,,,,,,,,,,,,,,,,,,Tom B,57,M,English,US,,2021-03-28_20h59.13.314,UG_Thesis_exp_1,2021.1.2,Win32,50.00250013,,,0,0.15046,,,,,,shlerk,stimuli/shlerk.wav,invalid,4,22,,stimuli,,,0,20,20,11,1
,,,,,,,,,,,,,,,,,,,,,,,,,,Tom B,57,M,English,US,,2021-03-28_20h59.13.314,UG_Thesis_exp_1,2021.1.2,Win32,50.00250013,,,0,1.287205,,,,,,fkeep,stimuli/fkeep.wav,invalid,1,3,,stimuli,,,0,21,21,32,1
,,,,,,,,,,,,,,,,,,,,,,,,,,Tom B,57,M,English,US,,2021-03-28_20h59.13.314,UG_Thesis_exp_1,2021.1.2,Win32,50.00250013,,,0,0.871695,,,,,,shkeep,stimuli/shkeep.wav,invalid,15,1,,stimuli,,,0,22,22,45,1
,,,,,,,,,,,,,,,,,,,,,,,,,,Tom B,57,M,English,US,,2021-03-28_20h59.13.314,UG_Thesis_exp_1,2021.1.2,Win32,50.00250013,,,1,0.86589,,,,,,zrun,stimuli/zrun.wav,invalid,5,8,,stimuli,,,0,23,23,21,1
,,,,,,,,,,,,,,,,,,,,,,,,,,Tom B,57,M,English,US,,2021-03-28_20h59.13.314,UG_Thesis_exp_1,2021.1.2,Win32,50.00250013,,,1,0.947515,,,,,,bupt,fillers/bupt.wav,,10,,,filler,,,0,24,24,91,1
,,,,,,,,,,,,,,,,,,,,,,,,,,Tom B,57,M,English,US,,2021-03-28_20h59.13.314,UG_Thesis_exp_1,2021.1.2,Win32,50.00250013,,,1,0.668125,,,,,,hais,fillers/hais.wav,,11,,,filler,,,0,25,25,66,1
,,,,,,,,,,,,,,,,,,,,,,,,,,Tom B,57,M,English,US,,2021-03-28_20h59.13.314,UG_Thesis_exp_1,2021.1.2,Win32,50.00250013,,,1,0.331255,,,,,,fpeyl,stimuli/fpeyl.wav,invalid,4,13,,stimuli,,,0,26,26,17,1
,,,,,,,,,,,,,,,,,,,,,,,,,,Tom B,57,M,English,US,,2021-03-28_20h59.13.314,UG_Thesis_exp_1,2021.1.2,Win32,50.00250013,,,0,0.84655,,,,,,prun,stimuli/prun.wav,valid,11,32,,stimuli,,,0,27,27,2,1
,,,,,,,,,,,,,,,,,,,,,,,,,,Tom B,57,M,English,US,,2021-03-28_20h59.13.314,UG_Thesis_exp_1,2021.1.2,Win32,50.00250013,,,0,0.930695,,,,,,tweep,stimuli/tweep.wav,valid,0,,,stimuli,,,0,28,28,41,1
,,,,,,,,,,,,,,,,,,,,,,,,,,Tom B,57,M,English,US,,2021-03-28_20h59.13.314,UG_Thesis_exp_1,2021.1.2,Win32,50.00250013,,,1,0.74668,,,,,,suf,fillers/suf.wav,,33,,,filler,,,0,29,29,86,1
,,,,,,,,,,,,,,,,,,,,,,,,,,Tom B,57,M,English,US,,2021-03-28_20h59.13.314,UG_Thesis_exp_1,2021.1.2,Win32,50.00250013,,,1,0.73247,,,,,,chutch,fillers/chutch.wav,,12,,,filler,,,0,30,30,75,1
,,,,,,,,,,,,,,,,,,,,,,,,,,Tom B,57,M,English,US,,2021-03-28_20h59.13.314,UG_Thesis_exp_1,2021.1.2,Win32,50.00250013,,,1,0.42968,,,,,,frun,stimuli/frun.wav,valid,12,29,,stimuli,,,0,31,31,7,1
,,,,,,,,,,,,,,,,,,,,,,,,,,Tom B,57,M,English,US,,2021-03-28_20h59.13.314,UG_Thesis_exp_1,2021.1.2,Win32,50.00250013,,,1,0.67654,,,,,,vlerk,stimuli/vlerk.wav,invalid,2,14,,stimuli,,,0,32,32,14,1
,,,,,,,,,,,,,,,,,,,,,,,,,,Tom B,57,M,English,US,,2021-03-28_20h59.13.314,UG_Thesis_exp_1,2021.1.2,Win32,50.00250013,,,0,1.1464,,,,,,mlung,stimuli/mlung.wav,invalid,4,13,,stimuli,,,0,33,33,15,1
,,,,,,,,,,,,,,,,,,,,,,,,,,Tom B,57,M,English,US,,2021-03-28_20h59.13.314,UG_Thesis_exp_1,2021.1.2,Win32,50.00250013,,,1,1.010075,,,,,,keb,fillers/keb.wav,,16,,,filler,,,0,34,34,65,1
,,,,,,,,,,,,,,,,,,,,,,,,,,Tom B,57,M,English,US,,2021-03-28_20h59.13.314,UG_Thesis_exp_1,2021.1.2,Win32,50.00250013,,,1,1.16276,,,,,,sug,fillers/sug.wav,,29,,,filler,,,0,35,35,54,1
,,,,,,,,,,,,,,,,,,,,,,,,,,Tom B,57,M,English,US,,2021-03-28_20h59.13.314,UG_Thesis_exp_1,2021.1.2,Win32,50.00250013,,,1,1.836575,,,,,,snet,stimuli/snet.wav,valid,7,28,,stimuli,,,0,36,36,8,1
,,,,,,,,,,,,,,,,,,,,,,,,,,Tom B,57,M,English,US,,2021-03-28_20h59.13.314,UG_Thesis_exp_1,2021.1.2,Win32,50.00250013,,,1,0.79202,,,,,,dus,fillers/dus.wav,,58,,,filler,,,0,37,37,52,1
,,,,,,,,,,,,,,,,,,,,,,,,,,Tom B,57,M,English,US,,2021-03-28_20h59.13.314,UG_Thesis_exp_1,2021.1.2,Win32,50.00250013,,,1,1.47095,,,,,,vzut,stimuli/vzut.wav,invalid,1,6,,stimuli,,,0,38,38,28,1
,,,,,,,,,,,,,,,,,,,,,,,,,,Tom B,57,M,English,US,,2021-03-28_20h59.13.314,UG_Thesis_exp_1,2021.1.2,Win32,50.00250013,,,1,0.906235,,,,,,tul,fillers/tul.wav,,42,,,filler,,,0,39,39,87,1
,,,,,,,,,,,,,,,,,,,,,,,,,,Tom B,57,M,English,US,,2021-03-28_20h59.13.314,UG_Thesis_exp_1,2021.1.2,Win32,50.00250013,,,1,0.81642,,,,,,hus,fillers/hus.wav,,46,,,filler,,,0,40,40,50,1
,,,,,,,,,,,,,,,,,,,,,,,,,,Tom B,57,M,English,US,,2021-03-28_20h59.13.314,UG_Thesis_exp_1,2021.1.2,Win32,50.00250013,,,1,0.94695,,,,,,sud,fillers/sud.wav,,40,,,filler,,,0,41,41,57,1
,,,,,,,,,,,,,,,,,,,,,,,,,,Tom B,57,M,English,US,,2021-03-28_20h59.13.314,UG_Thesis_exp_1,2021.1.2,Win32,50.00250013,,,1,0.912095,,,,,,shemp,fillers/shemp.wav,,3,,,filler,,,0,42,42,99,1
,,,,,,,,,,,,,,,,,,,,,,,,,,Tom B,57,M,English,US,,2021-03-28_20h59.13.314,UG_Thesis_exp_1,2021.1.2,Win32,50.00250013,,,0,0.832905,,,,,,fship,stimuli/fship.wav,invalid,2,11,,stimuli,,,0,43,43,18,1
,,,,,,,,,,,,,,,,,,,,,,,,,,Tom B,57,M,English,US,,2021-03-28_20h59.13.314,UG_Thesis_exp_1,2021.1.2,Win32,50.00250013,,,1,0.8082,,,,,,jutch,fillers/jutch.wav,,10,,,filler,,,0,44,44,72,1
,,,,,,,,,,,,,,,,,,,,,,,,,,Tom B,57,M,English,US,,2021-03-28_20h59.13.314,UG_Thesis_exp_1,2021.1.2,Win32,50.00250013,,,0,0.97557,,,,,,sfeed,stimuli/sfeed.wav,valid,7,7,,stimuli,,,0,45,45,24,1
,,,,,,,,,,,,,,,,,,,,,,,,,,Tom B,57,M,English,US,,2021-03-28_20h59.13.314,UG_Thesis_exp_1,2021.1.2,Win32,50.00250013,,,1,0.91294,,,,,,mub,fillers/mub.wav,,26,,,filler,,,0,46,46,81,1
,,,,,,,,,,,,,,,,,,,,,,,,,,Tom B,57,M,English,US,,2021-03-28_20h59.13.314,UG_Thesis_exp_1,2021.1.2,Win32,50.00250013,,,1,0.675615,,,,,,purgd,fillers/purgd.wav,,3,,,filler,,,0,47,47,92,1
,,,,,,,,,,,,,,,,,,,,,,,,,,Tom B,57,M,English,US,,2021-03-28_20h59.13.314,UG_Thesis_exp_1,2021.1.2,Win32,50.00250013,,,1,0.706055,,,,,,pev,fillers/pev.wav,,15,,,filler,,,0,48,48,62,1
,,,,,,,,,,,,,,,,,,,,,,,,,,Tom B,57,M,English,US,,2021-03-28_20h59.13.314,UG_Thesis_exp_1,2021.1.2,Win32,50.00250013,,,0,1.034725,,,,,,vtin,stimuli/vtin.wav,invalid,2,3,,stimuli,,,0,49,49,33,1
,,,,,,,,,,,,,,,,,,,,,,,,,,Tom B,57,M,English,US,,2021-03-28_20h59.13.314,UG_Thesis_exp_1,2021.1.2,Win32,50.00250013,,,1,1.066825,,,,,,glung,stimuli/glung.wav,valid,9,27,,stimuli,,,0,50,50,47,1
,,,,,,,,,,,,,,,,,,,,,,,,,,Tom B,57,M,English,US,,2021-03-28_20h59.13.314,UG_Thesis_exp_1,2021.1.2,Win32,50.00250013,,,1,0.929575,,,,,,wudge,fillers/wudge.wav,,13,,,filler,,,0,51,51,74,1
,,,,,,,,,,,,,,,,,,,,,,,,,,Tom B,57,M,English,US,,2021-03-28_20h59.13.314,UG_Thesis_exp_1,2021.1.2,Win32,50.00250013,,,0,1.190445,,,,,,thuv,fillers/thuv.wav,,9,,,filler,,,0,52,52,76,1
,,,,,,,,,,,,,,,,,,,,,,,,,,Tom B,57,M,English,US,,2021-03-28_20h59.13.314,UG_Thesis_exp_1,2021.1.2,Win32,50.00250013,,,0,0.871855,,,,,,drung,stimuli/drung.wav,valid,7,31,,stimuli,,,0,53,53,5,1
,,,,,,,,,,,,,,,,,,,,,,,,,,Tom B,57,M,English,US,,2021-03-28_20h59.13.314,UG_Thesis_exp_1,2021.1.2,Win32,50.00250013,,,1,0.93326,,,,,,gomt,fillers/gomt.wav,,0,,,filler,,,0,54,54,93,1
,,,,,,,,,,,,,,,,,,,,,,,,,,Tom B,57,M,English,US,,2021-03-28_20h59.13.314,UG_Thesis_exp_1,2021.1.2,Win32,50.00250013,,,1,1.09079,,,,,,lun,fillers/lun.wav,,70,,,filler,,,0,55,55,58,1
,,,,,,,,,,,,,,,,,,,,,,,,,,Tom B,57,M,English,US,,2021-03-28_20h59.13.314,UG_Thesis_exp_1,2021.1.2,Win32,50.00250013,,,0,0.79095,,,,,,jrun,stimuli/jrun.wav,invalid,4,11,,stimuli,,,0,56,56,48,1
,,,,,,,,,,,,,,,,,,,,,,,,,,Tom B,57,M,English,US,,2021-03-28_20h59.13.314,UG_Thesis_exp_1,2021.1.2,Win32,50.00250013,,,0,1.30925,,,,,,spung,stimuli/spung.wav,valid,11,28,,stimuli,,,0,57,57,9,1
,,,,,,,,,,,,,,,,,,,,,,,,,,Tom B,57,M,English,US,,2021-03-28_20h59.13.314,UG_Thesis_exp_1,2021.1.2,Win32,50.00250013,,,0,0.951195,,,,,,shmat,stimuli/shmat.wav,valid,1,7,,stimuli,,,0,58,58,23,1
,,,,,,,,,,,,,,,,,,,,,,,,,,Tom B,57,M,English,US,,2021-03-28_20h59.13.314,UG_Thesis_exp_1,2021.1.2,Win32,50.00250013,,,0,0.99516,,,,,,fset,stimuli/fset.wav,invalid,4,6,,stimuli,,,0,59,59,27,1
,,,,,,,,,,,,,,,,,,,,,,,,,,Tom B,57,M,English,US,,2021-03-28_20h59.13.314,UG_Thesis_exp_1,2021.1.2,Win32,50.00250013,,,0,1.23026,,,,,,dwil,stimuli/dwil.wav,invalid,7,,,stimuli,,,0,60,60,39,1
,,,,,,,,,,,,,,,,,,,,,,,,,,Tom B,57,M,English,US,,2021-03-28_20h59.13.314,UG_Thesis_exp_1,2021.1.2,Win32,50.00250013,,,1,0.85061,,,,,,gaith,fillers/gaith.wav,,9,,,filler,,,0,61,61,80,1
,,,,,,,,,,,,,,,,,,,,,,,,,,Tom B,57,M,English,US,,2021-03-28_20h59.13.314,UG_Thesis_exp_1,2021.1.2,Win32,50.00250013,,,0,1.310895,,,,,,shfeed,stimuli/shfeed.wav,invalid,1,5,,stimuli,,,0,62,62,29,1
,,,,,,,,,,,,,,,,,,,,,,,,,,Tom B,57,M,English,US,,2021-03-28_20h59.13.314,UG_Thesis_exp_1,2021.1.2,Win32,50.00250013,,,0,1.026205,,,,,,suz,fillers/suz.wav,,37,,,filler,,,0,63,63,53,1
,,,,,,,,,,,,,,,,,,,,,,,,,,Tom B,57,M,English,US,,2021-03-28_20h59.13.314,UG_Thesis_exp_1,2021.1.2,Win32,50.00250013,,,0,1.126795,,,,,,jalp,fillers/jalp.wav,,1,,,filler,,,0,64,64,97,1
,,,,,,,,,,,,,,,,,,,,,,,,,,Tom B,57,M,English,US,,2021-03-28_20h59.13.314,UG_Thesis_exp_1,2021.1.2,Win32,50.00250013,,,0,0.9104,,,,,,shpeyl,stimuli/shpeyl.wav,invalid,2,2,,stimuli,,,0,65,65,36,1
,,,,,,,,,,,,,,,,,,,,,,,,,,Tom B,57,M,English,US,,2021-03-28_20h59.13.314,UG_Thesis_exp_1,2021.1.2,Win32,50.00250013,,,1,0.834655,,,,,,bip,fillers/bip.wav,,37,,,filler,,,0,66,66,83,1
,,,,,,,,,,,,,,,,,,,,,,,,,,Tom B,57,M,English,US,,2021-03-28_20h59.13.314,UG_Thesis_exp_1,2021.1.2,Win32,50.00250013,,,1,1.313525,,,,,,vnet,stimuli/vnet.wav,invalid,2,1,,stimuli,,,0,67,67,44,1
,,,,,,,,,,,,,,,,,,,,,,,,,,Tom B,57,M,English,US,,2021-03-28_20h59.13.314,UG_Thesis_exp_1,2021.1.2,Win32,50.00250013,,,1,0.82766,,,,,,sulft,fillers/suft.wav,,15,,,filler,,,0,68,68,89,1
,,,,,,,,,,,,,,,,,,,,,,,,,,Tom B,57,M,English,US,,2021-03-28_20h59.13.314,UG_Thesis_exp_1,2021.1.2,Win32,50.00250013,,,1,1.08674,,,,,,ras,fillers/ras.wav,,52,,,filler,,,0,69,69,84,1
,,,,,,,,,,,,,,,,,,,,,,,,,,Tom B,57,M,English,US,,2021-03-28_20h59.13.314,UG_Thesis_exp_1,2021.1.2,Win32,50.00250013,,,1,0.95526,,,,,,fawnk,fillers/fawnk.wav,,4,,,filler,,,0,70,70,98,1
,,,,,,,,,,,,,,,,,,,,,,,,,,Tom B,57,M,English,US,,2021-03-28_20h59.13.314,UG_Thesis_exp_1,2021.1.2,Win32,50.00250013,,,0,1.09114,,,,,,thwup,stimuli/thwup.wav,invalid,0,,,stimuli,,,0,71,71,40,1
,,,,,,,,,,,,,,,,,,,,,,,,,,Tom B,57,M,English,US,,2021-03-28_20h59.13.314,UG_Thesis_exp_1,2021.1.2,Win32,50.00250013,,,1,1.05259,,,,,,thwaet,stimuli/thwaet.wav,invalid,1,,,stimuli,,,0,72,72,42,1
,,,,,,,,,,,,,,,,,,,,,,,,,,Tom B,57,M,English,US,,2021-03-28_20h59.13.314,UG_Thesis_exp_1,2021.1.2,Win32,50.00250013,,,0,1.744915,,,,,,ftin,stimuli/ftin.wav,invalid,2,10,,stimuli,,,0,73,73,20,1
,,,,,,,,,,,,,,,,,,,,,,,,,,Tom B,57,M,English,US,,2021-03-28_20h59.13.314,UG_Thesis_exp_1,2021.1.2,Win32,50.00250013,,,0,1.010595,,,,,,rul,fillers/rul.wav,,42,,,filler,,,0,74,74,56,1
,,,,,,,,,,,,,,,,,,,,,,,,,,Tom B,57,M,English,US,,2021-03-28_20h59.13.314,UG_Thesis_exp_1,2021.1.2,Win32,50.00250013,,,0,0.966535,,,,,,jaith,fillers/jaith.wav,,7,,,filler,,,0,75,75,78,1
,,,,,,,,,,,,,,,,,,,,,,,,,,Tom B,57,M,English,US,,2021-03-28_20h59.13.314,UG_Thesis_exp_1,2021.1.2,Win32,50.00250013,,,0,1.33025,,,,,,fnet,stimuli/fnet.wav,invalid,2,3,,stimuli,,,0,76,76,31,1
,,,,,,,,,,,,,,,,,,,,,,,,,,Tom B,57,M,English,US,,2021-03-28_20h59.13.314,UG_Thesis_exp_1,2021.1.2,Win32,50.00250013,,,1,1.10497,,,,,,gurg,fillers/gurg.wav,,9,,,filler,,,0,77,77,68,1
,,,,,,,,,,,,,,,,,,,,,,,,,,Tom B,57,M,English,US,,2021-03-28_20h59.13.314,UG_Thesis_exp_1,2021.1.2,Win32,50.00250013,,,0,1.05792,,,,,,srun,stimuli/srun.wav,invalid,9,14,,stimuli,,,0,78,78,13,1
,,,,,,,,,,,,,,,,,,,,,,,,,,Tom B,57,M,English,US,,2021-03-28_20h59.13.314,UG_Thesis_exp_1,2021.1.2,Win32,50.00250013,,,0,1.070225,,,,,,trun,stimuli/trun.wav,valid,12,31,,stimuli,,,0,79,79,6,1
,,,,,,,,,,,,,,,,,,,,,,,,,,Tom B,57,M,English,US,,2021-03-28_20h59.13.314,UG_Thesis_exp_1,2021.1.2,Win32,50.00250013,,,0,1.026405,,,,,,suv,fillers/suv.wav,,25,,,filler,,,0,80,80,55,1
,,,,,,,,,,,,,,,,,,,,,,,,,,Tom B,57,M,English,US,,2021-03-28_20h59.13.314,UG_Thesis_exp_1,2021.1.2,Win32,50.00250013,,,1,0.610825,,,,,,stin,stimuli/stin.wav,valid,18,33,,stimuli,,,0,81,81,0,1
,,,,,,,,,,,,,,,,,,,,,,,,,,Tom B,57,M,English,US,,2021-03-28_20h59.13.314,UG_Thesis_exp_1,2021.1.2,Win32,50.00250013,,,0,0.95436,,,,,,zlerk,stimuli/zlerk.wav,invalid,2,6,,stimuli,,,0,82,82,25,1
,,,,,,,,,,,,,,,,,,,,,,,,,,Tom B,57,M,English,US,,2021-03-28_20h59.13.314,UG_Thesis_exp_1,2021.1.2,Win32,50.00250013,,,0,1.25179,,,,,,fmaet,stimuli/fmaet.wav,invalid,4,2,,stimuli,,,0,83,83,35,1
,,,,,,,,,,,,,,,,,,,,,,,,,,Tom B,57,M,English,US,,2021-03-28_20h59.13.314,UG_Thesis_exp_1,2021.1.2,Win32,50.00250013,,,1,0.99122,,,,,,juf,fillers/juf.wav,,19,,,filler,,,0,84,84,60,1
,,,,,,,,,,,,,,,,,,,,,,,,,,Tom B,57,M,English,US,,2021-03-28_20h59.13.314,UG_Thesis_exp_1,2021.1.2,Win32,50.00250013,,,0,1.27048,,,,,,sudge,fillers/sudge.wav,,24,,,filler,,,0,85,85,88,1
,,,,,,,,,,,,,,,,,,,,,,,,,,Tom B,57,M,English,US,,2021-03-28_20h59.13.314,UG_Thesis_exp_1,2021.1.2,Win32,50.00250013,,,0,1.04668,,,,,,chulp,fillers/chulp.wav,,4,,,filler,,,0,86,86,96,1
,,,,,,,,,,,,,,,,,,,,,,,,,,Tom B,57,M,English,US,,2021-03-28_20h59.13.314,UG_Thesis_exp_1,2021.1.2,Win32,50.00250013,,,0,1.01052,,,,,,zveel,stimuli/zveel.wav,invalid,2,3,,stimuli,,,0,87,87,34,1
,,,,,,,,,,,,,,,,,,,,,,,,,,Tom B,57,M,English,US,,2021-03-28_20h59.13.314,UG_Thesis_exp_1,2021.1.2,Win32,50.00250013,,,0,0.984885,,,,,,vrun,stimuli/vrun.wav,invalid,4,19,,stimuli,,,0,88,88,12,1
,,,,,,,,,,,,,,,,,,,,,,,,,,Tom B,57,M,English,US,,2021-03-28_20h59.13.314,UG_Thesis_exp_1,2021.1.2,Win32,50.00250013,,,0,0.9856,,,,,,zkeep,stimuli/zkeep.wav,invalid,1,0,,stimuli,,,0,89,89,37,1
,,,,,,,,,,,,,,,,,,,,,,,,,,Tom B,57,M,English,US,,2021-03-28_20h59.13.314,UG_Thesis_exp_1,2021.1.2,Win32,50.00250013,,,0,1.196005,,,,,,shnet,stimuli/shnet.wav,valid,2,10,,stimuli,,,0,90,90,19,1
,,,,,,,,,,,,,,,,,,,,,,,,,,Tom B,57,M,English,US,,2021-03-28_20h59.13.314,UG_Thesis_exp_1,2021.1.2,Win32,50.00250013,,,1,1.31224,,,,,,pab,fillers/pab.wav,,29,,,filler,,,0,91,91,82,1
,,,,,,,,,,,,,,,,,,,,,,,,,,Tom B,57,M,English,US,,2021-03-28_20h59.13.314,UG_Thesis_exp_1,2021.1.2,Win32,50.00250013,,,1,1.15332,,,,,,smaet,stimuli/smaet.wav,valid,13,32,,stimuli,,,0,92,92,1,1
,,,,,,,,,,,,,,,,,,,,,,,,,,Tom B,57,M,English,US,,2021-03-28_20h59.13.314,UG_Thesis_exp_1,2021.1.2,Win32,50.00250013,,,1,1.050895,,,,,,grun,stimuli/grun.wav,valid,18,33,,stimuli,,,0,93,93,3,1
,,,,,,,,,,,,,,,,,,,,,,,,,,Tom B,57,M,English,US,,2021-03-28_20h59.13.314,UG_Thesis_exp_1,2021.1.2,Win32,50.00250013,,,1,1.03729,,,,,,shirj,fillers/shirj.wav,,12,,,filler,,,0,94,94,70,1
,,,,,,,,,,,,,,,,,,,,,,,,,,Tom B,57,M,English,US,,2021-03-28_20h59.13.314,UG_Thesis_exp_1,2021.1.2,Win32,50.00250013,,,0,1.04519,,,,,,bimp,fillers/bimp.wav,,7,,,filler,,,0,95,95,95,1
,,,,,,,,,,,,,,,,,,,,,,,,,,Tom B,57,M,English,US,,2021-03-28_20h59.13.314,UG_Thesis_exp_1,2021.1.2,Win32,50.00250013,,,1,1.0589,,,,,,pum,fillers/pum.wav,,40,,,filler,,,0,96,96,59,1
,,,,,,,,,,,,,,,,,,,,,,,,,,Tom B,57,M,English,US,,2021-03-28_20h59.13.314,UG_Thesis_exp_1,2021.1.2,Win32,50.00250013,,,1,1.025905,,,,,,flerk,stimuli/flerk.wav,valid,11,31,,stimuli,,,0,97,97,4,1
,,,,,,,,,,,,,,,,,,,,,,,,,,Tom B,57,M,English,US,,2021-03-28_20h59.13.314,UG_Thesis_exp_1,2021.1.2,Win32,50.00250013,,,1,1.050375,,,,,,peb,fillers/peb.wav,,14,,,filler,,,0,98,98,63,1
,,,,,,,,,,,,,,,,,,,,,,,,,,Tom B,57,M,English,US,,2021-03-28_20h59.13.314,UG_Thesis_exp_1,2021.1.2,Win32,50.00250013,,,1,0.993955,,,,,,wutch,fillers/wutch.wav,,17,,,filler,,,0,99,99,61,1
,,,,,,,,,,,,,,,,,,,,,,,,,,Tom B,57,M,English,US,,2021-03-28_20h59.13.314,UG_Thesis_exp_1,2021.1.2,Win32,50.00250013,,,0,1.45271,,,,,,gej,fillers/gej.wav,,7,,,filler,,,1,0,100,77,1
,,,,,,,,,,,,,,,,,,,,,,,,,,Tom B,57,M,English,US,,2021-03-28_20h59.13.314,UG_Thesis_exp_1,2021.1.2,Win32,50.00250013,,,0,0.913685,,,,,,shnet,stimuli/shnet.wav,valid,2,10,,stimuli,,,1,1,101,19,1
,,,,,,,,,,,,,,,,,,,,,,,,,,Tom B,57,M,English,US,,2021-03-28_20h59.13.314,UG_Thesis_exp_1,2021.1.2,Win32,50.00250013,,,0,0.83105,,,,,,znaet,stimuli/znaet.wav,invalid,1,4,,stimuli,,,1,2,102,30,1
,,,,,,,,,,,,,,,,,,,,,,,,,,Tom B,57,M,English,US,,2021-03-28_20h59.13.314,UG_Thesis_exp_1,2021.1.2,Win32,50.00250013,,,1,1.09711,,,,,,pab,fillers/pab.wav,,29,,,filler,,,1,3,103,82,1
,,,,,,,,,,,,,,,,,,,,,,,,,,Tom B,57,M,English,US,,2021-03-28_20h59.13.314,UG_Thesis_exp_1,2021.1.2,Win32,50.00250013,,,0,0.915565,,,,,,sfeed,stimuli/sfeed.wav,valid,7,7,,stimuli,,,1,4,104,24,1
,,,,,,,,,,,,,,,,,,,,,,,,,,Tom B,57,M,English,US,,2021-03-28_20h59.13.314,UG_Thesis_exp_1,2021.1.2,Win32,50.00250013,,,0,0.82529,,,,,,fkeep,stimuli/fkeep.wav,invalid,1,3,,stimuli,,,1,5,105,32,1
,,,,,,,,,,,,,,,,,,,,,,,,,,Tom B,57,M,English,US,,2021-03-28_20h59.13.314,UG_Thesis_exp_1,2021.1.2,Win32,50.00250013,,,1,1.03692,,,,,,stin,stimuli/stin.wav,valid,18,33,,stimuli,,,1,6,106,0,1
,,,,,,,,,,,,,,,,,,,,,,,,,,Tom B,57,M,English,US,,2021-03-28_20h59.13.314,UG_Thesis_exp_1,2021.1.2,Win32,50.00250013,,,1,0.813615,,,,,,hais,fillers/hais.wav,,11,,,filler,,,1,7,107,66,1
,,,,,,,,,,,,,,,,,,,,,,,,,,Tom B,57,M,English,US,,2021-03-28_20h59.13.314,UG_Thesis_exp_1,2021.1.2,Win32,50.00250013,,,0,0.895335,,,,,,jveel,stimuli/jveel.wav,invalid,1,0,,stimuli,,,1,8,108,49,1
,,,,,,,,,,,,,,,,,,,,,,,,,,Tom B,57,M,English,US,,2021-03-28_20h59.13.314,UG_Thesis_exp_1,2021.1.2,Win32,50.00250013,,,0,0.84663,,,,,,fpeyl,stimuli/fpeyl.wav,invalid,4,13,,stimuli,,,1,9,109,17,1
,,,,,,,,,,,,,,,,,,,,,,,,,,Tom B,57,M,English,US,,2021-03-28_20h59.13.314,UG_Thesis_exp_1,2021.1.2,Win32,50.00250013,,,1,0.936295,,,,,,mrung,stimuli/mrung.wav,invalid,1,27,,stimuli,,,1,10,110,10,1
,,,,,,,,,,,,,,,,,,,,,,,,,,Tom B,57,M,English,US,,2021-03-28_20h59.13.314,UG_Thesis_exp_1,2021.1.2,Win32,50.00250013,,,0,0.626565,,,,,,chutch,fillers/chutch.wav,,12,,,filler,,,1,11,111,75,1
,,,,,,,,,,,,,,,,,,,,,,,,,,Tom B,57,M,English,US,,2021-03-28_20h59.13.314,UG_Thesis_exp_1,2021.1.2,Win32,50.00250013,,,1,0.46361,,,,,,chulp,fillers/chulp.wav,,4,,,filler,,,1,12,112,96,1
,,,,,,,,,,,,,,,,,,,,,,,,,,Tom B,57,M,English,US,,2021-03-28_20h59.13.314,UG_Thesis_exp_1,2021.1.2,Win32,50.00250013,,,1,0.7465,,,,,,lus,fillers/lus.wav,,49,,,filler,,,1,13,113,85,1
,,,,,,,,,,,,,,,,,,,,,,,,,,Tom B,57,M,English,US,,2021-03-28_20h59.13.314,UG_Thesis_exp_1,2021.1.2,Win32,50.00250013,,,0,1.05066,,,,,,vlerk,stimuli/vlerk.wav,invalid,2,14,,stimuli,,,1,14,114,14,1
,,,,,,,,,,,,,,,,,,,,,,,,,,Tom B,57,M,English,US,,2021-03-28_20h59.13.314,UG_Thesis_exp_1,2021.1.2,Win32,50.00250013,,,1,0.94499,,,,,,chudge,fillers/chudge.wav,,10,,,filler,,,1,15,115,73,1
,,,,,,,,,,,,,,,,,,,,,,,,,,Tom B,57,M,English,US,,2021-03-28_20h59.13.314,UG_Thesis_exp_1,2021.1.2,Win32,50.00250013,,,0,1.010535,,,,,,drung,stimuli/drung.wav,valid,7,31,,stimuli,,,1,16,116,5,1
,,,,,,,,,,,,,,,,,,,,,,,,,,Tom B,57,M,English,US,,2021-03-28_20h59.13.314,UG_Thesis_exp_1,2021.1.2,Win32,50.00250013,,,1,1.286945,,,,,,suv,fillers/suv.wav,,25,,,filler,,,1,17,117,55,1
,,,,,,,,,,,,,,,,,,,,,,,,,,Tom B,57,M,English,US,,2021-03-28_20h59.13.314,UG_Thesis_exp_1,2021.1.2,Win32,50.00250013,,,1,1.0851,,,,,,shirj,fillers/shirj.wav,,12,,,filler,,,1,18,118,70,1
,,,,,,,,,,,,,,,,,,,,,,,,,,Tom B,57,M,English,US,,2021-03-28_20h59.13.314,UG_Thesis_exp_1,2021.1.2,Win32,50.00250013,,,0,0.90586,,,,,,ztin,stimuli/ztin.wav,invalid,1,6,,stimuli,,,1,19,119,26,1
,,,,,,,,,,,,,,,,,,,,,,,,,,Tom B,57,M,English,US,,2021-03-28_20h59.13.314,UG_Thesis_exp_1,2021.1.2,Win32,50.00250013,,,1,0.872875,,,,,,jalp,fillers/jalp.wav,,1,,,filler,,,1,20,120,97,1
,,,,,,,,,,,,,,,,,,,,,,,,,,Tom B,57,M,English,US,,2021-03-28_20h59.13.314,UG_Thesis_exp_1,2021.1.2,Win32,50.00250013,,,1,0.852125,,,,,,bupt,fillers/bupt.wav,,10,,,filler,,,1,21,121,91,1
,,,,,,,,,,,,,,,,,,,,,,,,,,Tom B,57,M,English,US,,2021-03-28_20h59.13.314,UG_Thesis_exp_1,2021.1.2,Win32,50.00250013,,,0,0.96506,,,,,,shpeyl,stimuli/shpeyl.wav,invalid,2,2,,stimuli,,,1,22,122,36,1
,,,,,,,,,,,,,,,,,,,,,,,,,,Tom B,57,M,English,US,,2021-03-28_20h59.13.314,UG_Thesis_exp_1,2021.1.2,Win32,50.00250013,,,0,3.677235,,,,,,vtin,stimuli/vtin.wav,invalid,2,3,,stimuli,,,1,23,123,33,1
,,,,,,,,,,,,,,,,,,,,,,,,,,Tom B,57,M,English,US,,2021-03-28_20h59.13.314,UG_Thesis_exp_1,2021.1.2,Win32,50.00250013,,,1,1.1538,,,,,,thuv,fillers/thuv.wav,,9,,,filler,,,1,24,124,76,1
,,,,,,,,,,,,,,,,,,,,,,,,,,Tom B,57,M,English,US,,2021-03-28_20h59.13.314,UG_Thesis_exp_1,2021.1.2,Win32,50.00250013,,,1,2.47143,,,,,,tupt,fillers/tupt.wav,,11,,,filler,,,1,25,125,90,1
,,,,,,,,,,,,,,,,,,,,,,,,,,Tom B,57,M,English,US,,2021-03-28_20h59.13.314,UG_Thesis_exp_1,2021.1.2,Win32,50.00250013,,,1,1.649835,,,,,,frun,stimuli/frun.wav,valid,12,29,,stimuli,,,1,26,126,7,1
,,,,,,,,,,,,,,,,,,,,,,,,,,Tom B,57,M,English,US,,2021-03-28_20h59.13.314,UG_Thesis_exp_1,2021.1.2,Win32,50.00250013,,,1,1.713285,,,,,,dwil,stimuli/dwil.wav,invalid,7,,,stimuli,,,1,27,127,39,1
,,,,,,,,,,,,,,,,,,,,,,,,,,Tom B,57,M,English,US,,2021-03-28_20h59.13.314,UG_Thesis_exp_1,2021.1.2,Win32,50.00250013,,,1,1.126445,,,,,,chaith,fillers/chaith.wav,,5,,,filler,,,1,28,128,79,1
,,,,,,,,,,,,,,,,,,,,,,,,,,Tom B,57,M,English,US,,2021-03-28_20h59.13.314,UG_Thesis_exp_1,2021.1.2,Win32,50.00250013,,,0,0.95314,,,,,,vzut,stimuli/vzut.wav,invalid,1,6,,stimuli,,,1,29,129,28,1
,,,,,,,,,,,,,,,,,,,,,,,,,,Tom B,57,M,English,US,,2021-03-28_20h59.13.314,UG_Thesis_exp_1,2021.1.2,Win32,50.00250013,,,1,0.99114,,,,,,tul,fillers/tul.wav,,42,,,filler,,,1,30,130,87,1
,,,,,,,,,,,,,,,,,,,,,,,,,,Tom B,57,M,English,US,,2021-03-28_20h59.13.314,UG_Thesis_exp_1,2021.1.2,Win32,50.00250013,,,1,1.09366,,,,,,hus,fillers/hus.wav,,46,,,filler,,,1,31,131,50,1
,,,,,,,,,,,,,,,,,,,,,,,,,,Tom B,57,M,English,US,,2021-03-28_20h59.13.314,UG_Thesis_exp_1,2021.1.2,Win32,50.00250013,,,0,0.94606,,,,,,zrun,stimuli/zrun.wav,invalid,5,8,,stimuli,,,1,32,132,21,1
,,,,,,,,,,,,,,,,,,,,,,,,,,Tom B,57,M,English,US,,2021-03-28_20h59.13.314,UG_Thesis_exp_1,2021.1.2,Win32,50.00250013,,,1,0.772485,,,,,,pev,fillers/pev.wav,,15,,,filler,,,1,33,133,62,1
,,,,,,,,,,,,,,,,,,,,,,,,,,Tom B,57,M,English,US,,2021-03-28_20h59.13.314,UG_Thesis_exp_1,2021.1.2,Win32,50.00250013,,,0,0.99744,,,,,,sug,fillers/sug.wav,,29,,,filler,,,1,34,134,54,1
,,,,,,,,,,,,,,,,,,,,,,,,,,Tom B,57,M,English,US,,2021-03-28_20h59.13.314,UG_Thesis_exp_1,2021.1.2,Win32,50.00250013,,,1,0.950905,,,,,,jaith,fillers/jaith.wav,,7,,,filler,,,1,35,135,78,1
,,,,,,,,,,,,,,,,,,,,,,,,,,Tom B,57,M,English,US,,2021-03-28_20h59.13.314,UG_Thesis_exp_1,2021.1.2,Win32,50.00250013,,,0,0.868115,,,,,,fset,stimuli/fset.wav,invalid,4,6,,stimuli,,,1,36,136,27,1
,,,,,,,,,,,,,,,,,,,,,,,,,,Tom B,57,M,English,US,,2021-03-28_20h59.13.314,UG_Thesis_exp_1,2021.1.2,Win32,50.00250013,,,1,1.03053,,,,,,sudge,fillers/sudge.wav,,24,,,filler,,,1,37,137,88,1
,,,,,,,,,,,,,,,,,,,,,,,,,,Tom B,57,M,English,US,,2021-03-28_20h59.13.314,UG_Thesis_exp_1,2021.1.2,Win32,50.00250013,,,1,0.99125,,,,,,gomt,fillers/gomt.wav,,0,,,filler,,,1,38,138,93,1
,,,,,,,,,,,,,,,,,,,,,,,,,,Tom B,57,M,English,US,,2021-03-28_20h59.13.314,UG_Thesis_exp_1,2021.1.2,Win32,50.00250013,,,1,1.03131,,,,,,sulft,fillers/suft.wav,,15,,,filler,,,1,39,139,89,1
,,,,,,,,,,,,,,,,,,,,,,,,,,Tom B,57,M,English,US,,2021-03-28_20h59.13.314,UG_Thesis_exp_1,2021.1.2,Win32,50.00250013,,,1,0.89411,,,,,,peb,fillers/peb.wav,,14,,,filler,,,1,40,140,63,1
,,,,,,,,,,,,,,,,,,,,,,,,,,Tom B,57,M,English,US,,2021-03-28_20h59.13.314,UG_Thesis_exp_1,2021.1.2,Win32,50.00250013,,,1,0.87037,,,,,,jun,fillers/jun.wav,,49,,,filler,,,1,41,141,51,1
,,,,,,,,,,,,,,,,,,,,,,,,,,Tom B,57,M,English,US,,2021-03-28_20h59.13.314,UG_Thesis_exp_1,2021.1.2,Win32,50.00250013,,,1,0.791065,,,,,,keb,fillers/keb.wav,,16,,,filler,,,1,42,142,65,1
,,,,,,,,,,,,,,,,,,,,,,,,,,Tom B,57,M,English,US,,2021-03-28_20h59.13.314,UG_Thesis_exp_1,2021.1.2,Win32,50.00250013,,,1,0.90478,,,,,,tweep,stimuli/tweep.wav,valid,0,,,stimuli,,,1,43,143,41,1
,,,,,,,,,,,,,,,,,,,,,,,,,,Tom B,57,M,English,US,,2021-03-28_20h59.13.314,UG_Thesis_exp_1,2021.1.2,Win32,50.00250013,,,1,0.816975,,,,,,mlung,stimuli/mlung.wav,invalid,4,13,,stimuli,,,1,44,144,15,1
,,,,,,,,,,,,,,,,,,,,,,,,,,Tom B,57,M,English,US,,2021-03-28_20h59.13.314,UG_Thesis_exp_1,2021.1.2,Win32,50.00250013,,,1,1.026325,,,,,,jutch,fillers/jutch.wav,,10,,,filler,,,1,45,145,72,1
,,,,,,,,,,,,,,,,,,,,,,,,,,Tom B,57,M,English,US,,2021-03-28_20h59.13.314,UG_Thesis_exp_1,2021.1.2,Win32,50.00250013,,,1,0.83193,,,,,,shtin,stimuli/shtin.wav,invalid,3,13,,stimuli,,,1,46,146,16,1
,,,,,,,,,,,,,,,,,,,,,,,,,,Tom B,57,M,English,US,,2021-03-28_20h59.13.314,UG_Thesis_exp_1,2021.1.2,Win32,50.00250013,,,1,0.790635,,,,,,ftin,stimuli/ftin.wav,invalid,2,10,,stimuli,,,1,47,147,20,1
,,,,,,,,,,,,,,,,,,,,,,,,,,Tom B,57,M,English,US,,2021-03-28_20h59.13.314,UG_Thesis_exp_1,2021.1.2,Win32,50.00250013,,,1,0.911565,,,,,,sherj,fillers/sherj.wav,,12,,,filler,,,1,48,148,64,1
,,,,,,,,,,,,,,,,,,,,,,,,,,Tom B,57,M,English,US,,2021-03-28_20h59.13.314,UG_Thesis_exp_1,2021.1.2,Win32,50.00250013,,,1,0.76644,,,,,,wudge,fillers/wudge.wav,,13,,,filler,,,1,49,149,74,1
,,,,,,,,,,,,,,,,,,,,,,,,,,Tom B,57,M,English,US,,2021-03-28_20h59.13.314,UG_Thesis_exp_1,2021.1.2,Win32,50.00250013,,,0,0.827515,,,,,,jpeyl,stimuli/jpeyl.wav,invalid,1,1,,stimuli,,,1,50,150,46,1
,,,,,,,,,,,,,,,,,,,,,,,,,,Tom B,57,M,English,US,,2021-03-28_20h59.13.314,UG_Thesis_exp_1,2021.1.2,Win32,50.00250013,,,1,0.92108,,,,,,lun,fillers/lun.wav,,70,,,filler,,,1,51,151,58,1
,,,,,,,,,,,,,,,,,,,,,,,,,,Tom B,57,M,English,US,,2021-03-28_20h59.13.314,UG_Thesis_exp_1,2021.1.2,Win32,50.00250013,,,1,0.86594,,,,,,malb,fillers/malb.wav,,2,,,filler,,,1,52,152,94,1
,,,,,,,,,,,,,,,,,,,,,,,,,,Tom B,57,M,English,US,,2021-03-28_20h59.13.314,UG_Thesis_exp_1,2021.1.2,Win32,50.00250013,,,0,0.9649,,,,,,jrun,stimuli/jrun.wav,invalid,4,11,,stimuli,,,1,53,153,48,1
,,,,,,,,,,,,,,,,,,,,,,,,,,Tom B,57,M,English,US,,2021-03-28_20h59.13.314,UG_Thesis_exp_1,2021.1.2,Win32,50.00250013,,,1,1.008615,,,,,,gurg,fillers/gurg.wav,,9,,,filler,,,1,54,154,68,1
,,,,,,,,,,,,,,,,,,,,,,,,,,Tom B,57,M,English,US,,2021-03-28_20h59.13.314,UG_Thesis_exp_1,2021.1.2,Win32,50.00250013,,,1,0.855735,,,,,,gaith,fillers/gaith.wav,,9,,,filler,,,1,55,155,80,1
,,,,,,,,,,,,,,,,,,,,,,,,,,Tom B,57,M,English,US,,2021-03-28_20h59.13.314,UG_Thesis_exp_1,2021.1.2,Win32,50.00250013,,,0,1.30542,,,,,,glung,stimuli/glung.wav,valid,9,27,,stimuli,,,1,56,156,47,1
,,,,,,,,,,,,,,,,,,,,,,,,,,Tom B,57,M,English,US,,2021-03-28_20h59.13.314,UG_Thesis_exp_1,2021.1.2,Win32,50.00250013,,,1,0.948305,,,,,,ras,fillers/ras.wav,,52,,,filler,,,1,57,157,84,1
,,,,,,,,,,,,,,,,,,,,,,,,,,Tom B,57,M,English,US,,2021-03-28_20h59.13.314,UG_Thesis_exp_1,2021.1.2,Win32,50.00250013,,,1,1.04663,,,,,,pum,fillers/pum.wav,,40,,,filler,,,1,58,158,59,1
,,,,,,,,,,,,,,,,,,,,,,,,,,Tom B,57,M,English,US,,2021-03-28_20h59.13.314,UG_Thesis_exp_1,2021.1.2,Win32,50.00250013,,,0,1.12718,,,,,,fmaet,stimuli/fmaet.wav,invalid,4,2,,stimuli,,,1,59,159,35,1
,,,,,,,,,,,,,,,,,,,,,,,,,,Tom B,57,M,English,US,,2021-03-28_20h59.13.314,UG_Thesis_exp_1,2021.1.2,Win32,50.00250013,,,0,0.929745,,,,,,shfeed,stimuli/shfeed.wav,invalid,1,5,,stimuli,,,1,60,160,29,1
,,,,,,,,,,,,,,,,,,,,,,,,,,Tom B,57,M,English,US,,2021-03-28_20h59.13.314,UG_Thesis_exp_1,2021.1.2,Win32,50.00250013,,,0,0.87825,,,,,,thwup,stimuli/thwup.wav,invalid,0,,,stimuli,,,1,61,161,40,1
,,,,,,,,,,,,,,,,,,,,,,,,,,Tom B,57,M,English,US,,2021-03-28_20h59.13.314,UG_Thesis_exp_1,2021.1.2,Win32,50.00250013,,,1,0.95901,,,,,,wutch,fillers/wutch.wav,,17,,,filler,,,1,62,162,61,1
,,,,,,,,,,,,,,,,,,,,,,,,,,Tom B,57,M,English,US,,2021-03-28_20h59.13.314,UG_Thesis_exp_1,2021.1.2,Win32,50.00250013,,,1,1.11026,,,,,,snet,stimuli/snet.wav,valid,7,28,,stimuli,,,1,63,163,8,1
,,,,,,,,,,,,,,,,,,,,,,,,,,Tom B,57,M,English,US,,2021-03-28_20h59.13.314,UG_Thesis_exp_1,2021.1.2,Win32,50.00250013,,,0,0.991995,,,,,,fship,stimuli/fship.wav,invalid,2,11,,stimuli,,,1,64,164,18,1
,,,,,,,,,,,,,,,,,,,,,,,,,,Tom B,57,M,English,US,,2021-03-28_20h59.13.314,UG_Thesis_exp_1,2021.1.2,Win32,50.00250013,,,1,1.177155,,,,,,sud,fillers/sud.wav,,40,,,filler,,,1,65,165,57,1
,,,,,,,,,,,,,,,,,,,,,,,,,,Tom B,57,M,English,US,,2021-03-28_20h59.13.314,UG_Thesis_exp_1,2021.1.2,Win32,50.00250013,,,1,1.08583,,,,,,vnet,stimuli/vnet.wav,invalid,2,1,,stimuli,,,1,66,166,44,1
,,,,,,,,,,,,,,,,,,,,,,,,,,Tom B,57,M,English,US,,2021-03-28_20h59.13.314,UG_Thesis_exp_1,2021.1.2,Win32,50.00250013,,,1,1.170355,,,,,,shemp,fillers/shemp.wav,,3,,,filler,,,1,67,167,99,1
,,,,,,,,,,,,,,,,,,,,,,,,,,Tom B,57,M,English,US,,2021-03-28_20h59.13.314,UG_Thesis_exp_1,2021.1.2,Win32,50.00250013,,,1,0.89123,,,,,,vrun,stimuli/vrun.wav,invalid,4,19,,stimuli,,,1,68,168,12,1
,,,,,,,,,,,,,,,,,,,,,,,,,,Tom B,57,M,English,US,,2021-03-28_20h59.13.314,UG_Thesis_exp_1,2021.1.2,Win32,50.00250013,,,1,0.882145,,,,,,bimp,fillers/bimp.wav,,7,,,filler,,,1,69,169,95,1
,,,,,,,,,,,,,,,,,,,,,,,,,,Tom B,57,M,English,US,,2021-03-28_20h59.13.314,UG_Thesis_exp_1,2021.1.2,Win32,50.00250013,,,1,1.00024,,,,,,fawnk,fillers/fawnk.wav,,4,,,filler,,,1,70,170,98,1
,,,,,,,,,,,,,,,,,,,,,,,,,,Tom B,57,M,English,US,,2021-03-28_20h59.13.314,UG_Thesis_exp_1,2021.1.2,Win32,50.00250013,,,0,0.965415,,,,,,trun,stimuli/trun.wav,valid,12,31,,stimuli,,,1,71,171,6,1
,,,,,,,,,,,,,,,,,,,,,,,,,,Tom B,57,M,English,US,,2021-03-28_20h59.13.314,UG_Thesis_exp_1,2021.1.2,Win32,50.00250013,,,0,0.966835,,,,,,zveel,stimuli/zveel.wav,invalid,2,3,,stimuli,,,1,72,172,34,1
,,,,,,,,,,,,,,,,,,,,,,,,,,Tom B,57,M,English,US,,2021-03-28_20h59.13.314,UG_Thesis_exp_1,2021.1.2,Win32,50.00250013,,,1,1.073905,,,,,,vpeyl,stimuli/vpeyl.wav,invalid,2,0,,stimuli,,,1,73,173,38,1
,,,,,,,,,,,,,,,,,,,,,,,,,,Tom B,57,M,English,US,,2021-03-28_20h59.13.314,UG_Thesis_exp_1,2021.1.2,Win32,50.00250013,,,0,1.09017,,,,,,shlerk,stimuli/shlerk.wav,invalid,4,22,,stimuli,,,1,74,174,11,1
,,,,,,,,,,,,,,,,,,,,,,,,,,Tom B,57,M,English,US,,2021-03-28_20h59.13.314,UG_Thesis_exp_1,2021.1.2,Win32,50.00250013,,,0,1.34404,,,,,,srun,stimuli/srun.wav,invalid,9,14,,stimuli,,,1,75,175,13,1
,,,,,,,,,,,,,,,,,,,,,,,,,,Tom B,57,M,English,US,,2021-03-28_20h59.13.314,UG_Thesis_exp_1,2021.1.2,Win32,50.00250013,,,0,1.11345,,,,,,skeep,stimuli/skeep.wav,valid,2,20,,stimuli,,,1,76,176,43,1
,,,,,,,,,,,,,,,,,,,,,,,,,,Tom B,57,M,English,US,,2021-03-28_20h59.13.314,UG_Thesis_exp_1,2021.1.2,Win32,50.00250013,,,0,1.07285,,,,,,zkeep,stimuli/zkeep.wav,invalid,1,0,,stimuli,,,1,77,177,37,1
,,,,,,,,,,,,,,,,,,,,,,,,,,Tom B,57,M,English,US,,2021-03-28_20h59.13.314,UG_Thesis_exp_1,2021.1.2,Win32,50.00250013,,,1,1.03094,,,,,,jerp,fillers/jerp.wav,,7,,,filler,,,1,78,178,69,1
,,,,,,,,,,,,,,,,,,,,,,,,,,Tom B,57,M,English,US,,2021-03-28_20h59.13.314,UG_Thesis_exp_1,2021.1.2,Win32,50.00250013,,,1,1.40103,,,,,,thwaet,stimuli/thwaet.wav,invalid,1,,,stimuli,,,1,79,179,42,1
,,,,,,,,,,,,,,,,,,,,,,,,,,Tom B,57,M,English,US,,2021-03-28_20h59.13.314,UG_Thesis_exp_1,2021.1.2,Win32,50.00250013,,,1,0.953735,,,,,,flerk,stimuli/flerk.wav,valid,11,31,,stimuli,,,1,80,180,4,1
,,,,,,,,,,,,,,,,,,,,,,,,,,Tom B,57,M,English,US,,2021-03-28_20h59.13.314,UG_Thesis_exp_1,2021.1.2,Win32,50.00250013,,,1,0.85033,,,,,,dus,fillers/dus.wav,,58,,,filler,,,1,81,181,52,1
,,,,,,,,,,,,,,,,,,,,,,,,,,Tom B,57,M,English,US,,2021-03-28_20h59.13.314,UG_Thesis_exp_1,2021.1.2,Win32,50.00250013,,,0,0.754745,,,,,,shkeep,stimuli/shkeep.wav,invalid,15,1,,stimuli,,,1,82,182,45,1
,,,,,,,,,,,,,,,,,,,,,,,,,,Tom B,57,M,English,US,,2021-03-28_20h59.13.314,UG_Thesis_exp_1,2021.1.2,Win32,50.00250013,,,1,0.98613,,,,,,purgd,fillers/purgd.wav,,3,,,filler,,,1,83,183,92,1
,,,,,,,,,,,,,,,,,,,,,,,,,,Tom B,57,M,English,US,,2021-03-28_20h59.13.314,UG_Thesis_exp_1,2021.1.2,Win32,50.00250013,,,1,1.114225,,,,,,suz,fillers/suz.wav,,37,,,filler,,,1,84,184,53,1
,,,,,,,,,,,,,,,,,,,,,,,,,,Tom B,57,M,English,US,,2021-03-28_20h59.13.314,UG_Thesis_exp_1,2021.1.2,Win32,50.00250013,,,1,1.03094,,,,,,mub,fillers/mub.wav,,26,,,filler,,,1,85,185,81,1
,,,,,,,,,,,,,,,,,,,,,,,,,,Tom B,57,M,English,US,,2021-03-28_20h59.13.314,UG_Thesis_exp_1,2021.1.2,Win32,50.00250013,,,0,1.176835,,,,,,smaet,stimuli/smaet.wav,valid,13,32,,stimuli,,,1,86,186,1,1
,,,,,,,,,,,,,,,,,,,,,,,,,,Tom B,57,M,English,US,,2021-03-28_20h59.13.314,UG_Thesis_exp_1,2021.1.2,Win32,50.00250013,,,0,0.938305,,,,,,shmat,stimuli/shmat.wav,valid,1,7,,stimuli,,,1,87,187,23,1
,,,,,,,,,,,,,,,,,,,,,,,,,,Tom B,57,M,English,US,,2021-03-28_20h59.13.314,UG_Thesis_exp_1,2021.1.2,Win32,50.00250013,,,0,1.079125,,,,,,thudge,fillers/thudge.wav,,7,,,filler,,,1,88,188,71,1
,,,,,,,,,,,,,,,,,,,,,,,,,,Tom B,57,M,English,US,,2021-03-28_20h59.13.314,UG_Thesis_exp_1,2021.1.2,Win32,50.00250013,,,1,1.03036,,,,,,rul,fillers/rul.wav,,42,,,filler,,,1,89,189,56,1
,,,,,,,,,,,,,,,,,,,,,,,,,,Tom B,57,M,English,US,,2021-03-28_20h59.13.314,UG_Thesis_exp_1,2021.1.2,Win32,50.00250013,,,1,0.71023,,,,,,juf,fillers/juf.wav,,19,,,filler,,,1,90,190,60,1
,,,,,,,,,,,,,,,,,,,,,,,,,,Tom B,57,M,English,US,,2021-03-28_20h59.13.314,UG_Thesis_exp_1,2021.1.2,Win32,50.00250013,,,1,0.95126,,,,,,thith,fillers/thith.wav,,4,,,filler,,,1,91,191,67,1
,,,,,,,,,,,,,,,,,,,,,,,,,,Tom B,57,M,English,US,,2021-03-28_20h59.13.314,UG_Thesis_exp_1,2021.1.2,Win32,50.00250013,,,1,0.72778,,,,,,suf,fillers/suf.wav,,33,,,filler,,,1,92,192,86,1
,,,,,,,,,,,,,,,,,,,,,,,,,,Tom B,57,M,English,US,,2021-03-28_20h59.13.314,UG_Thesis_exp_1,2021.1.2,Win32,50.00250013,,,0,1.07069,,,,,,prun,stimuli/prun.wav,valid,11,32,,stimuli,,,1,93,193,2,1
,,,,,,,,,,,,,,,,,,,,,,,,,,Tom B,57,M,English,US,,2021-03-28_20h59.13.314,UG_Thesis_exp_1,2021.1.2,Win32,50.00250013,,,0,0.9601,,,,,,spung,stimuli/spung.wav,valid,11,28,,stimuli,,,1,94,194,9,1
,,,,,,,,,,,,,,,,,,,,,,,,,,Tom B,57,M,English,US,,2021-03-28_20h59.13.314,UG_Thesis_exp_1,2021.1.2,Win32,50.00250013,,,0,1.0167,,,,,,zlerk,stimuli/zlerk.wav,invalid,2,6,,stimuli,,,1,95,195,25,1
,,,,,,,,,,,,,,,,,,,,,,,,,,Tom B,57,M,English,US,,2021-03-28_20h59.13.314,UG_Thesis_exp_1,2021.1.2,Win32,50.00250013,,,1,0.95038,,,,,,grun,stimuli/grun.wav,valid,18,33,,stimuli,,,1,96,196,3,1
,,,,,,,,,,,,,,,,,,,,,,,,,,Tom B,57,M,English,US,,2021-03-28_20h59.13.314,UG_Thesis_exp_1,2021.1.2,Win32,50.00250013,,,1,0.717295,,,,,,bip,fillers/bip.wav,,37,,,filler,,,1,97,197,83,1
,,,,,,,,,,,,,,,,,,,,,,,,,,Tom B,57,M,English,US,,2021-03-28_20h59.13.314,UG_Thesis_exp_1,2021.1.2,Win32,50.00250013,,,0,1.09116,,,,,,fnet,stimuli/fnet.wav,invalid,2,3,,stimuli,,,1,98,198,31,1
,,,,,,,,,,,,,,,,,,,,,,,,,,Tom B,57,M,English,US,,2021-03-28_20h59.13.314,UG_Thesis_exp_1,2021.1.2,Win32,50.00250013,,,1,1.395135,,,,,,nrun,stimuli/nrun.wav,invalid,5,8,,stimuli,,,1,99,199,22,1