S T R 
S P L 
S T W 
S T W 
S T R 
S P L 
S K W 
S K R 
S K W 
S K W 
S T R 
S K W 
S T W 
S K R 
S P L 
S P L 
S T R 
S K R 
S K L 
S T R 
S T R 
S K R 
S P L 
S T W 
S P R 
S K R 
S T W 
S P L 
S T W 
S K L 
S T R 
S K L 
S T W 
S K W 
S K L 
S P R 
S T W 
S P R 
S P R 
S T W 
S P R 
S K L 
S K L 
S K L 
S T R 
S T R 
S K W 
S T R 
S K R 
S K R 
S P L 
S K W 
S T W 
S P 
S R 
G W 
TH R 
K L 
G W 
S L 
S M 
TH W 
D W 
S W 
S M 
P L 
P L 
K W 
S T 
HH R 
P L 
P R 
S R 
S R 
B L 
K L 
K R 
S L 
S P 
P L 
TH W 
K W 
S M 
K L 
HH W 
S K 
S R 
S P 
S L 
S M 
T R 
G L 
T W 
S L 
B L 
P R 
P R 
D W 
F L 
K L 
S N 
K W 
S T 
S N 
TH R 
G W 
K R 
S M 
K R 
S W 
K W 
G L 
S L 
K R 
G L 
F R 
S T 
TH W 
B R 
S N 
S R 
S R 
HH W 
S R 
K L 
B L 
S P 
S W 
B L 
TH W 
HH W 
S L 
D W 
S T 
F L 
D R 
F R 
P R 
S N 
F L 
S N 
TH CH 
F R 
K L 
S R 
G L 
S M 
K W 
T R 
S M 
G W 
S L 
S W 
S T 
S N 
T W 
G W 
P R 
G W 
S T 
F L 
S L 
S R 
S M 
B R 
K L 
S R 
S N 
D R 
G W 
D R 
K W 
G W 
TH R 
K W 
T R 
T W 
P R 
T W 
S W 
P R 
B L 
B L 
D R 
SH R 
P R 
S B 
SH R 
CH R 
F R 
B L 
P L 
G R 
B L 
K W 
K W 
D R 
S N 
CH R 
G R 
B R 
CH R 
TH W 
T W 
S L 
F L 
D W 
TH R 
SH R 
HH W 
F L 
G L 
K L 
B L 
S K 
S T 
S T 
S R 
SH R 
TH R 
K R 
K W 
S N 
S L 
K W 
CH R 
B L 
CH R 
SH R 
G R 
T R 
B L 
T R 
F L 
T R 
D L 
K L 
S P 
T W 
TH R 
S N 
F R 
TH R 
S K 
K L 
CH R 
S R 
B R 
HH W 
P L 
SH R 
B R 
P R 
S L 
S W 
HH W 
HH W 
S T 
S M 
S R 
K L 
K W 
S P 
TH R 
F N 
S L 
D W 
S M 
TH W 
S M 
SH R 
S P 
B L 
S M 
K L 
G L 
TH R 
P L 
S R 
TH W 
S T 
K W 
HH W 
SH R 
D R 
S M 
S T 
F R 
T W 
B L 
S W 
P L 
TH W 
CH R 
P L 
T R 
K W 
P R 
G R 
K W 
S L 
S P 
K R 
SH R 
G L 
S R 
F L 
P R 
T R 
S K 
B L 
S N 
CH R 
S N 
G R 
TH R 
F R 
S T 
K R 
S L 
S K 
P L 
B L 
G W 
P L 
B L 
B L 
K W 
S K 
D W 
K R 
K W 
S L 
B L 
D W 
P R 
S P 
K R 
S M 
G W 
B R 
SH R 
CH R 
S N 
D R 
D W 
G L 
K L 
CH R 
B R 
HH W 
T W 
S R 
G R 
B R 
S K 
P L 
SH R 
G L 
S K 
S TH 
T R 
S T 
F L 
HH W 
B R 
S N 
T R 
S R 
T R 
S K 
F L 
S R 
TH Y 
K R 
K W 
S W 
P L 
G W 
S R 
G L 
CH R 
T R 
TH R 
D R 
CH R 
K R 
CH R 
S R 
P R 
D W 
S P 
K R 
K L 
D R 
T W 
G L 
K R 
S W 
K W 
F R 
D W 
F L 
F L 
TH W 
B R 
S N 
TH R 
G R 
S R 
S P 
K W 
S R 
S T 
S P 
S N 
TH W 
G W 
SH R 
S W 
B L 
T W 
S M 
S N 
T W 
HH W 
CH R 
S L 
TH R 
S P 
CH R 
F L 
S W 
G R 
S L 
P L 
T W 
S R 
K R 
S K 
P L 
K L 
F R 
G L 
S W 
K R 
K W 
S M 
P L 
P L 
B L 
S L 
K R 
S L 
G L 
D W 
S W 
F R 
B R 
S K 
T R 
G W 
CH R 
K W 
D R 
S P 
TH R 
K L 
P R 
TH W 
G L 
G W 
S K 
CH R 
S N 
T R 
S K 
P R 
T R 
T W 
K L 
TH R 
S T 
F R 
S M 
S L 
S N 
T R 
TH W 
S K 
S L 
S N 
B L 
G L 
CH R 
S N 
K L 
SH R 
TH R 
SH R 
CH R 
F R 
K W 
TH W 
T W 
T R 
G L 
S P 
F L 
S L 
F R 
TH R 
T R 
G R 
F R 
S M 
P L 
S K 
T R 
P R 
K L 
TH W 
K L 
S N 
G L 
P L 
G L 
P L 
SH R 
P R 
K R 
S P 
S T 
S N 
K L 
G L 
TH R 
F R 
S K 
S M 
S T 
S W 
D R 
CH R 
T R 
CH R 
T W 
P L 
K L 
S L 
S N 
P L 
SH R 
P R 
F R 
D W 
S W 
B R 
T R 
S N 
F L 
K W 
G W 
S W 
K W 
F R 
F L 
K L 
F R 
K W 
TH W 
TH R 
T R 
B R 
S N 
G W 
T W 
F R 
K W 
S T 
G L 
K L 
S R 
K W 
B R 
B L 
G L 
K R 
TH W 
D W 
TH R 
G W 
G W 
F R 
HH W 
D R 
F R 
S W 
G L 
S T 
G R 
K W 
B L 
SH R 
D R 
P L 
D R 
S P 
D L 
F L 
B L 
S M 
HH W 
P L 
SH R 
HH W 
S T 
TH R 
CH R 
S T 
S T 
S N 
S P 
D R 
S T 
B R 
F L 
S K 
B L 
SH R 
S T 
S R 
S P 
S P 
P R 
TH W 
S N 
SH R 
SH R 
G R 
G L 
S L 
B R 
D R 
T R 
F L 
S W 
F L 
CH R 
S T 
K R 
K L 
HH W 
T W 
HH W 
S T 
T W 
S T 
B R 
P R 
S M 
S W 
B R 
S T 
T R 
D W 
F R 
D R 
S L 
D R 
F R 
S N 
SH R 
S R 
N W 
P R 
TH R 
G L 
S L 
SH R 
F R 
G R 
S R 
TH R 
S K 
P R 
K W 
S R 
S T 
D R 
K W 
F R 
S P 
S T 
S R 
CH R 
S N 
B L 
TH W 
G R 
K W 
S L 
S W 
S P 
B R 
S R 
D R 
B R 
B L 
S R 
G R 
T R 
T W 
S K 
F L 
S P 
T R 
K W 
G W 
F L 
T R 
F L 
T R 
S L 
S P 
SH R 
G W 
B L 
B L 
K L 
S M 
HH W 
D R 
G L 
S W 
CH R 
S M 
S W 
CH R 
HH W 
F L 
S P 
P R 
TH W 
S W 
D W 
TH W 
S N 
T W 
SH R 
B L 
S P 
TH W 
SH R 
P L 
G L 
S T 
S T 
TH R 
F L 
SH R 
G R 
D R 
S N 
K W 
S N 
S T 
P R 
K W 
S P 
S N 
T R 
CH R 
TH R 
G W 
P R 
B R 
S W 
G R 
T R 
F R 
K L 
S P 
S N 
HH W 
G R 
F R 
P R 
K L 
S L 
G R 
S R 
D R 
S R 
P R 
D W 
S HH 
S P 
S T 
S P 
D W 
D W 
CH R 
F L 
S R 
HH W 
S M 
G W 
D R 
K W 
CH R 
S N 
S T 
F L 
TH P 
K L 
G R 
TH W 
F R 
CH R 
HH W 
K R 
S P 
F L 
K R 
T W 
K R 
TH W 
P L 
D W 
K W 
S T 
TH W 
G R 
S N 
SH R 
F R 
G W 
G R 
K R 
F R 
G L 
S W 
S L 
G L 
HH W 
TH R 
G L 
HH W 
S M 
S N 
S M 
S P 
G R 
K 
DH 
CH 
V 
Y 
F 
Z 
W 
DH 
G 
DH 
B 
B 
G 
T 
JH 
F 
V 
CH 
JH 
L 
SH 
F 
HH 
Z 
D 
JH 
K 
F 
SH 
M 
Z 
L 
SH 
SH 
M 
N 
N 
W 
P 
B 
L 
W 
Y 
B 
S 
B 
M 
M 
DH 
F 
V 
Z 
SH 
Y 
HH 
K 
TH 
B 
TH 
T 
P 
P 
CH 
W 
DH 
F 
B 
DH 
K 
TH 
B 
TH 
W 
P 
S 
N 
Y 
G 
V 
K 
M 
R 
W 
D 
M 
D 
S 
TH 
CH 
Z 
B 
M 
V 
M 
N 
L 
SH 
S 
G 
P 
B 
Y 
M 
V 
SH 
S 
R 
TH 
CH 
D 
HH 
T 
G 
K 
SH 
DH 
CH 
G 
TH 
V 
N 
V 
B 
JH 
R 
T 
Z 
Y 
B 
SH 
DH 
DH 
G 
S 
TH 
DH 
M 
D 
Z 
G 
G 
G 
V 
K 
W 
B 
R 
W 
N 
HH 
B 
SH 
G 
Z 
TH 
T 
V 
F 
V 
V 
T 
CH 
N 
T 
JH 
SH 
R 
SH 
M 
W 
B 
JH 
V 
HH 
W 
S 
N 
TH 
DH 
L 
R 
P 
N 
Z 
L 
F 
V 
F 
CH 
V 
K 
K 
B 
D 
M 
S 
G 
DH 
Z 
CH 
Z 
B 
Z 
F 
SH 
DH 
N 
K 
V 
T 
R 
W 
Y 
TH 
TH 
F 
HH 
D 
L 
T 
L 
K 
N 
S 
N 
S 
DH 
F 
JH 
JH 
V 
CH 
Y 
Z 
F 
M 
L 
HH 
M 
V 
B 
D 
CH 
T 
B 
P 
CH 
Y 
L 
M 
B 
HH 
D 
L 
Z 
G 
V 
P 
M 
T 
Z 
L 
CH 
CH 
K 
F 
Y 
P 
HH 
K 
P 
HH 
G 
L 
T 
T 
CH 
K 
JH 
V 
CH 
S 
K 
N 
F 
HH 
HH 
G 
M 
HH 
V 
R 
D 
B 
K 
TH 
K 
B 
D 
S 
N 
M 
F 
T 
L 
G 
D 
P 
HH 
JH 
L 
T 
B 
B 
TH 
N 
F 
L 
TH 
V 
M 
JH 
T 
N 
P 
G 
V 
Y 
HH 
D 
S 
W 
JH 
W 
JH 
Z 
T 
V 
G 
JH 
T 
D 
SH 
Y 
Z 
D 
D 
K 
M 
N 
JH 
N 
SH 
TH 
HH 
R 
M 
B 
K 
R 
M 
Y 
B 
CH 
N 
N 
P 
S 
DH 
N 
V 
N 
Z 
S 
T 
V 
G 
Y 
F 
G 
G 
Z 
Y 
M 
Z 
L 
SH 
V 
JH 
Y 
DH 
W 
V 
P 
DH 
HH 
CH 
N 
T 
K 
Z 
K 
S 
L 
M 
SH 
Y 
Z 
P 
CH 
G 
R 
SH 
HH 
Z 
R 
R 
L 
D 
P 
Y 
T 
P 
TH 
TH 
JH 
M 
Y 
CH 
HH 
L 
Y 
M 
D 
JH 
CH 
V 
SH 
JH 
Z 
K 
DH 
R 
SH 
S 
Y 
N 
B 
K 
F 
CH 
V 
D 
M 
W 
DH 
HH 
CH 
W 
T 
G 
DH 
W 
V 
B 
HH 
R 
D 
Z 
L 
Z 
CH 
P 
V 
P 
G 
T 
L 
D 
N 
Y 
DH 
S 
P 
D 
P 
W 
D 
F 
CH 
D 
D 
HH 
DH 
W 
K 
Y 
P 
D 
CH 
P 
N 
B 
CH 
P 
V 
HH 
Y 
Y 
T 
M 
D 
JH 
G 
DH 
T 
M 
G 
JH 
B 
CH 
TH 
Y 
CH 
G 
TH 
R 
CH 
CH 
P 
T 
Y 
JH 
CH 
SH 
JH 
L 
V 
S 
G 
TH 
L 
D 
V 
F 
TH 
DH 
W 
G 
DH 
L 
B 
CH 
SH 
S 
G 
Z 
T 
K 
R 
TH 
L 
JH 
CH 
DH 
Z 
HH 
DH 
V 
R 
L 
Z 
T 
N 
JH 
D 
W 
HH 
Z 
TH 
D 
G 
N 
T 
V 
Y 
P 
SH 
Z 
N 
Y 
DH 
D 
W 
SH 
JH 
P 
W 
M 
JH 
G 
Z 
V 
Z 
CH 
R 
R 
HH 
SH 
B 
Y 
HH 
Y 
F 
W 
L 
G 
HH 
DH 
JH 
B 
N 
T 
S 
F 
G 
TH 
Z 
HH 
HH 
F 
T 
K 
W 
K 
L 
Y 
W 
DH 
T 
K 
Y 
N 
DH 
CH 
L 
F 
Y 
L 
V 
B 
SH 
JH 
B 
Z 
P 
T 
TH 
HH 
L 
F 
F 
V 
P 
JH 
JH 
M 
HH 
CH 
HH 
B 
Y 
D 
TH 
TH 
V 
TH 
TH 
W 
K 
JH 
Y 
W 
S 
HH 
M 
Y 
W 
M 
SH 
Z 
JH 
Z 
S 
HH 
B 
P 
M 
V 
W 
N 
HH 
N 
L 
K 
K 
N 
Z 
JH 
TH 
JH 
M 
Y 
R 
F 
TH 
T 
P 
R 
R 
W 
N 
CH 
HH 
HH 
SH 
N 
CH 
T 
G 
TH 
R 
L 
M 
B 
HH 
T 
M 
M 
M 
TH 
N 
SH 
Y 
JH 
N 
Z 
L 
DH 
F 
B 
V 
CH 
M 
F 
CH 
M 
T 
DH 
T 
CH 
W 
S 
SH 
W 
S 
Y 
F 
D 
M 
JH 
CH 
Z 
F 
W 
N 
R 
L 
K 
DH 
G 
B 
W 
B 
F 
R 
P 
B 
K 
V 
M 
F 
M 
JH 
W 
B 
CH 
CH 
TH 
K 
SH 
T 
HH 
D 
N 
HH 
CH 
F 
G 
W 
K 
S 
Z 
L 
HH 
K 
Z 
HH 
SH 
V 
JH 
TH 
JH 
CH 
CH 
SH 
S 
DH 
T 
G 
M 
W 
F 
G 
G 
TH 
Z 
TH 
SH 
V 
L 
TH 
W 
D 
T 
TH 
F 
B 
L 
CH 
TH 
K 
N 
DH 
N 
L 
N 
B 
D 
SH 
DH 
L 
JH 
JH 
JH 
G 
TH 
N 
M 
P 
P 
T 
TH 
DH 
N 
JH 
Z 
B 
W 
JH 
F 
D 
S 
SH 
P 
P 
JH 
JH 
P 
HH 
K 
Z 
HH 
DH 
W 
W 
DH 
K 
HH 
D 
Y 
Z 
JH 
CH 
JH 
G 
B 
R 
D 
K 
DH 
Z 
T 
CH 
JH 
T 
V 
S 
M 
W 
B 
HH 
R 
T 
D 
M 
T 
B 
Y 
Z 
T 
V 
P 
SH 
Z 
F 
M 
D 
R 
HH 
N 
V 
DH 
L 
B 
DH 
L 
G 
SH 
P 
T 
L 
L 
HH 
Z 
L 
T 
N 
CH 
B 
G 
V 
G 
B 
P 
B 
HH 
TH 
L 
JH 
R 
P 
G 
W 
Y 
W 
S 
M 
N 
N 
TH 
TH 
CH 
DH 
T 
P 
F 
W 
K 
T 
P 
G 
L 
K 
N 
S 
B 
P 
JH 
HH 
Y 
F 
Y 
B 
K 
M 
S 
L 
JH 
D 
Y 
CH 
SH 
F 
HH 
JH 
D 
Y 
S 
TH 
TH 
K 
SH 
V 
V 
D 
JH 
SH 
HH 
B 
V 
D 
TH 
P 
DH 
HH 
D 
S 
Z 
K 
S 
L 
Z 
L 
P 
DH 
B 
D 
TH 
SH 
S 
L 
N 
F 
JH 
HH 
CH 
W 
R 
B 
S 
V 
Y 
D 
S 
Y 
T 
M 
P 
P 
R 
N 
T 
G 
TH 
JH 
D 
TH 
Y 
SH 
R 
S 
D 
P 
HH 
L 
JH 
L 
G 
L 
L 
Z 
D 
SH 
N 
HH 
DH 
B 
M 
B 
TH 
S 
P 
G 
V 
V 
M 
V 
P 
D 
D 
CH 
F 
N 
SH 
K 
P 
P 
F 
B 
DH 
HH 
F 
T 
N 
B 
Z 
G 
V 
DH 
Y 
M 
DH 
CH 
HH 
SH 
T 
DH 
W 
P 
K 
JH 
Z 
Y 
D 
L 
JH 
B 
K 
Y 
CH 
TH 
D 
SH 
F 
T 
TH 
M 
Y 
TH 
JH 
L 
N 
B 
Y 
T 
Y 
Y 
CH 
N 
Z 
D 
T 
Y 
TH 
SH 
DH 
L 
K 
TH 
HH 
Y 
HH 
CH 
TH 
DH 
HH 
T 
Z 
T 
SH 
CH 
W 
HH 
W 
Y 
S 
Z 
W 
SH 
V 
M 
W 
B 
HH 
M 
T 
Z 
JH 
P 
CH 
F 
V 
W 
HH 
DH 
V 
M 
R 
TH 
W 
TH 
N 
S 
R 
Y 
DH 
Y 
CH 
SH 
V 
HH 
DH 
M 
CH 
T 
SH 
Z 
B 
T 
P 
B 
D 
R 
S 
DH 
D 
N 
CH 
P 
G 
SH 
R 
D 
S 
V 
V 
K 
DH 
Y 
DH 
M 
D 
V 
Y 
SH 
B 
K 
S 
Y 
Y 
CH 
S 
V 
F 
Y 
P 
SH 
JH 
W 
JH 
B 
T 
L 
R 
V 
Y 
HH 
K 
TH 
D 
V 
HH 
G 
B 
V 
SH 
Z 
L 
SH 
V 
M 
HH 
D 
T 
HH 
G 
B 
V 
DH 
G 
L 
JH 
F 
W 
K 
T 
S 
W 
HH 
F 
K 
G 
TH 
N 
DH 
CH 
DH 
Z 
P 
B 
F 
JH 
HH 
JH 
N 
L 
V 
M 
DH 
TH 
R 
S 
SH 
P 
V 
Y 
HH 
V 
SH 
SH 
G 
DH 
Z 
B 
TH 
N 
SH 
F 
T 
N 
JH 
T 
V 
B 
JH 
L 
Z 
T 
T 
Y 
M 
JH 
SH 
HH 
D 
D 
D 
R 
P 
W 
S 
K 
N 
K 
M 
Z 
K 
Y 
Z 
V 
CH 
P 
M 
N 
Z 
F 
V 
TH 
L 
S 
CH 
R 
DH 
DH 
W 
L 
DH 
DH 
SH 
JH 
T 
F 
M 
TH 
N 
N 
V 
JH 
T 
M 
B 
B 
L 
F 
T 
HH 
F 
M 
M 
TH 
SH 
Y 
M 
Y 
T 
N 
P 
S 
Z 
CH 
V 
Z 
P 
Z 
S 
V 
F 
JH 
CH 
N 
P 
TH 
R 
JH 
CH 
F 
V 
W 
R 
Z 
SH 
S 
SH 
CH 
B 
T 
R 
SH 
G 
TH 
M 
F 
DH 
N 
N 
K 
G 
M 
SH 
K 
SH 
F 
D 
K 
V 
S 
K 
F 
B 
TH 
K 
DH 
F 
K 
W 
M 
V 
DH 
Y 
DH 
M 
CH 
M 
D 
T 
T 
T 
N 
V 
L 
K 
R 
D 
K 
Y 
M 
DH 
Z 
CH 
CH 
N 
N 
Y 
S 
V 
N 
JH 
N 
CH 
L 
CH 
Z 
W 
B 
L 
CH 
DH 
S 
SH 
W 
JH 
T 
JH 
G 
W 
S 
G 
DH 
R 
Y 
S 
HH 
L 
G 
D 
T 
M 
DH 
G 
JH 
N 
DH 
P 
M 
W 
F 
F 
CH 
W 
P 
F 
S 
D 
L 
DH 
V 
V 
N 
L 
N 
R 
V 
S 
L 
Y 
TH 
B 
JH 
S 
P 
F 
P 
Z 
S 
Y 
HH 
T 
P 
R 
L 
G 
Z 
F 
T 
HH 
P 
L 
B 
F 
D 
S 
S 
W 
N 
W 
W 
P 
L 
V 
JH 
JH 
SH 
SH 
R 
CH 
R 
R 
M 
K 
Y 
CH 
DH 
DH 
Z 
L 
T 
L 
P 
S 
B 
Y 
V 
W 
TH 
JH 
SH 
P 
G 
N 
M 
P 
W 
CH 
Z 
SH 
R 
TH 
CH 
M 
R 
P 
B 
K 
G 
Y 
Z 
G 
HH 
NG 
JH 
V 
DH 
JH 
JH 
P 
K 
B 
R 
Z 
T 
S 
TH 
K 
N 
M 
SH 
T 
V 
N 
L 
D 
N 
B 
Y 
JH 
L 
JH 
W 
M 
DH 
SH 
Y 
N 
Y 
Y 
D 
P 
HH 
K 
S 
TH 
P 
CH 
T 
G 
SH 
HH 
SH 
B 
HH 
W 
P 
Y 
G 
L 
G 
Y 
Z 
TH 
TH 
D 
W 
P 
V 
Y 
M 
S 
Z 
L 
R 
S 
CH 
G 
B 
P 
L 
SH 
JH 
Z 
V 
Y 
W 
SH 
S 
B 
G 
T 
F 
B 
N 
L 
R 
Z 
HH 
F 
SH 
R 
S 
Z 
P 
P 
P 
T 
R 
K 
HH 
CH 
S 
S 
V 
CH 
T 
HH 
K 
CH 
L 
T 
G 
CH 
JH 
K 
TH 
K 
M 
HH 
G 
P 
TH 
K 
M 
L 
Z 
K 
DH 
DH 
SH 
HH 
D 
B 
DH 
SH 
G 
W 
JH 
F 
B 
D 
CH 
Z 
TH 
V 
P 
SH 
HH 
B 
M 
Y 
CH 
Z 
R 
L 
T 
CH 
R 
R 
Z 
B 
F 
V 
N 
B 
DH 
P 
Z 
TH 
B 
CH 
HH 
SH 
D 
T 
V 
G 
B 
TH 
B 
R 
HH 
V 
TH 
CH 
HH 
DH 
Z 
TH 
TH 
P 
R 
R 
K 
N 
DH 
M 
HH 
D 
N 
G 
L 
L 
T 
DH 
HH 
Y 
D 
CH 
L 
W 
S 
N 
G 
T 
P 
CH 
TH 
SH 
DH 
SH 
F 
JH 
HH 
M 
L 
N 
JH 
SH 
B 
JH 
Z 
B 
HH 
G 
F 
SH 
P 
L 
Z 
T 
G 
TH 
G 
TH 
R 
CH 
W 
Z 
G 
CH 
T 
S 
W 
HH 
B 
R 
F 
N 
F 
Y 
D 
HH 
R 
L 
M 
TH 
JH 
HH 
V 
T 
HH 
S 
N 
DH 
Y 
G 
M 
V 
TH 
T 
M 
K 
DH 
M 
CH 
DH 
S 
F 
CH 
N 
L 
S 
V 
CH 
G 
R 
D 
B 
G 
JH 
SH 
P 
T 
V 
G 
DH 
M 
JH 
R 
Y 
V 
V 
W 
CH 
Z 
M 
S 
R 
Z 
W 
DH 
DH 
F 
B 
N 
W 
SH 
DH 
HH 
T 
S 
L 
P 
S 
S 
DH 
V 
TH 
S 
S 
Z 
T 
G 
TH 
W 
S 
L 
P 
Y 
CH 
Y 
CH 
R 
CH 
N 
R 
SH 
Z 
JH 
HH 
DH 
N 
SH 
JH 
T 
SH 
B 
SH 
CH 
TH 
Z 
D 
P 
L 
D 
CH 
CH 
N 
N 
W 
JH 
JH 
R 
P 
Z 
HH 
F 
CH 
G 
W 
Y 
S 
Z 
F 
R 
V 
K 
TH 
W 
M 
Z 
Y 
B 
P 
Y 
D 
F 
W 
D 
V 
S 
B 
G 
R 
S 
L 
R 
V 
JH 
Z 
Y 
DH 
D 
TH 
R 
N 
SH 
G 
DH 
L 
W 
T 
L 
HH 
F 
N 
S 
B 
W 
P 
M 
F 
CH 
HH 
TH 
T 
K 
R 
G 
Z 
TH 
L 
L 
L 
M 
W 
B 
G 
R 
TH 
B 
Z 
Z 
CH 
Z 
P 
CH 
P 
N 
JH 
W 
SH 
F 
D 
N 
F 
SH 
N 
V 
P 
G 
D 
T 
M 
CH 
Y 
L 
D 
F 
T 
N 
N 
L 
V 
D 
P 
K 
TH 
Y 
M 
Z 
N 
Y 
JH 
F 
F 
D 
K 
TH 
S 
HH 
T 
P 
N 
SH 
HH 
CH 
Y 
HH 
N 
F 
F 
JH 
D 
S 
K 
W 
P 
T 
S 
R 
G 
SH 
DH 
CH 
S 
F 
T 
JH 
R 
N 
P 
W 
B 
HH 
L 
S 
D 
V 
V 
TH 
T 
L 
JH 
M 
K 
P 
K 
G 
L 
DH 
T 
F 
W 
W 
N 
T 
B 
P 
SH 
V 
JH 
T 
L 
G 
Y 
N 
SH 
F 
V 
CH 
R 
JH 
JH 
TH 
N 
F 
SH 
B 
L 
TH 
M 
S 
V 
B 
CH 
CH 
V 
HH 
V 
D 
SH 
HH 
G 
DH 
M 
D 
W 
W 
SH 
S 
R 
T 
K 
Y 
SH 
DH 
V 
TH 
G 
DH 
D 
P 
D 
W 
Y 
G 
Y 
F 
V 
T 
L 
N 
S 
HH 
G 
G 
CH 
JH 
G 
Z 
D 
B 
F 
DH 
T 
Z 
S 
T 
Z 
DH 
CH 
HH 
CH 
P 
G 
L 
R 
D 
DH 
HH 
M 
R 
T 
L 
Z 
DH 
Z 
W 
W 
G 
D 
F 
TH 
TH 
HH 
CH 
Y 
SH 
V 
S 
D 
B 
Y 
T 
R 
V 
G 
SH 
CH 
DH 
D 
L 
G 
F 
DH 
D 
W 
D 
T 
N 
S 
L 
JH 
W 
S 
L 
TH 
CH 
F 
V 
T 
SH 
CH 
S 
K 
CH 
SH 
M 
HH 
T 
TH 
S 
M 
P 
SH 
DH 
D 
N 
JH 
W 
R 
M 
TH 
T 
L 
HH 
L 
B 
V 
R 
JH 
S 
F 
S 
B 
Y 
SH 
Z 
G 
R 
HH 
TH 
L 
TH 
W 
CH 
G 
R 
F 
CH 
HH 
P 
F 
L 
DH 
Y 
G 
CH 
Y 
Y 
W 
TH 
N 
P 
F 
D 
D 
W 
G 
JH 
Z 
P 
DH 
W 
SH 
S 
M 
M 
CH 
M 
HH 
W 
DH 
CH 
W 
N 
M 
S 
L 
CH 
G 
F 
M 
Y 
D 
JH 
V 
DH 
G 
TH 
P 
D 
CH 
F 
L 
L 
W 
B 
CH 
W 
CH 
G 
HH 
T 
Z 
SH 
Z 
HH 
K 
L 
R 
SH 
M 
P 
JH 
K 
F 
V 
Z 
W 
W 
R 
L 
K 
V 
JH 
T 
W 
K 
R 
D 
TH 
W 
T 
TH 
M 
Z 
T 
W 
F 
W 
DH 
T 
SH 
HH 
SH 
M 
W 
Z 
R 
L 
Y 
M 
Y 
B 
SH 
B 
D 
K 
Y 
G 
F 
N 
R 
N 
Y 
R 
G 
T 
G 
G 
F 
SH 
F 
B 
M 
CH 
N 
V 
G 
G 
F 
W 
DH 
G 
HH 
CH 
DH 
CH 
P 
K 
B 
DH 
G 
DH 
M 
F 
V 
W 
SH 
B 
R 
N 
K 
G 
T 
DH 
W 
R 
V 
S 
NG 
Z 
P 
Z 
CH 
F 
M 
P 
JH 
P 
P 
M 
K 
Y 
Z 
M 
M 
DH 
D 
T 
F 
R 
N 
DH 
B 
TH 
T 
Z 
K 
R 
SH 
M 
R 
Y 
DH 
HH 
B 
N 
G 
S 
P 
G 
F 
HH 
Y 
TH 
K 
D 
R 
JH 
Z 
G 
T 
Z 
DH 
K 
Y 
HH 
JH 
CH 
W 
S 
M 
TH 
M 
CH 
Z 
S 
T 
T 
Z 
L 
R 
V 
JH 
S 
F 
F 
SH 
Z 
R 
K 
Z 
S 
CH 
Z 
B 
CH 
D 
HH 
HH 
R 
CH 
M 
M 
Z 
T 
G 
CH 
SH 
N 
Z 
F 
G 
Z 
R 
TH 
Y 
K 
F 
M 
TH 
W 
JH 
N 
V 
K 
V 
F 
HH 
K 
N 
T 
TH 
N 
L 
V 
DH 
S 
D 
P 
K 
R 
V 
T 
TH 
N 
HH 
Y 
B 
TH 
G 
B 
B 
CH 
T 
P 
JH 
N 
HH 
HH 
V 
Z 
M 
K 
B 
D 
D 
V 
DH 
P 
V 
K 
JH 
R 
Z 
F 
Z 
M 
Z 
Y 
G 
S 
D 
M 
P 
JH 
JH 
G 
P 
TH 
TH 
P 
N 
V 
HH 
Y 
DH 
F 
CH 
Z 
V 
DH 
Y 
B 
R 
HH 
CH 
DH 
K 
JH 
L 
L 
D 
Y 
W 
B 
V 
DH 
R 
P 
F 
HH 
JH 
R 
DH 
Z 
Y 
G 
S 
Y 
W 
L 
HH 
F 
TH 
SH 
F 
HH 
M 
R 
P 
M 
D 
SH 
Y 
Y 
S 
SH 
DH 
Z 
K 
JH 
W 
S 
V 
M 
Y 
N 
T 
CH 
CH 
D 
Z 
R 
V 
B 
G 
Y 
G 
Z 
B 
D 
SH 
S 
G 
K 
DH 
L 
R 
Y 
Y 
G 
D 
B 
T 
B 
M 
L 
Z 
DH 
R 
R 
DH 
DH 
S 
G 
TH 
V 
S 
F 
T 
L 
M 
N 
CH 
S 
N 
HH 
B 
M 
W 
JH 
F 
W 
S 
P 
K 
M 
T 
R 
D 
JH 
T 
F 
CH 
D 
HH 
Y 
JH 
N 
Y 
HH 
L 
Y 
V 
M 
CH 
CH 
T 
DH 
Y 
R 
B 
K 
K 
Y 
N 
HH 
HH 
L 
K 
P 
L 
D 
S 
K 
HH 
HH 
N 
HH 
SH 
V 
TH 
SH 
Y 
K 
DH 
Y 
JH 
N 
K 
D 
P 
M 
DH 
DH 
G 
Z 
P 
R 
F 
Z 
SH 
F 
CH 
SH 
V 
L 
DH 
HH 
P 
SH 
Y 
L 
W 
CH 
N 
SH 
B 
TH 
CH 
T 
Y 
B 
B 
F 
S 
JH 
M 
D 
B 
N 
SH 
F 
S 
T 
D 
N 
Y 
G 
K 
S 
JH 
CH 
Z 
SH 
CH 
Y 
N 
S 
HH 
P 
D 
T 
T 
R 
M 
L 
F 
W 
Y 
DH 
W 
Z 
B 
Y 
Y 
T 
L 
F 
V 
S 
Z 
CH 
F 
Z 
Z 
JH 
DH 
SH 
Z 
JH 
DH 
SH 
G 
L 
CH 
Y 
CH 
R 
S 
Z 
Y 
T 
R 
N 
F 
K 
L 
P 
Y 
Z 
R 
R 
B 
Z 
Z 
HH 
S 
F 
F 
S 
K 
M 
HH 
L 
JH 
CH 
TH 
CH 
