segmentNgrams,ngramSize,SegmentNgramCount
#,1,110
# B,2,3
# CH,2,1
# D,2,3
# DH,2,1
# F,2,3
# G,2,4
# HH,2,2
# JH,2,1
# K,2,4
# L,2,1
# M,2,1
# N,2,1
# P,2,3
# R,2,1
# S,2,14
# SH,2,2
# T,2,3
# TH,2,3
# V,2,1
# W,2,1
# Y,2,1
# Z,2,1
B,1,3
B #,2,1
B L,2,1
B R,2,1
CH,1,1
CH #,2,1
D,1,3
D #,2,1
D R,2,1
D W,2,1
DH,1,1
DH #,2,1
F,1,3
F #,2,1
F L,2,1
F R,2,1
G,1,4
G #,2,1
G L,2,1
G R,2,1
G W,2,1
HH,1,2
HH #,2,1
HH W,2,1
JH,1,1
JH #,2,1
K,1,8
K #,2,2
K L,2,2
K R,2,2
K W,2,2
L,1,9
L #,2,9
M,1,2
M #,2,2
N,1,2
N #,2,2
P,1,6
P #,2,2
P L,2,2
P R,2,2
R,1,13
R #,2,13
S,1,14
S #,2,1
S K,2,4
S L,2,1
S M,2,1
S N,2,1
S P,2,3
S T,2,2
S W,2,1
SH,1,2
SH #,2,1
SH R,2,1
T,1,5
T #,2,2
T R,2,2
T W,2,1
TH,1,3
TH #,2,1
TH R,2,1
TH W,2,1
V,1,1
V #,2,1
W,1,9
W #,2,9
Y,1,1
Y #,2,1
Z,1,1
Z #,2,1
