FeatureNgrams,ngramSize,FeatureNgramCount
-anterior,1,14
-anterior -anterior,2,9
-anterior -back,2,11
-anterior -consonantal,2,9
-anterior -coronal,2,3
-anterior -delayed_release,2,14
-anterior -distributed,2,8
-anterior -dorsal,2,11
-anterior -front,2,14
-anterior -high,2,11
-anterior -labial,2,11
-anterior -labiodental,2,14
-anterior -lateral,2,9
-anterior -nasal,2,14
-anterior -round,2,11
-anterior -spread_gl,2,14
-anterior -strident,2,14
-anterior -tense,2,11
-anterior #,2,14
-anterior +anterior,2,5
-anterior +approximant,2,14
-anterior +back,2,3
-anterior +consonantal,2,5
-anterior +continuant,2,14
-anterior +coronal,2,11
-anterior +distributed,2,6
-anterior +dorsal,2,3
-anterior +high,2,3
-anterior +labial,2,3
-anterior +lateral,2,5
-anterior +round,2,3
-anterior +sonorant,2,14
-anterior +tense,2,3
-anterior +voice,2,14
-approximant,1,18
-approximant -anterior,2,19
-approximant -approximant,2,5
-approximant -back,2,20
-approximant -consonantal,2,16
-approximant -continuant,2,5
-approximant -coronal,2,10
-approximant -delayed_release,2,27
-approximant -distributed,2,18
-approximant -dorsal,2,19
-approximant -front,2,27
-approximant -high,2,19
-approximant -labial,2,18
-approximant -labiodental,2,27
-approximant -lateral,2,21
-approximant -nasal,2,25
-approximant -round,2,20
-approximant -sonorant,2,3
-approximant -spread_gl,2,27
-approximant -strident,2,27
-approximant -tense,2,20
-approximant -voice,2,3
-approximant #,2,18
-approximant +anterior,2,8
-approximant +approximant,2,22
-approximant +back,2,7
-approximant +consonantal,2,11
-approximant +continuant,2,22
-approximant +coronal,2,17
-approximant +distributed,2,9
-approximant +dorsal,2,8
-approximant +high,2,8
-approximant +labial,2,9
-approximant +lateral,2,6
-approximant +nasal,2,2
-approximant +round,2,7
-approximant +sonorant,2,24
-approximant +tense,2,7
-approximant +voice,2,24
-back,1,21
-back -anterior,2,19
-back -approximant,2,5
-back -back,2,20
-back -consonantal,2,16
-back -continuant,2,5
-back -coronal,2,10
-back -delayed_release,2,27
-back -distributed,2,18
-back -dorsal,2,19
-back -front,2,27
-back -high,2,19
-back -labial,2,18
-back -labiodental,2,27
-back -lateral,2,21
-back -nasal,2,25
-back -round,2,20
-back -sonorant,2,3
-back -spread_gl,2,27
-back -strident,2,27
-back -tense,2,20
-back -voice,2,3
-back #,2,21
-back +anterior,2,8
-back +approximant,2,22
-back +back,2,7
-back +consonantal,2,11
-back +continuant,2,22
-back +coronal,2,17
-back +distributed,2,9
-back +dorsal,2,8
-back +high,2,8
-back +labial,2,9
-back +lateral,2,6
-back +nasal,2,2
-back +round,2,7
-back +sonorant,2,24
-back +tense,2,7
-back +voice,2,24
-consonantal,1,4
-consonantal -anterior,2,1
-consonantal -consonantal,2,1
-consonantal -coronal,2,1
-consonantal -delayed_release,2,1
-consonantal -distributed,2,1
-consonantal -front,2,1
-consonantal -labiodental,2,1
-consonantal -lateral,2,1
-consonantal -nasal,2,1
-consonantal -spread_gl,2,1
-consonantal -strident,2,1
-consonantal #,2,4
-consonantal +approximant,2,1
-consonantal +back,2,1
-consonantal +continuant,2,1
-consonantal +dorsal,2,1
-consonantal +high,2,1
-consonantal +labial,2,1
-consonantal +round,2,1
-consonantal +sonorant,2,1
-consonantal +tense,2,1
-consonantal +voice,2,1
-continuant,1,10
-continuant -anterior,2,10
-continuant -back,2,10
-continuant -consonantal,2,10
-continuant -coronal,2,4
-continuant -delayed_release,2,14
-continuant -distributed,2,8
-continuant -dorsal,2,10
-continuant -front,2,14
-continuant -high,2,10
-continuant -labial,2,10
-continuant -labiodental,2,14
-continuant -lateral,2,10
-continuant -nasal,2,14
-continuant -round,2,10
-continuant -spread_gl,2,14
-continuant -strident,2,14
-continuant -tense,2,10
-continuant #,2,10
-continuant +anterior,2,4
-continuant +approximant,2,14
-continuant +back,2,4
-continuant +consonantal,2,4
-continuant +continuant,2,14
-continuant +coronal,2,10
-continuant +distributed,2,6
-continuant +dorsal,2,4
-continuant +high,2,4
-continuant +labial,2,4
-continuant +lateral,2,4
-continuant +round,2,4
-continuant +sonorant,2,14
-continuant +tense,2,4
-continuant +voice,2,14
-coronal,1,10
-coronal -anterior,2,8
-coronal -back,2,10
-coronal -consonantal,2,8
-coronal -coronal,2,3
-coronal -delayed_release,2,13
-coronal -distributed,2,8
-coronal -dorsal,2,10
-coronal -front,2,13
-coronal -high,2,10
-coronal -labial,2,10
-coronal -labiodental,2,13
-coronal -lateral,2,8
-coronal -nasal,2,13
-coronal -round,2,10
-coronal -spread_gl,2,13
-coronal -strident,2,13
-coronal -tense,2,10
-coronal #,2,10
-coronal +anterior,2,5
-coronal +approximant,2,13
-coronal +back,2,3
-coronal +consonantal,2,5
-coronal +continuant,2,13
-coronal +coronal,2,10
-coronal +distributed,2,5
-coronal +dorsal,2,3
-coronal +high,2,3
-coronal +labial,2,3
-coronal +lateral,2,5
-coronal +round,2,3
-coronal +sonorant,2,13
-coronal +tense,2,3
-coronal +voice,2,13
-delayed_release,1,12
-delayed_release -anterior,2,10
-delayed_release -back,2,10
-delayed_release -consonantal,2,10
-delayed_release -coronal,2,4
-delayed_release -delayed_release,2,14
-delayed_release -distributed,2,8
-delayed_release -dorsal,2,10
-delayed_release -front,2,14
-delayed_release -high,2,10
-delayed_release -labial,2,10
-delayed_release -labiodental,2,14
-delayed_release -lateral,2,10
-delayed_release -nasal,2,14
-delayed_release -round,2,10
-delayed_release -spread_gl,2,14
-delayed_release -strident,2,14
-delayed_release -tense,2,10
-delayed_release #,2,12
-delayed_release +anterior,2,4
-delayed_release +approximant,2,14
-delayed_release +back,2,4
-delayed_release +consonantal,2,4
-delayed_release +continuant,2,14
-delayed_release +coronal,2,10
-delayed_release +distributed,2,6
-delayed_release +dorsal,2,4
-delayed_release +high,2,4
-delayed_release +labial,2,4
-delayed_release +lateral,2,4
-delayed_release +round,2,4
-delayed_release +sonorant,2,14
-delayed_release +tense,2,4
-delayed_release +voice,2,14
-distributed,1,16
-distributed -anterior,2,16
-distributed -approximant,2,5
-distributed -back,2,18
-distributed -consonantal,2,13
-distributed -continuant,2,5
-distributed -coronal,2,9
-distributed -delayed_release,2,24
-distributed -distributed,2,17
-distributed -dorsal,2,17
-distributed -front,2,24
-distributed -high,2,17
-distributed -labial,2,16
-distributed -labiodental,2,24
-distributed -lateral,2,18
-distributed -nasal,2,22
-distributed -round,2,18
-distributed -sonorant,2,3
-distributed -spread_gl,2,24
-distributed -strident,2,24
-distributed -tense,2,18
-distributed -voice,2,3
-distributed #,2,16
-distributed +anterior,2,8
-distributed +approximant,2,19
-distributed +back,2,6
-distributed +consonantal,2,11
-distributed +continuant,2,19
-distributed +coronal,2,15
-distributed +distributed,2,7
-distributed +dorsal,2,7
-distributed +high,2,7
-distributed +labial,2,8
-distributed +lateral,2,6
-distributed +nasal,2,2
-distributed +round,2,6
-distributed +sonorant,2,21
-distributed +tense,2,6
-distributed +voice,2,21
-dorsal,1,18
-dorsal -anterior,2,15
-dorsal -approximant,2,5
-dorsal -back,2,16
-dorsal -consonantal,2,12
-dorsal -continuant,2,5
-dorsal -coronal,2,8
-dorsal -delayed_release,2,21
-dorsal -distributed,2,14
-dorsal -dorsal,2,15
-dorsal -front,2,21
-dorsal -high,2,15
-dorsal -labial,2,14
-dorsal -labiodental,2,21
-dorsal -lateral,2,17
-dorsal -nasal,2,19
-dorsal -round,2,16
-dorsal -sonorant,2,3
-dorsal -spread_gl,2,21
-dorsal -strident,2,21
-dorsal -tense,2,16
-dorsal -voice,2,3
-dorsal #,2,18
-dorsal +anterior,2,6
-dorsal +approximant,2,16
-dorsal +back,2,5
-dorsal +consonantal,2,9
-dorsal +continuant,2,16
-dorsal +coronal,2,13
-dorsal +distributed,2,7
-dorsal +dorsal,2,6
-dorsal +high,2,6
-dorsal +labial,2,7
-dorsal +lateral,2,4
-dorsal +nasal,2,2
-dorsal +round,2,5
-dorsal +sonorant,2,18
-dorsal +tense,2,5
-dorsal +voice,2,18
-front,1,21
-front -anterior,2,19
-front -approximant,2,5
-front -back,2,20
-front -consonantal,2,16
-front -continuant,2,5
-front -coronal,2,10
-front -delayed_release,2,27
-front -distributed,2,18
-front -dorsal,2,19
-front -front,2,27
-front -high,2,19
-front -labial,2,18
-front -labiodental,2,27
-front -lateral,2,21
-front -nasal,2,25
-front -round,2,20
-front -sonorant,2,3
-front -spread_gl,2,27
-front -strident,2,27
-front -tense,2,20
-front -voice,2,3
-front #,2,21
-front +anterior,2,8
-front +approximant,2,22
-front +back,2,7
-front +consonantal,2,11
-front +continuant,2,22
-front +coronal,2,17
-front +distributed,2,9
-front +dorsal,2,8
-front +high,2,8
-front +labial,2,9
-front +lateral,2,6
-front +nasal,2,2
-front +round,2,7
-front +sonorant,2,24
-front +tense,2,7
-front +voice,2,24
-high,1,18
-high -anterior,2,15
-high -approximant,2,5
-high -back,2,16
-high -consonantal,2,12
-high -continuant,2,5
-high -coronal,2,8
-high -delayed_release,2,21
-high -distributed,2,14
-high -dorsal,2,15
-high -front,2,21
-high -high,2,15
-high -labial,2,14
-high -labiodental,2,21
-high -lateral,2,17
-high -nasal,2,19
-high -round,2,16
-high -sonorant,2,3
-high -spread_gl,2,21
-high -strident,2,21
-high -tense,2,16
-high -voice,2,3
-high #,2,18
-high +anterior,2,6
-high +approximant,2,16
-high +back,2,5
-high +consonantal,2,9
-high +continuant,2,16
-high +coronal,2,13
-high +distributed,2,7
-high +dorsal,2,6
-high +high,2,6
-high +labial,2,7
-high +lateral,2,4
-high +nasal,2,2
-high +round,2,5
-high +sonorant,2,18
-high +tense,2,5
-high +voice,2,18
-labial,1,16
-labial -anterior,2,16
-labial -approximant,2,5
-labial -back,2,14
-labial -consonantal,2,13
-labial -continuant,2,5
-labial -coronal,2,10
-labial -delayed_release,2,21
-labial -distributed,2,15
-labial -dorsal,2,13
-labial -front,2,21
-labial -high,2,13
-labial -labial,2,12
-labial -labiodental,2,21
-labial -lateral,2,18
-labial -nasal,2,19
-labial -round,2,14
-labial -sonorant,2,3
-labial -spread_gl,2,21
-labial -strident,2,21
-labial -tense,2,14
-labial -voice,2,3
-labial #,2,16
-labial +anterior,2,5
-labial +approximant,2,16
-labial +back,2,7
-labial +consonantal,2,8
-labial +continuant,2,16
-labial +coronal,2,11
-labial +distributed,2,6
-labial +dorsal,2,8
-labial +high,2,8
-labial +labial,2,9
-labial +lateral,2,3
-labial +nasal,2,2
-labial +round,2,7
-labial +sonorant,2,18
-labial +tense,2,7
-labial +voice,2,18
-labiodental,1,20
-labiodental -anterior,2,18
-labiodental -approximant,2,5
-labiodental -back,2,18
-labiodental -consonantal,2,15
-labiodental -continuant,2,5
-labiodental -coronal,2,10
-labiodental -delayed_release,2,25
-labiodental -distributed,2,17
-labiodental -dorsal,2,17
-labiodental -front,2,25
-labiodental -high,2,17
-labiodental -labial,2,16
-labiodental -labiodental,2,25
-labiodental -lateral,2,20
-labiodental -nasal,2,23
-labiodental -round,2,18
-labiodental -sonorant,2,3
-labiodental -spread_gl,2,25
-labiodental -strident,2,25
-labiodental -tense,2,18
-labiodental -voice,2,3
-labiodental #,2,20
-labiodental +anterior,2,7
-labiodental +approximant,2,20
-labiodental +back,2,7
-labiodental +consonantal,2,10
-labiodental +continuant,2,20
-labiodental +coronal,2,15
-labiodental +distributed,2,8
-labiodental +dorsal,2,8
-labiodental +high,2,8
-labiodental +labial,2,9
-labiodental +lateral,2,5
-labiodental +nasal,2,2
-labiodental +round,2,7
-labiodental +sonorant,2,22
-labiodental +tense,2,7
-labiodental +voice,2,22
-lateral,1,21
-lateral -anterior,2,19
-lateral -approximant,2,5
-lateral -back,2,20
-lateral -consonantal,2,16
-lateral -continuant,2,5
-lateral -coronal,2,10
-lateral -delayed_release,2,27
-lateral -distributed,2,18
-lateral -dorsal,2,19
-lateral -front,2,27
-lateral -high,2,19
-lateral -labial,2,18
-lateral -labiodental,2,27
-lateral -lateral,2,21
-lateral -nasal,2,25
-lateral -round,2,20
-lateral -sonorant,2,3
-lateral -spread_gl,2,27
-lateral -strident,2,27
-lateral -tense,2,20
-lateral -voice,2,3
-lateral #,2,21
-lateral +anterior,2,8
-lateral +approximant,2,22
-lateral +back,2,7
-lateral +consonantal,2,11
-lateral +continuant,2,22
-lateral +coronal,2,17
-lateral +distributed,2,9
-lateral +dorsal,2,8
-lateral +high,2,8
-lateral +labial,2,9
-lateral +lateral,2,6
-lateral +nasal,2,2
-lateral +round,2,7
-lateral +sonorant,2,24
-lateral +tense,2,7
-lateral +voice,2,24
-nasal,1,20
-nasal -anterior,2,19
-nasal -approximant,2,5
-nasal -back,2,20
-nasal -consonantal,2,16
-nasal -continuant,2,5
-nasal -coronal,2,10
-nasal -delayed_release,2,27
-nasal -distributed,2,18
-nasal -dorsal,2,19
-nasal -front,2,27
-nasal -high,2,19
-nasal -labial,2,18
-nasal -labiodental,2,27
-nasal -lateral,2,21
-nasal -nasal,2,25
-nasal -round,2,20
-nasal -sonorant,2,3
-nasal -spread_gl,2,27
-nasal -strident,2,27
-nasal -tense,2,20
-nasal -voice,2,3
-nasal #,2,20
-nasal +anterior,2,8
-nasal +approximant,2,22
-nasal +back,2,7
-nasal +consonantal,2,11
-nasal +continuant,2,22
-nasal +coronal,2,17
-nasal +distributed,2,9
-nasal +dorsal,2,8
-nasal +high,2,8
-nasal +labial,2,9
-nasal +lateral,2,6
-nasal +nasal,2,2
-nasal +round,2,7
-nasal +sonorant,2,24
-nasal +tense,2,7
-nasal +voice,2,24
-round,1,21
-round -anterior,2,19
-round -approximant,2,5
-round -back,2,20
-round -consonantal,2,16
-round -continuant,2,5
-round -coronal,2,10
-round -delayed_release,2,27
-round -distributed,2,18
-round -dorsal,2,19
-round -front,2,27
-round -high,2,19
-round -labial,2,18
-round -labiodental,2,27
-round -lateral,2,21
-round -nasal,2,25
-round -round,2,20
-round -sonorant,2,3
-round -spread_gl,2,27
-round -strident,2,27
-round -tense,2,20
-round -voice,2,3
-round #,2,21
-round +anterior,2,8
-round +approximant,2,22
-round +back,2,7
-round +consonantal,2,11
-round +continuant,2,22
-round +coronal,2,17
-round +distributed,2,9
-round +dorsal,2,8
-round +high,2,8
-round +labial,2,9
-round +lateral,2,6
-round +nasal,2,2
-round +round,2,7
-round +sonorant,2,24
-round +tense,2,7
-round +voice,2,24
-sonorant,1,16
-sonorant -anterior,2,19
-sonorant -approximant,2,5
-sonorant -back,2,20
-sonorant -consonantal,2,16
-sonorant -continuant,2,5
-sonorant -coronal,2,10
-sonorant -delayed_release,2,27
-sonorant -distributed,2,18
-sonorant -dorsal,2,19
-sonorant -front,2,27
-sonorant -high,2,19
-sonorant -labial,2,18
-sonorant -labiodental,2,27
-sonorant -lateral,2,21
-sonorant -nasal,2,25
-sonorant -round,2,20
-sonorant -sonorant,2,3
-sonorant -spread_gl,2,27
-sonorant -strident,2,27
-sonorant -tense,2,20
-sonorant -voice,2,3
-sonorant #,2,16
-sonorant +anterior,2,8
-sonorant +approximant,2,22
-sonorant +back,2,7
-sonorant +consonantal,2,11
-sonorant +continuant,2,22
-sonorant +coronal,2,17
-sonorant +distributed,2,9
-sonorant +dorsal,2,8
-sonorant +high,2,8
-sonorant +labial,2,9
-sonorant +lateral,2,6
-sonorant +nasal,2,2
-sonorant +round,2,7
-sonorant +sonorant,2,24
-sonorant +tense,2,7
-sonorant +voice,2,24
-spread_gl,1,21
-spread_gl -anterior,2,18
-spread_gl -approximant,2,5
-spread_gl -back,2,20
-spread_gl -consonantal,2,15
-spread_gl -continuant,2,5
-spread_gl -coronal,2,9
-spread_gl -delayed_release,2,26
-spread_gl -distributed,2,17
-spread_gl -dorsal,2,19
-spread_gl -front,2,26
-spread_gl -high,2,19
-spread_gl -labial,2,18
-spread_gl -labiodental,2,26
-spread_gl -lateral,2,20
-spread_gl -nasal,2,24
-spread_gl -round,2,20
-spread_gl -sonorant,2,3
-spread_gl -spread_gl,2,26
-spread_gl -strident,2,26
-spread_gl -tense,2,20
-spread_gl -voice,2,3
-spread_gl #,2,21
-spread_gl +anterior,2,8
-spread_gl +approximant,2,21
-spread_gl +back,2,6
-spread_gl +consonantal,2,11
-spread_gl +continuant,2,21
-spread_gl +coronal,2,17
-spread_gl +distributed,2,9
-spread_gl +dorsal,2,7
-spread_gl +high,2,7
-spread_gl +labial,2,8
-spread_gl +lateral,2,6
-spread_gl +nasal,2,2
-spread_gl +round,2,6
-spread_gl +sonorant,2,23
-spread_gl +tense,2,6
-spread_gl +voice,2,23
-strident,1,17
-strident -anterior,2,14
-strident -back,2,13
-strident -consonantal,2,14
-strident -coronal,2,6
-strident -delayed_release,2,19
-strident -distributed,2,11
-strident -dorsal,2,13
-strident -front,2,19
-strident -high,2,13
-strident -labial,2,13
-strident -labiodental,2,19
-strident -lateral,2,14
-strident -nasal,2,19
-strident -round,2,13
-strident -spread_gl,2,19
-strident -strident,2,19
-strident -tense,2,13
-strident #,2,17
-strident +anterior,2,5
-strident +approximant,2,19
-strident +back,2,6
-strident +consonantal,2,5
-strident +continuant,2,19
-strident +coronal,2,13
-strident +distributed,2,8
-strident +dorsal,2,6
-strident +high,2,6
-strident +labial,2,6
-strident +lateral,2,5
-strident +round,2,6
-strident +sonorant,2,19
-strident +tense,2,6
-strident +voice,2,19
-tense,1,20
-tense -anterior,2,19
-tense -approximant,2,5
-tense -back,2,20
-tense -consonantal,2,16
-tense -continuant,2,5
-tense -coronal,2,10
-tense -delayed_release,2,27
-tense -distributed,2,18
-tense -dorsal,2,19
-tense -front,2,27
-tense -high,2,19
-tense -labial,2,18
-tense -labiodental,2,27
-tense -lateral,2,21
-tense -nasal,2,25
-tense -round,2,20
-tense -sonorant,2,3
-tense -spread_gl,2,27
-tense -strident,2,27
-tense -tense,2,20
-tense -voice,2,3
-tense #,2,20
-tense +anterior,2,8
-tense +approximant,2,22
-tense +back,2,7
-tense +consonantal,2,11
-tense +continuant,2,22
-tense +coronal,2,17
-tense +distributed,2,9
-tense +dorsal,2,8
-tense +high,2,8
-tense +labial,2,9
-tense +lateral,2,6
-tense +nasal,2,2
-tense +round,2,7
-tense +sonorant,2,24
-tense +tense,2,7
-tense +voice,2,24
-voice,1,9
-voice -anterior,2,14
-voice -approximant,2,5
-voice -back,2,15
-voice -consonantal,2,11
-voice -continuant,2,5
-voice -coronal,2,8
-voice -delayed_release,2,20
-voice -distributed,2,14
-voice -dorsal,2,14
-voice -front,2,20
-voice -high,2,14
-voice -labial,2,13
-voice -labiodental,2,20
-voice -lateral,2,16
-voice -nasal,2,18
-voice -round,2,15
-voice -sonorant,2,3
-voice -spread_gl,2,20
-voice -strident,2,20
-voice -tense,2,15
-voice -voice,2,3
-voice #,2,9
-voice +anterior,2,6
-voice +approximant,2,15
-voice +back,2,5
-voice +consonantal,2,9
-voice +continuant,2,15
-voice +coronal,2,12
-voice +distributed,2,6
-voice +dorsal,2,6
-voice +high,2,6
-voice +labial,2,7
-voice +lateral,2,4
-voice +nasal,2,2
-voice +round,2,5
-voice +sonorant,2,17
-voice +tense,2,5
-voice +voice,2,17
#,1,1
# -anterior,2,14
# -approximant,2,18
# -back,2,21
# -consonantal,2,4
# -continuant,2,10
# -coronal,2,10
# -delayed_release,2,12
# -distributed,2,16
# -dorsal,2,18
# -front,2,21
# -high,2,18
# -labial,2,16
# -labiodental,2,20
# -lateral,2,21
# -nasal,2,20
# -round,2,21
# -sonorant,2,16
# -spread_gl,2,21
# -strident,2,17
# -tense,2,20
# -voice,2,9
# +anterior,2,8
# +approximant,2,4
# +back,2,1
# +consonantal,2,18
# +continuant,2,12
# +coronal,2,12
# +delayed_release,2,10
# +distributed,2,6
# +dorsal,2,4
# +front,2,1
# +high,2,4
# +labial,2,6
# +labiodental,2,2
# +lateral,2,1
# +nasal,2,2
# +round,2,1
# +sonorant,2,6
# +spread_gl,2,1
# +strident,2,5
# +tense,2,2
# +voice,2,13
+anterior,1,8
+anterior -anterior,2,10
+anterior -approximant,2,5
+anterior -back,2,9
+anterior -consonantal,2,7
+anterior -continuant,2,5
+anterior -coronal,2,7
+anterior -delayed_release,2,13
+anterior -distributed,2,10
+anterior -dorsal,2,8
+anterior -front,2,13
+anterior -high,2,8
+anterior -labial,2,7
+anterior -labiodental,2,13
+anterior -lateral,2,12
+anterior -nasal,2,11
+anterior -round,2,9
+anterior -sonorant,2,3
+anterior -spread_gl,2,13
+anterior -strident,2,13
+anterior -tense,2,9
+anterior -voice,2,3
+anterior #,2,8
+anterior +anterior,2,3
+anterior +approximant,2,8
+anterior +back,2,4
+anterior +consonantal,2,6
+anterior +continuant,2,8
+anterior +coronal,2,6
+anterior +distributed,2,3
+anterior +dorsal,2,5
+anterior +high,2,5
+anterior +labial,2,6
+anterior +lateral,2,1
+anterior +nasal,2,2
+anterior +round,2,4
+anterior +sonorant,2,10
+anterior +tense,2,4
+anterior +voice,2,10
+approximant,1,4
+approximant #,2,4
+back,1,1
+back #,2,1
+consonantal,1,18
+consonantal -anterior,2,18
+consonantal -approximant,2,5
+consonantal -back,2,20
+consonantal -consonantal,2,15
+consonantal -continuant,2,5
+consonantal -coronal,2,9
+consonantal -delayed_release,2,26
+consonantal -distributed,2,17
+consonantal -dorsal,2,19
+consonantal -front,2,26
+consonantal -high,2,19
+consonantal -labial,2,18
+consonantal -labiodental,2,26
+consonantal -lateral,2,20
+consonantal -nasal,2,24
+consonantal -round,2,20
+consonantal -sonorant,2,3
+consonantal -spread_gl,2,26
+consonantal -strident,2,26
+consonantal -tense,2,20
+consonantal -voice,2,3
+consonantal #,2,18
+consonantal +anterior,2,8
+consonantal +approximant,2,21
+consonantal +back,2,6
+consonantal +consonantal,2,11
+consonantal +continuant,2,21
+consonantal +coronal,2,17
+consonantal +distributed,2,9
+consonantal +dorsal,2,7
+consonantal +high,2,7
+consonantal +labial,2,8
+consonantal +lateral,2,6
+consonantal +nasal,2,2
+consonantal +round,2,6
+consonantal +sonorant,2,23
+consonantal +tense,2,6
+consonantal +voice,2,23
+continuant,1,12
+continuant -anterior,2,9
+continuant -approximant,2,5
+continuant -back,2,10
+continuant -consonantal,2,6
+continuant -continuant,2,5
+continuant -coronal,2,6
+continuant -delayed_release,2,13
+continuant -distributed,2,10
+continuant -dorsal,2,9
+continuant -front,2,13
+continuant -high,2,9
+continuant -labial,2,8
+continuant -labiodental,2,13
+continuant -lateral,2,11
+continuant -nasal,2,11
+continuant -round,2,10
+continuant -sonorant,2,3
+continuant -spread_gl,2,13
+continuant -strident,2,13
+continuant -tense,2,10
+continuant -voice,2,3
+continuant #,2,12
+continuant +anterior,2,4
+continuant +approximant,2,8
+continuant +back,2,3
+continuant +consonantal,2,7
+continuant +continuant,2,8
+continuant +coronal,2,7
+continuant +distributed,2,3
+continuant +dorsal,2,4
+continuant +high,2,4
+continuant +labial,2,5
+continuant +lateral,2,2
+continuant +nasal,2,2
+continuant +round,2,3
+continuant +sonorant,2,10
+continuant +tense,2,3
+continuant +voice,2,10
+coronal,1,12
+coronal -anterior,2,11
+coronal -approximant,2,5
+coronal -back,2,10
+coronal -consonantal,2,8
+coronal -continuant,2,5
+coronal -coronal,2,7
+coronal -delayed_release,2,14
+coronal -distributed,2,10
+coronal -dorsal,2,9
+coronal -front,2,14
+coronal -high,2,9
+coronal -labial,2,8
+coronal -labiodental,2,14
+coronal -lateral,2,13
+coronal -nasal,2,12
+coronal -round,2,10
+coronal -sonorant,2,3
+coronal -spread_gl,2,14
+coronal -strident,2,14
+coronal -tense,2,10
+coronal -voice,2,3
+coronal #,2,12
+coronal +anterior,2,3
+coronal +approximant,2,9
+coronal +back,2,4
+coronal +consonantal,2,6
+coronal +continuant,2,9
+coronal +coronal,2,7
+coronal +distributed,2,4
+coronal +dorsal,2,5
+coronal +high,2,5
+coronal +labial,2,6
+coronal +lateral,2,1
+coronal +nasal,2,2
+coronal +round,2,4
+coronal +sonorant,2,11
+coronal +tense,2,4
+coronal +voice,2,11
+delayed_release,1,10
+delayed_release -anterior,2,9
+delayed_release -approximant,2,5
+delayed_release -back,2,10
+delayed_release -consonantal,2,6
+delayed_release -continuant,2,5
+delayed_release -coronal,2,6
+delayed_release -delayed_release,2,13
+delayed_release -distributed,2,10
+delayed_release -dorsal,2,9
+delayed_release -front,2,13
+delayed_release -high,2,9
+delayed_release -labial,2,8
+delayed_release -labiodental,2,13
+delayed_release -lateral,2,11
+delayed_release -nasal,2,11
+delayed_release -round,2,10
+delayed_release -sonorant,2,3
+delayed_release -spread_gl,2,13
+delayed_release -strident,2,13
+delayed_release -tense,2,10
+delayed_release -voice,2,3
+delayed_release #,2,10
+delayed_release +anterior,2,4
+delayed_release +approximant,2,8
+delayed_release +back,2,3
+delayed_release +consonantal,2,7
+delayed_release +continuant,2,8
+delayed_release +coronal,2,7
+delayed_release +distributed,2,3
+delayed_release +dorsal,2,4
+delayed_release +high,2,4
+delayed_release +labial,2,5
+delayed_release +lateral,2,2
+delayed_release +nasal,2,2
+delayed_release +round,2,3
+delayed_release +sonorant,2,10
+delayed_release +tense,2,3
+delayed_release +voice,2,10
+distributed,1,6
+distributed -anterior,2,3
+distributed -back,2,2
+distributed -consonantal,2,3
+distributed -coronal,2,1
+distributed -delayed_release,2,3
+distributed -distributed,2,1
+distributed -dorsal,2,2
+distributed -front,2,3
+distributed -high,2,2
+distributed -labial,2,2
+distributed -labiodental,2,3
+distributed -lateral,2,3
+distributed -nasal,2,3
+distributed -round,2,2
+distributed -spread_gl,2,3
+distributed -strident,2,3
+distributed -tense,2,2
+distributed #,2,6
+distributed +approximant,2,3
+distributed +back,2,1
+distributed +continuant,2,3
+distributed +coronal,2,2
+distributed +distributed,2,2
+distributed +dorsal,2,1
+distributed +high,2,1
+distributed +labial,2,1
+distributed +round,2,1
+distributed +sonorant,2,3
+distributed +tense,2,1
+distributed +voice,2,3
+dorsal,1,4
+dorsal -anterior,2,4
+dorsal -back,2,4
+dorsal -consonantal,2,4
+dorsal -coronal,2,2
+dorsal -delayed_release,2,6
+dorsal -distributed,2,4
+dorsal -dorsal,2,4
+dorsal -front,2,6
+dorsal -high,2,4
+dorsal -labial,2,4
+dorsal -labiodental,2,6
+dorsal -lateral,2,4
+dorsal -nasal,2,6
+dorsal -round,2,4
+dorsal -spread_gl,2,6
+dorsal -strident,2,6
+dorsal -tense,2,4
+dorsal #,2,4
+dorsal +anterior,2,2
+dorsal +approximant,2,6
+dorsal +back,2,2
+dorsal +consonantal,2,2
+dorsal +continuant,2,6
+dorsal +coronal,2,4
+dorsal +distributed,2,2
+dorsal +dorsal,2,2
+dorsal +high,2,2
+dorsal +labial,2,2
+dorsal +lateral,2,2
+dorsal +round,2,2
+dorsal +sonorant,2,6
+dorsal +tense,2,2
+dorsal +voice,2,6
+front,1,1
+front #,2,1
+high,1,4
+high -anterior,2,4
+high -back,2,4
+high -consonantal,2,4
+high -coronal,2,2
+high -delayed_release,2,6
+high -distributed,2,4
+high -dorsal,2,4
+high -front,2,6
+high -high,2,4
+high -labial,2,4
+high -labiodental,2,6
+high -lateral,2,4
+high -nasal,2,6
+high -round,2,4
+high -spread_gl,2,6
+high -strident,2,6
+high -tense,2,4
+high #,2,4
+high +anterior,2,2
+high +approximant,2,6
+high +back,2,2
+high +consonantal,2,2
+high +continuant,2,6
+high +coronal,2,4
+high +distributed,2,2
+high +dorsal,2,2
+high +high,2,2
+high +labial,2,2
+high +lateral,2,2
+high +round,2,2
+high +sonorant,2,6
+high +tense,2,2
+high +voice,2,6
+labial,1,6
+labial -anterior,2,3
+labial -back,2,6
+labial -consonantal,2,3
+labial -delayed_release,2,6
+labial -distributed,2,3
+labial -dorsal,2,6
+labial -front,2,6
+labial -high,2,6
+labial -labial,2,6
+labial -labiodental,2,6
+labial -lateral,2,3
+labial -nasal,2,6
+labial -round,2,6
+labial -spread_gl,2,6
+labial -strident,2,6
+labial -tense,2,6
+labial #,2,6
+labial +anterior,2,3
+labial +approximant,2,6
+labial +consonantal,2,3
+labial +continuant,2,6
+labial +coronal,2,6
+labial +distributed,2,3
+labial +lateral,2,3
+labial +sonorant,2,6
+labial +voice,2,6
+labiodental,1,2
+labiodental -anterior,2,1
+labiodental -back,2,2
+labiodental -consonantal,2,1
+labiodental -delayed_release,2,2
+labiodental -distributed,2,1
+labiodental -dorsal,2,2
+labiodental -front,2,2
+labiodental -high,2,2
+labiodental -labial,2,2
+labiodental -labiodental,2,2
+labiodental -lateral,2,1
+labiodental -nasal,2,2
+labiodental -round,2,2
+labiodental -spread_gl,2,2
+labiodental -strident,2,2
+labiodental -tense,2,2
+labiodental #,2,2
+labiodental +anterior,2,1
+labiodental +approximant,2,2
+labiodental +consonantal,2,1
+labiodental +continuant,2,2
+labiodental +coronal,2,2
+labiodental +distributed,2,1
+labiodental +lateral,2,1
+labiodental +sonorant,2,2
+labiodental +voice,2,2
+lateral,1,1
+lateral #,2,1
+nasal,1,2
+nasal #,2,2
+round,1,1
+round #,2,1
+sonorant,1,6
+sonorant #,2,6
+spread_gl,1,1
+spread_gl -anterior,2,1
+spread_gl -consonantal,2,1
+spread_gl -coronal,2,1
+spread_gl -delayed_release,2,1
+spread_gl -distributed,2,1
+spread_gl -front,2,1
+spread_gl -labiodental,2,1
+spread_gl -lateral,2,1
+spread_gl -nasal,2,1
+spread_gl -spread_gl,2,1
+spread_gl -strident,2,1
+spread_gl #,2,1
+spread_gl +approximant,2,1
+spread_gl +back,2,1
+spread_gl +continuant,2,1
+spread_gl +dorsal,2,1
+spread_gl +high,2,1
+spread_gl +labial,2,1
+spread_gl +round,2,1
+spread_gl +sonorant,2,1
+spread_gl +tense,2,1
+spread_gl +voice,2,1
+strident,1,5
+strident -anterior,2,5
+strident -approximant,2,5
+strident -back,2,7
+strident -consonantal,2,2
+strident -continuant,2,5
+strident -coronal,2,4
+strident -delayed_release,2,8
+strident -distributed,2,7
+strident -dorsal,2,6
+strident -front,2,8
+strident -high,2,6
+strident -labial,2,5
+strident -labiodental,2,8
+strident -lateral,2,7
+strident -nasal,2,6
+strident -round,2,7
+strident -sonorant,2,3
+strident -spread_gl,2,8
+strident -strident,2,8
+strident -tense,2,7
+strident -voice,2,3
+strident #,2,5
+strident +anterior,2,3
+strident +approximant,2,3
+strident +back,2,1
+strident +consonantal,2,6
+strident +continuant,2,3
+strident +coronal,2,4
+strident +distributed,2,1
+strident +dorsal,2,2
+strident +high,2,2
+strident +labial,2,3
+strident +lateral,2,1
+strident +nasal,2,2
+strident +round,2,1
+strident +sonorant,2,5
+strident +tense,2,1
+strident +voice,2,5
+tense,1,2
+tense #,2,2
+voice,1,13
+voice -anterior,2,5
+voice -back,2,5
+voice -consonantal,2,5
+voice -coronal,2,2
+voice -delayed_release,2,7
+voice -distributed,2,4
+voice -dorsal,2,5
+voice -front,2,7
+voice -high,2,5
+voice -labial,2,5
+voice -labiodental,2,7
+voice -lateral,2,5
+voice -nasal,2,7
+voice -round,2,5
+voice -spread_gl,2,7
+voice -strident,2,7
+voice -tense,2,5
+voice #,2,13
+voice +anterior,2,2
+voice +approximant,2,7
+voice +back,2,2
+voice +consonantal,2,2
+voice +continuant,2,7
+voice +coronal,2,5
+voice +distributed,2,3
+voice +dorsal,2,2
+voice +high,2,2
+voice +labial,2,2
+voice +lateral,2,2
+voice +round,2,2
+voice +sonorant,2,7
+voice +tense,2,2
+voice +voice,2,7
