G R
K R
S T
S M
P R
S L
F L
B L
D R
T R
F R
S P
S N
S P
SH R
G L
M R
SH L
S K
V R
S R
V L
M L
SH T
F P
ZH R
F SH
SH N
F T
Z R
N R
SH M
S F
Z L
Z T
F S
V Z
V Z
ZH L
SH F
Z N
F N
F K
V T
Z V
Z M
ZH M
F M
SH P
V M
V N
SH K
Z P
ZH P
ZH T
ZH K
ZH N
Z K
V P
V K
ZH V