S K W 
S D W 
S K Y 
S P R 
S K L 
S B Y 
F L R 
S W Y 
V D W 
S NG W 
S NG Y 
TH N R 
D W W 
S S M 
F Y Y 
S CH ZH 
S M R 
S T W 
JH L R 
S CH R 
D N W 
S N R 
S G L 
P R L 
S P R 
SH TH W 
CH Y R 
S G L 
S B L 
S B R 
S D W 
S NG Y 
S K R 
S B R 
NG W L 
S NG Y 
S N R 
CH M L 
N M L 
TH K W 
JH P R 
T R R 
Z N ZH 
S K W 
S D L 
S D W 
NG R R 
S G R 
S M L 
S NG W 
S K L 
S N R 
S SH R 
S G Y 
S N W 
S NG L 
JH SH R 
S M L 
SH NG Y 
S G L 
S SH L 
TH L W 
S B L 
S D NG 
D K W 
S T W 
S M Y 
T NG W 
K L Y 
S S NG 
HH Y W 
JH M L 
S SH CH 
K L T 
T W Y 
S Y Y 
S NG W 
G W R 
S G L 
P L L 
S T W 
G M L 
S P L 
S S B 
S NG L 
S NG W 
S K L 
P R R 
S T W 
S K R 
S JH R 
S P L 
S NG R 
SH B L 
G W Y 
JH B L 
T W Y 
S G K 
S D R 
S B Y 
T W R 
JH L W 
S D R 
S B W 
S S W 
S N R 
S N R 
S M R 
S JH N 
S D W 
S L W 
S L R 
S N R 
TH N DH 
TH W R 
S N W 
N W W 
S N TH 
S K R 
S D W 
Z G W 
S NG W 
N M L 
S SH Y 
B R R 
D W W 
S N R 
S G L 
S NG Y 
CH D R 
S K Y 
S G W 
ZH P L 
S Z M 
T CH R 
S NG Y 
S G L 
S N W 
CH W W 
S D R 
S T R 
S T Y 
S M R 
S B L 
S T W 
S K Y 
S G L 
N G L 
S HH W 
S G R 
CH CH L 
S S B 
F Y R 
TH G R 
S NG W 
S NG L 
S S P 
P R W 
S K D 
S NG L 
T R W 
S D R 
S P R 
TH W L 
S G Y 
S T R 
S M L 
G M L 
Z R R 
S T R 
JH K W 
T TH W 
D G W 
HH W L 
SH NG W 
S B Y 
S HH R 
S T R 
S HH R 
T K W 
TH D W 
NG W W 
S M L 
S NG W 
S G R 
S D Y 
SH Y L 
S S G 
S NG Y 
S K R 
F R R 
S P R 
S CH M 
S NG Y 
D W Y 
S P R 
S N R 
S N W 
Z M R 
S M L 
S M R 
S Z N 
S D W 
S R R 
S G W 
S NG L 
G Y L 
TH D R 
S W Y 
N W Y 
S P R 
S M R 
Z NG L 
S B L 
S G L 
S B L 
S B R 
K NG Y 
HH P R 
S P W 
HH G W 
S W Y 
S P W 
TH W Y 
Z R R 
S N R 
S G W 
S N L 
CH L R 
F R M 
S N R 
CH CH L 
S NG R 
TH W W 
S N W 
S T R 
S K W 
S K R 
K K W 
Z G Y 
Z P L 
S K W 
S M L 
M L R 
SH SH R 
K Y Y 
S K L 
S N W 
S D R 
P G R 
S NG W 
S B L 
S N W 
S N R 
D P R 
TH M L 
S G L 
G K K 
Z NG R 
T SH R 
S NG W 
S D R 
S D R 
S T R 
S K G 
TH SH JH 
S K R 
Z Y R 
S K W 
NG G R 
S B R 
S M R 
S NG L 
T L R 
S K Y 
S D JH 
B W L 
S T L 
TH R R 
L R R 
D W W 
S P W 
S N R 
CH L W 
M R W 
S N W 
S B W 
S K R 
S M W 
S K W 
SH N Y 
Z G W 
S P L 
S M W 
S P L 
S P L 
S NG Y 
S K W 
S G L 
Z G Y 
S P R 
S M R 
S D W 
K W Y 
S T R 
S T P 
S T R 
T W Y 
S NG Y 
S N W 
Z K W 
S K R 
JH L R 
G M R 
S S D 
S G W 
S K W 
CH K L 
D W K 
S G L 
M Y L 
Z G W 
B P L 
Z NG W 
S G W 
S T R 
K NG Y 
S D W 
T R R 
S G R 
S T R 
S D R 
S NG R 
S G W 
S N W 
S P R 
CH NG L 
S NG R 
S L R 
S NG W 
S G L 
CH D SH 
S TH W 
S M R 
S K L 
S K Y 
S B L 
D NG R 
S NG Y 
Z NG W 
K Y W 
S G L 
W L R 
S B L 
JH B TH 
S G Y 
S SH L 
N B L 
Z D L 
S NG R 
S M L 
T R R 
B M R 
K R R 
S P R 
S NG W 
S D R 
S NG R 
S NG L 
S NG T 
T S T 
SH JH R 
S S NG 
K G Y 
S K W 
G P W 
S T L 
K K R 
K W L 
S K L 
N K L 
G L K 
D W L 
S HH R 
S G Y 
S T W 
SH SH L 
S B L 
S HH R 
S D R 
TH G R 
S N W 
Z N R 
NG K R 
S JH L 
S D Y 
S G Y 
M L W 
S G Y 
F L R 
S K Y 
JH M R 
S T W 
CH N W 
S P L 
S G Y 
S D W 
K P R 
S M L 
T L R 
K TH R 
S T Y 
T JH L 
S T R 
S G L 
S B R 
S NG W 
N K W 
S G Y 
S S L 
S Y R 
S T W 
Z P R 
G W W 
S B L 
S T R 
S K L 
JH CH R 
D P L 
S N W 
S B L 
JH R L 
S D W 
TH W R 
Z N NG 
S T W 
S T TH 
S T W 
K W 
B L 
B L 
SH R 
P L 
Y Y 
G K 
B Y 
T R 
K R 
NG R 
S R 
K L 
M R 
S M 
D W 
G Y 
CH R 
SH L 
P R 
JH R 
NG R 
S Y 
CH B 
NG Y 
K R 
S T 
Z N 
M L 
G L 
M R 
S T 
NG L 
B L 
S W 
NG L 
JH L 
JH W 
CH L 
N W 
CH R 
T W 
P R 
NG L 
TH W 
S L 
B L 
S B 
NG R 
S CH 
S DH 
CH L 
G L 
K W 
S N 
ZH R 
F L 
TH NG 
S G 
NG W 
SH ZH 
SH R 
S N 
P R 
Z M 
B L 
M R 
K R 
Z L 
G L 
G R 
S T 
TH R 
S D 
HH R 
K Y 
S M 
M R 
G W 
NG R 
S L 
JH D 
JH R 
S T 
B W 
D R 
CH L 
D R 
N W 
HH R 
S P 
S L 
HH R 
TH W 
P L 
S JH 
G W 
HH Y 
G W 
S Y 
NG W 
D R 
JH Y 
S N 
D HH 
HH W 
CH L 
CH R 
T W 
S L 
CH R 
S N 
CH L 
D W 
S T 
V L 
F L 
N W 
G Y 
S B 
S CH 
S Z 
P L 
HH W 
G G 
HH R 
D R 
T B 
G N 
T W 
K S 
NG W 
S Y 
CH L 
S K 
N R 
SH R 
SH R 
JH R 
S L 
G Y 
JH R 
S D 
S M 
K R 
S K 
K L 
CH R 
G W 
SH R 
S NG 
HH W 
S NG 
NG R 
TH NG 
SH W 
NG Y 
S NG 
Z S 
M R 
K R 
P L 
S K 
S M 
T W 
SH R 
S R 
P P 
F L 
NG L 
S B 
G L 
S T 
JH L 
NG R 
S D 
G R 
NG L 
D W 
G L 
S M 
K Y 
NG R 
DH R 
M L 
SH L 
T W 
S NG 
S T 
N D 
S P 
S D 
N R 
CH R 
B R 
NG L 
S Y 
HH R 
D W 
D B 
D R 
CH R 
HH R 
S T 
G Y 
F L 
NG K 
M R 
S Y 
S W 
S Y 
S G 
F W 
B L 
K W 
SH L 
HH R 
G Y 
K W 
S T 
M L 
G W 
M R 
T W 
CH L 
S N 
M L 
NG L 
S D 
G Y 
S B 
F R 
ZH L 
S K 
S N 
D W 
NG Y 
P L 
T R 
SH L 
P R 
S G 
S D 
S G 
B L 
JH R 
S W 
CH L 
CH R 
S W 
NG Y 
T R 
T W 
M L 
F R 
G W 
W W 
F R 
SH R 
NG Y 
S P 
F Y 
NG L 
S D 
TH R 
S Y 
NG Y 
G R 
TH W 
S B 
JH P 
TH W 
G W 
M L 
N W 
N S 
G R 
S B 
S SH 
S T 
N R 
B W 
M L 
N W 
M R 
S DH 
D R 
P R 
S L 
JH NG 
S L 
S Y 
F R 
G W 
N R 
S P 
P R 
NG W 
ZH L 
G R 
D R 
D R 
G Y 
S N 
T W 
P R 
T R 
B R 
P R 
B L 
JH R 
SH P 
HH W 
F L 
Z L 
S W 
S T 
K Y 
K R 
S Y 
K Y 
M L 
HH Y 
TH Y 
S B 
B R 
TH W 
S L 
SH R 
M R 
M W 
S Y 
NG R 
TH W 
D W 
G Y 
CH L 
NG W 
B L 
F W 
Z Z 
Y R 
S G 
N L 
D L 
B R 
P R 
K Y 
NG R 
NG Y 
P R 
P R 
B R 
S N 
S JH 
G R 
S N 
B L 
S K 
JH R 
S K 
T Y 
N R 
F L 
K R 
NG L 
NG R 
K K 
G Y 
JH L 
K W 
NG R 
S B 
N R 
B L 
F R 
G L 
T R 
NG L 
T Y 
F L 
NG R 
B R 
G L 
N N 
M R 
D W 
NG Y 
G Y 
T Y 
S NG 
NG W 
TH W 
JH L 
SH R 
K L 
G R 
S B 
TH W 
S P 
K Y 
CH L 
S M 
S L 
S L 
HH W 
S T 
S K 
P R 
TH W 
TH W 
N R 
JH L 
S R 
JH CH 
B R 
M R 
S R 
CH L 
B R 
S R 
D W 
G L 
HH R 
JH L 
K W 
CH Y 
K Y 
F L 
S M 
CH R 
D R 
NG Y 
JH L 
N R 
S Y 
S Y 
Z W 
TH R 
F R 
G W 
HH Y 
JH R 
SH Y 
N Y 
HH W 
K R 
D R 
S M 
T N 
NG L 
JH SH 
CH R 
D M 
TH L 
M L 
S W 
S G 
N R 
D L 
SH R 
D TH 
S W 
SH W 
T W 
S W 
TH R 
L W 
JH L 
S CH 
S G 
T R 
V Y 
M L 
S K 
S NG 
T R 
K W 
K Y 
N W 
S Y 
D R 
HH D 
N R 
T W 
M W 
T W 
S Y 
HH W 
K W 
CH R 
NG Y 
TH R 
S Y 
NG L 
T W 
F R 
M R 
S M 
M R 
T W 
S G 
B V 
T L 
M L 
S G 
S NG 
S L 
S K 
S HH 
T R 
K W 
M L 
M R 
Z W 
S P 
JH R 
K R 
N R 
TH W 
P R 
D R 
S K 
G L 
F W 
S P 
D R 
S T 
S HH 
S D 
K R 
S W 
N Y 
JH L 
HH W 
T W 
F R 
NG W 
P W 
P L 
K L 
TH R 
S M 
D W 
TH R 
S NG 
CH Y 
JH SH 
N CH 
CH R 
K L 
T R 
JH R 
S N 
SH L 
T JH 
G W 
SH L 
B L 
K L 
NG L 
D G 
HH R 
K Y 
HH W 
P L 
TH Y 
SH W 
SH W 
S P 
NG W 
SH B 
JH T 
G W 
M R 
D W 
D W 
G W 
N L 
M L 
NG L 
G W 
K Y 
G R 
S M 
S T 
JH L 
S T 
HH R 
SH B 
N W 
K L 
K Y 
S L 
P R 
S Y 
NG Y 
HH R 
HH L 
S Y 
S L 
S B 
S D 
CH R 
B R 
D W 
S NG 
NG W 
CH ZH 
N W 
K L 
K W 
S R 
S P 
K W 
N R 
TH R 
M L 
K G 
G R 
NG R 
N R 
S B 
JH R 
S T 
F R 
DH W 
K R 
D NG 
K L 
K R 
G L 
K R 
HH L 
K W 
M L 
S T 
CH R 
S D 
S NG 
S HH 
NG Y 
S M 
T W 
S W 
TH L 
HH W 
Z L 
S HH 
T W 
T N 
F L 
S G 
K Y 
SH L 
Z M 
D W 
S R 
S D 
CH R 
CH L 
F Y 
NG L 
G R 
B R 
JH L 
HH R 
P L 
B L 
S R 
S D 
CH R 
HH W 
T R 
CH L 
K Y 
SH L 
P L 
HH R 
W L 
S TH 
S B 
B R 
K Y 
K W 
D W 
S R 
JH B 
G W 
NG D 
NG W 
SH CH 
D W 
S NG 
F W 
JH L 
F W 
NG W 
M R 
S L 
NG W 
HH R 
S G 
M Y 
TH B 
SH W 
M R 
K L 
S SH 
N W 
D W 
NG Y 
SH W 
TH R 
P L 
S S 
M L 
Z W 
TH W 
CH L 
G Y 
P L 
T R 
S T 
NG R 
K L 
HH W 
S M 
SH JH 
K L 
JH R 
N R 
HH W 
M L 
S W 
T R 
S N 
B L 
JH L 
B W 
B R 
S B 
S R 
G L 
D L 
S M 
S Y 
HH W 
M L 
T L 
S W 
N W 
S Y 
HH R 
F R 
S NG 
G W 
NG L 
B W 
S T 
B L 
G L 
CH L 
B L 
R Y 
S D 
T R 
N W 
F R 
CH B 
T L 
T L 
Z B 
S Y 
HH R 
SH W 
G Y 
NG Y 
B R 
NG R 
S D 
TH R 
SH L 
S G 
S D 
D W 
P L 
S P 
D W 
S G 
M R 
K W 
HH W 
N W 
S N 
Z T 
D L 
S N 
NG Y 
CH R 
S K 
K Y 
K L 
S R 
CH Y 
K L 
S G 
CH R 
Z K 
S D 
S G 
T W 
K R 
D W 
HH W 
S L 
TH Y 
S L 
JH R 
D Z 
NG R 
NG R 
S P 
JH R 
B R 
M R 
G Y 
S W 
G L 
G L 
NG Y 
S M 
K W 
CH L 
F R 
B L 
M Y 
K L 
TH R 
D R 
K L 
S T 
S K 
G W 
Y Y 
N R 
NG Y 
P L 
N R 
S G 
NG L 
S N 
G W 
S W 
HH W 
S W 
CH L 
S NG 
S K 
SH R 
M L 
SH L 
SH R 
M R 
N DH 
P R 
TH W 
B L 
S L 
NG L 
N R 
K L 
SH R 
T R 
TH W 
HH W 
JH B 
D W 
S Z 
K Y 
B L 
DH W 
HH W 
K R 
S R 
TH W 
Z W 
D R 
F Y 
S K 
K W 
S NG 
SH R 
HH W 
CH L 
B L 
S NG 
S N 
M L 
S HH 
S P 
P L 
N R 
K R 
HH R 
K L 
S T 
Y W 
K R 
TH W 
NG R 
P L 
G Y 
P L 
CH L 
NG L 
N SH 
G Y 
JH R 
B R 
S K 
B L 
N R 
D W 
SH B 
G W 
M L 
S P 
D W 
T D 
S L 
TH W 
D L 
K L 
N K 
NG R 
F Y 
N R 
S M 
G NG 
NG R 
N W 
JH R 
CH R 
D R 
S S 
G Y 
P L 
M L 
S D 
D W 
D R 
K L 
S JH 
G R 
HH R 
NG W 
NG W 
NG Y 
DH Y 
M Y 
T W 
K Y 
T R 
M R 
N R 
CH R 
SH L 
S P 
D W 
M L 
S L 
JH R 
HH W 
T W 
M L 
F R 
D Y 
JH R 
S P 
D R 
D W 
G W 
SH L 
M R 
S T 
S P 
S N 
NG W 
CH DH 
P L 
P R 
S M 
G L 
N R 
T R 
S B 
K W 
Z N 
N R 
S NG 
K T 
D R 
SH Y 
F R 
G L 
M L 
S M 
T W 
S L 
K Y 
V R 
G Y 
N W 
NG R 
NG R 
S R 
K W 
D W 
TH R 
TH R 
N W 
TH W 
D W 
CH L 
S N 
T R 
S P 
S B 
G L 
S Y 
N R 
S Y 
S L 
NG Y 
NG R 
SH R 
NG L 
D R 
N R 
CH R 
S R 
K W 
P R 
TH W 
S M 
S M 
T R 
CH R 
M R 
G L 
S L 
S ZH 
HH W 
TH R 
JH R 
K Y 
G W 
N SH 
JH R 
S Y 
SH R 
F R 
K R 
JH L 
NG Y 
CH L 
N R 
N W 
K L 
JH R 
N W 
HH W 
P L 
P R 
S Z 
M L 
G Y 
B R 
W W 
TH B 
G R 
N W 
N R 
N R 
G R 
TH L 
S T 
NG R 
K R 
S D 
K F 
NG L 
TH R 
S M 
M R 
K L 
S K 
TH ZH 
K W 
SH L 
NG Y 
CH G 
S G 
NG Y 
T W 
S D 
S NG 
HH R 
S NG 
D W 
HH R 
Z B 
S B 
S P 
T W 
F R 
G R 
M R 
P R 
Z L 
T W 
JH R 
G Y 
K W 
HH W 
S B 
CH L 
S W 
M L 
JH R 
G R 
T R 
S Y 
K L 
N R 
NG W 
D R 
ZH R 
K L 
S N 
K W 
NG L 
NG Y 
D R 
D R 
P L 
N Y 
G R 
NG Y 
M L 
S M 
D NG 
B R 
M R 
S D 
D W 
G R 
K W 
F L 
JH R 
NG L 
HH W 
D L 
JH Y 
S K 
JH L 
B Y 
M R 
N R 
G R 
D Y 
K Y 
TH R 
SH L 
T Y 
Y HH 
S F 
B R 
K Y 
S W 
T R 
P R 
TH W 
TH W 
CH L 
SH L 
G L 
K R 
Z ZH 
N R 
M R 
SH L 
Z NG 
G W 
K R 
S NG 
CH R 
T W 
CH DH 
P Y 
Z W 
NG W 
K N 
S G 
S D 
S T 
G Y 
N R 
M R 
S N 
W Y 
K Y 
N R 
P R 
NG R 
B L 
S R 
K L 
K R 
G R 
JH L 
S R 
G W 
NG R 
S W 
S K 
S P 
T Y 
S R 
S K 
JH R 
HH W 
Z Y 
N R 
SH L 
S N 
S N 
T W 
CH R 
TH W 
D R 
SH JH 
D L 
HH R 
Z Y 
NG Y 
S K 
M L 
N L 
HH R 
S B 
K L 
B L 
K W 
B W 
F R 
CH L 
K D 
S R 
S B 
G R 
S F 
G P 
JH B 
M R 
B R 
G R 
S M 
S R 
M L 
TH L 
SH L 
S B 
SH R 
K W 
K W 
K Y 
T R 
JH Y 
S M 
D R 
K Y 
NG Y 
T W 
N W 
NG K 
M Y 
M R 
SH P 
K L 
NG W 
M R 
B L 
TH R 
S L 
M R 
K Y 
G W 
CH Y 
S R 
S N 
Z G 
F R 
G R 
G Y 
P L 
F L 
S P 
F R 
D W 
CH Y 
ZH R 
T W 
S G 
P B 
SH L 
NG Y 
S W 
TH W 
JH L 
T R 
T L 
TH W 
JH R 
TH R 
Z NG 
S ZH 
JH Y 
D R 
T L 
SH R 
S NG 
S L 
S N 
S R 
K W 
S W 
W W 
TH S 
S B 
D W 
B R 
S TH 
S S 
JH R 
JH L 
CH L 
N L 
JH L 
TH R 
S N 
S SH 
N W 
P L 
S D 
B W 
S SH 
K R 
TH W 
M L 
NG Y 
TH W 
P W 
T R 
N R 
HH R 
D R 
D D 
F R 
K L 
N R 
S L 
JH L 
M W 
M R 
F R 
S B 
S M 
NG R 
SH G 
S G 
K Y 
S T 
G Y 
Z D 
K R 
G W 
NG V 
HH W 
N W 
F R 
D R 
TH R 
G L 
P Y 
NG R 
JH R 
JH L 
CH M 
S R 
S Y 
CH L 
SH L 
L Y 
DH R 
S P 
T Y 
T L 
S B 
S JH 
Y L 
N Y 
S F 
S M 
D Y 
S V 
R R 
S D 
G R 
K W 
S N 
G Y 
S L 
S W 
K L 
P Y 
S W 
JH L 
S N 
T R 
SH R 
SH L 
F L 
Y R 
T NG 
G Y 
B R 
S P 
S B 
S K 
S G 
D HH 
M B 
F L 
S T 
NG L 
K L 
S D 
N W 
G NG 
TH W 
T R 
N R 
S R 
JH L 
JH L 
S ZH 
F Y 
T R 
NG W 
S B 
HH R 
K W 
G W 
D L 
DH R 
K R 
M R 
S W 
NG W 
S M 
D R 
SH Y 
HH W 
P L 
S W 
M L 
S L 
HH R 
K W 
K Y 
S Y 
S T 
K L 
D R 
NG R 
T W 
CH R 
S L 
D L 
S D 
K R 
JH W 
S M 
HH L 
B L 
HH R 
NG Y 
G W 
S G 
D W 
CH L 
S Y 
S R 
M R 
W W 
S M 
S TH 
F R 
K R 
S Y 
M R 
S T 
CH R 
ZH L 
S W 
D TH 
JH Y 
S G 
W G 
JH L 
SH R 
NG Y 
S M 
SH L 
K Y 
D R 
P R 
NG R 
CH R 
Y R 
T W 
F L 
K R 
N W 
S L 
M L 
F R 
S NG 
S N 
D R 
S B 
S G 
N W 
JH R 
S K 
G R 
SH L 
M NG 
D W 
HH Y 
B W 
Z D 
HH Y 
M L 
F L 
S M 
S M 
G R 
B Y 
P R 
S HH 
S T 
K R 
G W 
HH R 
CH L 
K Y 
JH R 
T W 
CH R 
D W 
S DH 
TH S 
P R 
HH W 
SH L 
G R 
G Y 
F R 
Z NG 
B L 
B R 
S DH 
K W 
G Y 
S N 
F L 
S S 
S CH 
NG Y 
G Y 
K W 
CH R 
L W 
S L 
NG W 
Z L 
T W 
S P 
JH L 
NG Y 
JH R 
JH L 
F L 
T W 
S G 
D R 
F L 
CH R 
HH W 
P R 
SH R 
N W 
T R 
S G 
Z Y 
SH L 
B L 
TH R 
S Y 
ZH R 
S G 
N W 
K L 
S S 
S R 
JH L 
B L 
Z M 
NG L 
M L 
CH R 
M L 
JH L 
B L 
P R 
K W 
T W 
S Y 
M R 
M L 
SH R 
N W 
F R 
CH S 
F L 
S L 
T Y 
M R 
S B 
K W 
S T 
K Y 
D R 
B L 
NG L 
F R 
S TH 
S P 
TH L 
N W 
CH L 
M L 
G Y 
G R 
S NG 
S V 
S T 
S Y 
S NG 
HH R 
F R 
TH W 
M L 
S L 
TH Y 
SH Y 
S K 
S N 
TH W 
S N 
JH R 
D Y 
S D 
CH R 
B R 
Z N 
S W 
S R 
D W 
F R 
M R 
S R 
NG L 
T D 
ZH L 
N R 
HH Y 
K L 
P W 
T R 
Z L 
S K 
S R 
K Y 
L TH 
JH L 
K L 
D W 
S W 
S S 
P R 
DH K 
S D 
S G 
G R 
M R 
B R 
N R 
CH R 
N W 
T W 
S Y 
S V 
K W 
F R 
S NG 
S G 
M R 
NG W 
S NG 
S D 
SH L 
S D 
S N 
K Y 
L W 
NG R 
S TH 
JH Y 
K R 
S G 
S W 
S K 
G Y 
NG Y 
S Y 
T R 
S CH 
S K 
S W 
P R 
S R 
CH R 
S P 
N W 
P L 
S V 
T W 
P W 
TH W 
N W 
S P 
S NG 
D W 
JH L 
P R 
S B 
SH Y 
L R 
S W 
S CH 
G W 
F Y 
S D 
N W 
S Y 
S TH 
S K 
S W 
B L 
P R 
B R 
B W 
S L 
L W 
G W 
K N 
SH L 
T R 
S L 
N R 
TH R 
G Y 
K R 
P L 
S N 
S G 
JH L 
S L 
Y L 
SH L 
G L 
S L 
NG L 
CH R 
F R 
JH L 
NG R 
D R 
SH W 
G L 
S G 
S K 
Y Y 
M L 
S W 
NG L 
M L 
P L 
P L 
HH R 
SH G 
TH D 
T W 
S G 
S W 
T ZH 
N W 
SH R 
CH L 
T W 
B W 
S D 
Y R 
S K 
S L 
JH L 
D R 
SH L 
G R 
K W 
S N 
D R 
F L 
S L 
G W 
G W 
K L 
F R 
S W 
M L 
NG N 
T R 
G Y 
SH L 
M L 
S B 
K W 
SH R 
K R 
CH R 
P R 
SH NG 
M R 
TH W 
NG Y 
T Y 
K W 
K R 
Z M 
S L 
M L 
SH R 
HH L 
T W 
K L 
JH R 
S R 
S G 
JH R 
TH W 
S Y 
TH W 
JH L 
N P 
S N 
M W 
Z N 
K W 
D B 
K R 
TH W 
S M 
P L 
JH L 
F L 
S W 
M L 
HH R 
S M 
JH L 
G W 
G G 
D R 
M R 
S R 
S V 
P L 
NG L 
S M 
D W 
JH CH 
CH R 
NG L 
S W 
SH Y 
K Y 
CH R 
G L 
HH R 
T W 
S M 
S L 
JH L 
JH Y 
NG Y 
G Y 
JH R 
F L 
HH W 
ZH R 
CH R 
K L 
Z N 
N R 
N W 
S G 
S M 
T R 
B R 
S N 
D R 
K L 
P L 
G W 
P R 
JH Y 
S D 
S B 
K W 
D W 
M Y 
NG L 
CH R 
JH R 
D R 
SH L 
S R 
S K 
NG Y 
JH W 
N R 
P R 
Z TH 
D M 
S G 
W L 
S Y 
NG 
CH 
L 
N 
T 
D 
ZH 
JH 
NG 
NG 
HH 
NG 
TH 
F 
SH 
M 
T 
Y 
M 
V 
M 
K 
TH 
B 
DH 
G 
ZH 
V 
JH 
SH 
W 
K 
G 
B 
W 
SH 
G 
W 
G 
V 
F 
K 
D 
HH 
NG 
TH 
SH 
W 
B 
CH 
B 
JH 
P 
M 
P 
SH 
NG 
P 
P 
NG 
NG 
T 
ZH 
ZH 
N 
NG 
NG 
L 
R 
T 
B 
S 
K 
TH 
T 
TH 
CH 
NG 
HH 
S 
TH 
F 
K 
Y 
G 
V 
TH 
N 
S 
M 
R 
Y 
TH 
K 
DH 
SH 
TH 
P 
Z 
T 
D 
TH 
V 
ZH 
T 
ZH 
V 
DH 
NG 
P 
TH 
V 
G 
Z 
Z 
W 
NG 
ZH 
W 
K 
ZH 
V 
R 
M 
DH 
N 
T 
Z 
M 
W 
D 
M 
DH 
F 
P 
F 
JH 
P 
K 
P 
K 
T 
CH 
D 
CH 
CH 
SH 
R 
NG 
L 
JH 
G 
N 
V 
Z 
NG 
Z 
N 
M 
TH 
DH 
W 
Z 
HH 
M 
ZH 
Z 
HH 
T 
T 
TH 
HH 
D 
DH 
G 
JH 
JH 
L 
V 
V 
N 
SH 
NG 
TH 
P 
D 
P 
TH 
SH 
B 
N 
JH 
TH 
HH 
W 
R 
NG 
Y 
V 
D 
T 
Y 
CH 
NG 
CH 
M 
M 
V 
V 
G 
JH 
W 
V 
M 
SH 
DH 
K 
NG 
T 
CH 
F 
JH 
G 
ZH 
T 
L 
K 
P 
TH 
Z 
TH 
N 
ZH 
S 
DH 
CH 
L 
K 
P 
T 
R 
Z 
ZH 
N 
K 
R 
HH 
B 
S 
NG 
L 
G 
DH 
Y 
N 
V 
P 
R 
N 
B 
L 
ZH 
HH 
JH 
SH 
T 
L 
CH 
R 
Y 
K 
TH 
HH 
CH 
HH 
JH 
DH 
CH 
ZH 
SH 
P 
S 
D 
ZH 
P 
DH 
G 
SH 
N 
N 
R 
R 
DH 
T 
ZH 
W 
Z 
S 
TH 
B 
HH 
B 
ZH 
B 
ZH 
N 
V 
K 
K 
HH 
SH 
SH 
V 
M 
DH 
R 
NG 
DH 
SH 
G 
M 
W 
JH 
ZH 
ZH 
R 
NG 
DH 
D 
L 
SH 
JH 
DH 
T 
P 
N 
SH 
ZH 
N 
T 
Y 
Y 
P 
R 
S 
TH 
NG 
V 
S 
HH 
Y 
P 
L 
ZH 
K 
F 
N 
G 
Z 
D 
SH 
JH 
M 
SH 
R 
W 
NG 
B 
P 
DH 
K 
K 
P 
JH 
T 
JH 
DH 
JH 
L 
W 
TH 
D 
T 
N 
Y 
N 
DH 
B 
N 
Y 
F 
ZH 
K 
W 
G 
CH 
B 
V 
F 
Y 
Y 
V 
B 
N 
V 
B 
N 
CH 
B 
N 
D 
CH 
F 
T 
N 
CH 
D 
ZH 
K 
SH 
N 
D 
S 
T 
JH 
NG 
M 
Y 
DH 
R 
NG 
K 
DH 
M 
D 
P 
L 
V 
F 
P 
W 
W 
V 
P 
CH 
SH 
T 
Z 
DH 
CH 
TH 
T 
Z 
S 
P 
K 
DH 
Z 
P 
D 
HH 
V 
N 
S 
T 
DH 
W 
N 
S 
Y 
V 
NG 
P 
L 
HH 
F 
ZH 
R 
ZH 
V 
G 
TH 
K 
SH 
TH 
T 
N 
F 
SH 
G 
N 
NG 
K 
V 
V 
M 
SH 
P 
Y 
DH 
HH 
HH 
F 
ZH 
G 
G 
S 
M 
D 
L 
JH 
ZH 
T 
V 
K 
DH 
JH 
F 
L 
DH 
SH 
L 
S 
W 
N 
Y 
S 
DH 
TH 
HH 
CH 
K 
L 
W 
V 
JH 
N 
S 
NG 
N 
SH 
T 
TH 
V 
L 
R 
T 
SH 
S 
Y 
Y 
N 
W 
HH 
V 
R 
M 
HH 
K 
N 
CH 
TH 
Y 
P 
K 
L 
Y 
DH 
CH 
S 
G 
N 
P 
L 
L 
N 
JH 
HH 
P 
B 
R 
T 
NG 
ZH 
K 
Z 
T 
NG 
CH 
JH 
SH 
T 
HH 
Z 
G 
V 
HH 
JH 
G 
D 
M 
V 
HH 
B 
NG 
L 
S 
M 
M 
V 
Y 
HH 
R 
W 
T 
L 
R 
ZH 
W 
T 
DH 
TH 
F 
F 
F 
HH 
DH 
R 
S 
R 
V 
NG 
Z 
NG 
HH 
B 
N 
Y 
SH 
SH 
V 
B 
L 
F 
S 
S 
Y 
SH 
P 
NG 
N 
G 
M 
CH 
JH 
D 
TH 
DH 
B 
JH 
M 
P 
B 
D 
S 
B 
N 
Y 
M 
Y 
K 
P 
R 
T 
TH 
NG 
K 
L 
NG 
V 
P 
P 
N 
S 
Y 
JH 
R 
T 
T 
R 
NG 
P 
B 
NG 
SH 
Z 
V 
SH 
T 
SH 
SH 
M 
V 
L 
F 
V 
TH 
HH 
D 
CH 
T 
L 
T 
K 
M 
N 
V 
F 
R 
JH 
F 
CH 
HH 
Z 
P 
N 
W 
L 
JH 
HH 
JH 
L 
SH 
B 
W 
ZH 
TH 
CH 
TH 
P 
NG 
W 
ZH 
SH 
TH 
W 
T 
R 
S 
G 
D 
B 
Z 
G 
G 
NG 
V 
S 
K 
S 
ZH 
Y 
DH 
L 
K 
P 
K 
DH 
N 
JH 
Y 
TH 
S 
T 
ZH 
Y 
F 
L 
Y 
W 
CH 
M 
W 
N 
B 
G 
HH 
R 
M 
Y 
HH 
Y 
TH 
TH 
R 
TH 
T 
G 
N 
G 
L 
JH 
DH 
N 
G 
Y 
TH 
S 
K 
DH 
D 
Z 
NG 
JH 
HH 
ZH 
HH 
S 
D 
ZH 
S 
T 
CH 
NG 
NG 
V 
W 
Y 
Z 
N 
M 
R 
B 
DH 
S 
K 
P 
L 
G 
HH 
T 
SH 
K 
SH 
L 
N 
JH 
JH 
DH 
M 
M 
F 
D 
B 
M 
DH 
L 
JH 
Y 
N 
D 
NG 
CH 
R 
M 
W 
R 
F 
TH 
V 
L 
N 
HH 
P 
B 
B 
F 
L 
Y 
W 
DH 
F 
NG 
HH 
W 
Z 
JH 
TH 
L 
S 
S 
S 
CH 
D 
R 
R 
R 
R 
SH 
SH 
G 
T 
JH 
Y 
F 
V 
L 
SH 
S 
L 
CH 
B 
P 
V 
TH 
P 
W 
ZH 
SH 
L 
JH 
P 
G 
F 
D 
W 
N 
D 
D 
P 
L 
B 
JH 
ZH 
Y 
B 
Z 
CH 
T 
R 
M 
Y 
D 
B 
L 
R 
R 
N 
P 
HH 
M 
B 
S 
M 
G 
N 
D 
JH 
K 
G 
G 
G 
D 
Z 
HH 
ZH 
N 
G 
V 
Z 
TH 
L 
Y 
K 
ZH 
DH 
G 
F 
T 
F 
B 
V 
CH 
HH 
Z 
P 
M 
Z 
Z 
R 
HH 
Z 
G 
CH 
W 
DH 
B 
TH 
R 
TH 
ZH 
R 
K 
K 
JH 
SH 
F 
W 
S 
K 
SH 
N 
ZH 
S 
P 
R 
SH 
Z 
TH 
K 
CH 
R 
HH 
F 
N 
W 
T 
W 
B 
DH 
Y 
ZH 
NG 
W 
D 
V 
Z 
Y 
Z 
L 
F 
T 
T 
N 
Y 
G 
M 
Z 
HH 
V 
V 
R 
TH 
CH 
JH 
Z 
V 
N 
JH 
G 
JH 
DH 
S 
DH 
Z 
Z 
ZH 
G 
L 
ZH 
L 
HH 
T 
W 
B 
DH 
SH 
V 
DH 
R 
NG 
NG 
Y 
NG 
D 
B 
D 
SH 
V 
B 
ZH 
DH 
L 
HH 
Y 
N 
B 
N 
L 
D 
DH 
TH 
SH 
S 
K 
M 
CH 
ZH 
Y 
HH 
L 
P 
HH 
G 
N 
F 
JH 
R 
Z 
T 
V 
TH 
L 
D 
F 
CH 
JH 
T 
N 
R 
TH 
G 
JH 
P 
V 
P 
M 
NG 
CH 
DH 
M 
B 
S 
F 
N 
G 
R 
T 
CH 
F 
JH 
ZH 
V 
NG 
L 
R 
NG 
SH 
JH 
N 
N 
Y 
R 
DH 
Z 
V 
Z 
Y 
G 
F 
HH 
W 
TH 
NG 
R 
M 
B 
Z 
P 
M 
SH 
M 
JH 
SH 
HH 
NG 
P 
JH 
NG 
R 
R 
T 
W 
ZH 
W 
P 
SH 
M 
DH 
Z 
ZH 
G 
P 
T 
Z 
CH 
P 
NG 
B 
ZH 
S 
SH 
S 
JH 
DH 
V 
SH 
R 
CH 
G 
TH 
M 
F 
P 
D 
DH 
G 
F 
P 
M 
T 
L 
V 
DH 
M 
B 
D 
T 
JH 
G 
TH 
V 
Y 
TH 
DH 
P 
N 
K 
ZH 
B 
Z 
SH 
B 
CH 
JH 
L 
B 
P 
W 
V 
CH 
S 
TH 
D 
V 
F 
V 
W 
G 
JH 
P 
W 
D 
HH 
M 
Z 
V 
K 
B 
T 
NG 
TH 
CH 
SH 
ZH 
V 
G 
CH 
SH 
Y 
SH 
Y 
ZH 
F 
R 
D 
L 
S 
P 
JH 
NG 
S 
N 
N 
V 
JH 
ZH 
W 
R 
SH 
D 
K 
JH 
HH 
F 
HH 
P 
DH 
CH 
HH 
DH 
DH 
DH 
S 
DH 
CH 
V 
P 
HH 
N 
ZH 
JH 
NG 
TH 
DH 
ZH 
L 
V 
Z 
N 
DH 
JH 
NG 
N 
K 
TH 
Y 
Y 
T 
NG 
NG 
TH 
P 
B 
S 
JH 
Z 
L 
D 
W 
G 
P 
B 
D 
M 
P 
N 
S 
R 
S 
M 
R 
M 
JH 
W 
HH 
DH 
HH 
G 
JH 
DH 
NG 
Z 
NG 
JH 
K 
W 
Y 
SH 
NG 
F 
F 
V 
ZH 
F 
P 
G 
DH 
W 
B 
HH 
HH 
D 
DH 
T 
K 
V 
NG 
G 
SH 
L 
Y 
G 
NG 
F 
F 
P 
M 
P 
HH 
K 
W 
HH 
B 
R 
W 
L 
D 
L 
T 
T 
G 
G 
P 
T 
T 
M 
D 
JH 
P 
DH 
JH 
P 
K 
S 
W 
L 
V 
DH 
T 
ZH 
TH 
N 
HH 
TH 
K 
R 
W 
P 
K 
JH 
B 
V 
R 
B 
N 
S 
W 
JH 
ZH 
G 
V 
K 
TH 
K 
F 
K 
P 
R 
F 
V 
NG 
R 
B 
JH 
CH 
N 
JH 
S 
M 
NG 
V 
HH 
R 
SH 
ZH 
DH 
V 
ZH 
D 
Y 
HH 
M 
Z 
Z 
L 
CH 
L 
K 
V 
P 
ZH 
R 
L 
CH 
TH 
DH 
P 
NG 
CH 
N 
D 
TH 
Y 
G 
N 
T 
F 
CH 
G 
D 
P 
T 
F 
D 
R 
W 
Z 
Y 
F 
HH 
L 
W 
NG 
M 
K 
Z 
W 
N 
Y 
Z 
L 
V 
ZH 
ZH 
L 
R 
N 
JH 
ZH 
L 
N 
TH 
S 
S 
P 
T 
R 
M 
SH 
ZH 
JH 
HH 
DH 
F 
HH 
B 
Z 
S 
N 
V 
DH 
HH 
S 
CH 
P 
W 
S 
P 
B 
W 
SH 
HH 
CH 
NG 
CH 
K 
JH 
K 
NG 
F 
G 
Z 
CH 
M 
D 
