projection	constraint	weight	observed	expected	plog	regexp
default	*[]	0.793	54,204	7.188	339,811.954	((1)|(2)|(3)|(4)|(5)|(6)|(7)|(8)|(9)|(10)|(11)|(12)|(13)|(14)|(15)|(16)|(17)|(18)|(19)|(20)|(21)|(22)|(23)|(24)|(25)|(26)|(27)|(28)|(29)|(30)|(31)|(32)|(33)|(34)|(35)|(36)|(37)|(38)|(39))
default	*[+round][+wb]	2.777	257	0.034	430,820.481	((29)|(30)|(31)|(32)|(36)|(37)|(38)|(39))((0))
default	*[+voice][+wb]	1.691	446	0.059	261,725.469	((3)|(5)|(8)|(13)|(15)|(19)|(20)|(21)|(22))((0))
default	*[][]	1.207	46,663	6.188	216,690.19	((1)|(2)|(3)|(4)|(5)|(6)|(7)|(8)|(9)|(10)|(11)|(12)|(13)|(14)|(15)|(16)|(17)|(18)|(19)|(20)|(21)|(22)|(23)|(24)|(25)|(26)|(27)|(28)|(29)|(30)|(31)|(32)|(33)|(34)|(35)|(36)|(37)|(38)|(39))((1)|(2)|(3)|(4)|(5)|(6)|(7)|(8)|(9)|(10)|(11)|(12)|(13)|(14)|(15)|(16)|(17)|(18)|(19)|(20)|(21)|(22)|(23)|(24)|(25)|(26)|(27)|(28)|(29)|(30)|(31)|(32)|(33)|(34)|(35)|(36)|(37)|(38)|(39))
default	*[+del_rel]	2.208	562	0.075	212,779.969	((10)|(11)|(20)|(21))
default	*[+syllabic][+syllabic]	2.802	370	0.049	207,997.979	((26)|(27)|(28)|(29)|(30)|(31)|(32)|(33)|(34)|(35)|(36)|(37)|(38)|(39))((26)|(27)|(28)|(29)|(30)|(31)|(32)|(33)|(34)|(35)|(36)|(37)|(38)|(39))
default	*[-sonorant][-syllabic]	0.018	4,017	0.532	199,601.71	((2)|(3)|(4)|(5)|(6)|(7)|(8)|(10)|(11)|(12)|(13)|(14)|(15)|(17)|(18)|(19)|(20)|(21)|(22))((1)|(2)|(3)|(4)|(5)|(6)|(7)|(8)|(9)|(10)|(11)|(12)|(13)|(14)|(15)|(16)|(17)|(18)|(19)|(20)|(21)|(22)|(23)|(24)|(25))
default	*[+high,+long]	2.234	373	0.049	196,267.391	((33)|(37)|(38))
default	*[-back,+round][]	1.913	844	0.112	193,342.804	((31)|(32)|(38)|(39))((1)|(2)|(3)|(4)|(5)|(6)|(7)|(8)|(9)|(10)|(11)|(12)|(13)|(14)|(15)|(16)|(17)|(18)|(19)|(20)|(21)|(22)|(23)|(24)|(25)|(26)|(27)|(28)|(29)|(30)|(31)|(32)|(33)|(34)|(35)|(36)|(37)|(38)|(39))
default	*[+sonorant,+dorsal][-syllabic]	1.382	362	0.048	191,196.315	((9)|(23))((1)|(2)|(3)|(4)|(5)|(6)|(7)|(8)|(9)|(10)|(11)|(12)|(13)|(14)|(15)|(16)|(17)|(18)|(19)|(20)|(21)|(22)|(23)|(24)|(25))
default	*[-del_rel,-anterior]	1.313	492	0.065	189,862.652	((12)|(13))
default	*[+labial][-syllabic]	1.096	556	0.074	188,283.376	((1)|(2)|(3)|(4)|(5))((1)|(2)|(3)|(4)|(5)|(6)|(7)|(8)|(9)|(10)|(11)|(12)|(13)|(14)|(15)|(16)|(17)|(18)|(19)|(20)|(21)|(22)|(23)|(24)|(25))
default	*[+voice,-anterior,+sibilant]	3.724	53	0.007	186,945.804	((15)|(20))
default	*[][-voice,+labial]	1.363	652	0.087	185,990.073	((1)|(2)|(3)|(4)|(5)|(6)|(7)|(8)|(9)|(10)|(11)|(12)|(13)|(14)|(15)|(16)|(17)|(18)|(19)|(20)|(21)|(22)|(23)|(24)|(25)|(26)|(27)|(28)|(29)|(30)|(31)|(32)|(33)|(34)|(35)|(36)|(37)|(38)|(39))((2)|(4))
default	*[-syllabic][+consonantal,+sonorant]	1.242	1,730	0.229	185,098.259	((1)|(2)|(3)|(4)|(5)|(6)|(7)|(8)|(9)|(10)|(11)|(12)|(13)|(14)|(15)|(16)|(17)|(18)|(19)|(20)|(21)|(22)|(23)|(24)|(25))((1)|(9)|(16)|(24)|(25))
default	*[][+continuant]	1.045	4,478	0.594	183,612.884	((1)|(2)|(3)|(4)|(5)|(6)|(7)|(8)|(9)|(10)|(11)|(12)|(13)|(14)|(15)|(16)|(17)|(18)|(19)|(20)|(21)|(22)|(23)|(24)|(25)|(26)|(27)|(28)|(29)|(30)|(31)|(32)|(33)|(34)|(35)|(36)|(37)|(38)|(39))((4)|(5)|(6)|(14)|(15)|(17)|(22))
default	*[-round,+long][+wb]	3.119	89	0.012	182,847.662	((33)|(34)|(35))((0))
default	*[+sonorant,+dorsal]	1.004	1,639	0.217	181,779.075	((9)|(23))
default	*[+high,+back][]	1.756	852	0.113	180,994.11	((30)|(37))((1)|(2)|(3)|(4)|(5)|(6)|(7)|(8)|(9)|(10)|(11)|(12)|(13)|(14)|(15)|(16)|(17)|(18)|(19)|(20)|(21)|(22)|(23)|(24)|(25)|(26)|(27)|(28)|(29)|(30)|(31)|(32)|(33)|(34)|(35)|(36)|(37)|(38)|(39))
default	*[-high,-low,+long][]	1.028	2,998	0.398	180,265.599	((34)|(36)|(39))((1)|(2)|(3)|(4)|(5)|(6)|(7)|(8)|(9)|(10)|(11)|(12)|(13)|(14)|(15)|(16)|(17)|(18)|(19)|(20)|(21)|(22)|(23)|(24)|(25)|(26)|(27)|(28)|(29)|(30)|(31)|(32)|(33)|(34)|(35)|(36)|(37)|(38)|(39))
default	*[-continuant,+voice][+syllabic]	0.27	3,061	0.406	179,616.179	((3)|(8)|(13)|(19)|(20)|(21))((26)|(27)|(28)|(29)|(30)|(31)|(32)|(33)|(34)|(35)|(36)|(37)|(38)|(39))
default	*[+high,-round][+consonantal,+sonorant]	1.318	471	0.063	179,076.637	((26)|(33))((1)|(9)|(16)|(24)|(25))
default	*[-syllabic][-sonorant,+dorsal]	1.056	868	0.115	178,512.461	((1)|(2)|(3)|(4)|(5)|(6)|(7)|(8)|(9)|(10)|(11)|(12)|(13)|(14)|(15)|(16)|(17)|(18)|(19)|(20)|(21)|(22)|(23)|(24)|(25))((7)|(8)|(12)|(13))
default	*[][-high,-back,+round,-long]	10.934	0	0	178,114.362	((1)|(2)|(3)|(4)|(5)|(6)|(7)|(8)|(9)|(10)|(11)|(12)|(13)|(14)|(15)|(16)|(17)|(18)|(19)|(20)|(21)|(22)|(23)|(24)|(25)|(26)|(27)|(28)|(29)|(30)|(31)|(32)|(33)|(34)|(35)|(36)|(37)|(38)|(39))((32))
default	*[+wb][+approximant]	0.746	2,278	0.302	177,794.987	((0))((23)|(24)|(25)|(26)|(27)|(28)|(29)|(30)|(31)|(32)|(33)|(34)|(35)|(36)|(37)|(38)|(39))
default	*[+wb][+voice,+anterior,+sibilant]	3.348	15	0.002	177,465.618	((0))((21)|(22))
default	*[-syllabic,-consonantal][+wb]	2.61	57	0.008	177,150.655	((6)|(23))((0))
default	*[-sonorant,+labial][+wb]	2.058	85	0.011	176,856.808	((2)|(3)|(4)|(5))((0))
default	*[-voice][+voice,+anterior]	3.255	18	0.002	176,572.46	((2)|(4)|(6)|(7)|(10)|(11)|(12)|(14)|(17)|(18))((19)|(21)|(22))
default	*[+wb][-approximant,+sonorant,+coronal]	1.071	171	0.023	176,323.784	((0))((16))
default	*[-consonantal,-approximant][-syllabic]	4.291	12	0.002	176,087.484	((6))((1)|(2)|(3)|(4)|(5)|(6)|(7)|(8)|(9)|(10)|(11)|(12)|(13)|(14)|(15)|(16)|(17)|(18)|(19)|(20)|(21)|(22)|(23)|(24)|(25))
default	*[+anterior][+continuant,+coronal]	1.847	289	0.038	175,794.669	((11)|(16)|(17)|(18)|(19)|(21)|(22)|(24)|(25))((14)|(15)|(17)|(22))
default	*[+long][-approximant,+sonorant]	0.713	735	0.097	175,548.3	((33)|(34)|(35)|(36)|(37)|(38)|(39))((1)|(9)|(16))
default	*[-lateral][+wb]	1.629	154	0.02	175,354.799	((24))((0))
default	*[+high,-back,-long][-continuant]	0.879	694	0.092	175,138.062	((26)|(31))((2)|(3)|(7)|(8)|(10)|(11)|(12)|(13)|(18)|(19)|(20)|(21))
default	*[-voice,+anterior,+sibilant][+wb]	1.598	78	0.01	174,952.869	((11)|(17))((0))
default	*[+anterior][-continuant,+labial]	2.226	135	0.018	174,748.9	((11)|(16)|(17)|(18)|(19)|(21)|(22)|(24)|(25))((2)|(3))
default	*[-high,+back,+long][-continuant]	0.681	1,068	0.142	174,514.67	((35)|(36))((2)|(3)|(7)|(8)|(10)|(11)|(12)|(13)|(18)|(19)|(20)|(21))
default	*[-low,-long][+wb]	0.676	1,156	0.153	174,321.444	((26)|(27)|(29)|(30)|(31)|(32))((0))
default	*[-high,+round,-long]	0.678	2,489	0.33	174,050.92	((29)|(32))
default	*[-sonorant,+dorsal][-sonorant,+coronal]	1.532	227	0.03	173,831.896	((7)|(8)|(12)|(13))((10)|(11)|(12)|(13)|(14)|(15)|(17)|(18)|(19)|(20)|(21)|(22))
default	*[-del_rel,-voice,-anterior]	2.381	55	0.007	173,514.477	((12))
default	*[][+sonorant,+labial]	0.631	1,076	0.143	173,318.044	((1)|(2)|(3)|(4)|(5)|(6)|(7)|(8)|(9)|(10)|(11)|(12)|(13)|(14)|(15)|(16)|(17)|(18)|(19)|(20)|(21)|(22)|(23)|(24)|(25)|(26)|(27)|(28)|(29)|(30)|(31)|(32)|(33)|(34)|(35)|(36)|(37)|(38)|(39))((1))
default	*[+wb][+continuant,-voice,-anterior]	1.582	200	0.026	173,151.063	((0))((14))
default	*[-continuant,+voice,+coronal][+consonantal]	1.124	455	0.06	172,977.909	((13)|(19)|(20)|(21))((1)|(2)|(3)|(4)|(5)|(7)|(8)|(9)|(10)|(11)|(12)|(13)|(14)|(15)|(16)|(17)|(18)|(19)|(20)|(21)|(22)|(24)|(25))
default	*[+voice,+labial][-approximant,+coronal]	3.453	10	0.001	172,810.477	((3)|(5))((10)|(11)|(12)|(13)|(14)|(15)|(16)|(17)|(18)|(19)|(20)|(21)|(22))
default	*[][-consonantal,-approximant]	1.147	397	0.053	172,630.852	((1)|(2)|(3)|(4)|(5)|(6)|(7)|(8)|(9)|(10)|(11)|(12)|(13)|(14)|(15)|(16)|(17)|(18)|(19)|(20)|(21)|(22)|(23)|(24)|(25)|(26)|(27)|(28)|(29)|(30)|(31)|(32)|(33)|(34)|(35)|(36)|(37)|(38)|(39))((6))
default	*[+consonantal][+low]	0.465	5,179	0.687	172,350.343	((1)|(2)|(3)|(4)|(5)|(7)|(8)|(9)|(10)|(11)|(12)|(13)|(14)|(15)|(16)|(17)|(18)|(19)|(20)|(21)|(22)|(24)|(25))((28)|(35))
default	*[+continuant,+voice,+labial][-low,+back]	1.525	64	0.009	172,224.186	((5))((29)|(30)|(36)|(37))
default	*[-approximant,+sonorant,+coronal][-low,+back]	1.383	83	0.011	172,114.348	((16))((29)|(30)|(36)|(37))
default	*[-approximant,+sonorant,+coronal][-syllabic,+approximant]	2.494	23	0.003	172,019.686	((16))((23)|(24)|(25))
default	*[+wb][+voice,-coronal]	1.619	103	0.014	171,929.114	((0))((8))
default	*[+wb][+anterior]	0.569	1,752	0.232	171,830.525	((0))((11)|(16)|(17)|(18)|(19)|(21)|(22)|(24)|(25))
default	*[-voice,-coronal][-syllabic]	1.43	267	0.035	171,714.015	((7))((1)|(2)|(3)|(4)|(5)|(6)|(7)|(8)|(9)|(10)|(11)|(12)|(13)|(14)|(15)|(16)|(17)|(18)|(19)|(20)|(21)|(22)|(23)|(24)|(25))
default	*[+wb][-continuant,-voice,+labial]	1.149	222	0.029	171,612.078	((0))((2))
default	*[+consonantal,-voice][+voice,+dorsal]	3.036	9	0.001	171,519.97	((2)|(4)|(7)|(10)|(11)|(12)|(14)|(17)|(18))((8)|(13))
default	*[+wb][-high,+back]	0.666	596	0.079	171,390.788	((0))((28)|(29)|(35)|(36))
default	*[-low,-long][-continuant,+labial]	1.186	211	0.028	171,283.777	((26)|(27)|(29)|(30)|(31)|(32))((2)|(3))
default	*[+consonantal,+continuant][-syllabic,+approximant]	1.619	62	0.008	171,185.544	((4)|(5)|(14)|(15)|(17)|(22))((23)|(24)|(25))
default	*[+del_rel,+voice]	8.877	0	0	171,097.694	((20)|(21))
default	*[-del_rel,+coronal][+high,-round]	0.983	225	0.03	171,008.924	((12)|(13)|(18)|(19))((26)|(33))
default	*[-continuant,+voice,+anterior][-high,-round]	1.026	380	0.05	170,905.703	((19)|(21))((27)|(28)|(34)|(35))
default	*[+continuant,+labial][-approximant]	2.576	25	0.003	170,821.389	((4)|(5))((1)|(2)|(3)|(4)|(5)|(6)|(7)|(8)|(9)|(10)|(11)|(12)|(13)|(14)|(15)|(16)|(17)|(18)|(19)|(20)|(21)|(22))
default	*[-lateral][+lateral]	2.969	3	0	170,748.299	((24))((25))
default	*[-continuant,-voice,-anterior][+wb]	2.896	8	0.001	170,678.881	((10)|(12))((0))
default	*[+sonorant,+labial][-sonorant,+coronal]	1.598	39	0.005	170,602.398	((1))((10)|(11)|(12)|(13)|(14)|(15)|(17)|(18)|(19)|(20)|(21)|(22))
default	*[-continuant,-voice,-anterior][+consonantal,+coronal]	3.685	3	0	170,533.8	((10)|(12))((10)|(11)|(12)|(13)|(14)|(15)|(16)|(17)|(18)|(19)|(20)|(21)|(22)|(24)|(25))
default	*[+sonorant,-coronal][+wb]	1.402	50	0.007	170,465.641	((9))((0))
default	*[-syllabic,+approximant][+high,-round]	0.766	254	0.034	170,393.429	((23)|(24)|(25))((26)|(33))
default	*[-high][-high]	1.754	84	0.011	170,281.245	((27)|(28)|(29)|(32)|(34)|(35)|(36)|(39))((27)|(28)|(29)|(32)|(34)|(35)|(36)|(39))
default	*[-lateral][-del_rel,-voice]	0.626	252	0.033	170,233.57	((24))((2)|(7)|(12)|(18))
default	*[+voice][-coronal]	1.287	92	0.012	170,161.358	((3)|(5)|(8)|(13)|(15)|(19)|(20)|(21)|(22))((7)|(8)|(9))
default	*[+dorsal][-continuant,+labial]	1.213	104	0.014	170,098.159	((7)|(8)|(9)|(12)|(13)|(23))((2)|(3))
default	*[+dorsal][-back]	0.317	1,619	0.215	170,019.61	((7)|(8)|(9)|(12)|(13)|(23))((26)|(27)|(31)|(32)|(33)|(34)|(38)|(39))
default	*[-approximant,+anterior][+sonorant,+labial]	2.091	15	0.002	169,957.397	((11)|(16)|(17)|(18)|(19)|(21)|(22))((1))
default	*[-voice,+sibilant][-sonorant,+labial]	1.573	52	0.007	169,895.152	((10)|(11)|(14)|(17))((2)|(3)|(4)|(5))
default	*[+syllabic][-voice,+anterior,+sibilant]	0.551	555	0.074	169,830.307	((26)|(27)|(28)|(29)|(30)|(31)|(32)|(33)|(34)|(35)|(36)|(37)|(38)|(39))((11)|(17))
default	*[+voice][+high]	0.456	700	0.093	169,761.205	((3)|(5)|(8)|(13)|(15)|(19)|(20)|(21)|(22))((26)|(30)|(31)|(33)|(37)|(38))
default	*[+high,+round][+sonorant,+labial]	2.007	12	0.002	169,712.265	((30)|(31)|(37)|(38))((1))
default	*[-del_rel,+anterior][+del_rel]	2.79	7	0.001	169,660.437	((18)|(19))((10)|(11)|(20)|(21))
default	*[+back,-long][+voice,+labial]	0.747	172	0.023	169,609.512	((28)|(29)|(30))((3)|(5))
default	*[-approximant,+sonorant][+continuant,+voice]	1.439	23	0.003	169,564.967	((1)|(9)|(16))((5)|(15)|(22))
default	*[-voice,+anterior][-syllabic,+sonorant]	1.11	279	0.037	169,502.172	((11)|(17)|(18))((1)|(9)|(16)|(23)|(24)|(25))
default	*[+voice][-syllabic,+approximant]	0.974	243	0.032	169,425.571	((3)|(5)|(8)|(13)|(15)|(19)|(20)|(21)|(22))((23)|(24)|(25))
default	*[-del_rel,+anterior][-coronal]	1.459	50	0.007	169,365.534	((18)|(19))((7)|(8)|(9))
default	*[+continuant][+del_rel]	3.558	2	0	169,309.933	((4)|(5)|(6)|(14)|(15)|(17)|(22))((10)|(11)|(20)|(21))
default	*[-back,-long][+sonorant,-coronal]	1.384	49	0.007	169,261.061	((26)|(27)|(31)|(32))((9))
default	*[+sonorant,+labial][+dorsal]	2.852	4	0.001	169,212.653	((1))((7)|(8)|(9)|(12)|(13)|(23))
default	*[+low,-long][+voice,-coronal]	0.911	94	0.012	169,165.037	((28))((8))
default	*[-round,+long][+lateral]	0.443	474	0.063	169,115.358	((33)|(34)|(35))((25))
default	*[+round,-long][+syllabic]	1.939	13	0.002	169,069.858	((29)|(30)|(31)|(32))((26)|(27)|(28)|(29)|(30)|(31)|(32)|(33)|(34)|(35)|(36)|(37)|(38)|(39))
default	*[+high,-back,+long][-continuant,+voice]	2.026	11	0.001	169,026.799	((33)|(38))((3)|(8)|(13)|(19)|(20)|(21))
default	*[-lateral][+sonorant,+coronal]	0.823	131	0.017	168,978.462	((24))((16)|(23)|(24)|(25))
default	*[+del_rel][-del_rel,+coronal]	9.96	0	0	168,941.392	((10)|(11)|(20)|(21))((12)|(13)|(18)|(19))
default	*[+voice,-coronal][-approximant,+sonorant]	1.164	44	0.006	168,900.462	((8))((1)|(9)|(16))
default	*[+wb][+sonorant,-coronal]	1.12	73	0.01	168,856.902	((0))((9))
default	*[-syllabic,-consonantal][-back]	0.494	471	0.062	168,808.721	((6)|(23))((26)|(27)|(31)|(32)|(33)|(34)|(38)|(39))
default	*[+continuant,-voice,+labial][+low]	0.872	90	0.012	168,767.904	((4))((28)|(35))
default	*[+sonorant,+labial][+round,+long]	1.495	23	0.003	168,727.097	((1))((36)|(37)|(38)|(39))
default	*[-continuant,-voice,+coronal][-round,+long]	0.466	369	0.049	168,684.941	((10)|(11)|(12)|(18))((33)|(34)|(35))
