segmentNgrams,ngramSize,SegmentNgramCount
#,1,266446
# AA,2,1897
# AE,2,2893
# AH,2,3413
# AO,2,883
# AW,2,351
# AY,2,615
# B,2,9628
# CH,2,1260
# D,2,7717
# DH,2,67
# EH,2,2918
# ER,2,389
# EY,2,490
# F,2,5559
# G,2,4962
# HH,2,6654
# IH,2,4122
# IY,2,590
# JH,2,2148
# K,2,12955
# L,2,5469
# M,2,9450
# N,2,3214
# OW,2,1294
# OY,2,28
# P,2,7824
# R,2,7442
# S,2,12367
# SH,2,2466
# T,2,4851
# TH,2,636
# UH,2,14
# UW,2,84
# V,2,2415
# W,2,3771
# Y,2,1350
# Z,2,946
# ZH,2,91
AA,1,24428
AA #,2,186
AA AA,2,1
AA AH,2,8
AA AO,2,2
AA AY,2,2
AA B,2,628
AA CH,2,227
AA D,2,838
AA DH,2,39
AA EH,2,8
AA ER,2,8
AA EY,2,1
AA F,2,314
AA G,2,572
AA HH,2,80
AA IH,2,17
AA IY,2,50
AA JH,2,227
AA K,2,1772
AA L,2,2477
AA M,2,1505
AA N,2,4076
AA NG,2,261
AA OW,2,23
AA OY,2,1
AA P,2,882
AA R,2,6338
AA S,2,1203
AA SH,2,189
AA T,2,1307
AA TH,2,90
AA UW,2,22
AA V,2,478
AA W,2,97
AA Y,2,55
AA Z,2,383
AA ZH,2,61
AE,1,21744
AE #,2,5
AE AH,2,2
AE B,2,647
AE CH,2,323
AE D,2,917
AE DH,2,44
AE F,2,626
AE G,2,698
AE HH,2,49
AE JH,2,160
AE K,2,2461
AE L,2,2022
AE M,2,1751
AE N,2,5464
AE NG,2,964
AE P,2,771
AE R,2,459
AE S,2,1658
AE SH,2,471
AE T,2,1387
AE TH,2,238
AE UW,2,1
AE V,2,373
AE W,2,10
AE Z,2,225
AE ZH,2,18
AH,1,70819
AH #,2,6689
AH AA,2,5
AH AE,2,2
AH AO,2,4
AH B,2,2348
AH CH,2,282
AH D,2,2169
AH DH,2,93
AH EH,2,4
AH ER,2,2
AH EY,2,2
AH F,2,1357
AH G,2,1175
AH HH,2,290
AH IH,2,1
AH IY,2,3
AH JH,2,718
AH K,2,3611
AH L,2,11836
AH M,2,4378
AH N,2,21145
AH NG,2,430
AH OW,2,1
AH P,2,1462
AH R,2,125
AH S,2,4941
AH SH,2,306
AH T,2,3916
AH TH,2,239
AH V,2,980
AH W,2,313
AH Y,2,43
AH Z,2,1939
AH ZH,2,10
AO,1,11296
AO #,2,246
AO AH,2,11
AO B,2,75
AO CH,2,33
AO D,2,236
AO DH,2,2
AO EH,2,3
AO ER,2,10
AO F,2,714
AO G,2,167
AO HH,2,6
AO IH,2,20
AO IY,2,8
AO JH,2,25
AO K,2,276
AO L,2,1237
AO M,2,80
AO N,2,492
AO NG,2,277
AO P,2,74
AO R,2,6033
AO S,2,492
AO SH,2,68
AO T,2,389
AO TH,2,115
AO V,2,45
AO W,2,3
AO Y,2,13
AO Z,2,145
AO ZH,2,1
AW,1,3398
AW #,2,230
AW AA,2,9
AW AE,2,1
AW AH,2,94
AW AO,2,1
AW AY,2,1
AW B,2,62
AW CH,2,52
AW D,2,147
AW DH,2,5
AW EH,2,3
AW ER,2,223
AW F,2,15
AW G,2,31
AW HH,2,4
AW IH,2,37
AW IY,2,30
AW JH,2,8
AW K,2,38
AW L,2,119
AW M,2,98
AW N,2,872
AW NG,2,3
AW OW,2,2
AW P,2,14
AW R,2,96
AW S,2,405
AW SH,2,26
AW T,2,537
AW TH,2,69
AW UW,2,3
AW V,2,6
AW W,2,11
AW Y,2,7
AW Z,2,139
AY,1,11274
AY #,2,397
AY AA,2,61
AY AE,2,80
AY AH,2,591
AY AO,2,15
AY AW,2,4
AY AY,2,2
AY B,2,273
AY CH,2,20
AY D,2,1013
AY DH,2,17
AY EH,2,45
AY ER,2,444
AY EY,2,10
AY F,2,180
AY G,2,161
AY HH,2,23
AY IH,2,137
AY IY,2,19
AY JH,2,60
AY K,2,679
AY L,2,612
AY M,2,421
AY N,2,1557
AY NG,2,16
AY OW,2,116
AY P,2,243
AY R,2,502
AY S,2,560
AY SH,2,36
AY T,2,1216
AY TH,2,11
AY UW,2,10
AY V,2,281
AY W,2,39
AY Y,2,10
AY Z,2,1413
B,1,21037
B #,2,423
B AA,2,1476
B AE,2,1204
B AH,2,2905
B AO,2,682
B AW,2,250
B AY,2,451
B CH,2,6
B D,2,106
B EH,2,1473
B ER,2,2519
B EY,2,470
B F,2,6
B G,2,3
B HH,2,16
B IH,2,1450
B IY,2,1165
B JH,2,31
B K,2,60
B L,2,1305
B M,2,47
B N,2,40
B OW,2,850
B OY,2,142
B P,2,6
B R,2,2429
B S,2,243
B SH,2,7
B T,2,29
B UH,2,325
B UW,2,302
B V,2,17
B W,2,48
B Y,2,298
B Z,2,253
CH,1,4958
CH #,2,630
CH AA,2,194
CH AE,2,252
CH AH,2,611
CH AO,2,54
CH AW,2,25
CH AY,2,88
CH B,2,28
CH D,2,8
CH EH,2,461
CH ER,2,623
CH EY,2,117
CH F,2,27
CH G,2,4
CH HH,2,12
CH IH,2,602
CH IY,2,550
CH JH,2,1
CH K,2,34
CH L,2,40
CH M,2,62
CH N,2,21
CH OW,2,87
CH OY,2,11
CH P,2,2
CH R,2,30
CH S,2,5
CH T,2,117
CH UH,2,27
CH UW,2,202
CH W,2,24
CH Y,2,9
D,1,32310
D #,2,8800
D AA,2,880
D AE,2,529
D AH,2,3684
D AO,2,509
D AW,2,255
D AY,2,584
D B,2,184
D CH,2,16
D D,2,5
D EH,2,1535
D ER,2,1852
D EY,2,666
D F,2,125
D G,2,34
D HH,2,124
D IH,2,4263
D IY,2,2028
D JH,2,5
D K,2,144
D L,2,569
D M,2,297
D N,2,199
D OW,2,864
D OY,2,43
D P,2,48
D R,2,1279
D S,2,285
D SH,2,42
D T,2,46
D TH,2,12
D UH,2,65
D UW,2,506
D V,2,164
D W,2,261
D Y,2,71
D Z,2,1337
DH,1,576
DH #,2,40
DH AA,2,2
DH AE,2,6
DH AH,2,36
DH AO,2,2
DH AW,2,5
DH AY,2,7
DH D,2,18
DH EH,2,26
DH ER,2,317
DH EY,2,4
DH IH,2,23
DH IY,2,52
DH L,2,1
DH M,2,5
DH N,2,1
DH OW,2,5
DH OY,2,1
DH R,2,3
DH S,2,2
DH UW,2,1
DH W,2,1
DH Y,2,3
DH Z,2,15
EH,1,27307
EH #,2,34
EH AH,2,3
EH B,2,296
EH CH,2,147
EH D,2,1331
EH DH,2,101
EH F,2,473
EH G,2,514
EH HH,2,54
EH IY,2,1
EH JH,2,236
EH K,2,2945
EH L,2,4078
EH M,2,1404
EH N,2,4833
EH NG,2,259
EH OW,2,1
EH P,2,633
EH R,2,3881
EH S,2,2447
EH SH,2,331
EH T,2,1947
EH TH,2,180
EH V,2,655
EH W,2,16
EH Y,2,4
EH Z,2,465
EH ZH,2,38
ER,1,28914
ER #,2,10023
ER AA,2,269
ER AE,2,189
ER AH,2,830
ER AO,2,71
ER AW,2,30
ER AY,2,192
ER B,2,546
ER CH,2,180
ER D,2,1441
ER DH,2,37
ER EH,2,317
ER ER,2,104
ER EY,2,495
ER F,2,298
ER G,2,945
ER HH,2,141
ER IH,2,839
ER IY,2,765
ER JH,2,238
ER K,2,792
ER L,2,659
ER M,2,881
ER N,2,1052
ER OW,2,221
ER OY,2,18
ER P,2,283
ER R,2,160
ER S,2,1058
ER SH,2,218
ER T,2,1257
ER TH,2,211
ER UH,2,1
ER UW,2,63
ER V,2,404
ER W,2,140
ER Y,2,13
ER Z,2,3501
ER ZH,2,32
EY,1,13498
EY #,2,1014
EY AA,2,14
EY AE,2,2
EY AH,2,97
EY AO,2,20
EY AW,2,5
EY AY,2,2
EY B,2,370
EY CH,2,51
EY D,2,783
EY DH,2,18
EY EH,2,31
EY ER,2,126
EY EY,2,6
EY F,2,94
EY G,2,264
EY HH,2,57
EY IH,2,89
EY IY,2,19
EY JH,2,194
EY K,2,678
EY L,2,987
EY M,2,457
EY N,2,1444
EY NG,2,38
EY OW,2,60
EY P,2,253
EY R,2,76
EY S,2,677
EY SH,2,1448
EY T,2,2824
EY TH,2,35
EY UW,2,2
EY V,2,475
EY W,2,24
EY Y,2,37
EY Z,2,660
EY ZH,2,67
F,1,13698
F #,2,1002
F AA,2,553
F AE,2,454
F AH,2,1159
F AO,2,817
F AW,2,80
F AY,2,718
F B,2,15
F D,2,16
F EH,2,921
F ER,2,1171
F EY,2,245
F F,2,2
F G,2,22
F HH,2,14
F IH,2,1370
F IY,2,771
F K,2,45
F L,2,987
F M,2,46
F N,2,54
F OW,2,325
F OY,2,29
F P,2,9
F R,2,1280
F S,2,575
F SH,2,10
F T,2,483
F TH,2,20
F UH,2,132
F UW,2,130
F V,2,1
F W,2,19
F Y,2,219
F Z,2,4
G,1,13519
G #,2,1058
G AA,2,869
G AE,2,561
G AH,2,2053
G AO,2,295
G AW,2,56
G AY,2,134
G B,2,34
G D,2,98
G EH,2,367
G ER,2,1016
G EY,2,430
G F,2,20
G HH,2,24
G IH,2,725
G IY,2,262
G JH,2,13
G K,2,6
G L,2,869
G M,2,138
G N,2,400
G OW,2,681
G OY,2,21
G P,2,12
G R,2,2174
G S,2,59
G SH,2,9
G T,2,15
G TH,2,1
G UH,2,137
G UW,2,170
G V,2,1
G W,2,230
G Y,2,157
G Z,2,419
G ZH,2,5
HH,1,9246
HH #,2,25
HH AA,2,1261
HH AE,2,1206
HH AH,2,775
HH AO,2,527
HH AW,2,389
HH AY,2,657
HH EH,2,1080
HH ER,2,408
HH EY,2,331
HH IH,2,647
HH IY,2,303
HH L,2,6
HH M,2,2
HH N,2,1
HH OW,2,722
HH OY,2,37
HH R,2,14
HH UH,2,87
HH UW,2,180
HH W,2,386
HH Y,2,202
IH,1,49707
IH #,2,16
IH AA,2,2
IH AE,2,2
IH AO,2,2
IH B,2,649
IH CH,2,579
IH D,2,2439
IH DH,2,56
IH F,2,969
IH G,2,1213
IH HH,2,138
IH JH,2,795
IH K,2,5458
IH L,2,3703
IH M,2,1880
IH N,2,7632
IH NG,2,7554
IH OW,2,1
IH OY,2,1
IH P,2,1238
IH R,2,1635
IH S,2,5061
IH SH,2,1170
IH T,2,3179
IH TH,2,245
IH V,2,1421
IH W,2,41
IH Y,2,14
IH Z,2,2529
IH ZH,2,85
IY,1,34439
IY #,2,13303
IY AA,2,485
IY AE,2,321
IY AH,2,2653
IY AO,2,95
IY AW,2,9
IY AY,2,14
IY B,2,415
IY CH,2,246
IY D,2,1074
IY DH,2,17
IY EH,2,303
IY ER,2,435
IY EY,2,379
IY F,2,314
IY G,2,465
IY HH,2,161
IY IH,2,293
IY IY,2,21
IY JH,2,165
IY K,2,1031
IY L,2,1348
IY M,2,824
IY N,2,2533
IY NG,2,20
IY OW,2,810
IY OY,2,3
IY P,2,471
IY R,2,322
IY S,2,1005
IY SH,2,135
IY T,2,1270
IY TH,2,86
IY UH,2,2
IY UW,2,63
IY V,2,684
IY W,2,118
IY Y,2,45
IY Z,2,2467
IY ZH,2,34
JH,1,6312
JH #,2,694
JH AA,2,215
JH AE,2,260
JH AH,2,1129
JH AO,2,100
JH AW,2,9
JH AY,2,63
JH B,2,2
JH D,2,149
JH EH,2,767
JH ER,2,487
JH EY,2,109
JH F,2,6
JH HH,2,8
JH IH,2,929
JH IY,2,654
JH K,2,16
JH L,2,18
JH M,2,55
JH N,2,7
JH OW,2,166
JH OY,2,78
JH P,2,8
JH R,2,9
JH S,2,9
JH SH,2,2
JH T,2,6
JH UH,2,39
JH UW,2,265
JH V,2,2
JH W,2,25
JH Y,2,24
JH Z,2,2
K,1,42429
K #,2,5281
K AA,2,3318
K AE,2,1902
K AH,2,5752
K AO,2,1316
K AW,2,441
K AY,2,220
K B,2,125
K CH,2,121
K D,2,102
K EH,2,813
K ER,2,1858
K EY,2,995
K F,2,100
K G,2,14
K HH,2,148
K IH,2,1715
K IY,2,2233
K JH,2,11
K K,2,6
K L,2,2118
K M,2,299
K N,2,298
K OW,2,2108
K OY,2,59
K P,2,48
K R,2,2517
K S,2,3610
K SH,2,408
K T,2,1857
K TH,2,13
K UH,2,124
K UW,2,472
K V,2,37
K W,2,1278
K Y,2,701
K Z,2,11
L,1,49309
L #,2,7438
L AA,2,1588
L AE,2,2095
L AH,2,5581
L AO,2,876
L AW,2,291
L AY,2,1559
L B,2,563
L CH,2,118
L D,2,2066
L DH,2,4
L EH,2,1922
L ER,2,2152
L EY,2,1551
L F,2,479
L G,2,192
L HH,2,160
L IH,2,5195
L IY,2,5622
L JH,2,82
L K,2,577
L L,2,8
L M,2,783
L N,2,138
L OW,2,1567
L OY,2,160
L P,2,199
L R,2,109
L S,2,680
L SH,2,57
L T,2,1246
L TH,2,68
L UH,2,101
L UW,2,1012
L V,2,434
L W,2,182
L Y,2,395
L Z,2,2058
L ZH,2,1
M,1,29270
M #,2,2544
M AA,2,2158
M AE,2,1784
M AH,2,6935
M AO,2,694
M AW,2,109
M AY,2,713
M B,2,1080
M CH,2,20
M D,2,193
M EH,2,1833
M ER,2,1354
M EY,2,816
M F,2,147
M G,2,30
M HH,2,38
M IH,2,2753
M IY,2,1037
M JH,2,5
M K,2,105
M L,2,185
M M,2,9
M N,2,91
M OW,2,904
M OY,2,53
M P,2,1668
M R,2,96
M S,2,222
M SH,2,29
M T,2,57
M TH,2,13
M UH,2,86
M UW,2,245
M V,2,13
M W,2,49
M Y,2,367
M Z,2,835
N,1,60295
N #,2,14895
N AA,2,1132
N AE,2,743
N AH,2,4766
N AO,2,512
N AW,2,126
N AY,2,517
N B,2,708
N CH,2,571
N D,2,5340
N DH,2,13
N EH,2,1116
N ER,2,1819
N EY,2,738
N F,2,693
N G,2,146
N HH,2,383
N IH,2,3080
N IY,2,2731
N JH,2,695
N K,2,688
N L,2,343
N M,2,258
N N,2,27
N OW,2,1491
N OY,2,64
N P,2,134
N R,2,290
N S,2,3693
N SH,2,377
N T,2,5975
N TH,2,197
N UH,2,55
N UW,2,545
N V,2,418
N W,2,224
N Y,2,447
N Z,2,4338
N ZH,2,7
NG,1,9876
NG #,2,5865
NG AA,2,2
NG AE,2,1
NG AH,2,57
NG AO,2,1
NG AW,2,2
NG AY,2,1
NG B,2,36
NG CH,2,4
NG D,2,44
NG EH,2,1
NG ER,2,353
NG EY,2,4
NG F,2,22
NG G,2,824
NG HH,2,82
NG IH,2,32
NG IY,2,6
NG JH,2,10
NG K,2,1499
NG L,2,143
NG M,2,36
NG N,2,7
NG OW,2,4
NG P,2,7
NG R,2,11
NG S,2,63
NG SH,2,25
NG T,2,172
NG TH,2,17
NG UW,2,2
NG V,2,3
NG W,2,25
NG Y,2,6
NG Z,2,509
OW,1,19016
OW #,2,5268
OW AA,2,48
OW AE,2,22
OW AH,2,166
OW AO,2,16
OW AW,2,3
OW AY,2,5
OW B,2,621
OW CH,2,104
OW D,2,750
OW DH,2,19
OW EH,2,36
OW ER,2,97
OW EY,2,25
OW F,2,225
OW G,2,301
OW HH,2,167
OW IH,2,136
OW IY,2,40
OW JH,2,86
OW K,2,851
OW L,2,2533
OW M,2,852
OW N,2,1593
OW NG,2,27
OW OW,2,1
OW P,2,442
OW R,2,38
OW S,2,1060
OW SH,2,244
OW T,2,919
OW TH,2,48
OW UH,2,2
OW UW,2,1
OW V,2,868
OW W,2,38
OW Y,2,47
OW Z,2,1280
OW ZH,2,37
OY,1,1264
OY #,2,172
OY AA,2,7
OY AE,2,5
OY AH,2,67
OY B,2,18
OY CH,2,20
OY D,2,126
OY DH,2,1
OY EH,2,7
OY ER,2,59
OY F,2,14
OY G,2,9
OY HH,2,2
OY IH,2,25
OY IY,2,8
OY JH,2,1
OY K,2,26
OY L,2,138
OY M,2,22
OY N,2,210
OY OW,2,11
OY P,2,4
OY R,2,19
OY S,2,104
OY SH,2,5
OY T,2,80
OY TH,2,3
OY UW,2,5
OY V,2,6
OY Y,2,4
OY Z,2,85
OY ZH,2,1
P,1,19635
P #,2,1112
P AA,2,1344
P AE,2,924
P AH,2,1676
P AO,2,545
P AW,2,167
P AY,2,290
P B,2,27
P CH,2,41
P D,2,29
P EH,2,1397
P ER,2,1780
P EY,2,514
P F,2,99
P G,2,22
P HH,2,25
P IH,2,1313
P IY,2,1044
P JH,2,9
P K,2,101
P L,2,1388
P M,2,56
P N,2,61
P OW,2,693
P OY,2,128
P P,2,3
P R,2,2732
P S,2,750
P SH,2,136
P T,2,640
P TH,2,7
P UH,2,96
P UW,2,168
P V,2,2
P W,2,41
P Y,2,272
P Z,2,3
R,1,45873
R #,2,1836
R AA,2,1997
R AE,2,2793
R AH,2,6094
R AO,2,661
R AW,2,390
R AY,2,1325
R B,2,481
R CH,2,160
R D,2,1405
R DH,2,16
R EH,2,2903
R ER,2,134
R EY,2,1860
R F,2,240
R G,2,377
R HH,2,89
R IH,2,4989
R IY,2,6199
R JH,2,217
R K,2,923
R L,2,498
R M,2,834
R N,2,818
R NG,2,4
R OW,2,2885
R OY,2,177
R P,2,298
R R,2,2
R S,2,677
R SH,2,171
R T,2,1841
R TH,2,164
R UH,2,137
R UW,2,1293
R V,2,180
R W,2,133
R Y,2,33
R Z,2,631
R ZH,2,8
S,1,49591
S #,2,11249
S AA,2,888
S AE,2,814
S AH,2,5070
S AO,2,436
S AW,2,116
S AY,2,844
S B,2,330
S CH,2,159
S D,2,77
S DH,2,1
S EH,2,1939
S ER,2,1187
S EY,2,512
S F,2,221
S G,2,61
S HH,2,82
S IH,2,3657
S IY,2,2283
S JH,2,18
S K,2,3527
S L,2,1116
S M,2,743
S N,2,470
S OW,2,685
S OY,2,30
S P,2,1973
S R,2,96
S S,2,26
S SH,2,9
S T,2,9652
S TH,2,34
S UH,2,23
S UW,2,591
S V,2,52
S W,2,577
S Y,2,36
S Z,2,1
S ZH,2,6
SH,1,8664
SH #,2,708
SH AA,2,321
SH AE,2,253
SH AH,2,3458
SH AO,2,169
SH AW,2,35
SH AY,2,110
SH B,2,54
SH CH,2,2
SH D,2,6
SH EH,2,369
SH ER,2,302
SH EY,2,169
SH F,2,18
SH G,2,2
SH HH,2,3
SH IH,2,725
SH IY,2,479
SH JH,2,1
SH K,2,54
SH L,2,147
SH M,2,167
SH N,2,168
SH OW,2,181
SH OY,2,12
SH P,2,2
SH R,2,176
SH T,2,132
SH UH,2,82
SH UW,2,196
SH V,2,9
SH W,2,127
SH Y,2,27
T,1,48410
T #,2,9286
T AA,2,1302
T AE,2,1138
T AH,2,5697
T AO,2,706
T AW,2,157
T AY,2,851
T B,2,139
T CH,2,24
T D,2,42
T DH,2,4
T EH,2,1988
T ER,2,4058
T EY,2,1080
T F,2,172
T G,2,53
T HH,2,117
T IH,2,5308
T IY,2,2917
T JH,2,23
T K,2,214
T L,2,773
T M,2,374
T N,2,323
T OW,2,1348
T OY,2,56
T P,2,72
T R,2,4075
T S,2,4792
T SH,2,12
T T,2,19
T TH,2,7
T UH,2,94
T UW,2,551
T V,2,32
T W,2,332
T Y,2,82
T Z,2,192
TH,1,2876
TH #,2,666
TH AA,2,76
TH AE,2,63
TH AH,2,359
TH AO,2,129
TH AW,2,16
TH AY,2,40
TH B,2,26
TH CH,2,3
TH D,2,13
TH EH,2,105
TH ER,2,206
TH EY,2,26
TH F,2,18
TH G,2,7
TH HH,2,9
TH IH,2,174
TH IY,2,279
TH JH,2,2
TH K,2,30
TH L,2,59
TH M,2,30
TH N,2,22
TH OW,2,32
TH P,2,12
TH R,2,218
TH S,2,136
TH SH,2,4
TH T,2,11
TH UH,2,2
TH UW,2,20
TH V,2,6
TH W,2,60
TH Y,2,17
UH,1,2268
UH #,2,3
UH B,2,11
UH CH,2,10
UH D,2,440
UH DH,2,2
UH F,2,8
UH G,2,21
UH HH,2,6
UH IH,2,1
UH JH,2,2
UH K,2,343
UH L,2,282
UH M,2,37
UH N,2,36
UH NG,2,5
UH P,2,6
UH R,2,840
UH S,2,27
UH SH,2,92
UH T,2,88
UH TH,2,2
UH V,2,2
UH Z,2,4
UW,1,9742
UW #,2,756
UW AA,2,57
UW AE,2,26
UW AH,2,315
UW AO,2,13
UW AW,2,3
UW AY,2,10
UW B,2,395
UW CH,2,171
UW D,2,578
UW DH,2,20
UW EH,2,91
UW ER,2,113
UW EY,2,93
UW F,2,130
UW G,2,210
UW HH,2,57
UW IH,2,207
UW IY,2,117
UW JH,2,121
UW K,2,418
UW L,2,812
UW M,2,693
UW N,2,799
UW NG,2,18
UW OW,2,27
UW P,2,509
UW R,2,183
UW S,2,640
UW SH,2,158
UW T,2,903
UW TH,2,112
UW UH,2,4
UW UW,2,1
UW V,2,183
UW W,2,32
UW Y,2,29
UW Z,2,676
UW ZH,2,62
V,1,10678
V #,2,866
V AA,2,522
V AE,2,728
V AH,2,1327
V AO,2,107
V AW,2,28
V AY,2,344
V B,2,6
V CH,2,7
V D,2,116
V EH,2,806
V ER,2,1638
V EY,2,382
V F,2,1
V G,2,5
V HH,2,5
V IH,2,1593
V IY,2,823
V JH,2,2
V K,2,13
V L,2,230
V M,2,20
V N,2,60
V OW,2,292
V OY,2,80
V P,2,2
V R,2,150
V S,2,47
V SH,2,1
V T,2,11
V TH,2,3
V UH,2,11
V UW,2,19
V W,2,19
V Y,2,110
V Z,2,304
W,1,8818
W #,2,6
W AA,2,837
W AE,2,144
W AH,2,515
W AO,2,840
W AW,2,17
W AY,2,761
W B,2,1
W EH,2,1187
W ER,2,679
W EY,2,689
W IH,2,1940
W IY,2,590
W N,2,2
W OW,2,144
W OY,2,25
W R,2,1
W S,2,3
W UH,2,369
W UW,2,68
Y,1,5163
Y #,2,6
Y AA,2,317
Y AE,2,126
Y AH,2,1146
Y AO,2,100
Y AW,2,17
Y AY,2,4
Y D,2,1
Y EH,2,180
Y ER,2,286
Y EY,2,40
Y IH,2,60
Y IY,2,56
Y N,2,4
Y OW,2,179
Y OY,2,2
Y S,2,1
Y T,2,1
Y UH,2,232
Y UW,2,2402
Y W,2,1
Y Z,2,2
Z,1,27771
Z #,2,20426
Z AA,2,297
Z AE,2,220
Z AH,2,1537
Z AO,2,90
Z AW,2,6
Z AY,2,147
Z B,2,216
Z CH,2,1
Z D,2,465
Z EH,2,339
Z ER,2,613
Z EY,2,240
Z F,2,12
Z G,2,15
Z HH,2,18
Z IH,2,1195
Z IY,2,660
Z JH,2,3
Z K,2,50
Z L,2,194
Z M,2,274
Z N,2,127
Z OW,2,229
Z OY,2,5
Z P,2,23
Z R,2,33
Z S,2,8
Z SH,2,2
Z T,2,30
Z UH,2,17
Z UW,2,135
Z V,2,31
Z W,2,102
Z Y,2,11
ZH,1,564
ZH #,2,25
ZH AA,2,24
ZH AE,2,1
ZH AH,2,247
ZH AO,2,6
ZH AW,2,6
ZH AY,2,3
ZH D,2,12
ZH EH,2,13
ZH ER,2,92
ZH EY,2,9
ZH IH,2,45
ZH IY,2,24
ZH K,2,3
ZH M,2,2
ZH N,2,4
ZH OW,2,6
ZH UH,2,4
ZH UW,2,12
ZH W,2,21
ZH Y,2,5
