FeatureNgrams,ngramSize,FeatureNgramCount
-anterior,1,6
-anterior -anterior,2,23
-anterior -approximant,2,75
-anterior -back,2,42
-anterior -consonantal,2,95
-anterior -constr.gl,2,175
-anterior -continuant,2,51
-anterior -CORONAL,2,120
-anterior -delayed.release,2,31
-anterior -distributed,2,28
-anterior -DORSAL,2,80
-anterior -front,2,48
-anterior -high,2,48
-anterior -LABIAL,2,120
-anterior -labiodental,2,166
-anterior -lateral,2,170
-anterior -long,2,175
-anterior -low,2,83
-anterior -nasal,2,162
-anterior -round,2,145
-anterior -sonorant,2,62
-anterior -spread.gl,2,175
-anterior -stress,2,175
-anterior -strident,2,37
-anterior -syllabic,2,97
-anterior -tap,2,175
-anterior -tense,2,36
-anterior -trill,2,175
-anterior -voice,2,32
-anterior #,2,6
-anterior +anterior,2,32
-anterior +approximant,2,100
-anterior +back,2,42
-anterior +consonantal,2,80
-anterior +continuant,2,124
-anterior +CORONAL,2,55
-anterior +delayed.release,2,31
-anterior +distributed,2,27
-anterior +DORSAL,2,95
-anterior +front,2,36
-anterior +high,2,47
-anterior +LABIAL,2,55
-anterior +labiodental,2,9
-anterior +lateral,2,5
-anterior +low,2,12
-anterior +nasal,2,13
-anterior +round,2,30
-anterior +sonorant,2,113
-anterior +strident,2,18
-anterior +syllabic,2,78
-anterior +tense,2,36
-anterior +voice,2,143
-approximant,1,19
-approximant -anterior,2,81
-approximant -approximant,2,255
-approximant -back,2,133
-approximant -consonantal,2,301
-approximant -constr.gl,2,574
-approximant -continuant,2,168
-approximant -CORONAL,2,381
-approximant -delayed.release,2,102
-approximant -distributed,2,100
-approximant -DORSAL,2,277
-approximant -front,2,150
-approximant -high,2,152
-approximant -LABIAL,2,397
-approximant -labiodental,2,542
-approximant -lateral,2,556
-approximant -long,2,574
-approximant -low,2,259
-approximant -nasal,2,536
-approximant -round,2,481
-approximant -sonorant,2,217
-approximant -spread.gl,2,574
-approximant -stress,2,574
-approximant -strident,2,122
-approximant -syllabic,2,329
-approximant -tap,2,574
-approximant -tense,2,112
-approximant -trill,2,574
-approximant -voice,2,120
-approximant #,2,19
-approximant +anterior,2,112
-approximant +approximant,2,319
-approximant +back,2,131
-approximant +consonantal,2,273
-approximant +continuant,2,406
-approximant +CORONAL,2,193
-approximant +delayed.release,2,115
-approximant +distributed,2,93
-approximant +DORSAL,2,297
-approximant +front,2,114
-approximant +high,2,145
-approximant +LABIAL,2,177
-approximant +labiodental,2,32
-approximant +lateral,2,18
-approximant +low,2,38
-approximant +nasal,2,38
-approximant +round,2,93
-approximant +sonorant,2,357
-approximant +strident,2,71
-approximant +syllabic,2,245
-approximant +tense,2,114
-approximant +voice,2,454
-back,1,7
-back -anterior,2,34
-back -approximant,2,118
-back -back,2,32
-back -consonantal,2,76
-back -constr.gl,2,200
-back -continuant,2,69
-back -CORONAL,2,114
-back -delayed.release,2,38
-back -distributed,2,40
-back -DORSAL,2,116
-back -front,2,39
-back -high,2,39
-back -LABIAL,2,146
-back -labiodental,2,188
-back -lateral,2,194
-back -long,2,200
-back -low,2,74
-back -nasal,2,181
-back -round,2,176
-back -sonorant,2,99
-back -spread.gl,2,200
-back -stress,2,200
-back -strident,2,49
-back -syllabic,2,142
-back -tap,2,200
-back -tense,2,25
-back -trill,2,200
-back -voice,2,49
-back #,2,7
-back +anterior,2,52
-back +approximant,2,82
-back +back,2,34
-back +consonantal,2,124
-back +continuant,2,131
-back +CORONAL,2,86
-back +delayed.release,2,61
-back +distributed,2,46
-back +DORSAL,2,84
-back +front,2,27
-back +high,2,45
-back +LABIAL,2,54
-back +labiodental,2,12
-back +lateral,2,6
-back +low,2,10
-back +nasal,2,19
-back +round,2,24
-back +sonorant,2,101
-back +strident,2,37
-back +syllabic,2,58
-back +tense,2,31
-back +voice,2,151
-consonantal,1,16
-consonantal -anterior,2,82
-consonantal -approximant,2,270
-consonantal -back,2,84
-consonantal -consonantal,2,191
-consonantal -constr.gl,2,475
-consonantal -continuant,2,158
-consonantal -CORONAL,2,276
-consonantal -delayed.release,2,87
-consonantal -distributed,2,89
-consonantal -DORSAL,2,270
-consonantal -front,2,92
-consonantal -high,2,95
-consonantal -LABIAL,2,348
-consonantal -labiodental,2,447
-consonantal -lateral,2,461
-consonantal -long,2,475
-consonantal -low,2,182
-consonantal -nasal,2,432
-consonantal -round,2,419
-consonantal -sonorant,2,227
-consonantal -spread.gl,2,475
-consonantal -stress,2,475
-consonantal -strident,2,115
-consonantal -syllabic,2,325
-consonantal -tap,2,475
-consonantal -tense,2,68
-consonantal -trill,2,475
-consonantal -voice,2,113
-consonantal #,2,16
-consonantal +anterior,2,117
-consonantal +approximant,2,205
-consonantal +back,2,80
-consonantal +consonantal,2,284
-consonantal +continuant,2,317
-consonantal +CORONAL,2,199
-consonantal +delayed.release,2,140
-consonantal +distributed,2,110
-consonantal +DORSAL,2,205
-consonantal +front,2,72
-consonantal +high,2,110
-consonantal +LABIAL,2,127
-consonantal +labiodental,2,28
-consonantal +lateral,2,14
-consonantal +low,2,23
-consonantal +nasal,2,43
-consonantal +round,2,56
-consonantal +sonorant,2,248
-consonantal +strident,2,84
-consonantal +syllabic,2,150
-consonantal +tense,2,73
-consonantal +voice,2,362
-constr.gl,1,36
-constr.gl -anterior,2,169
-constr.gl -approximant,2,543
-constr.gl -back,2,224
-constr.gl -consonantal,2,508
-constr.gl -constr.gl,2,1084
-constr.gl -continuant,2,336
-constr.gl -CORONAL,2,678
-constr.gl -delayed.release,2,195
-constr.gl -distributed,2,195
-constr.gl -DORSAL,2,566
-constr.gl -front,2,250
-constr.gl -high,2,255
-constr.gl -LABIAL,2,770
-constr.gl -labiodental,2,1022
-constr.gl -lateral,2,1051
-constr.gl -long,2,1084
-constr.gl -low,2,455
-constr.gl -nasal,2,1001
-constr.gl -round,2,930
-constr.gl -sonorant,2,460
-constr.gl -spread.gl,2,1084
-constr.gl -stress,2,1084
-constr.gl -strident,2,245
-constr.gl -syllabic,2,676
-constr.gl -tap,2,1084
-constr.gl -tense,2,186
-constr.gl -trill,2,1084
-constr.gl -voice,2,241
-constr.gl #,2,36
-constr.gl +anterior,2,237
-constr.gl +approximant,2,541
-constr.gl +back,2,218
-constr.gl +consonantal,2,576
-constr.gl +continuant,2,748
-constr.gl +CORONAL,2,406
-constr.gl +delayed.release,2,265
-constr.gl +distributed,2,211
-constr.gl +DORSAL,2,518
-constr.gl +front,2,192
-constr.gl +high,2,263
-constr.gl +LABIAL,2,314
-constr.gl +labiodental,2,62
-constr.gl +lateral,2,33
-constr.gl +low,2,63
-constr.gl +nasal,2,83
-constr.gl +round,2,154
-constr.gl +sonorant,2,624
-constr.gl +strident,2,161
-constr.gl +syllabic,2,408
-constr.gl +tense,2,193
-constr.gl +voice,2,843
-continuant,1,11
-continuant -anterior,2,52
-continuant -approximant,2,166
-continuant -back,2,77
-continuant -consonantal,2,175
-continuant -constr.gl,2,352
-continuant -continuant,2,103
-continuant -CORONAL,2,226
-continuant -delayed.release,2,63
-continuant -distributed,2,64
-continuant -DORSAL,2,179
-continuant -front,2,87
-continuant -high,2,88
-continuant -LABIAL,2,245
-continuant -labiodental,2,331
-continuant -lateral,2,341
-continuant -long,2,352
-continuant -low,2,151
-continuant -nasal,2,330
-continuant -round,2,298
-continuant -sonorant,2,144
-continuant -spread.gl,2,352
-continuant -stress,2,352
-continuant -strident,2,76
-continuant -syllabic,2,210
-continuant -tap,2,352
-continuant -tense,2,65
-continuant -trill,2,352
-continuant -voice,2,80
-continuant #,2,11
-continuant +anterior,2,74
-continuant +approximant,2,186
-continuant +back,2,76
-continuant +consonantal,2,177
-continuant +continuant,2,249
-continuant +CORONAL,2,126
-continuant +delayed.release,2,81
-continuant +distributed,2,62
-continuant +DORSAL,2,173
-continuant +front,2,66
-continuant +high,2,85
-continuant +LABIAL,2,107
-continuant +labiodental,2,21
-continuant +lateral,2,11
-continuant +low,2,22
-continuant +nasal,2,22
-continuant +round,2,54
-continuant +sonorant,2,208
-continuant +strident,2,50
-continuant +syllabic,2,142
-continuant +tense,2,66
-continuant +voice,2,272
-CORONAL,1,22
-CORONAL -anterior,2,108
-CORONAL -approximant,2,355
-CORONAL -back,2,126
-CORONAL -consonantal,2,286
-CORONAL -constr.gl,2,661
-CORONAL -continuant,2,212
-CORONAL -CORONAL,2,397
-CORONAL -delayed.release,2,121
-CORONAL -distributed,2,125
-CORONAL -DORSAL,2,363
-CORONAL -front,2,139
-CORONAL -high,2,143
-CORONAL -LABIAL,2,477
-CORONAL -labiodental,2,622
-CORONAL -lateral,2,641
-CORONAL -long,2,661
-CORONAL -low,2,263
-CORONAL -nasal,2,607
-CORONAL -round,2,576
-CORONAL -sonorant,2,301
-CORONAL -spread.gl,2,661
-CORONAL -stress,2,661
-CORONAL -strident,2,154
-CORONAL -syllabic,2,434
-CORONAL -tap,2,661
-CORONAL -tense,2,103
-CORONAL -trill,2,661
-CORONAL -voice,2,158
-CORONAL #,2,22
-CORONAL +anterior,2,156
-CORONAL +approximant,2,306
-CORONAL +back,2,121
-CORONAL +consonantal,2,375
-CORONAL +continuant,2,449
-CORONAL +CORONAL,2,264
-CORONAL +delayed.release,2,180
-CORONAL +distributed,2,139
-CORONAL +DORSAL,2,298
-CORONAL +front,2,108
-CORONAL +high,2,155
-CORONAL +LABIAL,2,184
-CORONAL +labiodental,2,39
-CORONAL +lateral,2,20
-CORONAL +low,2,35
-CORONAL +nasal,2,54
-CORONAL +round,2,85
-CORONAL +sonorant,2,360
-CORONAL +strident,2,110
-CORONAL +syllabic,2,227
-CORONAL +tense,2,109
-CORONAL +voice,2,503
-delayed.release,1,6
-delayed.release -anterior,2,30
-delayed.release -approximant,2,94
-delayed.release -back,2,42
-delayed.release -consonantal,2,96
-delayed.release -constr.gl,2,196
-delayed.release -continuant,2,57
-delayed.release -CORONAL,2,124
-delayed.release -delayed.release,2,34
-delayed.release -distributed,2,36
-delayed.release -DORSAL,2,101
-delayed.release -front,2,48
-delayed.release -high,2,48
-delayed.release -LABIAL,2,137
-delayed.release -labiodental,2,184
-delayed.release -lateral,2,190
-delayed.release -long,2,196
-delayed.release -low,2,83
-delayed.release -nasal,2,184
-delayed.release -round,2,166
-delayed.release -sonorant,2,82
-delayed.release -spread.gl,2,196
-delayed.release -stress,2,196
-delayed.release -strident,2,42
-delayed.release -syllabic,2,118
-delayed.release -tap,2,196
-delayed.release -tense,2,36
-delayed.release -trill,2,196
-delayed.release -voice,2,46
-delayed.release #,2,6
-delayed.release +anterior,2,42
-delayed.release +approximant,2,102
-delayed.release +back,2,42
-delayed.release +consonantal,2,100
-delayed.release +continuant,2,139
-delayed.release +CORONAL,2,72
-delayed.release +delayed.release,2,48
-delayed.release +distributed,2,36
-delayed.release +DORSAL,2,95
-delayed.release +front,2,36
-delayed.release +high,2,47
-delayed.release +LABIAL,2,59
-delayed.release +labiodental,2,12
-delayed.release +lateral,2,6
-delayed.release +low,2,12
-delayed.release +nasal,2,12
-delayed.release +round,2,30
-delayed.release +sonorant,2,114
-delayed.release +strident,2,30
-delayed.release +syllabic,2,78
-delayed.release +tense,2,36
-delayed.release +voice,2,150
-distributed,1,6
-distributed -anterior,2,31
-distributed -approximant,2,95
-distributed -back,2,42
-distributed -consonantal,2,96
-distributed -constr.gl,2,197
-distributed -continuant,2,60
-distributed -CORONAL,2,126
-distributed -delayed.release,2,36
-distributed -distributed,2,33
-distributed -DORSAL,2,101
-distributed -front,2,48
-distributed -high,2,48
-distributed -LABIAL,2,137
-distributed -labiodental,2,185
-distributed -lateral,2,191
-distributed -long,2,197
-distributed -low,2,84
-distributed -nasal,2,185
-distributed -round,2,167
-distributed -sonorant,2,83
-distributed -spread.gl,2,197
-distributed -stress,2,197
-distributed -strident,2,43
-distributed -syllabic,2,119
-distributed -tap,2,197
-distributed -tense,2,36
-distributed -trill,2,197
-distributed -voice,2,44
-distributed #,2,6
-distributed +anterior,2,40
-distributed +approximant,2,102
-distributed +back,2,42
-distributed +consonantal,2,101
-distributed +continuant,2,137
-distributed +CORONAL,2,71
-distributed +delayed.release,2,47
-distributed +distributed,2,38
-distributed +DORSAL,2,96
-distributed +front,2,36
-distributed +high,2,48
-distributed +LABIAL,2,60
-distributed +labiodental,2,12
-distributed +lateral,2,6
-distributed +low,2,12
-distributed +nasal,2,12
-distributed +round,2,30
-distributed +sonorant,2,114
-distributed +strident,2,28
-distributed +syllabic,2,78
-distributed +tense,2,36
-distributed +voice,2,153
-DORSAL,1,19
-DORSAL -anterior,2,84
-DORSAL -approximant,2,263
-DORSAL -back,2,133
-DORSAL -consonantal,2,302
-DORSAL -constr.gl,2,583
-DORSAL -continuant,2,171
-DORSAL -CORONAL,2,384
-DORSAL -delayed.release,2,103
-DORSAL -distributed,2,100
-DORSAL -DORSAL,2,283
-DORSAL -front,2,151
-DORSAL -high,2,152
-DORSAL -LABIAL,2,405
-DORSAL -labiodental,2,551
-DORSAL -lateral,2,565
-DORSAL -long,2,583
-DORSAL -low,2,262
-DORSAL -nasal,2,544
-DORSAL -round,2,489
-DORSAL -sonorant,2,224
-DORSAL -spread.gl,2,583
-DORSAL -stress,2,583
-DORSAL -strident,2,125
-DORSAL -syllabic,2,337
-DORSAL -tap,2,583
-DORSAL -tense,2,113
-DORSAL -trill,2,583
-DORSAL -voice,2,121
-DORSAL #,2,19
-DORSAL +anterior,2,115
-DORSAL +approximant,2,320
-DORSAL +back,2,132
-DORSAL +consonantal,2,281
-DORSAL +continuant,2,412
-DORSAL +CORONAL,2,199
-DORSAL +delayed.release,2,121
-DORSAL +distributed,2,99
-DORSAL +DORSAL,2,300
-DORSAL +front,2,114
-DORSAL +high,2,148
-DORSAL +LABIAL,2,178
-DORSAL +labiodental,2,32
-DORSAL +lateral,2,18
-DORSAL +low,2,38
-DORSAL +nasal,2,39
-DORSAL +round,2,94
-DORSAL +sonorant,2,359
-DORSAL +strident,2,74
-DORSAL +syllabic,2,246
-DORSAL +tense,2,114
-DORSAL +voice,2,462
-front,1,8
-front -anterior,2,42
-front -approximant,2,134
-front -back,2,44
-front -consonantal,2,95
-front -constr.gl,2,236
-front -continuant,2,79
-front -CORONAL,2,137
-front -delayed.release,2,43
-front -distributed,2,43
-front -DORSAL,2,135
-front -front,2,41
-front -high,2,46
-front -LABIAL,2,175
-front -labiodental,2,222
-front -lateral,2,229
-front -long,2,236
-front -low,2,90
-front -nasal,2,214
-front -round,2,211
-front -sonorant,2,112
-front -spread.gl,2,236
-front -stress,2,236
-front -strident,2,58
-front -syllabic,2,161
-front -tap,2,236
-front -tense,2,34
-front -trill,2,236
-front -voice,2,56
-front #,2,8
-front +anterior,2,57
-front +approximant,2,102
-front +back,2,36
-front +consonantal,2,141
-front +continuant,2,157
-front +CORONAL,2,99
-front +delayed.release,2,69
-front +distributed,2,56
-front +DORSAL,2,101
-front +front,2,39
-front +high,2,55
-front +LABIAL,2,61
-front +labiodental,2,14
-front +lateral,2,7
-front +low,2,11
-front +nasal,2,22
-front +round,2,25
-front +sonorant,2,124
-front +strident,2,41
-front +syllabic,2,75
-front +tense,2,35
-front +voice,2,180
-high,1,8
-high -anterior,2,46
-high -approximant,2,152
-high -back,2,41
-high -consonantal,2,90
-high -constr.gl,2,250
-high -continuant,2,88
-high -CORONAL,2,140
-high -delayed.release,2,48
-high -distributed,2,48
-high -DORSAL,2,150
-high -front,2,41
-high -high,2,43
-high -LABIAL,2,186
-high -labiodental,2,234
-high -lateral,2,242
-high -long,2,250
-high -low,2,91
-high -nasal,2,226
-high -round,2,226
-high -sonorant,2,128
-high -spread.gl,2,250
-high -stress,2,250
-high -strident,2,62
-high -syllabic,2,183
-high -tap,2,250
-high -tense,2,30
-high -trill,2,250
-high -voice,2,64
-high #,2,8
-high +anterior,2,64
-high +approximant,2,98
-high +back,2,35
-high +consonantal,2,160
-high +continuant,2,162
-high +CORONAL,2,110
-high +delayed.release,2,80
-high +distributed,2,62
-high +DORSAL,2,100
-high +front,2,35
-high +high,2,57
-high +LABIAL,2,64
-high +labiodental,2,16
-high +lateral,2,8
-high +low,2,9
-high +nasal,2,24
-high +round,2,24
-high +sonorant,2,122
-high +strident,2,48
-high +syllabic,2,67
-high +tense,2,37
-high +voice,2,186
-LABIAL,1,26
-LABIAL -anterior,2,122
-LABIAL -approximant,2,391
-LABIAL -back,2,163
-LABIAL -consonantal,2,371
-LABIAL -constr.gl,2,786
-LABIAL -continuant,2,243
-LABIAL -CORONAL,2,494
-LABIAL -delayed.release,2,141
-LABIAL -distributed,2,140
-LABIAL -DORSAL,2,408
-LABIAL -front,2,184
-LABIAL -high,2,188
-LABIAL -LABIAL,2,556
-LABIAL -labiodental,2,741
-LABIAL -lateral,2,762
-LABIAL -long,2,786
-LABIAL -low,2,331
-LABIAL -nasal,2,726
-LABIAL -round,2,672
-LABIAL -sonorant,2,331
-LABIAL -spread.gl,2,786
-LABIAL -stress,2,786
-LABIAL -strident,2,177
-LABIAL -syllabic,2,489
-LABIAL -tap,2,786
-LABIAL -tense,2,133
-LABIAL -trill,2,786
-LABIAL -voice,2,171
-LABIAL #,2,26
-LABIAL +anterior,2,170
-LABIAL +approximant,2,395
-LABIAL +back,2,161
-LABIAL +consonantal,2,415
-LABIAL +continuant,2,543
-LABIAL +CORONAL,2,292
-LABIAL +delayed.release,2,190
-LABIAL +distributed,2,152
-LABIAL +DORSAL,2,378
-LABIAL +front,2,140
-LABIAL +high,2,190
-LABIAL +LABIAL,2,230
-LABIAL +labiodental,2,45
-LABIAL +lateral,2,24
-LABIAL +low,2,47
-LABIAL +nasal,2,60
-LABIAL +round,2,114
-LABIAL +sonorant,2,455
-LABIAL +strident,2,115
-LABIAL +syllabic,2,297
-LABIAL +tense,2,144
-LABIAL +voice,2,615
-labiodental,1,34
-labiodental -anterior,2,161
-labiodental -approximant,2,514
-labiodental -back,2,210
-labiodental -consonantal,2,476
-labiodental -constr.gl,2,1021
-labiodental -continuant,2,318
-labiodental -CORONAL,2,637
-labiodental -delayed.release,2,183
-labiodental -distributed,2,183
-labiodental -DORSAL,2,535
-labiodental -front,2,234
-labiodental -high,2,239
-labiodental -LABIAL,2,726
-labiodental -labiodental,2,962
-labiodental -lateral,2,990
-labiodental -long,2,1021
-labiodental -low,2,427
-labiodental -nasal,2,942
-labiodental -round,2,877
-labiodental -sonorant,2,435
-labiodental -spread.gl,2,1021
-labiodental -stress,2,1021
-labiodental -strident,2,231
-labiodental -syllabic,2,639
-labiodental -tap,2,1021
-labiodental -tense,2,174
-labiodental -trill,2,1021
-labiodental -voice,2,226
-labiodental #,2,34
-labiodental +anterior,2,223
-labiodental +approximant,2,507
-labiodental +back,2,204
-labiodental +consonantal,2,545
-labiodental +continuant,2,703
-labiodental +CORONAL,2,384
-labiodental +delayed.release,2,252
-labiodental +distributed,2,201
-labiodental +DORSAL,2,486
-labiodental +front,2,180
-labiodental +high,2,247
-labiodental +LABIAL,2,295
-labiodental +labiodental,2,59
-labiodental +lateral,2,31
-labiodental +low,2,59
-labiodental +nasal,2,79
-labiodental +round,2,144
-labiodental +sonorant,2,586
-labiodental +strident,2,153
-labiodental +syllabic,2,382
-labiodental +tense,2,181
-labiodental +voice,2,795
-lateral,1,35
-lateral -anterior,2,163
-lateral -approximant,2,525
-lateral -back,2,217
-lateral -consonantal,2,492
-lateral -constr.gl,2,1049
-lateral -continuant,2,326
-lateral -CORONAL,2,657
-lateral -delayed.release,2,189
-lateral -distributed,2,189
-lateral -DORSAL,2,547
-lateral -front,2,242
-lateral -high,2,247
-lateral -LABIAL,2,745
-lateral -labiodental,2,989
-lateral -lateral,2,1017
-lateral -long,2,1049
-lateral -low,2,441
-lateral -nasal,2,968
-lateral -round,2,900
-lateral -sonorant,2,444
-lateral -spread.gl,2,1049
-lateral -stress,2,1049
-lateral -strident,2,237
-lateral -syllabic,2,654
-lateral -tap,2,1049
-lateral -tense,2,180
-lateral -trill,2,1049
-lateral -voice,2,233
-lateral #,2,35
-lateral +anterior,2,229
-lateral +approximant,2,524
-lateral +back,2,211
-lateral +consonantal,2,557
-lateral +continuant,2,723
-lateral +CORONAL,2,392
-lateral +delayed.release,2,255
-lateral +distributed,2,203
-lateral +DORSAL,2,502
-lateral +front,2,186
-lateral +high,2,255
-lateral +LABIAL,2,304
-lateral +labiodental,2,60
-lateral +lateral,2,32
-lateral +low,2,61
-lateral +nasal,2,81
-lateral +round,2,149
-lateral +sonorant,2,605
-lateral +strident,2,155
-lateral +syllabic,2,395
-lateral +tense,2,187
-lateral +voice,2,816
-long,1,36
-long -anterior,2,169
-long -approximant,2,543
-long -back,2,224
-long -consonantal,2,508
-long -constr.gl,2,1084
-long -continuant,2,336
-long -CORONAL,2,678
-long -delayed.release,2,195
-long -distributed,2,195
-long -DORSAL,2,566
-long -front,2,250
-long -high,2,255
-long -LABIAL,2,770
-long -labiodental,2,1022
-long -lateral,2,1051
-long -long,2,1084
-long -low,2,455
-long -nasal,2,1001
-long -round,2,930
-long -sonorant,2,460
-long -spread.gl,2,1084
-long -stress,2,1084
-long -strident,2,245
-long -syllabic,2,676
-long -tap,2,1084
-long -tense,2,186
-long -trill,2,1084
-long -voice,2,241
-long #,2,36
-long +anterior,2,237
-long +approximant,2,541
-long +back,2,218
-long +consonantal,2,576
-long +continuant,2,748
-long +CORONAL,2,406
-long +delayed.release,2,265
-long +distributed,2,211
-long +DORSAL,2,518
-long +front,2,192
-long +high,2,263
-long +LABIAL,2,314
-long +labiodental,2,62
-long +lateral,2,33
-long +low,2,63
-long +nasal,2,83
-long +round,2,154
-long +sonorant,2,624
-long +strident,2,161
-long +syllabic,2,408
-long +tense,2,193
-long +voice,2,843
-low,1,15
-low -anterior,2,74
-low -approximant,2,242
-low -back,2,84
-low -consonantal,2,187
-low -constr.gl,2,442
-low -continuant,2,143
-low -CORONAL,2,262
-low -delayed.release,2,80
-low -distributed,2,83
-low -DORSAL,2,246
-low -front,2,88
-low -high,2,94
-low -LABIAL,2,322
-low -labiodental,2,416
-low -lateral,2,429
-low -long,2,442
-low -low,2,172
-low -nasal,2,404
-low -round,2,388
-low -sonorant,2,204
-low -spread.gl,2,442
-low -stress,2,442
-low -strident,2,105
-low -syllabic,2,294
-low -tap,2,442
-low -tense,2,66
-low -trill,2,442
-low -voice,2,104
-low #,2,15
-low +anterior,2,106
-low +approximant,2,200
-low +back,2,77
-low +consonantal,2,255
-low +continuant,2,299
-low +CORONAL,2,180
-low +delayed.release,2,124
-low +distributed,2,97
-low +DORSAL,2,196
-low +front,2,73
-low +high,2,102
-low +LABIAL,2,120
-low +labiodental,2,26
-low +lateral,2,13
-low +low,2,24
-low +nasal,2,38
-low +round,2,54
-low +sonorant,2,238
-low +strident,2,75
-low +syllabic,2,148
-low +tense,2,71
-low +voice,2,338
-nasal,1,33
-nasal -anterior,2,153
-nasal -approximant,2,493
-nasal -back,2,203
-nasal -consonantal,2,461
-nasal -constr.gl,2,984
-nasal -continuant,2,306
-nasal -CORONAL,2,616
-nasal -delayed.release,2,177
-nasal -distributed,2,177
-nasal -DORSAL,2,513
-nasal -front,2,227
-nasal -high,2,231
-nasal -LABIAL,2,699
-nasal -labiodental,2,928
-nasal -lateral,2,954
-nasal -long,2,984
-nasal -low,2,414
-nasal -nasal,2,907
-nasal -round,2,844
-nasal -sonorant,2,416
-nasal -spread.gl,2,984
-nasal -stress,2,984
-nasal -strident,2,223
-nasal -syllabic,2,614
-nasal -tap,2,984
-nasal -tense,2,169
-nasal -trill,2,984
-nasal -voice,2,217
-nasal #,2,33
-nasal +anterior,2,215
-nasal +approximant,2,491
-nasal +back,2,198
-nasal +consonantal,2,523
-nasal +continuant,2,678
-nasal +CORONAL,2,368
-nasal +delayed.release,2,239
-nasal +distributed,2,191
-nasal +DORSAL,2,471
-nasal +front,2,174
-nasal +high,2,240
-nasal +LABIAL,2,285
-nasal +labiodental,2,56
-nasal +lateral,2,30
-nasal +low,2,57
-nasal +nasal,2,77
-nasal +round,2,140
-nasal +sonorant,2,568
-nasal +strident,2,145
-nasal +syllabic,2,370
-nasal +tense,2,175
-nasal +voice,2,767
-round,1,31
-round -anterior,2,145
-round -approximant,2,466
-round -back,2,198
-round -consonantal,2,451
-round -constr.gl,2,946
-round -continuant,2,290
-round -CORONAL,2,597
-round -delayed.release,2,170
-round -distributed,2,170
-round -DORSAL,2,488
-round -front,2,224
-round -high,2,228
-round -LABIAL,2,668
-round -labiodental,2,892
-round -lateral,2,917
-round -long,2,946
-round -low,2,401
-round -nasal,2,876
-round -round,2,807
-round -sonorant,2,396
-round -spread.gl,2,946
-round -stress,2,946
-round -strident,2,211
-round -syllabic,2,584
-round -tap,2,946
-round -tense,2,163
-round -trill,2,946
-round -voice,2,209
-round #,2,31
-round +anterior,2,204
-round +approximant,2,480
-round +back,2,196
-round +consonantal,2,495
-round +continuant,2,656
-round +CORONAL,2,349
-round +delayed.release,2,226
-round +distributed,2,179
-round +DORSAL,2,458
-round +front,2,170
-round +high,2,230
-round +LABIAL,2,278
-round +labiodental,2,54
-round +lateral,2,29
-round +low,2,57
-round +nasal,2,70
-round +round,2,139
-round +sonorant,2,550
-round +strident,2,138
-round +syllabic,2,362
-round +tense,2,174
-round +voice,2,737
-sonorant,1,16
-sonorant -anterior,2,65
-sonorant -approximant,2,205
-sonorant -back,2,112
-sonorant -consonantal,2,254
-sonorant -constr.gl,2,474
-sonorant -continuant,2,138
-sonorant -CORONAL,2,319
-sonorant -delayed.release,2,84
-sonorant -distributed,2,82
-sonorant -DORSAL,2,224
-sonorant -front,2,127
-sonorant -high,2,128
-sonorant -LABIAL,2,326
-sonorant -labiodental,2,448
-sonorant -lateral,2,459
-sonorant -long,2,474
-sonorant -low,2,218
-sonorant -nasal,2,442
-sonorant -round,2,395
-sonorant -sonorant,2,173
-sonorant -spread.gl,2,474
-sonorant -stress,2,474
-sonorant -strident,2,100
-sonorant -syllabic,2,267
-sonorant -tap,2,474
-sonorant -tense,2,95
-sonorant -trill,2,474
-sonorant -voice,2,96
-sonorant #,2,16
-sonorant +anterior,2,90
-sonorant +approximant,2,269
-sonorant +back,2,111
-sonorant +consonantal,2,220
-sonorant +continuant,2,336
-sonorant +CORONAL,2,155
-sonorant +delayed.release,2,89
-sonorant +distributed,2,73
-sonorant +DORSAL,2,250
-sonorant +front,2,96
-sonorant +high,2,122
-sonorant +LABIAL,2,148
-sonorant +labiodental,2,26
-sonorant +lateral,2,15
-sonorant +low,2,32
-sonorant +nasal,2,32
-sonorant +round,2,79
-sonorant +sonorant,2,301
-sonorant +strident,2,55
-sonorant +syllabic,2,207
-sonorant +tense,2,96
-sonorant +voice,2,378
-spread.gl,1,36
-spread.gl -anterior,2,169
-spread.gl -approximant,2,543
-spread.gl -back,2,224
-spread.gl -consonantal,2,508
-spread.gl -constr.gl,2,1084
-spread.gl -continuant,2,336
-spread.gl -CORONAL,2,678
-spread.gl -delayed.release,2,195
-spread.gl -distributed,2,195
-spread.gl -DORSAL,2,566
-spread.gl -front,2,250
-spread.gl -high,2,255
-spread.gl -LABIAL,2,770
-spread.gl -labiodental,2,1022
-spread.gl -lateral,2,1051
-spread.gl -long,2,1084
-spread.gl -low,2,455
-spread.gl -nasal,2,1001
-spread.gl -round,2,930
-spread.gl -sonorant,2,460
-spread.gl -spread.gl,2,1084
-spread.gl -stress,2,1084
-spread.gl -strident,2,245
-spread.gl -syllabic,2,676
-spread.gl -tap,2,1084
-spread.gl -tense,2,186
-spread.gl -trill,2,1084
-spread.gl -voice,2,241
-spread.gl #,2,36
-spread.gl +anterior,2,237
-spread.gl +approximant,2,541
-spread.gl +back,2,218
-spread.gl +consonantal,2,576
-spread.gl +continuant,2,748
-spread.gl +CORONAL,2,406
-spread.gl +delayed.release,2,265
-spread.gl +distributed,2,211
-spread.gl +DORSAL,2,518
-spread.gl +front,2,192
-spread.gl +high,2,263
-spread.gl +LABIAL,2,314
-spread.gl +labiodental,2,62
-spread.gl +lateral,2,33
-spread.gl +low,2,63
-spread.gl +nasal,2,83
-spread.gl +round,2,154
-spread.gl +sonorant,2,624
-spread.gl +strident,2,161
-spread.gl +syllabic,2,408
-spread.gl +tense,2,193
-spread.gl +voice,2,843
-stress,1,36
-stress -anterior,2,169
-stress -approximant,2,543
-stress -back,2,224
-stress -consonantal,2,508
-stress -constr.gl,2,1084
-stress -continuant,2,336
-stress -CORONAL,2,678
-stress -delayed.release,2,195
-stress -distributed,2,195
-stress -DORSAL,2,566
-stress -front,2,250
-stress -high,2,255
-stress -LABIAL,2,770
-stress -labiodental,2,1022
-stress -lateral,2,1051
-stress -long,2,1084
-stress -low,2,455
-stress -nasal,2,1001
-stress -round,2,930
-stress -sonorant,2,460
-stress -spread.gl,2,1084
-stress -stress,2,1084
-stress -strident,2,245
-stress -syllabic,2,676
-stress -tap,2,1084
-stress -tense,2,186
-stress -trill,2,1084
-stress -voice,2,241
-stress #,2,36
-stress +anterior,2,237
-stress +approximant,2,541
-stress +back,2,218
-stress +consonantal,2,576
-stress +continuant,2,748
-stress +CORONAL,2,406
-stress +delayed.release,2,265
-stress +distributed,2,211
-stress +DORSAL,2,518
-stress +front,2,192
-stress +high,2,263
-stress +LABIAL,2,314
-stress +labiodental,2,62
-stress +lateral,2,33
-stress +low,2,63
-stress +nasal,2,83
-stress +round,2,154
-stress +sonorant,2,624
-stress +strident,2,161
-stress +syllabic,2,408
-stress +tense,2,193
-stress +voice,2,843
-strident,1,8
-strident -anterior,2,41
-strident -approximant,2,124
-strident -back,2,56
-strident -consonantal,2,127
-strident -constr.gl,2,259
-strident -continuant,2,74
-strident -CORONAL,2,162
-strident -delayed.release,2,43
-strident -distributed,2,45
-strident -DORSAL,2,133
-strident -front,2,63
-strident -high,2,64
-strident -LABIAL,2,184
-strident -labiodental,2,245
-strident -lateral,2,251
-strident -long,2,259
-strident -low,2,110
-strident -nasal,2,242
-strident -round,2,220
-strident -sonorant,2,107
-strident -spread.gl,2,259
-strident -stress,2,259
-strident -strident,2,58
-strident -syllabic,2,156
-strident -tap,2,259
-strident -tense,2,47
-strident -trill,2,259
-strident -voice,2,55
-strident #,2,8
-strident +anterior,2,56
-strident +approximant,2,135
-strident +back,2,55
-strident +consonantal,2,132
-strident +continuant,2,185
-strident +CORONAL,2,97
-strident +delayed.release,2,64
-strident +distributed,2,52
-strident +DORSAL,2,126
-strident +front,2,48
-strident +high,2,62
-strident +LABIAL,2,75
-strident +labiodental,2,14
-strident +lateral,2,8
-strident +low,2,16
-strident +nasal,2,17
-strident +round,2,39
-strident +sonorant,2,152
-strident +strident,2,39
-strident +syllabic,2,103
-strident +tense,2,48
-strident +voice,2,204
-syllabic,1,23
-syllabic -anterior,2,96
-syllabic -approximant,2,298
-syllabic -back,2,159
-syllabic -consonantal,2,361
-syllabic -constr.gl,2,679
-syllabic -continuant,2,194
-syllabic -CORONAL,2,450
-syllabic -delayed.release,2,117
-syllabic -distributed,2,117
-syllabic -DORSAL,2,324
-syllabic -front,2,181
-syllabic -high,2,184
-syllabic -LABIAL,2,472
-syllabic -labiodental,2,643
-syllabic -lateral,2,659
-syllabic -long,2,679
-syllabic -low,2,309
-syllabic -nasal,2,634
-syllabic -round,2,567
-syllabic -sonorant,2,253
-syllabic -spread.gl,2,679
-syllabic -stress,2,679
-syllabic -strident,2,145
-syllabic -syllabic,2,382
-syllabic -tap,2,679
-syllabic -tense,2,136
-syllabic -trill,2,679
-syllabic -voice,2,137
-syllabic #,2,23
-syllabic +anterior,2,133
-syllabic +approximant,2,381
-syllabic +back,2,158
-syllabic +consonantal,2,318
-syllabic +continuant,2,485
-syllabic +CORONAL,2,229
-syllabic +delayed.release,2,136
-syllabic +distributed,2,112
-syllabic +DORSAL,2,355
-syllabic +front,2,136
-syllabic +high,2,171
-syllabic +LABIAL,2,207
-syllabic +labiodental,2,36
-syllabic +lateral,2,20
-syllabic +low,2,46
-syllabic +nasal,2,45
-syllabic +round,2,112
-syllabic +sonorant,2,426
-syllabic +strident,2,84
-syllabic +syllabic,2,297
-syllabic +tense,2,135
-syllabic +voice,2,542
-tap,1,36
-tap -anterior,2,169
-tap -approximant,2,543
-tap -back,2,224
-tap -consonantal,2,508
-tap -constr.gl,2,1084
-tap -continuant,2,336
-tap -CORONAL,2,678
-tap -delayed.release,2,195
-tap -distributed,2,195
-tap -DORSAL,2,566
-tap -front,2,250
-tap -high,2,255
-tap -LABIAL,2,770
-tap -labiodental,2,1022
-tap -lateral,2,1051
-tap -long,2,1084
-tap -low,2,455
-tap -nasal,2,1001
-tap -round,2,930
-tap -sonorant,2,460
-tap -spread.gl,2,1084
-tap -stress,2,1084
-tap -strident,2,245
-tap -syllabic,2,676
-tap -tap,2,1084
-tap -tense,2,186
-tap -trill,2,1084
-tap -voice,2,241
-tap #,2,36
-tap +anterior,2,237
-tap +approximant,2,541
-tap +back,2,218
-tap +consonantal,2,576
-tap +continuant,2,748
-tap +CORONAL,2,406
-tap +delayed.release,2,265
-tap +distributed,2,211
-tap +DORSAL,2,518
-tap +front,2,192
-tap +high,2,263
-tap +LABIAL,2,314
-tap +labiodental,2,62
-tap +lateral,2,33
-tap +low,2,63
-tap +nasal,2,83
-tap +round,2,154
-tap +sonorant,2,624
-tap +strident,2,161
-tap +syllabic,2,408
-tap +tense,2,193
-tap +voice,2,843
-tense,1,6
-tense -anterior,2,32
-tense -approximant,2,113
-tense -back,2,23
-tense -consonantal,2,49
-tense -constr.gl,2,168
-tense -continuant,2,66
-tense -CORONAL,2,88
-tense -delayed.release,2,36
-tense -distributed,2,36
-tense -DORSAL,2,110
-tense -front,2,19
-tense -high,2,22
-tense -LABIAL,2,126
-tense -labiodental,2,156
-tense -lateral,2,162
-tense -long,2,168
-tense -low,2,52
-tense -nasal,2,150
-tense -round,2,156
-tense -sonorant,2,95
-tense -spread.gl,2,168
-tense -stress,2,168
-tense -strident,2,45
-tense -syllabic,2,135
-tense -tap,2,168
-tense -tense,2,14
-tense -trill,2,168
-tense -voice,2,48
-tense #,2,6
-tense +anterior,2,48
-tense +approximant,2,55
-tense +back,2,17
-tense +consonantal,2,119
-tense +continuant,2,102
-tense +CORONAL,2,80
-tense +delayed.release,2,59
-tense +distributed,2,44
-tense +DORSAL,2,58
-tense +front,2,21
-tense +high,2,36
-tense +LABIAL,2,42
-tense +labiodental,2,12
-tense +lateral,2,6
-tense +low,2,6
-tense +nasal,2,18
-tense +round,2,12
-tense +sonorant,2,73
-tense +strident,2,35
-tense +syllabic,2,33
-tense +tense,2,20
-tense +voice,2,120
-trill,1,36
-trill -anterior,2,169
-trill -approximant,2,543
-trill -back,2,224
-trill -consonantal,2,508
-trill -constr.gl,2,1084
-trill -continuant,2,336
-trill -CORONAL,2,678
-trill -delayed.release,2,195
-trill -distributed,2,195
-trill -DORSAL,2,566
-trill -front,2,250
-trill -high,2,255
-trill -LABIAL,2,770
-trill -labiodental,2,1022
-trill -lateral,2,1051
-trill -long,2,1084
-trill -low,2,455
-trill -nasal,2,1001
-trill -round,2,930
-trill -sonorant,2,460
-trill -spread.gl,2,1084
-trill -stress,2,1084
-trill -strident,2,245
-trill -syllabic,2,676
-trill -tap,2,1084
-trill -tense,2,186
-trill -trill,2,1084
-trill -voice,2,241
-trill #,2,36
-trill +anterior,2,237
-trill +approximant,2,541
-trill +back,2,218
-trill +consonantal,2,576
-trill +continuant,2,748
-trill +CORONAL,2,406
-trill +delayed.release,2,265
-trill +distributed,2,211
-trill +DORSAL,2,518
-trill +front,2,192
-trill +high,2,263
-trill +LABIAL,2,314
-trill +labiodental,2,62
-trill +lateral,2,33
-trill +low,2,63
-trill +nasal,2,83
-trill +round,2,154
-trill +sonorant,2,624
-trill +strident,2,161
-trill +syllabic,2,408
-trill +tense,2,193
-trill +voice,2,843
-voice,1,8
-voice -anterior,2,34
-voice -approximant,2,111
-voice -back,2,56
-voice -consonantal,2,128
-voice -constr.gl,2,247
-voice -continuant,2,77
-voice -CORONAL,2,167
-voice -delayed.release,2,48
-voice -distributed,2,41
-voice -DORSAL,2,119
-voice -front,2,64
-voice -high,2,64
-voice -LABIAL,2,168
-voice -labiodental,2,232
-voice -lateral,2,239
-voice -long,2,247
-voice -low,2,112
-voice -nasal,2,231
-voice -round,2,207
-voice -sonorant,2,95
-voice -spread.gl,2,247
-voice -stress,2,247
-voice -strident,2,53
-voice -syllabic,2,143
-voice -tap,2,247
-voice -tense,2,48
-voice -trill,2,247
-voice -voice,2,52
-voice #,2,8
-voice +anterior,2,46
-voice +approximant,2,136
-voice +back,2,56
-voice +consonantal,2,119
-voice +continuant,2,170
-voice +CORONAL,2,80
-voice +delayed.release,2,47
-voice +distributed,2,39
-voice +DORSAL,2,128
-voice +front,2,48
-voice +high,2,64
-voice +LABIAL,2,79
-voice +labiodental,2,15
-voice +lateral,2,8
-voice +low,2,16
-voice +nasal,2,16
-voice +round,2,40
-voice +sonorant,2,152
-voice +strident,2,27
-voice +syllabic,2,104
-voice +tense,2,48
-voice +voice,2,195
#,1,1
# -anterior,2,6
# -approximant,2,18
# -back,2,7
# -consonantal,2,16
# -constr.gl,2,35
# -continuant,2,10
# -CORONAL,2,21
# -delayed.release,2,6
# -distributed,2,6
# -DORSAL,2,19
# -front,2,8
# -high,2,8
# -LABIAL,2,25
# -labiodental,2,33
# -lateral,2,34
# -long,2,35
# -low,2,14
# -nasal,2,33
# -round,2,30
# -sonorant,2,16
# -spread.gl,2,35
# -stress,2,35
# -strident,2,8
# -syllabic,2,22
# -tap,2,35
# -tense,2,6
# -trill,2,35
# -voice,2,8
# +anterior,2,8
# +approximant,2,17
# +back,2,7
# +consonantal,2,19
# +continuant,2,25
# +CORONAL,2,14
# +delayed.release,2,10
# +distributed,2,8
# +DORSAL,2,16
# +front,2,6
# +high,2,8
# +LABIAL,2,10
# +labiodental,2,2
# +lateral,2,1
# +low,2,2
# +nasal,2,2
# +round,2,5
# +sonorant,2,19
# +strident,2,6
# +syllabic,2,13
# +tense,2,6
# +voice,2,27
+anterior,1,8
+anterior -anterior,2,38
+anterior -approximant,2,113
+anterior -back,2,56
+anterior -consonantal,2,127
+anterior -constr.gl,2,248
+anterior -continuant,2,73
+anterior -CORONAL,2,161
+anterior -delayed.release,2,43
+anterior -distributed,2,42
+anterior -DORSAL,2,123
+anterior -front,2,63
+anterior -high,2,64
+anterior -LABIAL,2,173
+anterior -labiodental,2,234
+anterior -lateral,2,240
+anterior -long,2,248
+anterior -low,2,109
+anterior -nasal,2,232
+anterior -round,2,209
+anterior -sonorant,2,97
+anterior -spread.gl,2,248
+anterior -stress,2,248
+anterior -strident,2,54
+anterior -syllabic,2,145
+anterior -tap,2,248
+anterior -tense,2,47
+anterior -trill,2,248
+anterior -voice,2,51
+anterior #,2,8
+anterior +anterior,2,49
+anterior +approximant,2,135
+anterior +back,2,55
+anterior +consonantal,2,121
+anterior +continuant,2,175
+anterior +CORONAL,2,87
+anterior +delayed.release,2,54
+anterior +distributed,2,45
+anterior +DORSAL,2,125
+anterior +front,2,48
+anterior +high,2,61
+anterior +LABIAL,2,75
+anterior +labiodental,2,14
+anterior +lateral,2,8
+anterior +low,2,16
+anterior +nasal,2,16
+anterior +round,2,39
+anterior +sonorant,2,151
+anterior +strident,2,33
+anterior +syllabic,2,103
+anterior +tense,2,48
+anterior +voice,2,197
+approximant,1,17
+approximant -anterior,2,88
+approximant -approximant,2,288
+approximant -back,2,91
+approximant -consonantal,2,207
+approximant -constr.gl,2,510
+approximant -continuant,2,168
+approximant -CORONAL,2,297
+approximant -delayed.release,2,93
+approximant -distributed,2,95
+approximant -DORSAL,2,289
+approximant -front,2,100
+approximant -high,2,103
+approximant -LABIAL,2,373
+approximant -labiodental,2,480
+approximant -lateral,2,495
+approximant -long,2,510
+approximant -low,2,196
+approximant -nasal,2,465
+approximant -round,2,449
+approximant -sonorant,2,243
+approximant -spread.gl,2,510
+approximant -stress,2,510
+approximant -strident,2,123
+approximant -syllabic,2,347
+approximant -tap,2,510
+approximant -tense,2,74
+approximant -trill,2,510
+approximant -voice,2,121
+approximant #,2,17
+approximant +anterior,2,125
+approximant +approximant,2,222
+approximant +back,2,87
+approximant +consonantal,2,303
+approximant +continuant,2,342
+approximant +CORONAL,2,213
+approximant +delayed.release,2,150
+approximant +distributed,2,118
+approximant +DORSAL,2,221
+approximant +front,2,78
+approximant +high,2,118
+approximant +LABIAL,2,137
+approximant +labiodental,2,30
+approximant +lateral,2,15
+approximant +low,2,25
+approximant +nasal,2,45
+approximant +round,2,61
+approximant +sonorant,2,267
+approximant +strident,2,90
+approximant +syllabic,2,163
+approximant +tense,2,79
+approximant +voice,2,389
+back,1,7
+back -anterior,2,36
+back -approximant,2,115
+back -back,2,38
+back -consonantal,2,83
+back -constr.gl,2,204
+back -continuant,2,68
+back -CORONAL,2,119
+back -delayed.release,2,37
+back -distributed,2,37
+back -DORSAL,2,116
+back -front,2,37
+back -high,2,40
+back -LABIAL,2,151
+back -labiodental,2,192
+back -lateral,2,198
+back -long,2,204
+back -low,2,79
+back -nasal,2,185
+back -round,2,182
+back -sonorant,2,96
+back -spread.gl,2,204
+back -stress,2,204
+back -strident,2,50
+back -syllabic,2,138
+back -tap,2,204
+back -tense,2,31
+back -trill,2,204
+back -voice,2,48
+back #,2,7
+back +anterior,2,49
+back +approximant,2,89
+back +back,2,32
+back +consonantal,2,121
+back +continuant,2,136
+back +CORONAL,2,85
+back +delayed.release,2,59
+back +distributed,2,48
+back +DORSAL,2,88
+back +front,2,33
+back +high,2,48
+back +LABIAL,2,53
+back +labiodental,2,12
+back +lateral,2,6
+back +low,2,9
+back +nasal,2,19
+back +round,2,22
+back +sonorant,2,108
+back +strident,2,35
+back +syllabic,2,66
+back +tense,2,30
+back +voice,2,156
+consonantal,1,20
+consonantal -anterior,2,87
+consonantal -approximant,2,273
+consonantal -back,2,140
+consonantal -consonantal,2,317
+consonantal -constr.gl,2,609
+consonantal -continuant,2,178
+consonantal -CORONAL,2,402
+consonantal -delayed.release,2,108
+consonantal -distributed,2,106
+consonantal -DORSAL,2,296
+consonantal -front,2,158
+consonantal -high,2,160
+consonantal -LABIAL,2,422
+consonantal -labiodental,2,575
+consonantal -lateral,2,590
+consonantal -long,2,609
+consonantal -low,2,273
+consonantal -nasal,2,569
+consonantal -round,2,511
+consonantal -sonorant,2,233
+consonantal -spread.gl,2,609
+consonantal -stress,2,609
+consonantal -strident,2,130
+consonantal -syllabic,2,351
+consonantal -tap,2,609
+consonantal -tense,2,118
+consonantal -trill,2,609
+consonantal -voice,2,128
+consonantal #,2,20
+consonantal +anterior,2,120
+consonantal +approximant,2,336
+consonantal +back,2,138
+consonantal +consonantal,2,292
+consonantal +continuant,2,431
+consonantal +CORONAL,2,207
+consonantal +delayed.release,2,125
+consonantal +distributed,2,101
+consonantal +DORSAL,2,313
+consonantal +front,2,120
+consonantal +high,2,153
+consonantal +LABIAL,2,187
+consonantal +labiodental,2,34
+consonantal +lateral,2,19
+consonantal +low,2,40
+consonantal +nasal,2,40
+consonantal +round,2,98
+consonantal +sonorant,2,376
+consonantal +strident,2,77
+consonantal +syllabic,2,258
+consonantal +tense,2,120
+consonantal +voice,2,481
+continuant,1,25
+continuant -anterior,2,117
+continuant -approximant,2,377
+continuant -back,2,147
+continuant -consonantal,2,333
+continuant -constr.gl,2,732
+continuant -continuant,2,233
+continuant -CORONAL,2,452
+continuant -delayed.release,2,132
+continuant -distributed,2,131
+continuant -DORSAL,2,387
+continuant -front,2,163
+continuant -high,2,167
+continuant -LABIAL,2,525
+continuant -labiodental,2,691
+continuant -lateral,2,710
+continuant -long,2,732
+continuant -low,2,304
+continuant -nasal,2,671
+continuant -round,2,632
+continuant -sonorant,2,316
+continuant -spread.gl,2,732
+continuant -stress,2,732
+continuant -strident,2,169
+continuant -syllabic,2,466
+continuant -tap,2,732
+continuant -tense,2,121
+continuant -trill,2,732
+continuant -voice,2,161
+continuant #,2,25
+continuant +anterior,2,163
+continuant +approximant,2,355
+continuant +back,2,142
+continuant +consonantal,2,399
+continuant +continuant,2,499
+continuant +CORONAL,2,280
+continuant +delayed.release,2,184
+continuant +distributed,2,149
+continuant +DORSAL,2,345
+continuant +front,2,126
+continuant +high,2,178
+continuant +LABIAL,2,207
+continuant +labiodental,2,41
+continuant +lateral,2,22
+continuant +low,2,41
+continuant +nasal,2,61
+continuant +round,2,100
+continuant +sonorant,2,416
+continuant +strident,2,111
+continuant +syllabic,2,266
+continuant +tense,2,127
+continuant +voice,2,571
+CORONAL,1,14
+CORONAL -anterior,2,61
+CORONAL -approximant,2,188
+CORONAL -back,2,98
+CORONAL -consonantal,2,222
+CORONAL -constr.gl,2,423
+CORONAL -continuant,2,124
+CORONAL -CORONAL,2,281
+CORONAL -delayed.release,2,74
+CORONAL -distributed,2,70
+CORONAL -DORSAL,2,203
+CORONAL -front,2,111
+CORONAL -high,2,112
+CORONAL -LABIAL,2,293
+CORONAL -labiodental,2,400
+CORONAL -lateral,2,410
+CORONAL -long,2,423
+CORONAL -low,2,192
+CORONAL -nasal,2,394
+CORONAL -round,2,354
+CORONAL -sonorant,2,159
+CORONAL -spread.gl,2,423
+CORONAL -stress,2,423
+CORONAL -strident,2,91
+CORONAL -syllabic,2,242
+CORONAL -tap,2,423
+CORONAL -tense,2,83
+CORONAL -trill,2,423
+CORONAL -voice,2,83
+CORONAL #,2,14
+CORONAL +anterior,2,81
+CORONAL +approximant,2,235
+CORONAL +back,2,97
+CORONAL +consonantal,2,201
+CORONAL +continuant,2,299
+CORONAL +CORONAL,2,142
+CORONAL +delayed.release,2,85
+CORONAL +distributed,2,72
+CORONAL +DORSAL,2,220
+CORONAL +front,2,84
+CORONAL +high,2,108
+CORONAL +LABIAL,2,130
+CORONAL +labiodental,2,23
+CORONAL +lateral,2,13
+CORONAL +low,2,28
+CORONAL +nasal,2,29
+CORONAL +round,2,69
+CORONAL +sonorant,2,264
+CORONAL +strident,2,51
+CORONAL +syllabic,2,181
+CORONAL +tense,2,84
+CORONAL +voice,2,340
+delayed.release,1,10
+delayed.release -anterior,2,35
+delayed.release -approximant,2,111
+delayed.release -back,2,70
+delayed.release -consonantal,2,158
+delayed.release -constr.gl,2,278
+delayed.release -continuant,2,81
+delayed.release -CORONAL,2,195
+delayed.release -delayed.release,2,50
+delayed.release -distributed,2,46
+delayed.release -DORSAL,2,123
+delayed.release -front,2,79
+delayed.release -high,2,80
+delayed.release -LABIAL,2,189
+delayed.release -labiodental,2,264
+delayed.release -lateral,2,269
+delayed.release -long,2,278
+delayed.release -low,2,135
+delayed.release -nasal,2,258
+delayed.release -round,2,229
+delayed.release -sonorant,2,91
+delayed.release -spread.gl,2,278
+delayed.release -stress,2,278
+delayed.release -strident,2,58
+delayed.release -syllabic,2,149
+delayed.release -tap,2,278
+delayed.release -tense,2,59
+delayed.release -trill,2,278
+delayed.release -voice,2,50
+delayed.release #,2,10
+delayed.release +anterior,2,48
+delayed.release +approximant,2,167
+delayed.release +back,2,69
+delayed.release +consonantal,2,120
+delayed.release +continuant,2,197
+delayed.release +CORONAL,2,83
+delayed.release +delayed.release,2,41
+delayed.release +distributed,2,37
+delayed.release +DORSAL,2,155
+delayed.release +front,2,60
+delayed.release +high,2,75
+delayed.release +LABIAL,2,89
+delayed.release +labiodental,2,14
+delayed.release +lateral,2,9
+delayed.release +low,2,20
+delayed.release +nasal,2,20
+delayed.release +round,2,49
+delayed.release +sonorant,2,187
+delayed.release +strident,2,25
+delayed.release +syllabic,2,129
+delayed.release +tense,2,60
+delayed.release +voice,2,228
+distributed,1,8
+distributed -anterior,2,30
+distributed -approximant,2,93
+distributed -back,2,56
+distributed -consonantal,2,126
+distributed -constr.gl,2,226
+distributed -continuant,2,64
+distributed -CORONAL,2,155
+distributed -delayed.release,2,38
+distributed -distributed,2,37
+distributed -DORSAL,2,102
+distributed -front,2,63
+distributed -high,2,64
+distributed -LABIAL,2,156
+distributed -labiodental,2,215
+distributed -lateral,2,219
+distributed -long,2,226
+distributed -low,2,108
+distributed -nasal,2,209
+distributed -round,2,187
+distributed -sonorant,2,76
+distributed -spread.gl,2,226
+distributed -stress,2,226
+distributed -strident,2,48
+distributed -syllabic,2,123
+distributed -tap,2,226
+distributed -tense,2,47
+distributed -trill,2,226
+distributed -voice,2,39
+distributed #,2,8
+distributed +anterior,2,41
+distributed +approximant,2,133
+distributed +back,2,55
+distributed +consonantal,2,100
+distributed +continuant,2,162
+distributed +CORONAL,2,71
+distributed +delayed.release,2,38
+distributed +distributed,2,34
+distributed +DORSAL,2,124
+distributed +front,2,48
+distributed +high,2,60
+distributed +LABIAL,2,70
+distributed +labiodental,2,11
+distributed +lateral,2,7
+distributed +low,2,16
+distributed +nasal,2,17
+distributed +round,2,39
+distributed +sonorant,2,150
+distributed +strident,2,23
+distributed +syllabic,2,103
+distributed +tense,2,48
+distributed +voice,2,187
+DORSAL,1,17
+DORSAL -anterior,2,85
+DORSAL -approximant,2,280
+DORSAL -back,2,91
+DORSAL -consonantal,2,206
+DORSAL -constr.gl,2,501
+DORSAL -continuant,2,165
+DORSAL -CORONAL,2,294
+DORSAL -delayed.release,2,92
+DORSAL -distributed,2,95
+DORSAL -DORSAL,2,283
+DORSAL -front,2,99
+DORSAL -high,2,103
+DORSAL -LABIAL,2,365
+DORSAL -labiodental,2,471
+DORSAL -lateral,2,486
+DORSAL -long,2,501
+DORSAL -low,2,193
+DORSAL -nasal,2,457
+DORSAL -round,2,441
+DORSAL -sonorant,2,236
+DORSAL -spread.gl,2,501
+DORSAL -stress,2,501
+DORSAL -strident,2,120
+DORSAL -syllabic,2,339
+DORSAL -tap,2,501
+DORSAL -tense,2,73
+DORSAL -trill,2,501
+DORSAL -voice,2,120
+DORSAL #,2,17
+DORSAL +anterior,2,122
+DORSAL +approximant,2,221
+DORSAL +back,2,86
+DORSAL +consonantal,2,295
+DORSAL +continuant,2,336
+DORSAL +CORONAL,2,207
+DORSAL +delayed.release,2,144
+DORSAL +distributed,2,112
+DORSAL +DORSAL,2,218
+DORSAL +front,2,78
+DORSAL +high,2,115
+DORSAL +LABIAL,2,136
+DORSAL +labiodental,2,30
+DORSAL +lateral,2,15
+DORSAL +low,2,25
+DORSAL +nasal,2,44
+DORSAL +round,2,60
+DORSAL +sonorant,2,265
+DORSAL +strident,2,87
+DORSAL +syllabic,2,162
+DORSAL +tense,2,79
+DORSAL +voice,2,381
+front,1,6
+front -anterior,2,28
+front -approximant,2,99
+front -back,2,26
+front -consonantal,2,64
+front -constr.gl,2,168
+front -continuant,2,58
+front -CORONAL,2,96
+front -delayed.release,2,32
+front -distributed,2,34
+front -DORSAL,2,97
+front -front,2,35
+front -high,2,33
+front -LABIAL,2,122
+front -labiodental,2,158
+front -lateral,2,163
+front -long,2,168
+front -low,2,63
+front -nasal,2,152
+front -round,2,147
+front -sonorant,2,83
+front -spread.gl,2,168
+front -stress,2,168
+front -strident,2,41
+front -syllabic,2,119
+front -tap,2,168
+front -tense,2,22
+front -trill,2,168
+front -voice,2,41
+front #,2,6
+front +anterior,2,44
+front +approximant,2,69
+front +back,2,30
+front +consonantal,2,104
+front +continuant,2,110
+front +CORONAL,2,72
+front +delayed.release,2,51
+front +distributed,2,38
+front +DORSAL,2,71
+front +front,2,21
+front +high,2,38
+front +LABIAL,2,46
+front +labiodental,2,10
+front +lateral,2,5
+front +low,2,8
+front +nasal,2,16
+front +round,2,21
+front +sonorant,2,85
+front +strident,2,31
+front +syllabic,2,49
+front +tense,2,26
+front +voice,2,127
+high,1,9
+high -anterior,2,39
+high -approximant,2,128
+high -back,2,50
+high -consonantal,2,116
+high -constr.gl,2,251
+high -continuant,2,77
+high -CORONAL,2,154
+high -delayed.release,2,44
+high -distributed,2,47
+high -DORSAL,2,133
+high -front,2,58
+high -high,2,60
+high -LABIAL,2,179
+high -labiodental,2,237
+high -lateral,2,244
+high -long,2,251
+high -low,2,102
+high -nasal,2,231
+high -round,2,215
+high -sonorant,2,108
+high -spread.gl,2,251
+high -stress,2,251
+high -strident,2,58
+high -syllabic,2,156
+high -tap,2,251
+high -tense,2,43
+high -trill,2,251
+high -voice,2,56
+high #,2,9
+high +anterior,2,58
+high +approximant,2,123
+high +back,2,51
+high +consonantal,2,135
+high +continuant,2,174
+high +CORONAL,2,97
+high +delayed.release,2,64
+high +distributed,2,50
+high +DORSAL,2,118
+high +front,2,43
+high +high,2,58
+high +LABIAL,2,72
+high +labiodental,2,14
+high +lateral,2,7
+high +low,2,16
+high +nasal,2,20
+high +round,2,36
+high +sonorant,2,143
+high +strident,2,39
+high +syllabic,2,95
+high +tense,2,42
+high +voice,2,195
+LABIAL,1,10
+LABIAL -anterior,2,47
+LABIAL -approximant,2,152
+LABIAL -back,2,61
+LABIAL -consonantal,2,137
+LABIAL -constr.gl,2,298
+LABIAL -continuant,2,93
+LABIAL -CORONAL,2,184
+LABIAL -delayed.release,2,54
+LABIAL -distributed,2,55
+LABIAL -DORSAL,2,158
+LABIAL -front,2,66
+LABIAL -high,2,67
+LABIAL -LABIAL,2,214
+LABIAL -labiodental,2,281
+LABIAL -lateral,2,289
+LABIAL -long,2,298
+LABIAL -low,2,124
+LABIAL -nasal,2,275
+LABIAL -round,2,258
+LABIAL -sonorant,2,129
+LABIAL -spread.gl,2,298
+LABIAL -stress,2,298
+LABIAL -strident,2,68
+LABIAL -syllabic,2,187
+LABIAL -tap,2,298
+LABIAL -tense,2,53
+LABIAL -trill,2,298
+LABIAL -voice,2,70
+LABIAL #,2,10
+LABIAL +anterior,2,67
+LABIAL +approximant,2,146
+LABIAL +back,2,57
+LABIAL +consonantal,2,161
+LABIAL +continuant,2,205
+LABIAL +CORONAL,2,114
+LABIAL +delayed.release,2,75
+LABIAL +distributed,2,59
+LABIAL +DORSAL,2,140
+LABIAL +front,2,52
+LABIAL +high,2,73
+LABIAL +LABIAL,2,84
+LABIAL +labiodental,2,17
+LABIAL +lateral,2,9
+LABIAL +low,2,16
+LABIAL +nasal,2,23
+LABIAL +round,2,40
+LABIAL +sonorant,2,169
+LABIAL +strident,2,46
+LABIAL +syllabic,2,111
+LABIAL +tense,2,49
+LABIAL +voice,2,228
+labiodental,1,2
+labiodental -anterior,2,8
+labiodental -approximant,2,29
+labiodental -back,2,14
+labiodental -consonantal,2,32
+labiodental -constr.gl,2,63
+labiodental -continuant,2,18
+labiodental -CORONAL,2,41
+labiodental -delayed.release,2,12
+labiodental -distributed,2,12
+labiodental -DORSAL,2,31
+labiodental -front,2,16
+labiodental -high,2,16
+labiodental -LABIAL,2,44
+labiodental -labiodental,2,60
+labiodental -lateral,2,61
+labiodental -long,2,63
+labiodental -low,2,28
+labiodental -nasal,2,59
+labiodental -round,2,53
+labiodental -sonorant,2,25
+labiodental -spread.gl,2,63
+labiodental -stress,2,63
+labiodental -strident,2,14
+labiodental -syllabic,2,37
+labiodental -tap,2,63
+labiodental -tense,2,12
+labiodental -trill,2,63
+labiodental -voice,2,15
+labiodental #,2,2
+labiodental +anterior,2,14
+labiodental +approximant,2,34
+labiodental +back,2,14
+labiodental +consonantal,2,31
+labiodental +continuant,2,45
+labiodental +CORONAL,2,22
+labiodental +delayed.release,2,13
+labiodental +distributed,2,10
+labiodental +DORSAL,2,32
+labiodental +front,2,12
+labiodental +high,2,16
+labiodental +LABIAL,2,19
+labiodental +labiodental,2,3
+labiodental +lateral,2,2
+labiodental +low,2,4
+labiodental +nasal,2,4
+labiodental +round,2,10
+labiodental +sonorant,2,38
+labiodental +strident,2,8
+labiodental +syllabic,2,26
+labiodental +tense,2,12
+labiodental +voice,2,48
+lateral,1,1
+lateral -anterior,2,6
+lateral -approximant,2,18
+lateral -back,2,7
+lateral -consonantal,2,16
+lateral -constr.gl,2,35
+lateral -continuant,2,10
+lateral -CORONAL,2,21
+lateral -delayed.release,2,6
+lateral -distributed,2,6
+lateral -DORSAL,2,19
+lateral -front,2,8
+lateral -high,2,8
+lateral -LABIAL,2,25
+lateral -labiodental,2,33
+lateral -lateral,2,34
+lateral -long,2,35
+lateral -low,2,14
+lateral -nasal,2,33
+lateral -round,2,30
+lateral -sonorant,2,16
+lateral -spread.gl,2,35
+lateral -stress,2,35
+lateral -strident,2,8
+lateral -syllabic,2,22
+lateral -tap,2,35
+lateral -tense,2,6
+lateral -trill,2,35
+lateral -voice,2,8
+lateral #,2,1
+lateral +anterior,2,8
+lateral +approximant,2,17
+lateral +back,2,7
+lateral +consonantal,2,19
+lateral +continuant,2,25
+lateral +CORONAL,2,14
+lateral +delayed.release,2,10
+lateral +distributed,2,8
+lateral +DORSAL,2,16
+lateral +front,2,6
+lateral +high,2,8
+lateral +LABIAL,2,10
+lateral +labiodental,2,2
+lateral +lateral,2,1
+lateral +low,2,2
+lateral +nasal,2,2
+lateral +round,2,5
+lateral +sonorant,2,19
+lateral +strident,2,6
+lateral +syllabic,2,13
+lateral +tense,2,6
+lateral +voice,2,27
+low,1,2
+low -anterior,2,11
+low -approximant,2,38
+low -back,2,7
+low -consonantal,2,19
+low -constr.gl,2,59
+low -continuant,2,22
+low -CORONAL,2,32
+low -delayed.release,2,12
+low -distributed,2,12
+low -DORSAL,2,37
+low -front,2,11
+low -high,2,9
+low -LABIAL,2,43
+low -labiodental,2,55
+low -lateral,2,57
+low -long,2,59
+low -low,2,21
+low -nasal,2,53
+low -round,2,53
+low -sonorant,2,32
+low -spread.gl,2,59
+low -stress,2,59
+low -strident,2,15
+low -syllabic,2,45
+low -tap,2,59
+low -tense,2,7
+low -trill,2,59
+low -voice,2,16
+low #,2,2
+low +anterior,2,16
+low +approximant,2,21
+low +back,2,9
+low +consonantal,2,40
+low +continuant,2,37
+low +CORONAL,2,27
+low +delayed.release,2,20
+low +distributed,2,15
+low +DORSAL,2,22
+low +front,2,5
+low +high,2,13
+low +LABIAL,2,16
+low +labiodental,2,4
+low +lateral,2,2
+low +low,2,1
+low +nasal,2,6
+low +round,2,6
+low +sonorant,2,27
+low +strident,2,12
+low +syllabic,2,14
+low +tense,2,8
+low +voice,2,43
+nasal,1,3
+nasal -anterior,2,16
+nasal -approximant,2,50
+nasal -back,2,21
+nasal -consonantal,2,47
+nasal -constr.gl,2,100
+nasal -continuant,2,30
+nasal -CORONAL,2,62
+nasal -delayed.release,2,18
+nasal -distributed,2,18
+nasal -DORSAL,2,53
+nasal -front,2,23
+nasal -high,2,24
+nasal -LABIAL,2,71
+nasal -labiodental,2,94
+nasal -lateral,2,97
+nasal -long,2,100
+nasal -low,2,41
+nasal -nasal,2,94
+nasal -round,2,86
+nasal -sonorant,2,44
+nasal -spread.gl,2,100
+nasal -stress,2,100
+nasal -strident,2,22
+nasal -syllabic,2,62
+nasal -tap,2,100
+nasal -tense,2,17
+nasal -trill,2,100
+nasal -voice,2,24
+nasal #,2,3
+nasal +anterior,2,22
+nasal +approximant,2,50
+nasal +back,2,20
+nasal +consonantal,2,53
+nasal +continuant,2,70
+nasal +CORONAL,2,38
+nasal +delayed.release,2,26
+nasal +distributed,2,20
+nasal +DORSAL,2,47
+nasal +front,2,18
+nasal +high,2,23
+nasal +LABIAL,2,29
+nasal +labiodental,2,6
+nasal +lateral,2,3
+nasal +low,2,6
+nasal +nasal,2,6
+nasal +round,2,14
+nasal +sonorant,2,56
+nasal +strident,2,16
+nasal +syllabic,2,38
+nasal +tense,2,18
+nasal +voice,2,76
+round,1,5
+round -anterior,2,24
+round -approximant,2,77
+round -back,2,26
+round -consonantal,2,57
+round -constr.gl,2,138
+round -continuant,2,46
+round -CORONAL,2,81
+round -delayed.release,2,25
+round -distributed,2,25
+round -DORSAL,2,78
+round -front,2,26
+round -high,2,27
+round -LABIAL,2,102
+round -labiodental,2,130
+round -lateral,2,134
+round -long,2,138
+round -low,2,54
+round -nasal,2,125
+round -round,2,123
+round -sonorant,2,64
+round -spread.gl,2,138
+round -stress,2,138
+round -strident,2,34
+round -syllabic,2,92
+round -tap,2,138
+round -tense,2,23
+round -trill,2,138
+round -voice,2,32
+round #,2,5
+round +anterior,2,33
+round +approximant,2,61
+round +back,2,22
+round +consonantal,2,81
+round +continuant,2,92
+round +CORONAL,2,57
+round +delayed.release,2,39
+round +distributed,2,32
+round +DORSAL,2,60
+round +front,2,22
+round +high,2,33
+round +LABIAL,2,36
+round +labiodental,2,8
+round +lateral,2,4
+round +low,2,6
+round +nasal,2,13
+round +round,2,15
+round +sonorant,2,74
+round +strident,2,23
+round +syllabic,2,46
+round +tense,2,19
+round +voice,2,106
+sonorant,1,20
+sonorant -anterior,2,104
+sonorant -approximant,2,338
+sonorant -back,2,112
+sonorant -consonantal,2,254
+sonorant -constr.gl,2,610
+sonorant -continuant,2,198
+sonorant -CORONAL,2,359
+sonorant -delayed.release,2,111
+sonorant -distributed,2,113
+sonorant -DORSAL,2,342
+sonorant -front,2,123
+sonorant -high,2,127
+sonorant -LABIAL,2,444
+sonorant -labiodental,2,574
+sonorant -lateral,2,592
+sonorant -long,2,610
+sonorant -low,2,237
+sonorant -nasal,2,559
+sonorant -round,2,535
+sonorant -sonorant,2,287
+sonorant -spread.gl,2,610
+sonorant -stress,2,610
+sonorant -strident,2,145
+sonorant -syllabic,2,409
+sonorant -tap,2,610
+sonorant -tense,2,91
+sonorant -trill,2,610
+sonorant -voice,2,145
+sonorant #,2,20
+sonorant +anterior,2,147
+sonorant +approximant,2,272
+sonorant +back,2,107
+sonorant +consonantal,2,356
+sonorant +continuant,2,412
+sonorant +CORONAL,2,251
+sonorant +delayed.release,2,176
+sonorant +distributed,2,138
+sonorant +DORSAL,2,268
+sonorant +front,2,96
+sonorant +high,2,141
+sonorant +LABIAL,2,166
+sonorant +labiodental,2,36
+sonorant +lateral,2,18
+sonorant +low,2,31
+sonorant +nasal,2,51
+sonorant +round,2,75
+sonorant +sonorant,2,323
+sonorant +strident,2,106
+sonorant +syllabic,2,201
+sonorant +tense,2,97
+sonorant +voice,2,465
+strident,1,6
+strident -anterior,2,20
+strident -approximant,2,64
+strident -back,2,42
+strident -consonantal,2,95
+strident -constr.gl,2,164
+strident -continuant,2,50
+strident -CORONAL,2,119
+strident -delayed.release,2,31
+strident -distributed,2,25
+strident -DORSAL,2,70
+strident -front,2,48
+strident -high,2,48
+strident -LABIAL,2,109
+strident -labiodental,2,155
+strident -lateral,2,159
+strident -long,2,164
+strident -low,2,82
+strident -nasal,2,152
+strident -round,2,134
+strident -sonorant,2,52
+strident -spread.gl,2,164
+strident -stress,2,164
+strident -strident,2,33
+strident -syllabic,2,86
+strident -tap,2,164
+strident -tense,2,36
+strident -trill,2,164
+strident -voice,2,28
+strident #,2,6
+strident +anterior,2,25
+strident +approximant,2,100
+strident +back,2,42
+strident +consonantal,2,69
+strident +continuant,2,114
+strident +CORONAL,2,45
+strident +delayed.release,2,21
+strident +distributed,2,20
+strident +DORSAL,2,94
+strident +front,2,36
+strident +high,2,46
+strident +LABIAL,2,55
+strident +labiodental,2,9
+strident +lateral,2,5
+strident +low,2,12
+strident +nasal,2,12
+strident +round,2,30
+strident +sonorant,2,112
+strident +strident,2,12
+strident +syllabic,2,78
+strident +tense,2,36
+strident +voice,2,136
+syllabic,1,13
+syllabic -anterior,2,73
+syllabic -approximant,2,245
+syllabic -back,2,65
+syllabic -consonantal,2,147
+syllabic -constr.gl,2,405
+syllabic -continuant,2,142
+syllabic -CORONAL,2,228
+syllabic -delayed.release,2,78
+syllabic -distributed,2,78
+syllabic -DORSAL,2,242
+syllabic -front,2,69
+syllabic -high,2,71
+syllabic -LABIAL,2,298
+syllabic -labiodental,2,379
+syllabic -lateral,2,392
+syllabic -long,2,405
+syllabic -low,2,146
+syllabic -nasal,2,367
+syllabic -round,2,363
+syllabic -sonorant,2,207
+syllabic -spread.gl,2,405
+syllabic -stress,2,405
+syllabic -strident,2,100
+syllabic -syllabic,2,294
+syllabic -tap,2,405
+syllabic -tense,2,50
+syllabic -trill,2,405
+syllabic -voice,2,104
+syllabic #,2,13
+syllabic +anterior,2,104
+syllabic +approximant,2,160
+syllabic +back,2,60
+syllabic +consonantal,2,258
+syllabic +continuant,2,263
+syllabic +CORONAL,2,177
+syllabic +delayed.release,2,129
+syllabic +distributed,2,99
+syllabic +DORSAL,2,163
+syllabic +front,2,56
+syllabic +high,2,92
+syllabic +LABIAL,2,107
+syllabic +labiodental,2,26
+syllabic +lateral,2,13
+syllabic +low,2,17
+syllabic +nasal,2,38
+syllabic +round,2,42
+syllabic +sonorant,2,198
+syllabic +strident,2,77
+syllabic +syllabic,2,111
+syllabic +tense,2,58
+syllabic +voice,2,301
+tense,1,6
+tense -anterior,2,27
+tense -approximant,2,82
+tense -back,2,40
+tense -consonantal,2,91
+tense -constr.gl,2,177
+tense -continuant,2,49
+tense -CORONAL,2,113
+tense -delayed.release,2,27
+tense -distributed,2,29
+tense -DORSAL,2,85
+tense -front,2,46
+tense -high,2,48
+tense -LABIAL,2,128
+tense -labiodental,2,169
+tense -lateral,2,173
+tense -long,2,177
+tense -low,2,80
+tense -nasal,2,163
+tense -round,2,149
+tense -sonorant,2,68
+tense -spread.gl,2,177
+tense -stress,2,177
+tense -strident,2,39
+tense -syllabic,2,100
+tense -tap,2,177
+tense -tense,2,35
+tense -trill,2,177
+tense -voice,2,33
+tense #,2,6
+tense +anterior,2,37
+tense +approximant,2,95
+tense +back,2,40
+tense +consonantal,2,86
+tense +continuant,2,128
+tense +CORONAL,2,64
+tense +delayed.release,2,41
+tense +distributed,2,35
+tense +DORSAL,2,92
+tense +front,2,34
+tense +high,2,44
+tense +LABIAL,2,49
+tense +labiodental,2,8
+tense +lateral,2,4
+tense +low,2,12
+tense +nasal,2,14
+tense +round,2,28
+tense +sonorant,2,109
+tense +strident,2,25
+tense +syllabic,2,77
+tense +tense,2,33
+tense +voice,2,144
+voice,1,28
+voice -anterior,2,135
+voice -approximant,2,432
+voice -back,2,168
+voice -consonantal,2,380
+voice -constr.gl,2,837
+voice -continuant,2,259
+voice -CORONAL,2,511
+voice -delayed.release,2,147
+voice -distributed,2,154
+voice -DORSAL,2,447
+voice -front,2,186
+voice -high,2,191
+voice -LABIAL,2,602
+voice -labiodental,2,790
+voice -lateral,2,812
+voice -long,2,837
+voice -low,2,343
+voice -nasal,2,770
+voice -round,2,723
+voice -sonorant,2,365
+voice -spread.gl,2,837
+voice -stress,2,837
+voice -strident,2,192
+voice -syllabic,2,533
+voice -tap,2,837
+voice -tense,2,138
+voice -trill,2,837
+voice -voice,2,189
+voice #,2,28
+voice +anterior,2,191
+voice +approximant,2,405
+voice +back,2,162
+voice +consonantal,2,457
+voice +continuant,2,578
+voice +CORONAL,2,326
+voice +delayed.release,2,218
+voice +distributed,2,172
+voice +DORSAL,2,390
+voice +front,2,144
+voice +high,2,199
+voice +LABIAL,2,235
+voice +labiodental,2,47
+voice +lateral,2,25
+voice +low,2,47
+voice +nasal,2,67
+voice +round,2,114
+voice +sonorant,2,472
+voice +strident,2,134
+voice +syllabic,2,304
+voice +tense,2,145
+voice +voice,2,648
NA,1,5
NA,2,310
