s s
p t
t t
b d
z z
p t
d d
b b
s f
f s
s f
b d
t p
f f
f s
t p
f f
d b
t p
v v
s f
d b
f s
b b
d d
t p
z z
p p
p p
s f
b b
t p
p p
t t
v v
z z
d d
f f
f s
s s
t p
t t
b b
f s
t t
d d
f f
d b
f f
f s
t t
v v
t t
b b
d b
s s
p p
f f
d d
t t
b d
z z
z z
f s
s f
s s
b d
p t
b d
p p
p p
d d
v v
b d
s s
p p
t p
p t
p t
p t
f s
t t
d b
b b
d b
z z
b d
s s
t t
d d
s s
p p
t p
s f
z z
p t
z z
b d
f s
t p
s s
p p
t t
t t
f f
s s
b b
z z
d d
z z
p p
b d
z z
f f
f s
b d
t p
f s
d d
t p
b d
p p
b d
d b
d b
d d
d d
f f
z z
s s
z z
d b
p p
p p
b d
f f
p t
f f
s f
p t
b b
p t
v v
z z
b d
d d
s f
f s
t p
t p
t t
d b
v v
t p
s s
s s
f s
p t
t t
t p
b d
t p
z z
v v
s f
t t
d b
b b
f s
t t
z z
p p
t t
d d
f s
f f
t p
f s
d d
s f
s f
b b
t t
b b
p p
t p
b d
f s
b b
f s
s s
s f
p p
p t
t t
p t
v v
s s
d b
p t
