f s
f f
z z
s f
f f
b b
s f
p p
v z
z v
d b
b d
v v
s s
v z
s s
f f
d d
z v
v v
v v
d d
z z
z v
d b
z z
p p
b d
s f
b b
z v
f f
s s
z z
z z
z v
b d
d b
v z
p p
f f
z v
z v
s s
d d
d d
s f
v z
v v
v v
d b
b b
z z
z z
f f
d b
v z
v v
v z
p p
b d
p p
f s
b b
v z
p p
b b
s s
s f
z v
v v
t t
f s
b d
p p
f s
s f
f s
f s
z v
d d
b b
b d
v v
b d
f f
s f
t t
d b
d d
z z
t t
d b
t t
p p
b d
v z
f s
t t
t t
z z
s f
b b
v v
s s
v z
s s
d b
b d
p p
d d
t t
d d
z z
s f
z v
t t
d b
v v
s s
d d
p p
p p
z v
d d
t t
f f
d d
v z
d b
b d
t t
z z
f f
p p
v v
z v
v z
d b
f f
d d
f s
f f
z v
f f
b b
v z
s s
z v
b b
v v
z v
f s
z v
f f
v z
v v
t t
d b
z z
b d
v v
f s
f f
z z
v z
s f
z z
b b
v z
b d
p p
d b
v v
z z
b b
f s
z z
d b
s s
v v
z v
s f
f s
t t
p p
p p
b d
f s
b d
b b
b d
s f
p p
s f
z v
s f
v z
f s
b d
