s s
b d
f s
s f
d d
t t
b b
v v
t t
b d
t t
b d
b d
z v
d b
b b
t t
b b
z v
f f
v z
s f
v v
s s
z v
d b
v v
f s
z z
b b
s f
p p
s f
v z
z v
f f
s f
f f
p p
b b
s f
s f
v v
p p
s s
z v
s s
z z
v v
f s
z z
d b
f f
z z
d d
d d
b d
s s
v z
z z
v z
d d
s s
d b
t t
v z
f s
v z
d d
s s
p p
z v
b d
s f
f s
d b
f s
f f
z z
b d
b b
b d
z v
f s
v v
t t
z v
v z
p p
b b
t t
z z
v z
t t
f f
b b
f f
z z
v v
t t
f s
b d
t t
f s
d b
s f
d d
z v
t t
z z
t t
b b
b b
f s
v z
v v
s f
z z
t t
t t
z z
d d
f s
s s
v z
s s
s f
f f
v v
f f
d d
f f
f s
v z
v v
z v
v z
p p
f f
b d
s f
z z
v z
f f
b b
t t
s f
t t
z z
s s
z v
f s
f f
p p
v z
b b
z v
s f
v v
d b
s s
v z
d b
v z
d d
z z
d d
b d
t t
b d
b d
s s
b b
z v
b d
d b
z v
s f
b d
v v
s s
d b
t t
p p
b b
f f
s s
v v
z v
s f
z v
z z
f s
p p
z z
b b
v v
b d
b b
p p
