d b
b d
b b
p t
v z
b b
z v
t t
p p
p p
p t
d d
z z
d b
d d
d d
s s
z z
b d
f f
d b
f f
p t
s s
v v
p t
z v
z v
d b
d d
b d
t p
z v
t t
v z
s s
t t
t p
b b
t p
p p
v v
t p
f f
t p
d d
p t
z v
v v
v v
t t
v z
b d
f f
t t
p t
t t
b b
v z
d d
d b
p p
v v
s s
p t
t t
v v
f f
d b
z z
p p
b b
f f
f f
b b
p t
t p
t t
v z
z v
v v
b d
p p
p p
v z
d b
v z
f f
z z
d b
z z
v v
z z
s s
b d
b b
p p
p t
b d
t p
b b
d b
t p
d b
d b
b b
v v
p p
z v
p p
t t
t t
v z
t t
t p
b b
f f
z z
v v
f f
p p
v v
p t
z v
z v
d b
s s
b d
z z
t p
p t
v z
f f
v z
s s
d d
p p
b b
d b
b d
p p
z z
v v
s s
b b
d d
b b
p t
d d
d d
b d
d d
b d
p t
p t
p p
d b
z z
v v
d b
p t
s s
b d
t p
t p
t p
d b
t t
z v
b b
t t
t t
t p
f f
v z
v z
p p
v v
z v
z v
s s
f f
t t
z z
f f
v v
p p
b d
f f
v z
p t
z z
t t
b d
p t
v v
f f
d d
p t
v z
