z v
t p
t t
p t
b b
t t
b b
v z
d d
d b
v z
z z
t t
d b
d d
v v
d b
t p
t p
z z
d b
v v
z z
f f
p p
p t
p t
v v
z z
v v
b d
t p
p p
p p
p t
b d
b d
d d
z v
z z
d d
p p
b d
z v
t t
v v
f f
z v
d d
b b
p p
s s
v z
s s
d d
v v
b d
v z
b d
t p
z v
b b
p p
d b
d b
b b
s s
s s
v v
p t
t p
v z
v z
s s
b b
b d
t t
d b
p t
v v
f f
b b
p t
z z
z z
t p
f f
f f
z z
t p
p t
b b
t p
p p
d d
d d
s s
b d
t t
v z
f f
b d
p t
t p
b b
f f
b d
t p
p t
t t
b d
t p
v v
d b
v z
d d
s s
p p
t p
p p
d b
d d
p t
v v
t t
s s
b b
p p
s s
v v
b b
t p
f f
z v
v z
b b
s s
v z
t p
b d
z z
v z
v v
p p
t p
z z
b d
b d
s s
t p
t t
b b
p t
d d
p p
b b
p t
z z
z z
b d
v v
d b
z z
v v
d d
d b
v v
d d
d b
f f
t t
v z
v z
d d
f f
t p
z v
z v
z z
d d
b d
s s
t t
z z
t t
v v
d b
b b
b b
z v
p p
d d
p t
z z
z v
p p
p t
p t
d b
v z
