v z
v z
t t
d d
f s
p t
z v
d d
p p
t t
p t
f s
v v
z z
s f
t p
t t
z v
f s
p p
z v
v z
s f
z z
s f
v z
f f
d d
s s
s s
t t
p p
t t
b b
b b
v z
b b
s f
f f
f s
v z
z v
f s
t p
p p
t p
d d
p t
t p
b b
z v
d d
f f
s s
s f
p p
t t
f s
z z
t t
v v
f f
d d
v v
s s
p t
s s
p p
z z
z v
s f
v v
f f
z z
f s
s f
t p
t p
p t
v v
z v
b b
z z
v z
p p
f f
t t
p p
s s
b b
s s
v z
z v
b b
f f
v z
z v
v v
s f
t p
t t
f f
z z
v z
s s
t t
t t
d d
s f
v z
v z
v z
t p
v z
t p
z v
z v
v v
z z
v z
p p
s f
s f
v v
d d
b b
z v
v v
t p
t t
p t
z v
v z
s s
p t
f f
s s
f s
s f
d d
p p
d d
z z
f f
t t
z z
f s
v v
f f
p t
t t
t p
z v
t p
f s
v v
t t
z z
v v
s s
s f
v z
f s
b b
s s
p p
f s
p t
f f
p p
p p
f f
f s
s f
v z
t p
s f
d d
d d
z z
t p
z v
b b
b b
p p
s s
z v
f s
b b
z v
s s
t t
s f
z v
p t
f f
p p
p p
b b
b b
