z z
z z
t t
v z
b b
z v
p p
z v
d d
f f
z v
v z
t t
p t
f f
b b
d d
v v
z z
p t
v z
p t
f f
t t
d d
d d
v v
v z
d b
s s
b b
t t
p t
b d
b d
d b
t p
s s
v v
t t
s s
z z
v z
z v
p t
d b
v v
s s
z v
z z
p t
t p
t p
v z
f f
p p
f f
p p
t p
p p
v v
v v
t t
t p
s s
z z
z z
f f
v z
t p
d b
b d
d d
t t
p t
b b
d b
p t
p t
z v
b b
t t
b b
p p
t p
f f
v z
d d
d d
p p
f f
p p
d b
s s
b d
s s
v v
z v
p p
f f
t t
b b
z v
p p
p p
v v
z z
v z
z v
p t
b b
d b
t t
t t
p p
z z
t t
z z
d d
t p
s s
p t
d d
t t
p t
s s
v z
t p
p p
t p
s s
f f
v v
d d
v z
t p
z v
t p
p t
v z
t p
v z
z v
t p
v v
b d
d d
f f
s s
p t
s s
d b
v z
b d
z z
d d
s s
p p
p t
b b
p t
v z
v v
f f
v v
p p
f f
b b
f f
d b
f f
f f
p t
b b
b d
p p
b b
z z
d d
z v
d b
t t
f f
z v
d d
b d
s s
z z
d b
v z
f f
z v
d b
v v
p t
t t
p p
z z
v v
t t
