d d
p p
s s
d d
t t
d d
f f
d d
z z
b b
b b
v v
t p
s s
t t
b d
t t
d b
d b
f f
b d
f s
s f
f f
t p
f s
v v
v v
s f
z z
f s
f f
d b
t p
b b
b d
t p
s f
t t
t t
t t
d b
z z
f s
s s
d d
f f
v v
z z
p t
s s
p p
b b
p p
p p
p t
b b
t p
d d
s f
f f
p p
f f
f f
f s
s s
b b
f f
t t
v v
d b
f s
d d
d b
b d
b d
s s
p t
b b
s s
b d
p p
t p
b b
p p
s f
v v
p t
d b
s f
v v
t t
f s
t p
p t
s f
p p
z z
b d
d d
t p
v v
f f
t p
b d
p p
f f
f f
b b
t t
d b
d d
b b
b b
p p
f s
d b
s f
s f
d d
b b
t p
v v
s s
f s
s s
v v
s s
v v
p t
d d
f s
b d
s s
d b
d b
z z
t t
v v
z z
d d
f f
d d
f f
d b
t t
f s
f f
f s
b d
p t
t t
t t
p p
p t
d b
b b
f f
v v
f f
z z
f s
p p
d d
t p
s f
t t
d b
t t
p p
p p
p p
d d
t p
t t
b b
b b
f f
b d
t p
s s
d d
s f
s s
s f
p t
p p
s f
b d
v v
b b
s s
b d
t p
p t
z z
b d
f s
z z
s f
